id	username	text	datetime
1159977932258971649	raafaelrabelo	Esse aí é campeão do 2x2 da razer com o saudoso mendola.. joga muuito	09/08/2019, 21:01:05
1159977963481436162	lautaromartinxz	inclusive razer va se foder	09/08/2019, 21:01:12
1159980833442283522	otavioafc	e a Razer fazendo merda.... mano q loucura	09/08/2019, 21:12:36
1159981016292974595	fe16lipinho	Complicado né, uma empresa como a Razer se dizer tão profissional e ter um posicionamento machista por causa que a Mina falou o que ela tava pensando É Razer... 	09/08/2019, 21:13:20
1159982210650447873	fe16lipinho	Na verdade é que todo mundo pode falar merda até o talo mas quando é uma mina que tá sofrendo assédio e tal, a Razer faz ouvido de mercador	09/08/2019, 21:18:05
1159982650947440641	jessiepaesg	machista por dizer q homem só fala merda hshfhhjfke razer corre aqui contrata esse cara	09/08/2019, 21:19:50
1159983053537796096	bogoww	com 816 reais tu compra um blackwindow da razer	09/08/2019, 21:21:26
1159984391122247680	bjdaglai	a gente na mesa da marca que respeita mulheres e não é cuzona e despreparada que bem vocês né Razer	09/08/2019, 21:26:44
1159989509502709761	LuucasSpike	perto da razer	09/08/2019, 21:47:05
1159990982206734338	nandawnr	razer nunca mais! lixos	09/08/2019, 21:52:56
1159991840059396096	ZurjjMedia	Razer Naga.	09/08/2019, 21:56:20
1159996012611743744	JuniuhCosta	eu só queria um fone da Razer... 	09/08/2019, 22:12:55
1159997861578387456	luizeu87	Bem longe da Razer e não silenciando uma mina	09/08/2019, 22:20:16
1159999272294780928	P1stolei	Com qualquer um que não tivesse usando razer	09/08/2019, 22:25:52
1160004214803914753	poderosooh_thor	Razer, isso se tiver dinheiro. É uns 22k reais. Nos EUA são 2k dolares	09/08/2019, 22:45:31
1160004491732824066	ughalaaska	a razer achando q a poeira já abaixou querendo entrosar kk coitadah	09/08/2019, 22:46:37
1160006093730459650	DreanInsano	Razer deve estar só a felicidade vendo a ajuda de vocês com o marketing 	09/08/2019, 22:52:59
1160006372139962370	Bu_dega	razer me da coisa adoro vocês	09/08/2019, 22:54:05
1160006566801760257	weslindinho	Essa ai não foi a que xingou todo mundo e pagou de alguma coisa da razer?	09/08/2019, 22:54:52
1160007406350458880	tulio_wang	Não obrigado, pois costumo sentar em mesas que NINGUÉM use produtos RAZER! 	09/08/2019, 22:58:12
1160008403948855298	Rhetardada	ah eu quero o carro da razer :(	09/08/2019, 23:02:10
1160009595735220229	felixel_br	Poh mano vcs são chato hein deuxa a razer em paz	09/08/2019, 23:06:54
1160012339447500800	Garuma18	Razer é uma vergonha, além dos produtos deles serem uma merda. Tu paga caro por luzinha, que patético	09/08/2019, 23:17:48
1160012446016462855	ttdocg	A galera comendo o cU da razer KKKKKKKKKKKKKKK pois muito que bem 	09/08/2019, 23:18:13
1160015322377793536	sh1ny_gUy	o de verdade razer me decepcionou a niveis colossais	09/08/2019, 23:29:39
1160015560110989312	Beouve1	Não, no caso, se uma empresa como a Razer perdeu tempo com uma streamer tóxica como Cattuzzo, acho que poderia investir em melhores. Em relação a paciente, existe algo chamado transferência, que seria a paciente projetar no psicólogo aquilo que a incomoda e daí começa a terapia.	09/08/2019, 23:30:36
1160016234819346437	rodineismo	Razer não fez nada de errado. Uma boa noite à todos	09/08/2019, 23:33:17
1160017193922437121	rodineismo	Pze, mas em literalmente todos os posts da razer tem um monte de put4 falando bosta	09/08/2019, 23:37:05
1160018258784849925	falco_olivia	@nicolletwd olha esses comentários maravilhosos massacrando a razer kkkkkkkkk vc tá precisando de um fone novo, priminha	09/08/2019, 23:41:19
1160020928480370688	GGuedess_	Só falta o blackwidow pra eu terminar meu setup razer 	09/08/2019, 23:51:56
1160023537047998464	natusvincire_ff	kkkkk! Os cara reclama da marca pq tirou o patrocínio da menina mas não dão unfollow, só aumenta o hype da razer zzzz	10/08/2019, 00:02:18
1160024898116444160	idcassh	O preconceito contra a Razer é real e não tem que ser combatido	10/08/2019, 00:07:42
1160025081340411906	RobbieOfRivia	Pubg is dead asf	10/08/2019, 00:08:26
1160027239121129472	Tyler78081373	PUBG	10/08/2019, 00:17:00
1160028422648848384	BrokenNantes	é lindo como a razer tá sendo atacada por demitir a mina q reclamou de assédio 	10/08/2019, 00:21:42
1160036397442641920	mayuringa	HAHAHAHAHAHGAGAGQGQ VOU BAICOTAR A RAZER HAHAHAH SOU FEMINISTO ME DESCULPA POR SER HOMEM JAJAHHAHAHAHAHAHA 	10/08/2019, 00:53:24
1160038042821959681	leojones8675	PUBG	10/08/2019, 00:59:56
1160048580402536449	asuramec	Muito bom entrar nos comentários dos tweets da razer e ver que ngm esqueceu o que eles fizeram com aquela menina	10/08/2019, 01:41:48
1160051021546237953	lukas_brabo	Um homem falou merda pra streamer e a streamer chamou todos homens de lixo (homens que não tinham nada a ver)e a razer (patrocinadora dela) cortou contrato com ela	10/08/2019, 01:51:30
1160054234471129089	Gregzadaaa	Falam que queria ficar longe deles mas se a razer quiser patrocinar algum deles até o cu deles abre sorriso 	10/08/2019, 02:04:16
1160055771335409664	lostinjoonie	não com você razer	10/08/2019, 02:10:23
1160069666343178240	BePlaisant	Blz agora existe carro da razer	10/08/2019, 03:05:36
1160083656981078023	7quit_	Razer Viper	10/08/2019, 04:01:11
1160084016273481728	Nslay_512	Razer	10/08/2019, 04:02:37
1160092853474856960	jholeanaa	"queria ser q nem meu irmao q virou e falou ""vou pintar meu quarto de verde e preto pq eu comprei o kit da razer e quero tudo combinando"""	10/08/2019, 04:37:44
1160102414201974784	JasperKentZ	Razer!! https://www.facebook.com/100000156176184/posts/2860230083992169/	10/08/2019, 05:15:43
1160128499128197120	zezinhomiguel85	Fds acabei de razer um solo are a fiquei em 4 com 4 kils q merda	10/08/2019, 06:59:22
1160133078423154689	xCenizaa	no razer viper	10/08/2019, 07:17:34
1160145149483028481	zRquX	5:35 RAZER	10/08/2019, 08:05:32
1160151428410855426	_RodMedrado	Demais!! Continuem sempre assim 	10/08/2019, 08:30:29
1160155409300250624	CausePotter	Muito bom ver que o boicote à razer é real	10/08/2019, 08:46:18
1160159691747577858	SalesiJoao	Eu sentaria Na mesa com os produtos da @RazerBrazil todos eles são ótimos e N ligo por causa da polêmica todo mundo erra não adianta rapaziada cair em cima tenho ctz que muitos que tão escrevendo bosta tem algo da razer	10/08/2019, 09:03:19
1160160148158963713	Yasei_kemo	RAZER VIPER #Razer #RazerViper	10/08/2019, 09:05:08
1160161531801329666	AkumaGrimoire	Razer bro	10/08/2019, 09:10:38
1160162259231887361	Roa_teatea_B5	Razer	10/08/2019, 09:13:32
1160162472910893058	FKFlaviusking	Rest is done We r back on full force. O descanso do bravo terminou. Division 2 e uma Surpresa este fim de semana http://Twitch.tv/fkflaviuskings @GTZBulls @Razer #RazerStreamer #RoyaleStreamers #PS4live #ps4share #PS4 #streamaid @SupStreamers @SGH_RTs @supstreamersrt @DNRRTs	10/08/2019, 09:14:22
1160164378710282240	Darbson_	Pessoal chato do crlh, eu sentaria na do WoWzin, foi mal guys mas a Razer tem os melhores produtos é isso ai vlw flw é nós, amo a Gabi, mas nem por isso vou deixar de usar esses produtos maravilhosos	10/08/2019, 09:21:57
1160170153637818368	AceOfFroot	Mood. aparelhos da Razer são tudo lixo mesmo	10/08/2019, 09:44:54
1160170673962201088	euvimilena	se eu fosse a razer eu já tinha deletado o tweet sobre com quem vc sentaria na hora do recreio	10/08/2019, 09:46:58
1160171911617421312	a10pilot_	Olha, eu acho que se não vai de razer, vai de hyperX/logitech. #pas	10/08/2019, 09:51:53
1160173520242073601	a10pilot_	A razer só deu a posição final bro, a marca foi pressionada pra crlh, e a guria tbm fez merda, c ja viu as lives antigas dela? Teve um maluco que perguntou o gravador que ela usava pra fzr live e ela mandou tomar no cu, mas é a vida	10/08/2019, 09:58:16
1160173682754564096	dinizxi	Uma pergunta para as mulheres, porque vocês seguem a Razer se não gostam dela? kkkk	10/08/2019, 09:58:55
1160175249998209024	Bejita_densetsu	Razer megalodon	10/08/2019, 10:05:09
1160176016221978625	guilhermekato	Cara, já tentei um da razer e o revolver da hyperx. Headset pra vr (no caso, Htc Vive) não vale à pena. O negócio é fone de ouvido.	10/08/2019, 10:08:11
1160178670780256257	pterparkexrr	boicotar a razer é fácil, nunca vou ter dinheiro para os produtos deles dudnsns	10/08/2019, 10:18:44
1160180926409842688	nelson_1jr	pior que funciona!!! teve o cara de esquerda que batia na namorada, saiu e depois voltou de boa, a mina da razer e mais um monte aí! 	10/08/2019, 10:27:42
1160187135665868800	_deusadovinho	Não com a razer kakakakaka	10/08/2019, 10:52:23
1160193327322554368	onetrickjinx	O da razer é mais bonito 	10/08/2019, 11:16:59
1160198606110044160	vinao_sep	Eu trampo de headset da razer tbm	10/08/2019, 11:37:57
1160201233661140992	avxnkiszer	on tabasse pas tous nos souris (RIP ma razer)	10/08/2019, 11:48:24
1160202159364935680	KauanNaVoz	"independente da pressão sofrida, a decisão final foi uma péssima escolha que só mostrou o quanto só ligam pra dinheiro e não para a razão; A marca sofreu uma ""pressão"" porque a parte sem cérebro da comunidade gamer decidiu hatear, e a razer simplesmente aceitou, oque é errado."	10/08/2019, 11:52:04
1160203142987956226	wespectation	q punisse os homens tbm até pq a razer precisava ver o lado dela tbm né...	10/08/2019, 11:55:59
1160207348549509121	gustazy1	ai razer vem cá que a gente joga junto mas ensino a espalha igualdade e respeito pra pessoas nos joguinho	10/08/2019, 12:12:42
1160208506479403008	JaspaayT	razer mamba elite	10/08/2019, 12:17:18
1160214481689030659	clarriiinha	Poxa eu loca pra comprar o headset branquinho da razer e meu irmão n dx	10/08/2019, 12:41:02
1160214501049982976	ddattebayoo	se o frete do eua não fosse um absurdo de caro ia comprar um fone da razer	10/08/2019, 12:41:07
1160215461830619143	Walker_Santos	Dia de limpeza e organização de uma parte dos brinquedos. #godofwar #assassinscreed #razer #logitech #g27 #Marvel #PlayStation #wjsgamers #xbox #starwars #instagaming #instafun #instawin #gaming #win #gamers… https://www.instagram.com/p/B0_SxMenyF0/?igshid=1azhpw89bi20g	10/08/2019, 12:44:56
1160217215867793408	eduradopera	Carai ainda bem que eu não me posiciono basicamente em nada e se eu me posiciono falo só pra minha namorada Exemplo: Aquela mina lá que reclamou de assedio e a Razer cancelou o contrato Se voce fica do lado de um você é escravoceta e do outro homem lixo Prefiro ficar na minha	10/08/2019, 12:51:54
1160219611549306880	AdeiltonFlh	Todo mundo com ainda com raiva da Razer por ter tirado o patrocínio da mina lá que eu esqueçi o nome... A internet é maravilhosa	10/08/2019, 13:01:25
1160220159229014016	gbraz99	Acho que os da razer não da pra fazer isso	10/08/2019, 13:03:36
1160221574378741760	mrstrangy	o twitter da razer recebendo hate eu amoo	10/08/2019, 13:09:13
1160225440579170304	Vsflopes	Na mesa do diretor (Razer)	10/08/2019, 13:24:35
1160228516404879362	ThiagoY4m4	Sai fora Razer 	10/08/2019, 13:36:48
1160229053862993920	Graal313	Comprei um kit razer pela internet tem 1 coisa boa e 1 ruim, a boa e que era meu sonho de infância ter um kit bom a ruim e que sou ancioso e n aguento esperar chegar !	10/08/2019, 13:38:57
1160230696906108930	TheKIMerda	Já que ta todo mundo odiando a Razer, pode me patrocinar aí, mesmo que tirem meu patrocínio por alguma merda, um fonizinho top já ta valendo 	10/08/2019, 13:45:28
1160233954412285952	mvttzx	A Razer tem um desses, mas acho que se eu for comprar outro fone, vai ser um da HyperX mesmo	10/08/2019, 13:58:25
1160234352724205568	RazerBrazil	Mais Superfície. Mais Vitórias. O Razer Gigantus Team Razer Edition chegou para ficar. Veja mais: http://rzr.to/Gigantus-BR	10/08/2019, 14:00:00
1160237698931679233	Satoshi_Saatou	Filha da puta, HsuhFHFJASFK. Isso explica muita coisa sobre muita marca por ai (Aka: Razer) 	10/08/2019, 14:13:18
1160244536402227200	AlmondegaMutant	Privada da Razer	10/08/2019, 14:40:28
1160245281289580544	sarapernicas	Mendigato Bigodinho #InternationalCatsDay @razer @RazerBrazil	10/08/2019, 14:43:26
1160251636180226050	iannottxr	Razer	10/08/2019, 15:08:41
1160253763539656707	asalpdi	Faço anos dia 30 deste mês @Razer @RazerBrazil	10/08/2019, 15:17:08
1160253857190109185	asalpdi	ficava mesmo bem com a minha mesa branca e a caixa branca também	10/08/2019, 15:17:30
1160257443491930120	calangode9rabos	razer cade critical ops?	10/08/2019, 15:31:45
1160259551981121538	igorising	Razer vc é o lixo do mundo entenda isso	10/08/2019, 15:40:08
1160261838619205632	pepyog	capitalismo ganhou glr, vou comprar um fone da razer	10/08/2019, 15:49:13
1160262448559136773	FabianoEbarreto	Parabéns Razer, sempre gostei dos seus produtos principalmente do mouse Naga para jogar meu @Warcraft de todos os dias.	10/08/2019, 15:51:39
1160264243381440513	rddoisgo_12	@RazerBrazil &amp; @gabicattuzzo Gabi: homens são lixo Razer: aé! Repete! Gabi: é pegadinha garai hardware mermao	10/08/2019, 15:58:46
1160266857485672448	TsO95630298	niceee, agr só tem q para de set team razer, zuera kkkkk	10/08/2019, 16:09:10
1160269448986730496	eduarrdinha	boicote a razer	10/08/2019, 16:19:28
1160271185202098176	brown_cfm	A Razer não disse exatamente pelo que ela foi demitida, só disse que não queria a imagem da marca associada a ela, ai a comunidade que ta se dividindo entre pessoas que acham q foi porquê ela disse que homens são lixo e gente que acha que foi pela denúncia de assédio	10/08/2019, 16:26:22
1160271653030572032	giusn	@igurmi olha o tweet que teria tudo pra eu compartilhar, se não fosse da marca que apoia misoginia e assédio nos jogos	10/08/2019, 16:28:13
1160275075729362944	viadoazul	https://twitter.com/PablitoZ7/status/1160214488626454529?s=19 A razer estava errada, a mulher tava errada, o home tava errado. No pensamento de vocês é mais fácil dizer que ambos os lados estão errados do quê admitir de uma só vez que apenas um lado está errado	10/08/2019, 16:41:49
1160276164885323776	ElSquirtleGG	De donde saque los razer dva	10/08/2019, 16:46:09
1160284550121107462	kaafkaa_	Foda que ela é linda e eu apenas : mlk com respirador da Razer 	10/08/2019, 17:19:28
1160287972425494528	leakpt	Análise Razer DeathAdder Elite: Um excelente rato a um bom preço http://dlvr.it/RB1hNZ	10/08/2019, 17:33:04
1160294838417416197	diegodeoujda	pas razer frerot	10/08/2019, 18:00:21
1160295594830770176	viadoazul	"vamo analisar o caso a ""treta"" começou quando um homem assediou uma mulher, a mulher tentou se defender do assediador generalizando que homens (machistas) são lixo, como ela tinha patrocínio da razer os homens com masculinidade frágil começou a boicotar os produtos razer [...]"	10/08/2019, 18:03:21
1160295915959271425	viadoazul	e a razer se pronunciou sobre o caso, que ao invés de dizer que a mulher estava certa em se defender ela disse que ela estava errada ao se defender, dizendo que não admitia preconceito na sua empresa e que ela perderia o patrocínio. quem ta errado	10/08/2019, 18:04:38
1160296859673464832	KiraYoshikageBD	5% respondendo a pergunta 15% sabem oq aconteceu e msm assim apoiam ela 80% reclamando da Razer quando sequer foram a fundo ver oq a mina fez jkkkk 	10/08/2019, 18:08:23
1160297574303240192	xTurboo_	Mira los de razer	10/08/2019, 18:11:13
1160298016961683456	Beaat37	acreditem se quiser, a unica coisa que eu utilizei até hoje foi macro do razer synapse em off, de resto mais nada, e NUNCA em videos, preferia ficar sem postar video do que ter que injetar alguma coisa pra conseguir gravar, ao contrario de muitos	10/08/2019, 18:12:59
1160304930550362112	gotahcs	ok o meu papi está de férias em portugal, e tenho para já os fones da @Razer dele, para já estou safo, de qualquer forma vou continuar para juntar o mais rápido possível para o micro, hoje à noite streamo! 	10/08/2019, 18:40:27
1160309702267420673	LounaDragon	Razer mamba	10/08/2019, 18:59:25
1160310406059048960	giuzzeppe_VBec	Comeu o cu da razer 	10/08/2019, 19:02:12
1160312407882981376	ALLTECH5	Com switches ópticos, Razer Viper chega ao mercado em setembro https://www.tecmundo.com.br/cultura-geek/144815-switches-opticos-razer-viper-chega-mercado-setembro.htm	10/08/2019, 19:10:10
1160312866005819392	CaraPokemon	"""o cara estava claramente brincando"" tendi :v Igual os outros q começaram a mandar um kit de cozinha com a logo da razer, óbvio q n era machismo sou besta mesmo :v"	10/08/2019, 19:11:59
1160313117001375746	william_vigel	trabalhar. comprar mouse da razer nao é facil.	10/08/2019, 19:12:59
1160313727050289154	FalaGuarulhos	Com switches ópticos, Razer Viper chega ao mercado em setembro https://falaguarulhos.com.br/news/com-switches-opticos-razer-viper-chega-ao-mercado-em-setembro/	10/08/2019, 19:15:24
1160314490937905152	youkonamikaze	joão estava com uma pulseira da razer, putz que decepção... eu até ia zoar ele, mas n tive coragem	10/08/2019, 19:18:26
1160315144330780673	epopeiaorg	Com switches ópticos, Razer Viper chega ao mercado em setembro 	10/08/2019, 19:21:02
1160316011771506688	nii_els	Qualquer um que não utilize Razer	10/08/2019, 19:24:29
1160320521034244096	notivagos	Com switches ópticos, Razer Viper chega ao mercado em setembro Ampliando o seu portfólio de produtos em território nacional, a Razer anunciou o lançamento do Razer Viper, mouse feito em colaboração com profissionais de e-Sports e que traz novos switches… https://ift.tt/2KCoJYC	10/08/2019, 19:42:24
1160324623499743233	ranchooper	Es correcto mi razer! 	10/08/2019, 19:58:42
1160324714335821824	jaajdrielle	Tava eu e meu irmão conversando sobre o bagulho lá da Razer ter tirado o patrocínio da menina e tals, aí meu pai pediu para eu explicar para ele, eu expliquei e qdo eu falei que ela postou homem é lixo e os caras se doeram, meu pai falou +	10/08/2019, 19:59:04
1160326708626710529	JuniorHanemann	Sorte que não é patrocinada pela Razer se não já ia boicotar	10/08/2019, 20:06:59
1160330074262048768	BicalhoJordan	To vendendo um computador i5 ultima geração, gtx 1060 ti 6gb, 16gb de memoria, 1tb de hd, por 5 mil reais To vendendo tmb um razer deathadder chroma por 250 reais Logitech g810 por 500 reais	10/08/2019, 20:20:22
1160332629796950017	T5V1R3	Mulher: Fala que tá montada nos homi Homem: monta em mim Mulher: A, ASSEDIO, HOMENS DE MERDA, PIPIPIPOPOPO Homens: Ô Razer, olha o que tua embaixadora tá fazendo aqui Razer: Ela nunca foi nossa embaixadora, ah, e está demitida Mulheres e Gados: RAZER LIXO, MIMIMI	10/08/2019, 20:30:31
1160332925092728834	rukesz	Detona mais a Razer galera, é mto bom ver isso	10/08/2019, 20:31:41
