id	username	text	datetime
1119033707346780166	Staz_54	eis que vc vai assistir um tutorial da razer e o cara coloca só o ''r'' na caixa de endereço: 	18/04/2019, 21:23:21
1119034032791146497	soberbo	Caixa De Som Razer Leviathan Mini por R$351 (Nos USA custa +- 150 dolar) https://click.linksynergy.com/deeplink?id=uPNOrv830ys&amp;mid=42034&amp;murl=https%3A%2F%2Fwww.saraiva.com.br%2Fcaixa-de-som-razer-leviathan-mini-9907601.html	18/04/2019, 21:24:38
1119038800947294208	bwdbunny	n vou sair mais de casa p nada dps q eu buscar minhas coisas da razer 	18/04/2019, 21:43:35
1119042384426405888	RazerBrazil	#OlhemALua no quadro do Marketing da Razer Brasil 	18/04/2019, 21:57:49
1119045738586148865	MeninoNeitam	@williangordox até da zoeira da Razer voce não escapa? Hahaha	18/04/2019, 22:11:09
1119047151290650624	Gugi_Maturano25	Siempre razer una inrazer 	18/04/2019, 22:16:46
1119048575957204997	Gamegratistm	Caixa De Som Razer Leviathan Mini +40% OFF!! R$351,12 em 1x Oferta imperdível! Compre Aqui: https://www.saraiva.com.br/caixa-de-som-razer-leviathan-mini-9907601.html?pac_id=137879&amp;utm_source=rakuten&amp;utm_medium=afiliados&amp;utm_content=3543299&amp;cdz=ranMID=42034&amp;ranEAID=3543299&amp;ranSiteID=FnsrbL3WH6o-FmOr2n9MixrZZaiRM.hs9w Para ver essa e outras promoções que encontramos, já sabe né? http://www.gamegratistm.com	18/04/2019, 22:22:26
1119056427023314944	mallu_cortes	Compra um headset. Razer kraken. E claro, me empresta hahaha	18/04/2019, 22:53:37
1119061678195396608	JulkoMelo	Por que a razer descontinuou o pro mobile?	18/04/2019, 23:14:29
1119065048104697857	Alearts1k	Microfone Razer Seiren X USB Vale a pena o preço?	18/04/2019, 23:27:53
1119066169753899010	chaagueta	"mano que raiva, a razer me mandou mensagem falando ""por problemas do mercado livre nao vamos enviar o produto"" aí hoje quando eu acordo me deparo com isso, kk 300 reais jogado fora "	18/04/2019, 23:32:20
1119071984820711424	betooo_f	tecladin da razer pura maladeza	18/04/2019, 23:55:27
1119093939846311937	PacTuRuDu	a imersão que o kraken me da em qualquer coisa que uso ele eh incrivel parabens razer vcs criaram um headset foda demais	19/04/2019, 01:22:41
1119104593890177024	web_asn	Portfólio ASN Web Training ERJ145 . Criamos WebSites, Aplicativos Android, Portfólios, Trabalhos de Design, Programação e afins. Fale Conosco. . www . asnweb . com .br . @razer… https://www.instagram.com/p/BwbLtRxAEbX/?utm_source=ig_twitter_share&amp;igshid=1p2f59zlq53s4	19/04/2019, 02:05:01
1119128678401622018	RYSK_6	Razer Ornata	19/04/2019, 03:40:43
1119137879278571520	SKKn_12	razer	19/04/2019, 04:17:17
1119162515991085056	sunagimo_yomogi	Razer!!	19/04/2019, 05:55:11
1119167519485562881	https_dvrk	Vc n e da época do full razer com a mesa da itaipava 	19/04/2019, 06:15:04
1119191659642871809	wintech	A Razer anunciou a chegada à PS4 do Razer Seirēn X, o primeiro microfone de streaming do mundo com licença oficial para PlayStation®4. 	19/04/2019, 07:50:59
1119209317838807040	estacaonerd	Razer Ripsaw HD - placa de captura permite jogar em 4K - https://bit.ly/2KMmlSd #estacaonerd #Razer @Razer @RazerBrazil	19/04/2019, 09:01:09
1119222372328853504	j_situ_kannri	RAZER	19/04/2019, 09:53:02
1119223281620541441	TheGamerKnight	Justo lo que era Razer..... https://vandal.elespanol.com/loquepudoser/razer-el-juego-perdido-de-ninja-theory	19/04/2019, 09:56:39
1119226458998628352	Hqnzou	razer	19/04/2019, 10:09:16
1119242467138842624	limavicktoria_	só um fone da Razer	19/04/2019, 11:12:53
1119264055049383936	YABOUnoMUGEN	Razer	19/04/2019, 12:38:40
1119265647752617984	FsxArtur	No meu porquinho comeu o cabo do meu teclado, ainda bem que era o da multilaser se fosse o razer eu iria chorar meses	19/04/2019, 12:45:00
1119270547387555841	VenomixFrosty	Razer*	19/04/2019, 13:04:28
1119283434294263811	hexagere_	razer elle me regarde grave mal	19/04/2019, 13:55:40
1119284524645359616	RazerBrazil	Sua jornada como streamer começa pelo setup ideal. Capture cada cena, som e reação em alta qualidade para os seus viewers. Ripsaw HD: http://rzr.to/ripsawhd-br Razer Kiyo: http://rzr.to/kiyo-br Razer Seirēn X: http://rzr.to/seirenx-br	19/04/2019, 14:00:00
1119289239181627393	harukaralho	PUTA Q PARIU o Fidel me mostrou uma promoção do Hammerhead da Razer com 650 reais de desconto e ta esgotadoooooooooooooooooo	19/04/2019, 14:18:44
1119291240997109760	micheladare	existe chama razer raiju	19/04/2019, 14:26:41
1119302873723080704	TheChildEdit	Razer	19/04/2019, 15:12:55
1119303845123952640	wthferms	Caraca meu fonezin da razer vai fazer falta	19/04/2019, 15:16:46
1119304581584957440	_ssaiko	"Exatamente isso que imaginei. Principalmente depois que vi a ""gameplay"" do Razer (jogo que estão dizendo que serviu de base pra esse Bleeding Edge) É MUITO parecido com Anthem. Eu realmente espero estar enganado. O que a MS menos precisa agora é outro game focado em coop."	19/04/2019, 15:19:42
1119304831250784256	web_asn	Portfólio ASN Web . Criamos WebSites, Aplicativos Android, Portfólios, Trabalhos de Design, Programação e afins. Fale Conosco. . www . asnweb . com .br . @razer @nvidia… https://www.instagram.com/p/BwcmxF1gubE/?utm_source=ig_twitter_share&amp;igshid=7uja3zc86nga	19/04/2019, 15:20:42
1119311373706715137	webputo	não acredito que acabei de comprar meu razer	19/04/2019, 15:46:41
1119311776741568512	RazerGermany	 Das Razer Nari Ultimate https://www.razer.com/de-de/gaming-audio/razer-nari-ultimate	19/04/2019, 15:48:18
1119335844630761472	dreary250	Razer	19/04/2019, 17:23:56
1119336637375315971	JP_Grando	Caralhoooooooooooooooo agr n sei qual pego... Razer mamba ou do fallenzao pqp!!!	19/04/2019, 17:27:05
1119340795952345096	Pablo0176	Razer Cortex?	19/04/2019, 17:43:36
1119342309953478664	AndreLuizRicard	Meu white people problem de hoje é: Queria um teclado da Logitech, mas tenho um da Razer...	19/04/2019, 17:49:37
1119344836702867456	JonasGmes	Dor no coração em jogar meu headset @Razer fora 	19/04/2019, 17:59:40
1119345008816078852	empresstensai	Vantagens Razer: A parte magnética do teclado segura minhas agulhas na hora de crochetar/costurar.	19/04/2019, 18:00:21
1119349612916039680	imillusionn	Razer*	19/04/2019, 18:18:38
1119357982691725314	eriksouza_2	Ontem sonhei q tinha um teclado da razer e acordei chorando kkk	19/04/2019, 18:51:54
1119360021811191809	RazerBrazil	Amanhã tem live especial do @giganterichard! Concorra a um headset Razer Kraken 7.1 V2 no sorteio do #RazerDay. Siga: http://twitch.tv/giganterichard 	19/04/2019, 19:00:00
1119368731006775298	Vicreatine1	ja joguei com aqueles de 10 conto que eu nem sei o nome, multilaser, warrior, razer, logitech e etc, mas o melhor de todos foi esse da hyperx	19/04/2019, 19:34:36
1119369320176476166	itsmaddiemax	Eu stalkeando a razer e morrendo de fofura	19/04/2019, 19:36:57
1119371799643475968	EricSchles	Razer	19/04/2019, 19:46:48
1119387958685999104	Kiyobi	Razer 2	19/04/2019, 20:51:01
