id	username	text	datetime
1159253862097870849	lucaswurzner	Nenhum sou ruim em todos	07/08/2019, 21:03:53
1159254039537901570	Josemare20	Razer naga trinity, ratón para todo.	07/08/2019, 21:04:35
1159255719142723584	soutrist	alguem me indica umas marca de fone e mouse daora pq eu sou mt putinha da razer e quero me libertar dessas amarras	07/08/2019, 21:11:16
1159255741661941769	ppinkkumo	Mais um dia da minha vida que passou sem ter possibilidade de comprar os fones cor-de-rosa com orelhinhas da Razer, inaceitável 	07/08/2019, 21:11:21
1159258767936151552	JonassGot	a gente sabe que o setup é da malena quando tem essas gavetinhas e o headphone verde da razer kkkk 	07/08/2019, 21:23:22
1159260347611701249	soutrist	eh acho q vo ser putinha da razer	07/08/2019, 21:29:39
1159263889592410112	thelobbyboy	mina chama macho de lixo pq é assediada todo dia aí perde contrato com a razer, tecnico de lol faz apologia ao nazismo A SEMANTICA NÉ ah mama no meu cacete filho da puta	07/08/2019, 21:43:44
1159264295529508864	Mein_Xieis	Apex rn #PlayApex	07/08/2019, 21:45:20
1159264443215339521	nekocora	miga eu perdi o tweet que estavas falando de fone mas é só pra avisar que ontem eu vi o razer rosa que tu querias lá na saraiva, tava 500 e pouquinho	07/08/2019, 21:45:56
1159266012384116736	rojin70065	Pubg	07/08/2019, 21:52:10
1159267326266630146	marco_romaoo	Ok razer um carro? Fr um carro?	07/08/2019, 21:57:23
1159268143405158400	VitorChequer	vai vir um tijolo da razer	07/08/2019, 22:00:38
1159268743580508160	007rokibul	PUBG	07/08/2019, 22:03:01
1159269845617270784	eaimabel	AAAAAAAAAAAAA PRECISO RAZER ISSO 	07/08/2019, 22:07:24
1159271478619250690	marceintosh	égua mas eu n queria o da razer :/// eu vi lá tb mas me recuso dar dinheiro p eles	07/08/2019, 22:13:53
1159271517424893952	carpinteiroputo	mas isso é só da razer e produto da razer é mt ruim	07/08/2019, 22:14:02
1159272247028264961	carpinteiroputo	que a linha rosa bebê é a quartz da razer nunca vi de outro n	07/08/2019, 22:16:56
1159272776278192129	TiagoHe_	antes de tudo tem razer na capa, não julgando né k	07/08/2019, 22:19:02
1159273708776828929	giganterichard	Eu não sou mais patrocinado pela Razer, filha. Vai arrumar o que fazer.	07/08/2019, 22:22:45
1159273943972421633	MaxOsecarr	o cara nao e mais patrocinado pela razer mas ta todo orgulhoso com a capa bem explicita escrito razer ne hmmm	07/08/2019, 22:23:41
1159273993024786433	Wabbeel	Razer Viper o Logitech G502	07/08/2019, 22:23:52
1159274006123569152	carpinteiroputo	sei lá qualquer produto que dure mais que dois meses já é mais bonito que um razer pra mim	07/08/2019, 22:23:55
1159275460347551747	bianchin1ss	ok ele n tem mais o patrocínio da razer mas ainda tem uma Amazon ali entao sei lá ne	07/08/2019, 22:29:42
1159275466613637123	PeterWolf_15	PUBG	07/08/2019, 22:29:44
1159276229612265473	TiagoHe_	entendi entendi, achei que tinha feito merda igual a razer	07/08/2019, 22:32:46
1159276895462154241	carlosbrosss	queria só um mouse pad chroma mesmo kkk nem precisa ser razer kkkkk aquele bem caquin :3 aceito se quizer haha :33	07/08/2019, 22:35:24
1159279082477162496	hhlukaa	Campeões da Copa Razer dessa semana!! #GoKST 	07/08/2019, 22:44:06
1159279490419347456	lel_sama	"é que foi só por ter usado a palavra ""intimidados"", e também ele não genralizou que nem a ex-garota da Razer fazer, por isso as pessoas não gostaram e foram chorar."	07/08/2019, 22:45:43
1159284299008565249	notutsdehoje	Af eu dando atenção pra razer vai toma no cu agora q me liguei	07/08/2019, 23:04:50
1159286742064799746	joopedrofr	das que já tive/testei: mouse: steelseries teclado: logitech mousepad: whatever... headset: razer (nunca usei nada melhor que o kraken até hj)	07/08/2019, 23:14:32
1159287448960163841	pastime_dev	Razer	07/08/2019, 23:17:21
1159287672935997440	alexandrokeq	razer	07/08/2019, 23:18:14
1159287903903768577	Rochinh41	Tixa gostei muito da corsair e da gfallen. Razer eu ja tive e estragou bem rapido ( fone e mouse) mesmo cuidado muito!!!. Cooler master ja tive problema com garantia de um teclado	07/08/2019, 23:19:09
1159290403897696257	PabloLopesss	Razer	07/08/2019, 23:29:05
1159290688002908160	quxngbsdk	pubg	07/08/2019, 23:30:13
1159290706608971777	pedroisp	Logitech e razer, razer só decepciona no kraken mesmo	07/08/2019, 23:30:17
1159290901438566402	Nicolas86933814	WOW tem 80 anos; Apex e PUBG tão falidos. Overwatch tá indo pro mesmo caminho... e cade o r6 ??	07/08/2019, 23:31:04
1159292539414941699	OdderDude	100% Razer.	07/08/2019, 23:37:34
1159292790649643009	giganterichard	Eu não sou mais patrocinado pela Razer, irmão... Deixa o povo se divertir. 	07/08/2019, 23:38:34
1159295069129793536	caiohenrique_kz	era só o meu teclado da razer RIP	07/08/2019, 23:47:37
1159295140793651201	SidneyBecker17	Mano a Razer criou um carro ¿¿??	07/08/2019, 23:47:54
1159301757626998784	SpikesBeen	Fora razer	08/08/2019, 00:14:12
1159302126461431809	Pappleqt	Razer gigantus	08/08/2019, 00:15:40
1159302454028058624	R41JIN	Pubg	08/08/2019, 00:16:58
1159302615563472901	Ritsukath_	Tinha reservado com uma menina o fone da razer com o overwatch da http://D.va, e tava tudo certo para ser pago até dia 10, fui falar com ela hoje e ela tinha vendido ???? Mano, eu to triste demais, porq nem para me avisar que ela ia vender para outra pessoa :/	08/08/2019, 00:17:37
1159303561525829632	SpikesBeen	Na verdade eu falei fora razer pela merda que eles fizeram pakspaks	08/08/2019, 00:21:22
1159305531514904576	morgado2k	Razer	08/08/2019, 00:29:12
1159305756799315968	grtvenus	"""a menina que eu gosto tem teclado da razer de mil reais"" idai enfia no cu"	08/08/2019, 00:30:05
1159310218028863488	felipenb_	tenho um mouse da Razer, ele tem mais de 5 anos, e ta firme e forte 	08/08/2019, 00:47:49
1159312346411622400	_vxxcky	Cacete vai sair CARRO DA RAZER??????	08/08/2019, 00:56:17
1159312438023655424	ocinemagamer	Razer lança mouse com switches ópticos http://bit.ly/2KkItAR	08/08/2019, 00:56:38
1159329435306250240	bdjpor	PUBG	08/08/2019, 02:04:11
1159332900594229250	ajiotape	descobri recentemente que a razer na real é ruim pra qualquer coisa logitech e hyperx &gt;&gt;&gt;&gt;&gt;	08/08/2019, 02:17:57
1159334616496582656	Dripyn	Razer viper	08/08/2019, 02:24:46
1159339097992892416	thrasherubius	rubius me das un teclado de razer????	08/08/2019, 02:42:35
1159342670466211840	calle_ytyt	Razer basilisc	08/08/2019, 02:56:46
1159349662513618944	eduardopaveii	Mouse e fone Razer, teclado redragon mousepad cougar ou qlqer outro barato	08/08/2019, 03:24:33
1159353679696355328	martinpelteshki	Razer	08/08/2019, 03:40:31
1159358557533294592	WoWBLACKWoW	RAZER VIPER #Razer #RazerViper	08/08/2019, 03:59:54
1159377713880358912	Lokinhozzz	Razer, a evolução na minha jogabilidade foi nítida	08/08/2019, 05:16:01
1159386567506423808	_jen_sis_	o,soudana	08/08/2019, 05:51:12
1159387700643926016	alguemmeajudapf	E a razer que vai ter UM CARRO ELÉTRICO RGB GAMER ??????????	08/08/2019, 05:55:42
1159388043817750528	Jota_Armstrong	Logitech g502 proteus o el Razer chroma.	08/08/2019, 05:57:04
1159389815424638976	Luciosoopsies	PUBG	08/08/2019, 06:04:07
1159394474189119488	LaneDiethylamid	editor de áudio usando Razer Kraken KKKKKKKKKKKKKKKKKKKKKKKKKKKKKKKKKKKKKKKKKKKKKKKKK	08/08/2019, 06:22:37
1159396827453677568	C_Pagesxd	PUBG	08/08/2019, 06:31:58
1159397467940675584	YttkSemma	Logitech pra tudo, razer pra mouse, hyper x nunca +	08/08/2019, 06:34:31
1159397708572045313	MATTGAMER1232	Me manda um sla um mouse da razer	08/08/2019, 06:35:28
1159405907891118080	RafaelOitchau	Fnatic Gear, Steelseries e Razer(esse só mouse)	08/08/2019, 07:08:03
1159417490192994309	elmecas74	pubg	08/08/2019, 07:54:05
1159421976966049792	JapaDFederal	A razer é uma marca de periféricos linda, os rgb com interação em jogo é maravilhoso. Mas na questão de durabilidade é um lixo. Já comprei 3 periféricos deles, e todos estragaram com um pouco mais de um ano. Agora meu coração é só hyperx	08/08/2019, 08:11:54
1159426705058082816	lukasapplefan	Razer	08/08/2019, 08:30:42
1159427722520735744	LocarnoBruno	Vendendo computador gamer + Periféricos Razer! Informações nas fotos! 	08/08/2019, 08:34:44
1159429163696238592	LuskaGarcia	A razer lançou um carro wtf	08/08/2019, 08:40:28
1159432532435361798	Nelsxn404	Wtf a Razer anunciou um carro xd	08/08/2019, 08:53:51
1159433133630115841	4D3s12	Razer	08/08/2019, 08:56:14
1159434628362592257	JooPedroos	Eu tenho os kits da Logitech(atualmente o que eu mais gostei de usar) Já tive kit da GX que é muito bom também, e kit razer(por incrivel que pareça o que menos gostei), mas to pensando em comprar Redragon mas não sei se é bom.	08/08/2019, 09:02:11
1159438975834218497	NosNerds	Razer Viper: Lançamento da Razer É Focado em Agilidade https://nosnerds.com.br/razer-viper-lancamento-da-razer-e-focado-em-agilidade/	08/08/2019, 09:19:27
1159438989037854720	Allendruida	Razer Viper: Lançamento da Razer É Focado em Agilidade https://nosnerds.com.br/razer-viper-lancamento-da-razer-e-focado-em-agilidade/	08/08/2019, 09:19:30
1159439078875717632	TiaCatiaGames	Razer Viper: Lançamento da Razer É Focado em Agilidade https://nosnerds.com.br/razer-viper-lancamento-da-razer-e-focado-em-agilidade/	08/08/2019, 09:19:52
1159451727906709505	edivino_	será q eles mete uma logo da RAZER no lugar? KKKKKKKKKKKKKKKKKK mas achei bem loca memo, só faiado o dell HASIUDHAUISDHAUISUID	08/08/2019, 10:10:08
1159457575198498817	HotaroGraphics	Pubg.	08/08/2019, 10:33:22
1159460694506528768	Holy_Shadows	PUBG!!!	08/08/2019, 10:45:45
1159463064883744769	SyedAnsar515	PUBG	08/08/2019, 10:55:11
1159463221587271681	RubenRastel	maincra	08/08/2019, 10:55:48
1159463818709426176	laranjacast	#AquiseJoga, #BGS2019, #Games, #nerd, #razer, #razerviper, #gamers, #geek - Razer lança mouse com switches ópticos e leva a experiência em esportes eletrônicos a um novo patamar http://laranjacast.com.br/?p=322	08/08/2019, 10:58:10
1159466172938633216	isaayone	Como o Choity me fez comprar um teclado da razer	08/08/2019, 11:07:32
1159466616616345600	JapaDFederal	Sempre vejo gente nos dois extremos com a razer, ou o produto durou muito, ou que nem no meu caso. Vejo direto gente falando esses pontos lá no grupo da Pichau Hardware no Fb. A próxima marca que talvez vou comprar vai ser corsair	08/08/2019, 11:09:17
1159470341481275392	Suprimatec	Razer lança mouse com switches ópticos e leva a experiência em esportes... https://www.bloglovin.com/blogs/suprimatec-14139329/razer-lanca-mouse-com-switches-opticos-e-7052683803 on @bloglovin	08/08/2019, 11:24:05
1159473638200008705	CropyTofficial	PUBG	08/08/2019, 11:37:11
1159476029397843968	victormuniz37	Depende muito. Mouse não consigo utilizar outra marca que não seja Razer. Headset gosto muito da HyperX e teclado tanto faz	08/08/2019, 11:46:42
1159480219058573313	JuicyBoyJaceYT	Terraria	08/08/2019, 12:03:20
1159480458280931328	carolezzzzzz	Qualquer um, desde que a Razer não esteja junto	08/08/2019, 12:04:18
1159484963202486273	Lengendaryx1	Será que terá a mesma mobilização que fizeram com a menina da Razer?	08/08/2019, 12:22:12
1159490106656526343	RazerBrazil	Há 31 anos, em Osasco, nascia uma lenda. Aos 12 anos, foi diagnosticado como rei delas. Aos 21, fechou sua primeira parceria com a Razer. Aos 29, fez dois Pentas. Hoje, segue na luta para sair do Prata. Parabéns gORDOx, nosso ex-grafiteiro, caster, streamer e pro player 	08/08/2019, 12:42:38
1159491263005175810	andrea_nicols3	que bonito bebe	08/08/2019, 12:47:14
1159492073906757632	VishYogurt	Só queria trampar na razer	08/08/2019, 12:50:27
1159492812452376576	ZyeSlow	Sera q vai ganhar o monitorzinho 240hz patrocinado pela razer???	08/08/2019, 12:53:23
1159494512760238081	Shark292	Ou briga tosca que nso viro merda nenhuma, razer continua la, gabi tbm, povo gosto é de lacrar	08/08/2019, 13:00:08
1159495673429073920	feelipelol	perai agora existe CARRO DA RAZER	08/08/2019, 13:04:45
1159496266629468166	Luanrangel99	Hj definitivamente eu declaro q n terei mais nada da razer, NÃO AGUENTO MAIS QUEBRAR ESSES TREM	08/08/2019, 13:07:07
1159496798437826560	Halloalsam	Uma & Gretel	08/08/2019, 13:09:13
1159497880627032064	feelipelol	não é nem meme, a razer brasil postou no insta 	08/08/2019, 13:13:31
1159499726716227585	gunxsamurai	Pubg	08/08/2019, 13:20:51
1159499892894699520	Lazafajp	Os cara cv de teclado aí falei q tinha um da razer cara tá falando pra vender por 70 real menino idiota kkkkkkkkkkkkkkkkk	08/08/2019, 13:21:31
1159500630202966016	BlueBob24	Razer	08/08/2019, 13:24:27
1159502100977672192	kabumcombr	Ninjas! Só se liguem neste maravilhoso headset da Razer! É um Kraken 7.1 V2 na versão Mercury White! E adivinha? ele está com #desconto! Venha garantir o seu! » http://kabum.com.br/link/40/92515	08/08/2019, 13:30:18
1159502705276129281	BigSerj_OG	@Loli_Portatil faz ae	08/08/2019, 13:32:42
1159505816954843137	eotaldo	carro razer fodase 	08/08/2019, 13:45:03
1159507111170269185	zKillaura_PvP	Se me perguntasse uns 2 anos atrás eu diria Razer, porém de uns anos pra cá hyperx	08/08/2019, 13:50:12
1159507186038530050	lukx0007	Pubg	08/08/2019, 13:50:30
1159511351447969792	AnaBeazSaltoA18	tão pistola com a razer haushshqusuav #ochoroélivre	08/08/2019, 14:07:03
1159512430113955842	fabledjen	Shia la fluff	08/08/2019, 14:11:20
1159512966921949186	getuliofukfilho	"Título do vídeo:""rolê com a embaixadora da razer em sp """	08/08/2019, 14:13:28
1159516077245837312	707SkyV	Engraçado como todas aquelas garotas que diziam que razer era machista etc etc. E que diziam que jogavam e usavam a razer... desapareceram depois de um tempo... será que elas decidiram parar de jogar jogos para sempre?	08/08/2019, 14:25:50
1159521029833863168	onatolentino	aí a razer cancela o patrocínio	08/08/2019, 14:45:31
1159525661381296128	Harrintong_01	Pubg	08/08/2019, 15:03:55
1159526532836200448	madoy17362471	Faltou minha mesa aí realm Royale. Mas eu sentaria no pubg	08/08/2019, 15:07:23
1159526604122591237	AntonHjelm_	Atm... pubg	08/08/2019, 15:07:40
1159526992137637893	TasFixeMeu	Devias ter tirado uma do teu setup, o material da Razer está lá atrás	08/08/2019, 15:09:12
1159527513212837888	VagnerDuarte	Acabei de curtir “Duality - Razer Blade Stealth” no #Vimeo:	08/08/2019, 15:11:16
1159527724047884289	rifa174	Só tenho está com o gato em cima do pc, é do Filipe e tudo	08/08/2019, 15:12:07
1159529001762938880	Victorgriloo	E DPS que Razer provou ser uma filha da puta, tô mais do que feliz de mudar de marca ♡	08/08/2019, 15:17:11
1159531473592082432	Do_Not_Argue	Ninjas! Só se liguem neste maravilhoso headset da Razer! É um Kraken 7.1 V2 na versão Mercury White! E adivinha? ele está com #desconto! Venha gar... https://kabum.com.br/link/40/92515 #DoNotArgue #KaBuM #Brazil #ofertas	08/08/2019, 15:27:01
1159531779499483137	RazerBrazil	Tem promoção de headset rolando no @KaBuMcombr Razer Kraken Pro V2 Black, com earpads ovais, por R$359,90 à vista! Unidades limitadas: http://rzr.to/KrakenPromoKBM	08/08/2019, 15:28:13
1159532122601926657	Julessuxx	Graças a deus meu webnamorado rico acabou de me financiar aqui meu headset novo ja que o da razer literalmente cortou minha orelha	08/08/2019, 15:29:35
1159533555875291139	IzyButNtSleazy	Meu quarto vai ser só razer e adidas agora.	08/08/2019, 15:35:17
1159539167833014272	J03LConst	Olha o que acabou de chegar @RazerBrazil @Razer 	08/08/2019, 15:57:35
1159543259443712010	Well_Razgriz	bota uma peruca ruiva, aquele fone da razer com orelha de gato e seja feliz com a caralhada de donate que ce vai receber uihaiuhae	08/08/2019, 16:13:50
1159543651598557187	gamersegames	Razer Viper chega no Brasil em Setembro. Conheça os detalhes: http://bit.ly/33gcedP @RazerBrazil #RazerViper #GamerseGames	08/08/2019, 16:15:24
1159544363179040768	IllusionWill	Razer 	08/08/2019, 16:18:14
1159545538368409600	TasFixeMeu	Pois eu sei , Metias o teu gato encima da tua mesa	08/08/2019, 16:22:54
1159545789107957761	MarvinEduardoV1	Patrocinado por Razer 	08/08/2019, 16:23:54
1159550844699914240	marcolinocrvg	Dei aquela moral pra Razer	08/08/2019, 16:43:59
1159551037352665088	joseraasch13	Razer	08/08/2019, 16:44:45
1159552174021591040	SrPaaulo	Cadê ?	08/08/2019, 16:49:16
1159552333887361025	Alesamsil	Aewwwwww #RazerStreamer é possível sim! @RazerBrazil @Razer 	08/08/2019, 16:49:54
1159553197209317377	justmodzs	Formatei o pc , ia instalar o razer synapse , até que o download tá off :) . @Razer	08/08/2019, 16:53:20
1159558372976447488	KDieguinho	Cadê?	08/08/2019, 17:13:54
1159561433631215616	kooks1883	PubG	08/08/2019, 17:26:04
1159562608573329408	nagel_sb	Pubg	08/08/2019, 17:30:44
1159566275573690372	jonatasmarriel	Sair um pouco da rotina jogar um pouco #games #jogos #razer https://www.instagram.com/p/B06rjZ0A8qh/?igshid=1k86ei53oesnf	08/08/2019, 17:45:18
1159569146977431568	SrOshiro	Imagina o preço desse carro da razer	08/08/2019, 17:56:43
1159570074577121283	jeffcaires_	Fone razer com orelha de gatinho e peruca azul, eu apoio!	08/08/2019, 18:00:24
1159572154595389453	Marcelo47125573	E pra gnt la na prefeitura nada c eh foda ein razer	08/08/2019, 18:08:40
1159579239592660992	ViniRedDevil	se não me engano a orelha da razer é separada do fone e custa 100 pau kkkkkkkkkkkkk	08/08/2019, 18:36:49
1159580152189337601	whoevermalenais	DOIS REAIS PRA RAZER UMA NECESSIDADE BIOLOGIA SINCERAMENTE	08/08/2019, 18:40:26
1159585081377402881	Mello_UFF	Em nenhuma mesa da RAZER. 	08/08/2019, 19:00:02
1159585499570475011	pistaulinho	Mano aonde chegamos a razer FEZ UM FCKING CARRO PQP, o valor deve ser um ser humano kk 	08/08/2019, 19:01:41
1159585844740669441	WildManZach1	Um Terraria table	08/08/2019, 19:03:04
1159590006966693888	LowLifeThugJohn	So gente aos beijos crl Filhos da mae so sabem razer inveja	08/08/2019, 19:19:36
1159596809632833536	_islei	Esse pais ta na merda mesmo temos que razer onepunchman logo o brasil so vai pra frnte assim 	08/08/2019, 19:46:38
1159602676482609152	pLg_SA	Deus tá vendo vc dando RT em post da razer 	08/08/2019, 20:09:57
1159604187384205320	Ian01700031	algum mouse da razer o meu esgotou o limitr de clickes e ja ta meio arrebentado	08/08/2019, 20:15:57
1159606548160815109	ThaniaDallagno1	só queria um fone da razer	08/08/2019, 20:25:20
1159610475627339777	philzaox1	To ligado mano. Eu vi que o Maurão mandou pra vcs essa placa foda e não funcionava pq a tua placa antiga só tinha uma entrada. Na real tava mandando a pergunta do que tu usa pra streamar por causa do meme da mina da razer kkkkkkkkkk. Abrasss!	08/08/2019, 20:40:56
1159611259291131904	Loli_Portatil	vo fazer	08/08/2019, 20:44:03
