id	username	text	datetime
1134617350492151808	Tekken_CBM	Razer Panthera + Golden Fanta lever	31/05/2019, 21:27:11
1134622518143324160	Krupeizakk	"Meu teclado queimou o led de 3 teclas, mandei e-mail pra Razer, eles mandaram um ""boleto"" pra postar o teclado e enviar direto pra eles, tudo isso de graça. As vezes vale a pena gastar uma grana a mais no bagulho e ter uma assistência MONSTRA dessas... Obrigado @RazerBrazil "	31/05/2019, 21:47:43
1134626932044304384	Joaaov14	Rapaz, preço nao é nada mano, o meu g203 de 200 real da um pau nesses da razer de 800 reais	31/05/2019, 22:05:15
1134632913662808064	talissachan	Apaga isso antes que a razer veja	31/05/2019, 22:29:01
1134639540960993282	Portinhoow	Cara KkkkkkkkKkkkkkk eu achei que meu teclado tinha estragado comprei um noVo, e dai acabei de descobrir que desativei a tecla através do Razer Synapse BELEZA enfia no cu esse programa	31/05/2019, 22:55:21
1134662974327726080	mrcaio	"As promoções da KaBuM são muito boas porque é sempre um lance meio ""itens com até 70% de desconto!"" sendo que só tem UM com 70% e é sempre uma parada 200% aleatória tipo ""capa para mouse gamer razer"""	01/06/2019, 00:28:28
1134663493356064769	kaU4k	Primeiro Fk é da zowie, segundo razer tu pega por 300 conto 4 concordo razer é merda pelo valor	01/06/2019, 00:30:32
1134666041202806792	OrderTerumi	Eu só sei que um dia vai surgir a camisinha da Razer	01/06/2019, 00:40:39
1134666586374189057	edivino_	achei mto loca a da razer mas sei lá 600 pila numa mochila tá loco uai	01/06/2019, 00:42:49
1134668738530369536	CaCaBieu	Coisas que depois que você cresce e evolui percebe que é um lixo: Qualquer produto da Razer Qualquer iPhone Nunca vi uma marca tão podre quanto a Razer. 700 conto num fone de ouvido que é mais lixo do que os de 30 conto do camelô. Frágil e de má qualidade. Cruz Credo kkkkkkkkk	01/06/2019, 00:51:23
1134682251063713792	Gui1erme	Oloko Vai comprar um razer ala Burguesa Burguesia fede	01/06/2019, 01:45:04
1134702927371620352	nekotann0721	Razer！	01/06/2019, 03:07:14
1134703564281040897	Morthauros	Mas cadê as cobrinha da Razer?	01/06/2019, 03:09:46
1134714290127003648	Takkie_0218	Razer 	01/06/2019, 03:52:23
1134716857364221952	Vasochak	Les Razer	01/06/2019, 04:02:35
1134744008922714113	VenomBRS	Vai querer qual ? Razer ? Hypex , Knup , Razer Kraken 7.1 ? Escolhe ai kkkkkkkkkkk vou dar mais um pouco	01/06/2019, 05:50:28
1134744206658981888	IsadoraNieb_	aí vc doa oque faltar então pra eu comprar um razer, 289,90	01/06/2019, 05:51:16
1134758857228640256	_mdasx	Ah tá pq razer crianças ao mundo para lhes dar uma vida de merda é melhor ne 	01/06/2019, 06:49:29
1134799690128666624	breninqui	se não for da razer eu nem compro	01/06/2019, 09:31:44
1134803285746098176	KanbaFGC	Razer panthera	01/06/2019, 09:46:01
1134808024512651265	CaprioLoL	Razer 	01/06/2019, 10:04:51
1134809014129369088	wendel80311708	#razercfel BD EM AÇÃO RAZER NA MÃO	01/06/2019, 10:08:47
1134809152101015553	wendel80311708	razercfel BD EM AÇÃO RAZER NO CORAÇÃO	01/06/2019, 10:09:20
1134809200926887936	wendel80311708	#razercfel BD EM AÇÃO RAZER NO CORAÇÃO	01/06/2019, 10:09:31
1134809316828045312	wendel80311708	razercfel BD EM MOVIMENTAÇÃO RAZER NA MÃO	01/06/2019, 10:09:59
1134809365473574912	wendel80311708	#razercfel BD EM MOVIMENTAÇÃO RAZER NA MÃO	01/06/2019, 10:10:11
1134809873131196416	wendel80311708	BD EM MOVIMENTAÇÃO RAZER NA MÃO #RazerCFEL Nick: [Wg]Sniper.	01/06/2019, 10:12:12
1134809979138052101	wendel80311708	BD EM AÇÃO RAZER NO CORAÇÃO #RazerCFEL Nick: [Wg]Sniper.	01/06/2019, 10:12:37
1134810047756853253	wendel80311708	BD EM AÇÃO RAZER NA MÃO #RazerCFEL Nick: [Wg]Sniper.	01/06/2019, 10:12:53
1134824739896254466	cebolaodadepre	cm os equips da razer	01/06/2019, 11:11:16
1134846205815533570	leakpt	Razer lançou nova gama de produtos na cor Mercury White http://dlvr.it/R5r6N6	01/06/2019, 12:36:34
1134848978498084864	_Raffozo	Depende, é teclado razer?	01/06/2019, 12:47:35
1134863820445409281	EnderArcanaYT	2 ans et tjr pas de pb	01/06/2019, 13:46:34
1134880265258635264	StinkyOtaku	Desse jg da cnb joga tanto lol quanto um brócolis da razer #CBlol	01/06/2019, 14:51:54
1134884315194626048	Agusferreira352	Razer 	01/06/2019, 15:08:00
1134884584342949888	leakpt	Razer fez grande aposta na expansão da iluminação Chroma! http://dlvr.it/R5rR5Q	01/06/2019, 15:09:04
1134886242292772864	leakpt	Olá razer_devices obrigado por nos seguir!	01/06/2019, 15:15:39
1134908176879497216	MarkosRoyo	razer abyssus v2	01/06/2019, 16:42:49
1134910129239941120	matiasmora27	Razer mamba	01/06/2019, 16:50:35
1134910257728315393	vitu_reisoli	que o Tottenham volte pro segundo tempo igual voltou contra o Ajax, pq eliminar aquele time pra razer isso ai é brincadeira	01/06/2019, 16:51:05
1134919244439855104	Roberta_tunis	Vamos sim. Seu compadre deixou, só falou p ir pra casa dela por causa do sereno na sua afilhada! Disse q vai raZer chamada de vídeo p vê se tô ctg msm kkkkkkkkkkkkkk	01/06/2019, 17:26:48
1134931472895418369	laurauchoav	quero um fone da razer	01/06/2019, 18:15:23
1134933478624169984	Douglas83173055	@RazerBrazil alô razer meu headset Kraken quebrou o fio onde encontro dele para substituir	01/06/2019, 18:23:22
1134933702776168448	miguel_society	es una kk razer 	01/06/2019, 18:24:15
1134935836116561921	sirroblinux	eita mãe, que belezura	01/06/2019, 18:32:44
1134940774934728704	LimmaBrunno	Vamos fazer jogada no razer	01/06/2019, 18:52:21
1134950272831250433	Adrenaline	ANÁLISE: Razer Naga Trinity http://bit.ly/2MshyWS	01/06/2019, 19:30:06
1134950834045952003	JulianaCmps	Heineken é a Razer das cervejas.	01/06/2019, 19:32:19
1134953457364951042	thomazzzn	Qlqr mouse da razer ¿¿¿	01/06/2019, 19:42:45
1134958733736284160	ExiWillyUHC	Rompi mi teclado Razer :( RIP TECLADO RAZER 2015-2017 	01/06/2019, 20:03:43
1134959132199378944	hellopendi	razer 	01/06/2019, 20:05:18
1134966584064323584	edu_paloschi	Eu animo uma play em squad heim	01/06/2019, 20:34:54
1134972299457773571	notgiullia	O cúmulo do capitalismo é um headset Rosa da Razer (que por si só já custa R$479,90) ter um acessório opcional que são orelhinhas de gato (sem utilidade NENHUMA além de estética) que custam R$120,00 R$120,00 por orelhinhas de gato no headset	01/06/2019, 20:57:37
