id	username	text	datetime
1165794523085180929	pnhrocsoficial	Devolve meu filho kranio, Enzo, papai te ama	25/08/2019, 22:14:08
1165871925777895429	rxbot3	Razer tiamat 7.1 mandou abraços, o único 7.1 de verdade kk	26/08/2019, 03:21:42
1165950030232137728	RebecaPinhoDS	Manda outro, não tenho nada contra a Razer, apenas com uma atitude específica. Quanto a qualidade dos produtos não posso opinar pois nunca tive um periférico da marca, porém relatos de pessoas próximas a mim é de que a durabilidade dos produtos deles é inferior a dos concorrentes	26/08/2019, 08:32:04
1165979613010567169	kabumcombr	Tem Headset gamer da @razerbrazil por apenas R$199,90, vai perder? → http://kabum.com.br/link/40/76488 → http://kabum.com.br/link/40/76488 → http://kabum.com.br/link/40/76488	26/08/2019, 10:29:37
1165979798809845760	gabruno_	@isaisocs sua hora chegou	26/08/2019, 10:30:21
1165982338750304257	oGold_	Faz uma promocao pra mim ai de uma RTX 2070 super vai, nunca te pedi nada! (abaixo de 3 mil) Aproveita que o desconto de aniversario que vcs me deram nao funcionou e me da de novo ele eu aceito a GALAX :(	26/08/2019, 10:40:27
1165982994492006400	kabumcombr	Poxa, no momento não temos previsão para oferta e os cupons para a linha RTX Super acabaram. Mas fica de olho que podem entrar em oferta a qualquer momento.	26/08/2019, 10:43:03
1165983493471559681	valoisqb8	Olá @RazerBrazil eu tenho um amigo deficiente, o nome dele é é Ronaldo (apelido é mudinho) O sonho dele é ser DJ Profissional Pena que ele não tem condições de adquirir o equipamento Gostaria de saber se tem alguma possibilidade de ajudá-lo Obrigado pela atenção	26/08/2019, 10:45:02
1166074841025454080	RazerBrazil	Na internet, ninguém sabe que tem um dog por trás da tela #InternationalDogDay	26/08/2019, 16:48:01
1166076187359305728	b4rbaraav	queria usar a garantia da @RazerBrazil mas ja faz mais de 3 anos q comprei meu fone 	26/08/2019, 16:53:22
1166076229629435905	xplodninja	#SegundaDetremuraSDV Quando o Doguinho é mil vezes mais rico e mais feliz que 98% da população ! eita… .. . #InternationalDogDay @RazerBrazil 	26/08/2019, 16:53:32
1166077132054941706	Roberkarateka	estou perdido, tenho 5 em casa. hahaha e muito produto para eles hahah	26/08/2019, 16:57:07
1166077604165804033	higorcore	@luhfs_farias olha	26/08/2019, 16:59:00
1166080557052321792	coria_pvh	Quero promo nas fontes pc semi modular 1000w @kabumcombr	26/08/2019, 17:10:44
1166081527748407296	estrangedeng	Kkkk lindos Tu tem inveja desses doguinhos	26/08/2019, 17:14:35
1166081741129428992	higorcore	Será se na China é o dia internacional da comida? 	26/08/2019, 17:15:26
1166082598185123841	estrangedeng	Será? Credo em Cruz	26/08/2019, 17:18:50
1166084972408709126	PieeBraga11	Que coisa linda véi 	26/08/2019, 17:28:16
1166086171837042688	Pedro82164469	Dog mais rico q minha família toda junta	26/08/2019, 17:33:02
1166097149861486597	Wakashimazu	É o Rico o Pug?	26/08/2019, 18:16:40
1166104286931116032	RazerBrazil	Exatamente! Pra quem ainda não conhece: http://instagram.com/riquezapug 	26/08/2019, 18:45:01
1166107380565909513	cinnun_	Se eu fizer isso aqui em casa teria que comprar um fone novo pq eles iam destruir td huahauahau	26/08/2019, 18:57:19
1166112471213584384	_VagnerFerreira	Inclusive recomendo, e meu mouse já tem uns 8 anos de uso e nunca deu falha, patrocina nois @RazerBrazil	26/08/2019, 19:17:33
1166112628382605315	souolimpico	E eu sou o miranha	26/08/2019, 19:18:10
1166113278549995521	indyalfc	O meu com uns 2 anos deu pau no scroll, nunca derrubei nem nada, foi do nada mesmo	26/08/2019, 19:20:45
1166114118807490562	_VagnerFerreira	Hahaha a maioria acontece isso mesmo, até achei estranho esse meu durar tanto e ainda comprei usado, qual modelo tu tinha?	26/08/2019, 19:24:05
1166114247321014274	JoseVjack	@gmclfrrr cachorrão	26/08/2019, 19:24:36
1166114604600176640	indyalfc	Tenho ainda na real, o deathadder 2013, mandei arrumar, mas não consegui nada com a garantia que ainda tinha quando deu pau	26/08/2019, 19:26:01
1166117225423613955	xplodninja	 é sim amanhã vou publicar o sd card @KingstonBrasil de 64 gb e o hed set gamer @RazerBrazil que comprei na super @kabumcombr http://kabum.com.br pro meu notbook @AcerdoBrasil #AcerPredator vou mostrar pra vcs 	26/08/2019, 19:36:26
1166117540453593090	LuizFGarden	Saiu da jaula o podcast da @RazerBrazil E é só o primeiro - vai ter muito mais vindo por aí, com novidades e conteúdo exclusivo Digo bora! 	26/08/2019, 19:37:41
1166117932021297159	D1oRod	Falae seus doido! Hoje tem o Rumble da @RazerBrazil novamente, mas não vou jogar! :( :( :( :( :( :( :( :( :( :( MAS EU VOU NARRAR! :) :) :) :) :) :) :) :) :) :) :) :) :) Cola então as 20hs que já começa! https://streamcraft.com/user/RAZERBRASIL	26/08/2019, 19:39:15
1166118759695826944	BrunoMTGR	Aí sim, que bacana!	26/08/2019, 19:42:32
1166121921488011265	husatoledo	oloco man... haha	26/08/2019, 19:55:06
1166123259085168640	OutcastTofoli	Já ia começar como:	26/08/2019, 20:00:25
1166127610163863552	kayseane6	Minha representação gamer com certeza é a terceira	26/08/2019, 20:17:42
