id	username	text	datetime
1121209822114983936	FayntFoto	Vou mandar nudes ;) zoas '-' Vou te mandar um conjunto da razer '-' S2	24/04/2019, 21:30:27
1121214058575867905	EduFerSou	Sério que a Razer tirou o dia pra ficar me mandando e-mail sobre jogos com desconto?	24/04/2019, 21:47:17
1121214568745918465	josimoraes44	Nunca perca a fé que te sustenta e a coragem que te faz grande. . #pelosares #lumarini #documentary #adventure #history #riotocantins #tucurui #expedition #tv #amanco #cmpc #gshock #oakley #niviuk #razer https://www.facebook.com/100002733403144/posts/1781367408631022/	24/04/2019, 21:49:19
1121220654769082368	JulkoMelo	eu preferi atear fogo ao meu, nunca mais compro produtos razer	24/04/2019, 22:13:30
1121220829956771845	HeyArthuur	amigos do meu Twitter: JAMAIS COMPREM RAZER. JAMAIS. Não vale o dinheiro, comprem da Hyperx, Sennheiser ou Logitech.	24/04/2019, 22:14:11
1121223606594428928	vit0rlixo	Razer é ridículo de ruim	24/04/2019, 22:25:13
1121236860490010624	RulazisM	Nada que avergonzarme, mi razer.	24/04/2019, 23:17:53
1121236977892974593	daddyv1998	Antônio só usa pq é patrocínio. MIBR é full Razer	24/04/2019, 23:18:21
1121252634986520577	VagnerFilhoo	Nossa cala a boca kakakakaka , muito estilo , sonho de consumo um Razer croma blackwidow	25/04/2019, 00:20:34
1121257185785339904	garenciele	o que é a razer ao lado deste fone maravilhoso ne	25/04/2019, 00:38:39
1121301985087696897	ZapreyYT	Rival 600? Razer mamba?	25/04/2019, 03:36:40
1121308015276244997	DiarioTic2Cero	Razer Blade Pro 17, más pulgadas para el gaming RTX 20 http://bit.ly/2GEeUbK	25/04/2019, 04:00:38
1121328059120902145	zvjx_mabulive	Razer	25/04/2019, 05:20:17
1121347266692907008	zach_en_y	@razer_2a fdp va	25/04/2019, 06:36:36
1121359703819390976	lewizooo	Passe chez Razer frero	25/04/2019, 07:26:01
1121380065491726336	RazerBrazil	O Elite, sim eles usam o mesmo sensor: o Razer 5G.	25/04/2019, 08:46:56
1121382302687354881	Trendy_PT	Os jogos não são só para rapazes: a Razer lançou novos gadgets rosa para as gamer girls @Razer #Razer #RazerQuartz #Pink #Gaming | https://is.gd/tXfJHz	25/04/2019, 08:55:49
1121388372126134272	Poyasimi_Night	Razer	25/04/2019, 09:19:56
1121395447438823432	solucaopc	Razer apresenta notebooks gamer topo de linha Blade Pro 17 e Blade 15 http://dlvr.it/R3Tvmx	25/04/2019, 09:48:03
1121405771496022017	joaovschramm	Garota Razer	25/04/2019, 10:29:05
1121412373275795456	oxk_i6halcyon	Razer	25/04/2019, 10:55:19
1121418635162071041	alanildss	queria comprar um mouse e teclado da Razer	25/04/2019, 11:20:12
1121428778310414336	AndyNMachuca	Razer é tudo meia boca mas o preço ta em conta	25/04/2019, 12:00:30
1121437525460094977	juarez_katya	se mama la razer.	25/04/2019, 12:35:16
1121438661931933697	SouoTheu	tenho meu bw2013 faz 5 anos, gosto dele mas não compraria razer de novo nem fodendo.. o masterkeys é lindao	25/04/2019, 12:39:46
1121439461802500096	SouoTheu	eu tinha tudo da razer, Carcharias, Golliathus, DA2013, BW2013, agora só restou o goliathus que tem 8anos e tá interao e o bw com 5 anos	25/04/2019, 12:42:57
1121446258466590726	gilbertomlt	Nem a razer sabe 	25/04/2019, 13:09:58
1121451392822956032	Putmalone	bugos hahaha	25/04/2019, 13:30:22
1121451491980652544	daddyv1998	Fer usa Razer, Hyper é o Cold e o Felps	25/04/2019, 13:30:45
1121451863512109056	cir1l0	Triste ir de um razer para um trompete destes	25/04/2019, 13:32:14
1121464743942852608	DigitalDaigor	Ok, quero o Razer Wolverine que é meu por direito de nascimento! 	25/04/2019, 14:23:25
1121473765244850177	bocludire	Genre tu veux pas un razer blade pro 17 fdp	25/04/2019, 14:59:16
1121476488119967745	PCWorldBrasil	Razer anuncia nova geração da linha Blade de notebooks - https://pcworld.com.br/razer-anuncia-nova-geracao-da-linha-blade-de-notebooks/	25/04/2019, 15:10:05
1121479789674729474	myujiae	o rosa da razer vale mt mt mt a pena e é lindooo, so q é o olho da cara :(	25/04/2019, 15:23:12
1121481974831624192	Orbitalmx	https://www.facebook.com/orbital.mx/photos/a.281377565254888/2349221041803853/?type=3 Galeria de Hardware por #Razer Presentada por http://orbital.mx ¡Visitanos!	25/04/2019, 15:31:53
1121489460062035969	HeyArthuur	vocês tem me visto reclamar muito do suporte da Razer e afins aqui no Twitter. Mas eu tenho que ser justo com uma pessoa aqui, o @KauePimposo. Super atencioso, foi atrás da minha situação mesmo sem ser o responsável pela área em que meu fone se encontra. Valeu Kaue 	25/04/2019, 16:01:38
1121491025393070081	Adilsonffjr	Mano eu só queria receber um e-mail falando, analisamos o seu fone, foi constatado defeito de fabricação estamos resolvendo o seu caso. TA FODA FICAR SEM JOGAR E FAZER LIVE TBM AAAAAA ajuda aí razer	25/04/2019, 16:07:51
1121495345257689088	ufbaluiz	Razer anuncia nova geração da linha Blade de notebooks http://flip.it/f1d7_2	25/04/2019, 16:25:01
1121497960322338816	fluorescofield	a pessoa paga 200 pila num mouse pra ter q ficar fazendo limpeza nele de 2 em 2 semanas sim estou falando com voce razer	25/04/2019, 16:35:24
1121504744550412289	s4nfs	Fone da Razer na Kabum por 209 conto a vista De nada	25/04/2019, 17:02:22
1121529122495143937	RE4PER218	Por eso no compro razer Kappita	25/04/2019, 18:39:14
1121533135303446528	artcs17	Razer goliathus e ruim =/	25/04/2019, 18:55:11
1121535609816752128	JeeJeeSLC	Razer blade pro 	25/04/2019, 19:05:01
1121540903988944896	leakpt	Razer Blade 15 e 17: Mesmo tamanho mas mais performance! http://dlvr.it/R3WcYQ	25/04/2019, 19:26:03
1121547741929312256	dukli_	Razer mercury	25/04/2019, 19:53:13
1121549448851492864	RazerBrazil	Amanhã tem live especial do @HearthstoneNess! Concorra a um headset Razer Kraken 7.1 V2 no sorteio #RazerDay. Siga-o para saber quando começa http://twitch.tv/Ness	25/04/2019, 20:00:00
