id	username	text	datetime
1163626339473264641	__tiagom___	Aparece me k n esta disponível para Portugal	19/08/2019, 22:38:33
1163627236685164544	OutcastTofoli	9° colocação na minha primeira etapa no Rumble,pra quem estava alguns dias sem jogar e voltou logo hj, acho um resultado bem satisfatório. Parabéns ao @LuizFGarden e a @RazerBrazil pela iniciativa focada para FGC BR e pela bela organização demonstrada em todas etapas.	19/08/2019, 22:42:07
1163628109087813638	D1oRod	Hoje foi dia de Rumble de novo e consegui representar novamente! :D Fiz Top4, e dessa vez o zumbizão carregou! Parabéns a todos os players e a @RazerBrazil e o @LuizFGarden por dar essa moral! Bracket: https://bit.ly/2MqeTwf	19/08/2019, 22:45:35
1163628840972881921	TsunaPisadinha	BOA, DIO!!	19/08/2019, 22:48:29
1163631422596354048	MugJuly	Que representatividade maravilhosa! Parabéns a todos e ao neste DioRod também! ^^	19/08/2019, 22:58:45
1163631564598763520	MugJuly	*mestre DioRod. Ai corretor, me deixa escrever direito! T_T	19/08/2019, 22:59:18
1163631750075101185	D1oRod	Valeu, July! :)	19/08/2019, 23:00:03
1163635755731828737	PKJuunior11	Booaa monstro parabens 	19/08/2019, 23:15:58
1163635809200889870	D1oRod	Valeu mano! :)	19/08/2019, 23:16:10
1163636555090673664	PedroHe83298475	Ué o sorteio saiu aonde?	19/08/2019, 23:19:08
1163648589815570437	LuizFGarden	Valeu, mano! Obrigado pela moral e por sempre estar fortalecendo a cena =)	20/08/2019, 00:06:58
1163654455981727744	sazanamisushi	@RazerBrazil me tirem uma dúvida, estou querendo comprar a versão desse headset com cabo 3,5mm para jogar no xbox one. Por acaso no console eu consigo habilitar a função de virtual surround 7.1, com algum aplicativo ou algo do tipo? agradeço a atenção &lt;3	20/08/2019, 00:30:16
1163658479783071745	RazerBrazil	Obrigado pela moral e por sem estar fortalecendo a cena =}	20/08/2019, 00:46:15
1163663724768575489	erivanilol	@RazerBrazil adiquiri recentemente um deathadder elite, se forem humilde, me enviarem um teclado compativel com synapse gg, só gameplay monstra!	20/08/2019, 01:07:06
1163723325652262913	Gordox	Depois de horas carregando 185 mil comentários, TEMOS UM VENCEDOR do setup Full @RazerBrazil. Valeu guys, já já tem mais um sorteio absurdo pra vocês :) 	20/08/2019, 05:03:56
1163734123728519168	nho_kai	Impossível eu ganhar. Parabéns Lavínia sortududa	20/08/2019, 05:46:50
1163757068651810816	Josealdeia	Alô @RazerBrazil vamos patrocinar os meninos. Let's Go Red!	20/08/2019, 07:18:01
1163773845171560448	OutcastTofoli	Boa, parabéns mestre DioRod!!	20/08/2019, 08:24:41
1163804617978740739	RazerBrazil	Niceee, parabéns! 	20/08/2019, 10:26:58
1163818311873789952	LuckySPFC	Uma rave kkkkkjjkk	20/08/2019, 11:21:22
1163847777027317760	iankhoury	Foda-se promoção. Se expliquem sobre a @gabicattuzzo marca falida do crl	20/08/2019, 13:18:27
1163855187200622593	KiraganaTV	Parabéns diao!	20/08/2019, 13:47:54
1163904372398600193	padovex	curti a ideia mais debochada do @m6hyt idade: 404 altura: médio/baixo pé: tenho signo: otaku asc e lua: sei e lá tattoo: tô pagando Piercing: furei 3x cor fav: #44d62c (a @RazerBrazil que me ensinou) série fav: a sequencia faustão&gt;fantástico 	20/08/2019, 17:03:21
1163913357327503361	RazerBrazil	Olha isso! (via Ty-Ty Gaming)	20/08/2019, 17:39:03
1163914185601949698	nogueir4d	@Victor_gentil altas balas	20/08/2019, 17:42:20
1163914433309106177	womanelric	ai minha labirintite	20/08/2019, 17:43:20
1163915238879715328	asnotyy	Bagulho loco pra um ataque epiléptico	20/08/2019, 17:46:32
1163915918524727300	anaodebarba	@sir_cavaleiro sua cara	20/08/2019, 17:49:14
1163916424374562816	Drizith_	Muito bom para ter um ataque epilético	20/08/2019, 17:51:14
1163916497565229059	peroquesip	Os epiléticos não curtiram	20/08/2019, 17:51:32
1163918302411984897	TmzOS	Isso vai matar alguém	20/08/2019, 17:58:42
1163918837491871744	Allyson_7Sep	Chega a doer os olhos kkk	20/08/2019, 18:00:50
1163919064311521281	thales_ribas	Eh uma zona?	20/08/2019, 18:01:44
1163920043496939520	LilThiago777	Ixe morri	20/08/2019, 18:05:37
1163931776861052928	_ShadowSkye	na porta do quarto tem q ter um aviso de epilepsia q nem em alguns jogos	20/08/2019, 18:52:15
1163931918066495488	Of_Zenon	Eita. Quero só um teclado @RazerBrazil 	20/08/2019, 18:52:48
1163933543954812930	Cris7ianoFinger	Melhor que as casas noturnas da minha região	20/08/2019, 18:59:16
1163939285919248384	AnonymousCausa	ATAQUE EPILÉPTICO, EU ESCOLHO VOCÊ!!!!!!!	20/08/2019, 19:22:05
1163940771722080257	__Vand__	@RazerBrazil da um pc pra ela	20/08/2019, 19:27:59
1163943599152750592	rfratelli	Chama o eletricista, tem algo em curto...	20/08/2019, 19:39:13
1163948695999647745	MathSh4d0w	Ataque epilético	20/08/2019, 19:59:28
