id	username	text	datetime
1132083267799277568	camille37954114	Razer me ajuda	24/05/2019, 21:37:38
1132085365681074176	camille37954114	@RazerBrazil olha meu perfil	24/05/2019, 21:45:58
1132142879827288068	pedrohmirandas	@RazerBrazil patrocina esse menino.	25/05/2019, 01:34:31
1132229342275219458	YuryGuilherme	@RazerBrazil o teclado anansi terá suporte no Synapse 3?	25/05/2019, 07:18:05
1132263609948692480	RazerBrazil	 Não entre em pânico Use o cupom RAZERNERD para ganhar uma toalha e 10% de desconto na compra de qualquer produto Razer na @kabumcombr! Unidades limitadas: http://rzr.to/orgulhonerd2k19 #DiadaToalha #DiaDoOrgulhoNerd	25/05/2019, 09:34:15
1132288183478181889	Luccarb_Twt	Finalmente vou poder me secar a 144fps!	25/05/2019, 11:11:54
1132293023197540353	marl_OFF	A toalha tem RGB? Se não nem quero!	25/05/2019, 11:31:08
1132299143068737536	hastadlol	Gente na @kabumcombr SO HOJE, comprando qqer produto @RazerBrazil ganha uma toalha http://kb1.me/AT8Ahe Usando CODE: RAZERNERD +10% de desconto, absurdo.	25/05/2019, 11:55:27
1132299463983271937	rollingpencil	a toalha é rgb ?	25/05/2019, 11:56:43
1132299480315965440	LiimaaPedro	A toalha faz barulinho tbm?	25/05/2019, 11:56:47
1132300301283811329	RazerBrazil	Tudo depende da sua i m a g i n a ç ã o	25/05/2019, 12:00:03
1132300472939950080	edukern4	É pra secar as minhas lágrimas depois de ver o preço que eu paguei pelo produto? Kappa	25/05/2019, 12:00:44
1132300667035553792	EltonBarauna	coé boludo, cade as lives meu bom	25/05/2019, 12:01:30
1132301389856743424	darkyrnn	E as lágrimas quando seu ouvido estiver doendo e as almofadinhas estiverem saindo kappa	25/05/2019, 12:04:23
1132302037725663232	FagnerSousa99	Gente na @kabumcombr SO HOJE, comprando qqer produto @RazerBrazil ganha uma toalha (link: http://kb1.me/AT8Ahe) http://kb1.me/AT8Ahe Usando CODE: RAZERNERD +10% de desconto, absurdo.	25/05/2019, 12:06:57
1132303305252757511	hastadlol	Vou lavar meu rostinho com uma toalha	25/05/2019, 12:11:59
1132303965834473473	lucas_mesmo0	Não é qualquer toalha, é uma tolha GAMER	25/05/2019, 12:14:37
1132303989922521089	lucas_mesmo0	Toalha	25/05/2019, 12:14:43
1132304535064592386	elemesmoooxx	tem um botão q vc aperta na toalha e come o cu de quem ta lendo	25/05/2019, 12:16:53
1132304725490192384	hastadlol	Com uma toalinha razer bonitinha. 	25/05/2019, 12:17:38
1132307242437550080	Allisonfelis	Sacanagem comprei meu mouse semana passada @RazerBrazil #memandaumatoalha	25/05/2019, 12:27:38
1132309977182474240	raaulsp	toalha gamer	25/05/2019, 12:38:30
1132316884098060288	zlotyslol	Essa toalha vem com rgb junto?	25/05/2019, 13:05:57
1132317116747702274	OnlyBroke_N	e a torradeira?	25/05/2019, 13:06:52
1132322549466054656	Carlsx6	Se eu comprar a toalha vem com uma 1060?	25/05/2019, 13:28:27
1132327499688497152	rafaelbraandao	E digo adeus ao meu mouse Razer Naga 2014 que comprei em 2015. Botão direito dele falhando e umas teclas laterais tb. Triste demais.. @RazerBrazil 	25/05/2019, 13:48:08
1132330237373624320	vidrinhoo	HAHAHAUAHAUAHAUAHAUAU chora	25/05/2019, 13:59:00
1132331012623613952	rafaelbraandao	A vida né cara. A vida sempre dando uma dessas. AUHAUHAUHHAUUHA	25/05/2019, 14:02:05
1132331519450783745	ViniWeiller	vou comprar entao so pra apertar o botao	25/05/2019, 14:04:06
1132331753878765568	vidrinhoo	A vida sempre dá uma dessas. Aliás essa eh só mais uma de mtas	25/05/2019, 14:05:02
1132342869170298880	merlroocha	eu iria compra mtmtmtm comida acho q nm pro show eu iria passava nm na frente respeito as armys #pas	25/05/2019, 14:49:12
1132348388199096321	ViniWeiller	puts comprei um kraken não resisti	25/05/2019, 15:11:08
1132349008419139584	edupmarcelo	Parabéns	25/05/2019, 15:13:36
1132384460287160320	RazerBrazil	apoiamos	25/05/2019, 17:34:28
1132384952853651457	TKkayque	oloko , meu futuro emprego me notando ja kkkkkk	25/05/2019, 17:36:26
1132389072247361536	Lehendaa	toalha gamer? o mundo nao é mais o mesmo	25/05/2019, 17:52:48
1132390876297224192	RazerBrazil	Bordado e de boa qualidade! ;)	25/05/2019, 17:59:58
1132390948057624576	willian_lycosa	meu deus do céu esse braço mto lindo	25/05/2019, 18:00:15
1132396987570184192	enrinku	Bom dia	25/05/2019, 18:24:15
1132397543919378433	Kiryo19	T-T vou estar na estrada	25/05/2019, 18:26:28
1132400950482800640	RazerBrazil	Já já acontece o sorteio de 2 equipamentos no #RazerDay da @GabiCattuzzo! Vem pra live: http://gabis.live 	25/05/2019, 18:40:00
1132401683722571776	giganterichard	"Galera, tá rolando uma campanha na http://Kabum.com.br com 10% de desconto nos produtos da nossa @RazerBrazil A parte mais foda é que você ganha a toalha, é sério. RT humilde + CUPOM: ""RAZERNERD"" com 10% de desconto em qualquer produto Razer! Válido até meia-noite! "	25/05/2019, 18:42:55
1132402034949459969	PuREz4	Caralho, eu preciso dessa toalha.	25/05/2019, 18:44:18
1132402186690945024	giganterichard	vc compra e manda pra mim a toalha	25/05/2019, 18:44:54
1132402666431287298	PuREz4	eu vou comprar um headset e te mandar, e fico com a toalha	25/05/2019, 18:46:49
1132402764980641792	HANOFF	Eu fiz uma compra lá, Giga, o site confirmou, mas não aparece nos meus pedidos. Mandei uma mensagem pra eles aqui, mas até agora nada 	25/05/2019, 18:47:12
1132426865170407424	Fanho_RP	@RazerBrazil Muito Obg pero tecrado e mouse abrisurdo q vcs me presentrearam, N tenho paravras para agradrece e demonstra o quranto eu fiquei feriz pelo presente ! https://clips.twitch.tv/EsteemedCuteClipsdadTheRinger @PedrinhoDaBALSA ve o video pf https://www.twitch.tv/videos/429683338?t=06h54m56s apartir das 6hrs e 54min.. Muito Obg!	25/05/2019, 20:22:58
1132427042014793735	wzuia	Vc merece o mundo Fanho 	25/05/2019, 20:23:40
1132427229722546177	Fanho_RP	obg Zuzu 	25/05/2019, 20:24:25
1132428011947610112	CanalNaoConsigo	uia que top, obriagdo pela dica ^^	25/05/2019, 20:27:32
1132429903293538304	Surpr1s3WCS	caraio Franho..vc merece meu praceru saudades dos churrascos com o @PedrinhoDaBALSA ...que ele n chama mais 	25/05/2019, 20:35:03
1132433397668818945	IgoorFerreiiraa	Alô @kabumcombr, @RazerBrazil depois de 5 anos, infelizmente ele se foi, rola um patrocínio não? Haha 	25/05/2019, 20:48:56
