id	username	text	datetime
1161816495439142912	XwarriorheartX	lacrrrrr, agora vai toma no cukk	14/08/2019, 22:46:52
1161846126452117504	kingslay3r_	Alo @RazerBrazil me dá um fone 	15/08/2019, 00:44:37
1161934321822908416	hsodakw	Pubg, ou até mesmo a galera do CS 	15/08/2019, 06:35:04
1161963539466248194	Listtamaru	Com a mina que vcs demitiram por denunciar assédio	15/08/2019, 08:31:10
1161989656281571328	nandahalt	Grand Chase E tenho curiosidade de saber como seria um Remake de Tibia 	15/08/2019, 10:14:57
1162021287713222658	sergio_asjr	Quero um nenê desse, alo @RazerBrazil patrocina nois do @Rascunho_I	15/08/2019, 12:20:38
1162026465728323584	TuskD4C	Passou se os anos e a criançada cresceu, foda 	15/08/2019, 12:41:13
1162034661079572484	Riuskyfps	Segue eu tb @RazerBrazil haushahahahahsjsjajsj vai q 	15/08/2019, 13:13:47
1162037900105670657	willbernardees	tá pica demais, preciso fazer o meu	15/08/2019, 13:26:39
1162038263575646209	karinecbs	É lindo, mas é mais lindo ainda teus coalas e uns livros aí 	15/08/2019, 13:28:06
1162047356784783360	jedsoncardoso	Te ajudo	15/08/2019, 14:04:14
1162047444756176897	jedsoncardoso	Os coalas são a fofura do quarto	15/08/2019, 14:04:35
1162103203296620559	RazerBrazil	Tem oferta relâmpago no @kabumcombr! Combo DeathAdder + Kraken Essential por R$379,90 à vista A promoção vai até essa sexta: http://rzr.to/KBMcombo1	15/08/2019, 17:46:09
1162103608734822403	nickmartins_	double click? pego meu mouse e vo embora	15/08/2019, 17:47:45
1162104899330551809	RazerBrazil	Oi, Nikka. O DeathAdder conta com 2 anos de garantia. Você pode nos contatar por aqui em caso de qualquer problema ;)	15/08/2019, 17:52:53
1162105108781510662	fuarkki	no credito e 10$de desconto aoooooooooooooo	15/08/2019, 17:53:43
1162105785029206016	RazerBrazil	É que o combo em si já é a oferta. Escolhendo-os separadamente no KaBuM, o valor fica em R$470,36.	15/08/2019, 17:56:24
1162106467161387012	Silveriow23	Querer Double click? pego o meu de R$15 sem garantia que dura pelo resto da vida	15/08/2019, 17:59:07
1162111724062945297	BrunoRess	NA promoção, pagar quase 400 reais por produtos que estragam em 4 meses LUL	15/08/2019, 18:20:00
1162114733534785543	marluswm	E esse #tbt de respeito?! eslbrasil BH mrbeiramar leandrowebermidginski diego.asm #setup #setupgamer #custompcbuild #custompc @evgabrasil @nvidiageforce asusbrasil @corsair @nzxt rise.mode @RazerBrazil @razer https://www.instagram.com/p/B1MydEmh3fZ/?igshid=1cv4wr658n1wt	15/08/2019, 18:31:58
1162127470226804737	lucasntb00	@Dota2BRA @RazerBrazil @missclick_tv esperando segundo dia do ti	15/08/2019, 19:22:34
1162128208717844480	who1she	o pior é que nao sai............	15/08/2019, 19:25:30
1162131169061855238	alvaroyuri10	Alô @RazerBrazil , ganhei o mouse no sorteio do Gaules, me chamem lá no Dm da twitch \o/	15/08/2019, 19:37:16
