id	username	text	datetime
1112391685860982784	RazerBrazil	Conheça o Razer Ping! Inspirado no jogo mais viciante do momento, basta apontar sua câmera para qualquer objeto e deixar o Razer Ping! fazer todo o trabalho. Nunca mais fale com os seus amigos: http://rzr.to/ping	31/03/2019, 13:30:19
1112397911739064320	Major_Kalu	Loucura!	31/03/2019, 13:55:04
1112415879667613696	kkkaob	@RazerBrazil me manda um mouse abyssus por favor	31/03/2019, 15:06:28
1112473569462812673	web_asn	Criações Web . Qto Gamer do Portfólio: Razer @razer @RazerBrazil @teamrazer . #web #design #prog #portfolio #asn #sites #apk #android #apple #gamer #setup #intel #website #geek #php… https://www.instagram.com/p/BvrbLHhhhrR/?utm_source=ig_twitter_share&amp;igshid=n7ttoxv0rqo3	31/03/2019, 18:55:42
1112494813885149184	estevaoarauj	oie @RazerBrazil me manda mimos, eu faço publi o resto da vida pra vcs usahushausahsua to precisando de um headset	31/03/2019, 20:20:07
1112495021062873088	estevaoarauj	só queria virar um Razer Boy uahsuahsuahsuha	31/03/2019, 20:20:56
