id	username	text	datetime
1151642842365943808	lssmarcos	Pq é do bolso da mamãe que sai o fonezinho da razer, nao é do seu kkkk. Aí você ia ver oq é jogar dinheiro fora	17/07/2019, 21:00:24
1151642931557818368	valzinnn	"Agr a mina do problema todo lá com a Razer foi pra Hyperx Eu to só o meme do Carl: ""oh shit, here we go again"""	17/07/2019, 21:00:46
1151643704597393411	Choreifodase	Razer não era decente?	17/07/2019, 21:03:50
1151644463988707328	larissacatelli	@HyperXBrasil parabens vcs estao de parabens olha pisaram na razer muito obrigada de nada	17/07/2019, 21:06:51
1151645466234429441	LariihBelikov	Agora ja sei de qual marca comprar ♡ Hyper rainha razer nadinha ♡	17/07/2019, 21:10:50
1151647930639630336	Ler0Xx	A razer não perdeu muito rsrs	17/07/2019, 21:20:37
1151649145536557056	VagnersantosJJ	Minha mãe mandou eu ver um PC pra mim comprar, por 1s quase entro no site da Razer.	17/07/2019, 21:25:27
1151650227700584448	BrokenNantes	eh da razer?	17/07/2019, 21:29:45
1151650479908298753	stonezitos	Tira foto do Razer no lixo que é o devido lugar, please &lt;3	17/07/2019, 21:30:45
1151650649756577792	_Tib3_	Não sei hein, os headset da razer são muito bons.	17/07/2019, 21:31:26
1151652406712836098	ygorsiqueira1	MIL VEZES MELHOR QUE A RAZER!	17/07/2019, 21:38:25
1151652849421565953	mecronaldis	Quanto custa isso na razer?	17/07/2019, 21:40:10
1151654095192776706	_grazitop	razer jamais	17/07/2019, 21:45:07
1151654635398152192	Josuel_yN	Razer &gt;&gt;&gt;&gt;&gt;	17/07/2019, 21:47:16
1151655417342304256	_Tib3_	Não falei que é melhor pois nunca testei uma da Multilaser aí sei lá, mas o da razer pra joga um cszinho é uma delícia.	17/07/2019, 21:50:22
1151656698010054658	parallaxksy_osu	Graças a Deus eu voltei a comprar Razer	17/07/2019, 21:55:28
1151657335066103810	duneves007	Razer no Brasil é caro, mas se conhece alguém que morar no exterior ou você consegue pegar em promoção no Brasil, sai 500% mais barato	17/07/2019, 21:58:00
1151657523612721154	duneves007	Eu tenho um kit full Razer a 3 anos e até hoje não vi nenhum problema na marca, são esses retardados que não sabem cuidar dos produtos e reclamam da marca	17/07/2019, 21:58:45
1151659679749197824	696Lukas	Ja taquei meus produtos da HyperX na gaveta, bora voltar pro meus produtos da Razer msm	17/07/2019, 22:07:19
1151660584993271809	foxiswy	razer	17/07/2019, 22:10:54
1151664897324982272	MaxKalel	razer	17/07/2019, 22:28:03
1151665078892187653	Dayvisson_	Certa ela! Qualidade de áudio da hyperX é muito melhor que Razer hahaha	17/07/2019, 22:28:46
1151665259675095040	vtrbol	Bjs Razer.	17/07/2019, 22:29:29
1151666170195587072	akutagawaii	Amor já tive mouse e fone da Razer viu ? Trabalho e pago bem caro nas coisas não chamei advogado da Razerlixo aqui não	17/07/2019, 22:33:06
1151667408417021953	SalimRPTM	Analisando friamente vemos que a @HyperXBrasil tem o marketing afiado e aprendeu numa adversidade a como ganhar clientes, sera que a Gabi aprendeu a como nao perde-los? desejo sorte aos dois... inclusive a razer, pois esse fato nao diminui a historia da empresa no e-sport BR.	17/07/2019, 22:38:01
1151668296338608128	nathan_santooss	Qual e a melhor loja de periféricos e pq é a razer????	17/07/2019, 22:41:33
1151668948192190467	OhItsJustVictor	ser contra o posicionamento da razer nao tem nada a ver com ser esquerda? tem a ver com ter um minimo de bom senso e nao ser um bosta	17/07/2019, 22:44:08
1151669090693656576	OhItsJustVictor	cliente lixo a razer é que gosta kkk	17/07/2019, 22:44:42
1151669212571717632	StoneDYasak	ce ta maluco, Razer muito melhor 	17/07/2019, 22:45:11
1151670444031954944	CaraJJose1	Saiu da razer Nova fonte de renda agora	17/07/2019, 22:50:05
1151670507772751872	pedrinrocha0129	Essa gata a razer n tem mais kk	17/07/2019, 22:50:20
1151673001701720072	chrislocones	Eu tava esperando esse momento chegar pra dizer CHUPA RAZER	17/07/2019, 23:00:15
1151675002972004357	le_akym	não acredito que tive que ficar vendo MAIS UMA VEZ nego defendendo razer e dizendo que os produtos são bons pq querem atingir a mina lá dnv HAUSHAUSBAUSHAUSHAYHUDSHFJSDF aaaaaa	17/07/2019, 23:08:12
1151675247642517505	le_akym	eu fico na dúvida se: -nego realmente acredita que os bagulho da razer são bons -so faz isso por ser retardado e tentar atingir ela msm mas sabe que os produtos são ruins	17/07/2019, 23:09:10
1151676558140223488	TioSaw	Fora que a Razer e uma empresa séria, não esta aqui pra ficar ouvindo ou lendo desaforos de mulher mal amada não, agora vcs não são boas o suficiente pra um homem, e depois vem falar ou postar merda ?? Geração de mulheres lixos que esta tendo. Né lixona olha pra vc.	17/07/2019, 23:14:23
1151678821285945345	Sacoloiro	Q periferico da razer é vc pra eu compra?	17/07/2019, 23:23:22
1151680044869259265	SrPeanutbutter	Poxa ser fosse hiperx até que ia bem,mas razer	17/07/2019, 23:28:14
1151680716880699394	akutagawaii	Sempre falei que razer é lixo então pelo menos cmg a crítica é real	17/07/2019, 23:30:54
1151680943687708673	P0rra_Eric	falar que razer é qualidade é tenso AHSUDHAUDHAUDAS	17/07/2019, 23:31:48
1151681924454322176	Victorms2713	Questão de tempo para perder esse também? Hahahahaha a Razer fez certo!	17/07/2019, 23:35:42
1151684234286944256	coroicuzaum	KKKKKKKKKKKK razer 3x melhor q saporra	17/07/2019, 23:44:53
1151685674178875394	Danilo_Nakano	Novo tapetinho...adeus razer Mantis? https://www.instagram.com/p/B0Cr3eYpk58/?igshid=ln9pi2i5n9k2	17/07/2019, 23:50:36
1151686458660524032	Choreifodase	Nossa, minha opinião pessoal (já que, qualidade é ponto de vista pessoal) é uma merda? Sinceramente, opinião pessoal não se discute, porém vamos lá. Comprei Razer entre outras marcas já, Razer sempre se destacou e foi a melhor e você?	17/07/2019, 23:53:43
1151687895905951746	WhenMusic_	Parabéns pelo Fone Gabi. Apesar de ter sido contra você no caso da Razer fico feliz pela sua aquisição. Bom proveito	17/07/2019, 23:59:26
1151687963891441665	iamryv	cade os razer @gabicattuzzo	17/07/2019, 23:59:42
1151689400536973312	gomes_slooder	"Exatamente.. antigamente eu sempre comprava fone de R$30,00 e ficava me achando o GOD pq tinha ""headset"".. e quase todo mês tinha q trocar kk foda d+.. hj comprei um puta CxB, o Bio da Redragon e nn deixa a desejar, muito menos toma tapa pra Razer e até mesmo Cloud Stinger."	18/07/2019, 00:05:25
1151690349540270081	MateusZaebos	Lancha tudo garota. Pau no cu da Razer.	18/07/2019, 00:09:11
1151694138938712069	flynstouns	@LoLegendsBR @LeagueOfLegends @riotgames @RazerBrazil @Razer @Jukeslol @Danielsdesu @Jovirone1 @PatoPapao @Kamizeon @brttOficial @faker Reuni todos aqui hj pra pedir um pc normal pelo amor de deus gente, eu tenho mais de 2000h de jogo no lol n consigo jogar 15fps TF,INTEL INSIDE	18/07/2019, 00:24:14
1151694468199919616	tektoorgg	MAIS UMA VEZ 3° LUGAR NA RAZER MOBILE LEAGUE 	18/07/2019, 00:25:33
1151697863174512641	vitaotrab	tatua o simbolo da razer desafio sabrina hardcore	18/07/2019, 00:39:02
1151699452824100864	DoritosKoutz	Razer é melhor KAPPA	18/07/2019, 00:45:21
1151700797887078400	MarcelinHenri	Kkkkkkkkkkk razer&gt;&gt;&gt;all	18/07/2019, 00:50:42
1151701675129765888	R41DWyatt	Razer	18/07/2019, 00:54:11
1151702371149471745	bo_cross	Nem nos seus sonhos mais tórridos.	18/07/2019, 00:56:57
1151704701307674624	LucasJonnathan	Só aceita migs.	18/07/2019, 01:06:13
1151704824297218049	bo_cross	Aceito fatos, não sandices, migs.	18/07/2019, 01:06:42
1151705100748042240	LipeBronation	A qualidade ja é melhor q razer	18/07/2019, 01:07:48
1151705828627570688	bo_cross	Nota musical, só se for.	18/07/2019, 01:10:41
1151708028204437505	RizkalLulu	E um headset maravilhoso da Razer.. só não é o da Dva, mas ele é divo assim mesmo	18/07/2019, 01:19:26
1151708216696496128	abakatsurada	Razer coisa de gado Enrico lúcido de mais	18/07/2019, 01:20:11
1151710369590779904	bielzitok	se fosse um cara nem teria perdido o patrocínio da razer cala a boca ae mlk, não existe privilégio feminino não	18/07/2019, 01:28:44
1151710952196325377	Choreifodase	"Eu prefiro a Razer do que a Hyper, sempre. Mas, a Hyper não tem uma qualidade de se jogar fora (mesmo que a Razer seja superior). Então: O Hyper é mais barata e tem uma qualidade boa, por isso eu citei o ""Custo-benefício"", mas acho que você entrou melhor a fundo nisto. [+]"	18/07/2019, 01:31:03
1151713062203875328	camyx_	to de boa com o meu chroma da razer 	18/07/2019, 01:39:26
1151719656140496896	bermedmen	Razer é o caralho, hyperx for the win	18/07/2019, 02:05:38
1151726414795804672	arranjo_a	O Razer Cortex é mó útil, mas tenho um puta nojo de usar ele agora pqp	18/07/2019, 02:32:29
1151730807742091265	xhyom	meu mouse morrendo razer faça alguma coisa	18/07/2019, 02:49:57
1151731960710148097	VitorNemitz	razer? é de comer?	18/07/2019, 02:54:32
1151740388903927808	sswkura	eu nao quero mais nada da razer não depois do que eles fizeram com a menina la	18/07/2019, 03:28:01
1151751638903922689	sheepiux	Já estou a planear no Natal comprar os fones da Razer! Depois só me vai faltar o micro, o suporte e o tapete.	18/07/2019, 04:12:43
1151752977067233280	TheMathyM	Vacilaram, perderam cliente. Não gosto da Razer, mas agora vocês são piores.	18/07/2019, 04:18:02
1151755367086358528	KarlloMello	PAPO SÉRIO – Seios virtuais, Evento Razer, FF VII exclusivo e Polymega https://hiper190334362.com/papo-serio-seios-virtuais-evento-razer-ff-vii-exclusivo-e-polymega/	18/07/2019, 04:27:32
1151755874135789568	KarlloMello	PAPO SÉRIO - Seios virtuais, Evento Razer, FF VII exclusivo e Polymega http://tinyurl.com/y2grlbnl	18/07/2019, 04:29:33
1151757264241483776	Choreifodase	*QUASE* Fora que é realidade, tanto que levaram o caso ao tamanho da Razer romper contrato, uma dimensão completamente diferente de uma simples intriga de internet.	18/07/2019, 04:35:05
1151762511428911104	tibi__man	Razer！？	18/07/2019, 04:55:56
1151763048476098560	brenovfs	Por isso mesmo que acho a maioria dos produtos da razer mt caro e sem qualidade	18/07/2019, 04:58:04
1151764877297561600	021mxts	eh ue mas deu esse patrocínio ai p ela só p dizer que é “diferente” da razer e ganhar mais alguns compradores sendo que todos sabemos que as duas empresas tão pouco se importando c essa situação toda	18/07/2019, 05:05:20
1151767058054623233	vitobtw	Mano m faria sentido a Gabi zuar a razer pq os dois vacilaram, ela tá só anunciando o patrocínio tranquilamente de boas certíssimo Gabi parabéns vc merece	18/07/2019, 05:14:00
1151774964686524416	s0rau_L	Razer	18/07/2019, 05:45:25
1151796656146268160	YossaFariz	Razer	18/07/2019, 07:11:36
1151801397584834560	geektopic	Análisis: Seirēn Elite de Razer https://buff.ly/2LsdCo6	18/07/2019, 07:30:27
1151810745325297666	LucasJonnathan	Quebra de vc não tiver zelo meu bom!	18/07/2019, 08:07:35
1151816714818150400	_mlpx	kit novo da razer	18/07/2019, 08:31:19
1151821818740781061	epishi	Depois de tudo o que aconteceu, quem continua segundo a moça vai continuar seguindo de qq jeito. O caso teve repercussão internacional, gringo felicitou a razer pela atitude. E a nova empregadora dela o fez pra lacrar, vamos ver se vai lucrar...	18/07/2019, 08:51:36
1151825063315771393	diandwi	Razer la	18/07/2019, 09:04:29
1151826029083860992	peuestrela	Agora Razer é lixo ,igual a todos os homens rsrsrs	18/07/2019, 09:08:19
1151826041620615168	RichSama_	Cê sabe que a hyperx teria feito o mesmo no lugar da Razer né? Empresa não tem opinião, o foco é ficar longe de qualquer treta não importando quem tá certo ou errado	18/07/2019, 09:08:22
1151828275712417797	FortezaMelo	Eu fui tonto e comprei um kit razer inteiro 	18/07/2019, 09:17:15
1151829914095620098	gilsegundo	"Atenção gamers de plantão! Não comprem headsets da #Razer! Adquiri o Kraken e menos de um ano depois as almofadas estão todas saindo! De que adianta pagar caro por uma ""qualidade"" dessas?! "	18/07/2019, 09:23:46
1151830426484465664	yujitashiro	Um monte de cara falando que a Razer é melhor eu acho, desejando que ela perca esse também... Zzzz	18/07/2019, 09:25:48
1151833543649218560	lucas_faccenda	Hauahauahauaha nossa eu adorei, bem feito pra razer lixo	18/07/2019, 09:38:11
1151834622625492992	Orellana_promo	*Oferta do dia* Acessórios Gamer RAZER em Oferta https://amzn.to/2XPDcJX	18/07/2019, 09:42:28
1151836612491452417	ivofodido	Boa gamer és um tipo mm cool. Razer	18/07/2019, 09:50:23
1151838476461060096	Gusttavow1	Razer é mais bonito Amo verde	18/07/2019, 09:57:47
1151840551815319554	Sir_Raffs	"""V0u lAcRAr eM CimA dA RaZer"" "	18/07/2019, 10:06:02
1151841238737461251	bo_cross	Que coincidência todo o mundo que usa essa marca não ter zelo, rs	18/07/2019, 10:08:46
1151841975211036672	madsilvax	essa foi a que disse que homem é lixo e deu toda aquela treta com a razer gamers: nao generaliza 	18/07/2019, 10:11:41
1151844711881199616	NicolasF94	Sempre tive uma quedinha pela @HyperXBrasil , agora to louco pra comprar tudo de vocês e jogar fora meus Razer com vontade	18/07/2019, 10:22:34
1151845037191438336	vengerbergciri	gente e eu que peguei um ônibus com um cara com casaco e mochila da razer.....	18/07/2019, 10:23:51
1151845228845948928	feelipelol	riquissimo ele, mochila da razer é caro pra desgraça	18/07/2019, 10:24:37
1151852730761318403	de_ssao	Eu tenho um sonho de consumo muito boboca que é o headset de DVA da Razer	18/07/2019, 10:54:26
1151854206619443200	LucasJonnathan	Eu uso, e tenho zelo DIABDIANDKANS	18/07/2019, 11:00:17
1151854371908595712	SamCriscolo	uma dúvida gente fone Razer ou Jbl sem fio	18/07/2019, 11:00:57
1151854533758410752	bellamoura18	Razer e pra qm joga wtf	18/07/2019, 11:01:35
1151855283435659265	larxxzx	da razer ue	18/07/2019, 11:04:34
1151856402694115328	larxxzx	pesquisa razer no google,prometo que não é difícil	18/07/2019, 11:09:01
1151857142690979840	kun_igor	tu n confundiu com a razer nao	18/07/2019, 11:11:57
1151858179363561474	CamilaGamino	"Tinha um no Facebook ontem que só não respondi pra evitar a fadiga, mas o cara postou uma imagem com vários produtos da razer e disse ""prefiro estes"" e eu quase respondi ""como se tu tivesse dinheiro pra comprar tudo isso, né amigo"". Maioria deve ter um multilaser em casa."	18/07/2019, 11:16:05
1151858760509472769	gudiiiniz	vai perder o patrocínio da razer, cuidado bea	18/07/2019, 11:18:23
1151861958200745986	CostaNaoEhBosta	Razer&gt;	18/07/2019, 11:31:06
1151864328443895809	eaibiel_	Queria um fone branco da HyperX ou da Razer	18/07/2019, 11:40:31
1151868988231684097	DuhMatheus	Newman, meu compadre, fique avisado do acontecimento de ontem à noite! A hyperXbrasil, depois da @gabicattuzzo ser cortada pela razer, a contratou, jogando a opinião do seu maior público (masculino) no lixo! Comenta aí irmão.	18/07/2019, 11:59:02
1151871046020206592	tiliuocachorro	A Gabi que perdeu patrocínio da Razer agora ganhou patrocínio da HyperX. Grande dia!	18/07/2019, 12:07:12
1151878330683219969	DoMachadinho	Razer&gt;&gt;&gt;&gt;&gt;	18/07/2019, 12:36:09
1151881089969004550	chernobya	se eu tivesse patrocínio da razer nem com homem eu iria perder meu tempo	18/07/2019, 12:47:07
1151881628408602625	1cscrr	na próxima eu pego um razer pelo menos eles valorizam seu público	18/07/2019, 12:49:15
1151883374723833856	bruno51785107	"Se um fone da razer não dura nem um ano com você, só pode ser uma coisa... Falta de cuidado! Porque eu já tive um fone da razer que durou quase quatro anos, e só foi quebrar porque inventei de emprestar pra um ""amigo meu"""	18/07/2019, 12:56:12
1151883629544529920	Sr_Generico	Cuidado, vai que a razer tá ouvindo vc	18/07/2019, 12:57:12
1151883635345281026	danielfmfnatal	saudades razer	18/07/2019, 12:57:14
1151884004184023040	danielfmfnatal	razer desde criancinha	18/07/2019, 12:58:42
1151884091899482113	danielfmfnatal	compra razer	18/07/2019, 12:59:03
1151884322447790080	swelarryet	logitech eu entendo, mas os perifericos da razer estragam absurdamente mais rapido, nem vale a pena comprar, principalmente os fones, são horriveis e os da hyperx são bem mais confortaveis.	18/07/2019, 12:59:58
1151885240354390017	torradeiras	a parte mais bonita da garota gamer é o teclado rosa e a orelinha no headset da razer	18/07/2019, 13:03:36
1151886606254694400	dauntingFPS	razer vendo isto 	18/07/2019, 13:09:02
1151886627926663168	arthlixo	compra da razer quase mesmo preço e eh mais bonito	18/07/2019, 13:09:07
1151886679462076417	heroofdominaria	O unico produto bom da Razer é o DA Elite. Quem fala o contrario n tem produto da Razer.	18/07/2019, 13:09:20
1151887516246695936	JP_FelipeV	Razer	18/07/2019, 13:12:39
1151889075210784771	Weundercontrll	Razer empresa machista que demitiu a Gabi por ela falar a verdade. Que homem é merda	18/07/2019, 13:18:51
1151889847029657600	Focifur	Razer 	18/07/2019, 13:21:55
1151890657734275073	flavoroflife	Gente...a menina perdeu a razer pra ganhar suporte da hyperx... FOI O MELHOR NEGÓCIO DO UNIVERSO... vou começar a xingar homem no twitter tb, me patrocina hyperx pf	18/07/2019, 13:25:08
1151891398083403777	ng2kjao	Pedir desculpa por ser homem é zoado, mas não concordar q os homens em grande maioria são ridículos é foda Quando as mina fala mal de homem elas não tão especificando né, é só vc ver aquela fita da razer, q os mano provaram q são lixo Opinião minha	18/07/2019, 13:28:05
1151893474876301312	RattoBr	E o melhor é a galera sem cérebro que vai deixar de comprar uns produtor absurdos da HyperX por isso. pelo menos razer tem led né Led = + fps	18/07/2019, 13:36:20
1151894066004725760	genilson_RN	Então bora razer baaalllbuurdiaaaaaa	18/07/2019, 13:38:41
1151894952017879040	Weundercontrll	Em 2014 quando tudo era mato e só tinha razer ninguém podia reclamar, hoje as coisas mudaram.	18/07/2019, 13:42:12
1151895392591720448	arthlixo	isso eh verdade tm mt marca boa agr q da pau na razer mas gosto e gosto ne	18/07/2019, 13:43:57
1151896139169521667	akutagawaii	Falta de cuidado KKKKKKKL amigo eu não preciso de advogado vindo falar que a razer é ótima , meu fone sai da minha orelha pro suporte e já descascou tudo , e outra não é só comigo já li centenas de reclamações piores ou iguais , se vc gosta da Razer ÓTIMO PRA VC	18/07/2019, 13:46:55
1151896229443448832	AteVayne	Razer é melhor	18/07/2019, 13:47:16
1151896320552112128	akutagawaii	Que gente chata do caralho se vc gosta da Razer vai lá pagar seus 700 reais no fone lixo e pronto me deixa dar opinião em PAZ	18/07/2019, 13:47:38
1151896566346727426	akutagawaii	Fala como se morasse comigo e soubesse como eu cuido das minhas coisas né more ? Vai lá se inscrever pra defender a Razer em tt e ganhar salário	18/07/2019, 13:48:37
1151896739483389958	akutagawaii	Que gente CHATA mano kkk aceita que Razer é ruim e não tem qualidade	18/07/2019, 13:49:18
1151899074553110528	akutagawaii	Lógico que é , hitei num post e os advogado da Razer já vem daquele jeito	18/07/2019, 13:58:35
1151899126554144768	leo_nas_13	razer &gt;&gt; all quebrou em 2 meses de uso mas n e de marca misandrica 	18/07/2019, 13:58:47
1151900243673460742	RoxyResistant	Razer	18/07/2019, 14:03:14
1151901376852701184	luizrekt	Kkkkkkkkk ainda bem q todos meus produtos razer de 2016 ainda seguem intactos E olha q eu dou rage 	18/07/2019, 14:07:44
1151902383036874752	luizrekt	Suave tá eu não uso pq a qualidade eh ruim msm Porém razer all	18/07/2019, 14:11:44
1151906098787639302	RaphaelNakamoto	Enquanto lacrar estiver dando dinheiro, isso vai acontecer, simples. O que dá pra fazer é simplesmente não comprar mais e pronto. Deixa a mina pra lá com os gado dela e nós aqui com os razer e vivendo em paz.	18/07/2019, 14:26:29
1151906752515981319	coroicuzaum	Que mine fih perdeu a noção,nego fala mal de razer pq n sabe cuidar da porra dos periferico,ai fica xingando sem motivo	18/07/2019, 14:29:05
1151907161544568834	LucasYeezy	Razer tem uma expansão global bem maior q a Hyper e mesmo assim eles TREMERAM de medo. BK, MS e Sony tem um mercado super diversificado. LITERALMENTE 99% dos consumidores da Razer/Hyper são homens gamers. Se a maioria desse pessoal boicotar, a marca se fode. Simples assim.	18/07/2019, 14:30:43
1151907186794270720	guifelipesantos	O da Razer é melhor	18/07/2019, 14:30:49
1151909572665364486	happygostoso	Os da razer são muito bons nisso mas a durabilidade é péssima	18/07/2019, 14:40:18
1151909718593613824	goldness___	dps que acabou o patrocínio da Razer tem que usar produtos da @HyperXBrasil... HAHAHA, realmente homem é muito lixo...	18/07/2019, 14:40:53
1151910454735884288	_fercesar	a mina da razer n é mais da razer agr é da hyperx pelo menos a hyperx é qualidade	18/07/2019, 14:43:48
1151911439382302727	JulioDi00101230	Eis que a Razer te rejeita	18/07/2019, 14:47:43
1151915348087791617	Lucasdalucania	Porra, o tweet sumiu. Era um negócio da nossa musa lá da Razer.	18/07/2019, 15:03:15
1151916017670643713	Memegati	No fim td mundo se deu bem e bosta nenhuma aconteceu, Razer ganhou mais comprador, HyperX fez mídia e a bonitinha ganhou patrocínio. E teve gente que tratou aquela briguinha como algo decisivo pra sociedade ocidental... pqp 	18/07/2019, 15:05:54
1151916061689876480	mlqvertin	Nada pra razer, vou soltar uma pipa	18/07/2019, 15:06:05
1151916845802446848	carloslr1964	Pessoal, só lembrando que a Kingston é dona da HyperX, temos que boicotar os produtos dessa marca também. As minhas próximas memórias e pen drives não serão de nenhum dessas marcas. Quem acha que boicote é pressão não resolvem, só perguntar pra Razer. Vamos pra cima!	18/07/2019, 15:09:12
1151920446092300288	daviluizcaldas1	Boa tarde, vcs sabiam que esta empresa patrocina uma streamer que ficou famosa recentemente por chamar o público alvo da sua antiga patrocinadora (Razer) de lixo???	18/07/2019, 15:23:30
1151920533518389248	bielzitok	é fato também que a razer é uma empresa privada e não tinha obrigação de renovar com ninguém, mas ela poderia ter usado um discurso diferente do pronunciado nas notas da empresa	18/07/2019, 15:23:51
1151920568721125376	NataGuerini	Depois disso vou vender meu Revolver S, n da pra continuar investindo numa empresa q so pensa nas mulheres q no caso sao 5%, triste. . . . . . . . . . . . . (Zuera, mas vou migrar pra Razer, 2bjs)	18/07/2019, 15:23:59
1151921007718014976	riadz12	Todos e bom mais o razer e TOP vc tbm pode compra um branco com luz de led'-'	18/07/2019, 15:25:44
1151921765293142018	quenumvaidaroq	Mano, estou puto. Vou já comprar um Razer PRO.	18/07/2019, 15:28:45
1151923516255690752	tokimim0	Ta certo ela troca de patrocinador a razer é uma bosta no geral 	18/07/2019, 15:35:42
1151925470633574401	BerPellicioli	É, mas não da razer, pq obviamente tem outras marcas melhores 	18/07/2019, 15:43:28
1151926229928501249	jbritoooo	Homem patrocinado pela razer faz descurso de ódio contra mulheres e perder a parceira: ato nobre e bem feito pela razer Mulher faz descurso de ódio por homens e perde a parceria: razer machista ??????????	18/07/2019, 15:46:29
1151927117321576448	SebbathKarl	Mano, a jbl, apesar de chinesa, parece ter qualidade. Comprei um pra minha preta pelo ML. Tipo, aparentemente o custo foi baixo para o beneficio. Já tive um fone Razer. Custou caro... E era só um fone simples kkk Otima qualidade e durou bastante. Pena q perdi 	18/07/2019, 15:50:01
1151927188897378305	BerPellicioli	Na verdade daria pra fazer uma lista gigante de marcas melhores q razer, tanto de fone, mouse e teclado	18/07/2019, 15:50:18
1151929160987750401	shelby_tom97	Trabalhar pra só comprar Razer. 	18/07/2019, 15:58:08
1151929321893896193	Mayoi9272	Puts DESCULPA n sabia q Razer era bom 	18/07/2019, 15:58:46
1151929423748374528	wanr_ytb	Razer ?	18/07/2019, 15:59:11
1151929750165831682	SayonaraGokko_	razer é bom, e fez merda pra proteger a imagem da Impresa, mas não é por isso que os produtos dela perdem a qualidade	18/07/2019, 16:00:28
1151931917228544000	cristianooooxd	@yasakNTC razer 	18/07/2019, 16:09:05
1151932451339608064	OhItsJustVictor	escravoceta kkkkkkkkkkkk to aqui so pq a razer é uma bosta mesm sai daqui lixo	18/07/2019, 16:11:12
1151934809977102336	bo_cross	Parabéns, toma: Mas seu zelo não faz a Razer ser boa, beijo.	18/07/2019, 16:20:35
1151936500382277632	1FOXBRZ	Razer kraken essential ele abafar qual som ,vc não escutar nd	18/07/2019, 16:27:18
1151936578195021824	BadMurissu	Eu nunxa entendi isso Tu ta falando q a hyperX e melhor ou puor q a Razer? Ksjskskkskd	18/07/2019, 16:27:36
1151938634364403714	ShippadorDoMal	Não só confirmei o que pensei, a Razer ta sendo tratada como um Você Sabe Quem	18/07/2019, 16:35:47
1151941500214960135	dandeziderio	Se fosse razer, só ia perde a cor...	18/07/2019, 16:47:10
1151942248243879937	__lxcxs	que a razer eh maior no mercado óbvio o tweet foi em relação a qualidade dos produtos	18/07/2019, 16:50:08
1151943668141568003	HeDiFi	porque a razer ate hoje não lançou um tema pro Gboard com o chroma?	18/07/2019, 16:55:47
1151943933511053314	Piivol	Pero no tendrás nada de Razer.	18/07/2019, 16:56:50
1151944812410679297	LucasJonnathan	Realmente, eles são bom com ou sem zelo. :v	18/07/2019, 17:00:20
1151947289889558533	RenanzinhoHero1	Razer e bem melhor	18/07/2019, 17:10:10
1151948791844671495	comi_nem	@HyperXBrasil adeus hyperx, to vendendo meu cloud stinger e vou pegar um Razer, apoiar lixo virou lixo, flw	18/07/2019, 17:16:08
1151949243743113217	offguus	Acho que ele se referiu a menina lá que era da razer né dkskkk só quero arrumar isso e esses cara n respondem	18/07/2019, 17:17:56
1151949416212959233	quadrophenic23	Razer mamba elite 	18/07/2019, 17:18:37
1151953411484594176	GenneralDG	"Todo mundo merece ""recomeçar"". Erros existem para aprendermos e adquirirmos experiência. Espero que a @gabicattuzzo não perca essa marca como perdeu a Razer. Ela deve ser ciente do que fez, faz que do que fará. Boa sorte!"	18/07/2019, 17:34:30
1151955883703853062	Pedroenh1	Marca lixo vai falir razer&gt;&gt;&gt;&gt;	18/07/2019, 17:44:19
1151956275359604736	PromocaoTop	#promoção #oferta Por:R$230.35 Acesse:https://is.gd/gbEAmi Razer Mamba Elite 5G 16000DPI 	18/07/2019, 17:45:53
1151964825666379777	Allan_Neonny	"Eu ia até dizer ""faz isso N"" e talz Mas como o fone é da Razer eu n ligo"	18/07/2019, 18:19:51
1151968382209744896	ajiotape	pau no cu da razer flw 	18/07/2019, 18:33:59
1151968553307955207	henriquedalmas1	nego patrocinado pela razer ja perdeu patrocinio por fazer o q ela fez	18/07/2019, 18:34:40
1151974899717738504	cherabck	serio uma das coisas q eu mais me arrependo eh ter gastado 300 conto em um headset razer triste dmais ter sido uma criança iludida	18/07/2019, 18:59:53
1151975366602502145	PixoteBDC	Agora é só não ser tóxica com homens de novo hein? Se não é mais outro patrocínio no lixo hein. Ps: Se alguém vier aqui militar falando que a razer é machista eu infelizmente vou ter que te dizer uma coisa: Teu cérebro tá podre já man.	18/07/2019, 19:01:44
1151976023065550850	AmidoNI_	É aquele chuveiro de rico que quando liga vira chuveiro gamer com rgb, não cai água, cai Respawn drink lá da razer xD	18/07/2019, 19:04:21
1151980662657822720	sergioxttxncxx	LENDÁRIA CHUPA RAZER	18/07/2019, 19:22:47
1151981678535020544	DanielGomzaga	E o engraçado que o knadez e o napoleon tem fone da razer enquanto o davi tem um de celula kkk	18/07/2019, 19:26:49
1151987169407336448	Euaquioficial	Razer	18/07/2019, 19:48:38
1151990799250284545	quenumvaidaroq	agora eu estou puto. não sei se compro um Razer Kraken ou a Mi Band 4. (não tenho dinheiro pra nenhum).	18/07/2019, 20:03:04
1151990878388404224	Mario_99999	Caralho! O camelo no metrô aqui perto de casa também trabalha para a razer! XD	18/07/2019, 20:03:23
1151998723427201024	mykaa07	Um fone da Razer 	18/07/2019, 20:34:33
1152002064777539584	japinhhaaa	KAKAKAKAKAKAKAK eu indo razer minha tatoo 	18/07/2019, 20:47:50
1152004135316672513	robohorse3000	Pilei meu beck com um fone da Razer. Acho q virei playboy	18/07/2019, 20:56:03
1152004472287027201	Pimentcha	Meu irmão me lembrou de uma coisa agora. Em um treinamento que tivemos na Razer os caras apresentaram a @gabicattuzzo como embaixadora sim.	18/07/2019, 20:57:24
