id	username	text	datetime
1137931404522790912	m9las	Eu tinha um quase igual o seu, só que era o kraken usb. Ele durou 1 ano e quebrou na parte que regula, como eu gostava dele comprei outro, deu 2 meses quebrou no mesmo lugar. daí comprei um HyperX pq cansei de fone de plástico, no som prefiro o razer mas material HyperX é melhor.	10/06/2019, 00:56:03
1137931748698755072	RchrdLouis	RAZER	10/06/2019, 00:57:25
1138037132390518785	VADOWKl	Je viens a 14h bg	10/06/2019, 07:56:10
1138049535396274176	RodrigoGarcia_m	cigarro da razer	10/06/2019, 08:45:27
1138049798110699521	horen_frederic	Et on continue à Razer des corons Marles Les Mines 	10/06/2019, 08:46:30
1138053202736287744	Dumitharaujo	Eu vou comprar um mouse da razer, nn aguento mais quebrar mouse de 50 conto jogando pubg nos meus rage.	10/06/2019, 09:00:02
1138055127305281537	silverfins_	mo treta razer esses bang man.	10/06/2019, 09:07:41
1138055350966521856	dejager_mc	Razer Naga	10/06/2019, 09:08:34
1138059222346883073	CarllosSantos_	Compra meu teclado da razer tbm	10/06/2019, 09:23:57
1138066193611395072	diabledoux	Nossos dois mouses da @Razer estragaram ao mesmo tempo. Nem tô reclamando porque ambos têm quatro anos de vida e fizeram uma longa jornada de cliques e tiros, mas achei engraçado que a vida útil seja tão precisamente agendada.	10/06/2019, 09:51:39
1138070822214676481	PromocoesGatry	Caixa De Som Razer Leviathan Mini / R$:289,52 / 	10/06/2019, 10:10:03
1138073535207882752	w_vellozo	kkkkk tá ferrado, to pensando em comprar o mouse da razer mas já to chorando com o preço	10/06/2019, 10:20:49
1138082179114840065	E_ai_comprou	Mause Gamer Razer Deathadder Expert Óptico 5 Botões 6.400 DPI R$200 Compre aqui: https://amzn.to/2ZjW00p Participe do nosso... Compre aqui: https://desconto.page.link/txYQF	10/06/2019, 10:55:10
1138090683070328832	debizando	parece aquele mouse da razer que muds de cor 	10/06/2019, 11:28:58
1138090879808409601	cauaskl	nao sabia q a razer fazia cigarros	10/06/2019, 11:29:45
1138096889260326913	diogocastro_	CARA FALTAVAM 6 QUESTOES e eu tava com 37, comecei a razer pra alah	10/06/2019, 11:53:37
1138101423202361346	jbbrazil84	"Acabei de comprar: 'Razer Mouse Abyssus V2 - 5000 Dpi' por Razer via @amazonBR O bom e velho ""bom e barato"""	10/06/2019, 12:11:38
1138102026867339264	canaltech	Razer nova lança linha de periféricos na cor branca http://canalte.ch/T6YTF	10/06/2019, 12:14:02
1138102761969598465	yncarvalhal	quero um headset da razer 	10/06/2019, 12:16:58
1138102813727318016	gfeedk	Razer nova lança linha de periféricos na cor branca #tecnologia #tech http://bit.ly/2XJxzt3	10/06/2019, 12:17:10
1138103170020732928	marciojmsilva	Razer nova lança linha de periféricos na cor branca http://dlvr.it/R6M1xw	10/06/2019, 12:18:35
1138103356176654336	_Synt	razer	10/06/2019, 12:19:19
1138106096902639621	ALLTECH5	#TragoVerdades Razer nova lança linha de periféricos na cor branca https://canaltech.com.br/produtos/razer-nova-lanca-linha-de-perifericos-na-cor-branca-141359/	10/06/2019, 12:30:13
1138119088176324608	dudukovalski	estratégia pra fazer o filho comer salada hoje em dia: coloca as salada num plástico e cola um adesivo da razer ou da hyperx e deixa bem visível na geladeira	10/06/2019, 13:21:50
1138122866921222144	joaoandreetta	Que mané mouse gamer LED razer, eu sou do tempo do mouse de bolinha.	10/06/2019, 13:36:51
1138122938350231552	sxqueira	energetico gamer nao creio razer 	10/06/2019, 13:37:08
1138125581424431104	karol_ski	Razer blade pro	10/06/2019, 13:47:38
1138127662671638528	Vieira1337	caralho mano, a Razer simplesmente fez um energético pra GAMERS sem açucar, apenas com cafeína pra estimular o cérebro kkkkkkkkkkkkk ah meu vao se fodeeeeeeeeeeeer tao passando dos limites	10/06/2019, 13:55:54
1138130779161149440	player1paulo	LOLADA DO DIA Bem, a @Razer quando quer elevar a fasquia de produtos que não servem para nada consegue. Aqui está a prova disso. E os fansboys vão já correr. Viva a Diabetes! 	10/06/2019, 14:08:17
1138130950481678341	rodrigo_cunha	Carol, usei Razer por 6 anos, aí quebrou e precisei de um urgente. Peguei um Logitech Prodigy ali na Kalunga por 199.	10/06/2019, 14:08:58
1138133209823305728	DonInfierno	Com a Razer ou com a HP (pra pegar o Omen)! ;)	10/06/2019, 14:17:57
1138136098394312704	rodsfenix	Razer Abyssus V2, único produto da Razer que eu posso realmente recomendar, ele é muito bom.	10/06/2019, 14:29:26
1138137677734252546	alano_arthur	ele é bom?sempre ouvi dizer que a Alienware é mais hype doq qualidade, eu tenho só Logitech e Razer no meu setup ent kkk	10/06/2019, 14:35:42
1138139676370505730	O_Raul	Fora o ridículo da Razer fazer um energético o que mais me espantou foi ler que as ações da Monster Beverages, o pior energético do mundo, foram as que tiveram melhor performance nesse século, valorização de coisa de 60 mil porcento. 	10/06/2019, 14:43:39
1138141310253228039	catraizen	los de Razer 100 %.	10/06/2019, 14:50:08
1138148058108256256	brains9	Razer cria bebida energética para gamers - https://no.b9.com.br/2WX5UYl	10/06/2019, 15:16:57
1138148671428747264	vescnet	Razer cria bebida energética para gamers 	10/06/2019, 15:19:23
1138151637447598081	marraleo10	N consigo parar de rir. Nego tem que ser muito cabaço pra comprar uma bebida achando que vai te fazer JOGAR melhor. “MENTAL PERFORMANCE” KAKAKAKAKAKAKAKAKAKAKAKAK vai tomar no cu razer. 	10/06/2019, 15:31:10
1138154692977053696	MakasuHD	aaa eu tenho esse daz fatality, mas eu comprei um razer abyssus pq o scroll dele tava praticamente quebrado	10/06/2019, 15:43:19
1138154781271384064	Ienooo	razer ornata	10/06/2019, 15:43:40
1138169574338248706	igorcabral11	Sdd do meu fone da Razer	10/06/2019, 16:42:27
1138179307950563329	weslleycmps	Que coisa mais perfeita.	10/06/2019, 17:21:08
1138182150426112000	JhonBoyy	Saudades do que a gente ainda não viveu kkkkkk	10/06/2019, 17:32:25
1138182290981433345	acontecendoaqui	Razer anuncia lançamento de bebida energética para gamers. #AcontecendoAqui #razer #gamers #Respawn #marketing http://acontecen.do/1jof	10/06/2019, 17:32:59
1138185603252654085	Kaiohrq	oi fake	10/06/2019, 17:46:08
1138185986607845381	overacty	Feliz pois comprei meu mouse da razer com dinheiro do MEU SALÁRIO isso me faz até sentir útil	10/06/2019, 17:47:40
1138186446093848576	DOTApeach	Razer	10/06/2019, 17:49:29
1138194719492792321	tul0_	@Triccabus olha a cara desse Deus	10/06/2019, 18:22:22
1138197727811162113	mellindow	Parece equipamento médico	10/06/2019, 18:34:19
1138204078071263232	lagorafael_	@Mouktae economizar que fala?	10/06/2019, 18:59:33
1138205276593709057	Mouktae	nuss, prioridades né kkkk	10/06/2019, 19:04:19
1138206024765190145	lagorafael_	É mas nem consta	10/06/2019, 19:07:17
1138206853815558144	Mouktae	preço do meu celular	10/06/2019, 19:10:35
1138218369524686848	calcagno_enzo	@RazerBrazil olha quem está usando o razer man o'war 	10/06/2019, 19:56:21
1138224910030053376	willianrocha138	Ae, nao comprem teclado da Razer	10/06/2019, 20:22:20
