id	username	text	datetime
1149107493316042753	solongoodnight_	Uns cara num lixão procurando um buraco alien cheio de arma e dinheiro. Tem que matar uns loco no caminho e depois um bichão chato que nunca dropa nada de bom nas primeiras 37 vezes	10/07/2019, 21:05:50
1149123765193838598	ThiagoVanzo	Entao é o modelo q vc compro, pq o meu nao machuca nada nada	10/07/2019, 22:10:29
1149125237667192832	SrGabriewll	vai de pessoa pra pessoa	10/07/2019, 22:16:21
1149135211831144449	kaiomarcos3	"Não viaja, olha o nível do seu argumento ""Quem se neutraliza e faz recadinhos bonitos para os machinhos está do lado de quem oprime"" não consegue perceber que está errado? Primeiro que a empresa não fez recadinhos, ela apenas deu uma satisfação do porque está se neutralizando."	10/07/2019, 22:55:59
1149135945121378304	kaiomarcos3	Segundo que se Neutralizar não significa estar do lado de quem oprime, isso é óbvio, até pelo significado da palavra. Uma empresa é dirigida por pessoas? Sim! Porém essas pessoas não podem tomar posição por parte da empresa, eles estão ali para cumprir uma função da qual foram...	10/07/2019, 22:58:53
1149136708597964800	kaiomarcos3	"Foram contratados. ""Uma empresa não é uma entidade mágica que busca lucro do nada"" Não, imagina, a empresa foi criada para tomar partido em uma discussão e perder lucro/clientes."	10/07/2019, 23:01:55
1149137685161943041	kaiomarcos3	Sim! A culpa é do seu namorado! É simples, a marca é reconhecida mundialmente, todos falam que os produtos são de extrema qualidade, até pelo preço. Então se as coisas estão quebrando, a culpa é apenas do seu namorado, pois é ilógico produtos desse nível quebrarem do nada.	10/07/2019, 23:05:48
1149138536710463488	kaiomarcos3	A Tecnologia e a Qualidade das duas marcas são a mesma, até por serem marcas reconhecidas, se os produtos dessa marca não quebraram, deve ser porque seu namorado aprendeu a tomar cuidado com as coisas que ele compra.	10/07/2019, 23:09:11
1149148277578899458	Carlowsz_	Eu entrando em site de pc gaymer kkkk @RazerBrazil corre aki 	10/07/2019, 23:47:54
1149149483529318400	jes007_xd	@GODAOsz @ChipArt_info @Gabzuski @RazerBrazil @canalmasterking @SupremoDosG4mes @JakePudding_ @alanzoka @RedstoneGangFC @hddavigamer @EnayZuin @CdNLeon @viniccius13 @StoneDYooDa @Rakin @nilmoretto @Calango dem um força para ao coitado pls	10/07/2019, 23:52:41
1149226041749229568	lokitreteiro	Olha o nível do seu argumento, não consegue interpretar texto? Kkkkk Se ela se neutralizou dando uma satisfação pra contentar os clientes que são maioria (e que t(em)iveram atitudes machistas) então foi um recado bonito para agradar os machinhos	11/07/2019, 04:56:54
1149226176029888513	lokitreteiro	E isso foi tomar parte pro lado de quem oprime	11/07/2019, 04:57:26
1149226860020162562	lokitreteiro	Quem cala consente é um ditado bem antigo com uma carga de conhecimento beem grande. Quando tu silencia alguém ou se mantém em silêncio para algo tu vai estar auxiliando quem está errado. Além disso a atitude não foi neutra, ela quis ter a aparência de ser	11/07/2019, 05:00:09
1149227106456473601	lokitreteiro	Nem todo significado de palavra é óbvio, se fosse não existiriam tantas variações linguísticas	11/07/2019, 05:01:08
1149227554496286720	lokitreteiro	Como que pessoas que dirigem uma empresa não podem tomar parte pela empresa sensatão? Ksksksksk de novo tu está falando da empresa como uma entidade mágica que é superior a quem preside/dirige	11/07/2019, 05:02:55
1149228375598424065	lokitreteiro	A empresa não foi criada pra tomar partido porém tomou no momento que reagiu a uma série de atitudes de terceiros. Se ela foi criada pra gerar lucros a partir de um grupo específico (que no caso é um grupo que oprime histórica e socialmente outro grupo) então que lide com as	11/07/2019, 05:06:11
1149229009349337088	lokitreteiro	Críticas e com a eventual perda de clientes do outro grupo. A grande questão é que a empresa tomou uma posição política clara com um objetivo claro. Tem gente que vai perceber e discordar ou ainda assim concordar e vai ter os gado que não sacaram e vão defender	11/07/2019, 05:08:42
1149230037280968705	lokitreteiro	Além disso só pra acrescentar, falar que o outro argumento está errado sem apresentar um argumento de fato melhor demonstra falta de esclarecimento do assunto e uma tentativa de desvalidar a fala. Tu tem uma aparência de argumento bom, mas só se repetiu do anterior	11/07/2019, 05:12:47
1149230427447672833	lokitreteiro	Foi tipo o que eu falei que a empresa fez, só que foi mais escancarado e pior executado XD beijinhos	11/07/2019, 05:14:20
1149231041942626304	lokitreteiro	"Agora que li ""Apoiar o feminismo não é ser contra o machismo"" Mano, como assim??? Ajajsjsjwiajsnanwnisjan"	11/07/2019, 05:16:46
1149285510784987136	EllenVas1	Eu até ia... mas não vou gastar meu anos de conhecimento em Direito e na advocacia que eu exerço pra te explicar o que é a responsabilidade do fornecedor por vício ou pelo defeito do produto, já q claramente vc é fake e não deve ser levado a sério.	11/07/2019, 08:53:13
1149301765705293824	viniragazzi	fazendinha em pixels lindos na vila Pelicanos.	11/07/2019, 09:57:48
1149302847403638789	viniragazzi	Gosto do jogo do encanador vermelho e bigodudo e pulador, que tem um amigo verde magrelo, que curte entrar no cano e montar num dino recém nascido que come de tudo. E que roubam sua princesa todo início de jogo. Sacanagem...	11/07/2019, 10:02:06
1149315479871340544	heravenenosaxX	Lugar de mulher tb é no games, só pra relembrar que a @RazerBrazil Desprezou o público feminino https://cabanadoleitor.com.br/razer-voce-desprezou-53-do-publico-gamer-brasileiro/	11/07/2019, 10:52:18
1149350732459597830	Pdro_K7	Aquele momento íntimo seu no #TFT com seu teclado @RazerBrazil kkkk 	11/07/2019, 13:12:23
1149352510190247936	V1ctor_SL	KKKKKKKKKKKKKKKKKK, a maioria dessas mulheres jogam mobile! Nem compram produtos da Razer! Pqp 	11/07/2019, 13:19:27
1149353767889977344	nascinanda	Essa bosta dessa @RazerBrazil ainda tá de pé? 	11/07/2019, 13:24:26
1149360893844762624	tobandido	@RazerBrazil Olá...Gostaria de suporte, possuo uma Caixa de som Leviathan Mini a 1 ano meio, e hoje ele a não quer mais ligar, nem carrega ...simplesmente morreu, gostaria de uma ajuda de onde encontro uma assistência no brasil?	11/07/2019, 13:52:45
1149366616192421888	obsessedIady	"Minha intenção de migrar da Corsair pra Razer acabou no dia desse ""comunicado"". Foi bom ver como a empresa realmente trata suas ""parceiras"". @RazerBrazil você desprezou 53% do público gamer brasileiro https://cabanadoleitor.com.br/razer-voce-desprezou-53-do-publico-gamer-brasileiro/#.XSduaQFKYcg.twitter via @CabanaDoLeitor"	11/07/2019, 14:15:30
1149407115896864768	TenguPk	Olha o que comprei na @kabumcombr esse headset da @RazerBrazil e lindo demais! 	11/07/2019, 16:56:26
1149433234226405376	gosma_YT	@RazerBrazil Eu tenho um Razer Naga Hex V2 por mais ou menos 3 ou 4 meses, e tambem tenho um razer goliathus small que tem mais ou menos 7 meses (porque ganhei de natal), e por exemplo do nada meu mouse para de se mover no mousepad mas quando boto no meu braço ele volta a funcion	11/07/2019, 18:40:13
1149437858274566144	YanPiing	Tchau @RazerBrazil, oi @LogitechG Modelo do mouse foi escolhido por pura influência do @alanzoka	11/07/2019, 18:58:35
