id	username	text	datetime
1107439446515949568	alicenaoexiste	meu mouse da razer paro de funciona 	17/03/2019, 21:31:53
1107439481995571200	wagfps	Estou vendendo alguns periféricos, interessados entrar em contato na dm : - HyperX Cloud ll Vermelho (450,00 Reais) - HyperX Cloud ll Preto (400,00 Reais) - Teclado HyperX Alloy Pro + Teclas Vermelhas (370,00 Reais) - Mouse Razer Deathadder Elite Preto (250,00 Reais) 1/2	17/03/2019, 21:32:02
1107439556968833024	wagfps	- Mouse Razer Deathadder Elite Skt T1 (450,00 Reais) *Todos os produtos são usados, alguns com mais tempo de uso, outros com menos, por isso a diferença de alguns preços pelo mesmo produto* 2/2	17/03/2019, 21:32:20
1107451542452490240	arthurrvvieira	@rod4z @lucasdiasm17 Comprei um kit da Razer Agora o Gold sai	17/03/2019, 22:19:57
1107454456583651328	ZeCoveir0	Quero um deste para mim. Me nota @RazerBrazil e me dá um mimo. #apex #apexlegends @PlayApex	17/03/2019, 22:31:32
1107455617164365824	notwp_	CAMINHAO RAZER DOS E-SPORTS	17/03/2019, 22:36:09
1107461596207407104	Ultimate_Bling	razer mimba	17/03/2019, 22:59:54
1107462131421724672	GuilhermeGorkom	Aa claro, Full razer e 3 telas. HUMILDE	17/03/2019, 23:02:02
1107463498139922432	PaoComMelado	espera meu mouse da razer chega pra ve se eu n vo fica um nojo	17/03/2019, 23:07:28
1107466160809881600	Winkazi	Mano, meu teclado da @Razer @RazerBrazil não ta querendo reconhecer no Synapse... E eu preciso muito de 2 macros que tão configurados pro teclado. Só queria que alguém me ajudasse 	17/03/2019, 23:18:03
1107470148573822976	thijusto	bah meu razer ta mt capenga tadinho	17/03/2019, 23:33:53
1107498738581413888	JoaoVytorNS	Achei foda aquele que parece ser da razer	18/03/2019, 01:27:30
1107501442686951424	two_fy	né? eu total teria um carro rosa, ou laranja, ou sei lá, não entendo a alergia de algumas pessoas ao rosa ahahhaah tava vendo os comentários sobre o razer quartz e fiquei ??? francamente sensação que muita gente não curtiu só pq é rosa... enfim, eu acho MASSA 	18/03/2019, 01:38:14
1107558847823015936	mirukurate1	Razer	18/03/2019, 05:26:21
1107576578198962176	Emy_Jota	estudar pra ser main Razer né	18/03/2019, 06:36:48
1107589728411570178	Ryuuoujin	"Ta com cara de época que aquele ""Pain Kami Razer"" ali de nidalee/gragas mid tocava um terror"	18/03/2019, 07:29:03
1107598889513697281	Myohan09475167	Razer	18/03/2019, 08:05:28
1107620619481436160	speargames0	Computadora GAMER de Lenovo y Razer https://www.speargames.es/computadora-gamer-de-lenovo-y-razer.htm?utm_source=ReviveOldPost&amp;utm_medium=social&amp;utm_campaign=ReviveOldPost	18/03/2019, 09:31:48
1107621866439618561	ACMI4	el razer 2	18/03/2019, 09:36:46
1107622338332364805	matheusTHOOR	Sem macro não clica	18/03/2019, 09:38:38
1107624483291099136	RazerBrazil	Oi Gustavo! Qual é o teclado e qual versão do Synapse você está usando?	18/03/2019, 09:47:10
1107631686110642177	yukiya930	Razer https://www.instagram.com/p/BvJqb5GHDig/?utm_source=ig_twitter_share&amp;igshid=exkrhli2w2m5	18/03/2019, 10:15:47
1107636509413384192	fallenstorebr	Aquele Headset CONFORTÁVEL pra vc jogar por horas sem reclamar O Kraken Pro V2 Quartz, além de seu design único foi projetado com almofadas auriculares, permitindo que jogadores de óculos usem o headset sem incômodo! http://bit.ly/kraken-quartz-tw #SomosTodosJogadores #Razer 	18/03/2019, 10:34:57
1107659083828609031	Nerdream_it	La #NuovaLinea Razer da #gaming che comprende #BlackWidow, #Kraken e #BasiliskEssential è da sballo! Tutte le info sul sito! https://ift.tt/2Teym22	18/03/2019, 12:04:39
1107662667060310018	Adry_Chausal	Que capullo damelo	18/03/2019, 12:18:53
1107663226001649671	hazelskiara	eu nunca vou perdoar o razer de não ter ido no hospital logo após da beth ter se machucado no sequestro, nunca mesmo! Minha bichinha merecia mais 	18/03/2019, 12:21:07
1107672049940656129	ssunnymarss	Razer Blade Pro 	18/03/2019, 12:56:10
1107675968855048192	LuizFGarden	Discordo Nunca vi o Itazan ganhando torneio da Razer na BGS	18/03/2019, 13:11:45
1107678219606609920	Foxer_JJ	O cara desce e volta com uma pauta e um headset da Razer... O Mahteus é um gênio e eu posso provar! Hahahaha	18/03/2019, 13:20:41
1107688116234715136	RazerBrazil	Jogue com alto nível de desempenho com o novo Razer Blackwidow, que inclui o atualizado Switch Mecânico Razer Green, teclas totalmente customizáveis e nossa exclusiva iluminação Razer Chroma. Conheça agora o novo Razer Blackwidow: http://rzr.to/BlackwidowBR	18/03/2019, 14:00:01
1107690383478308864	DuxAoV	Harpy C3/ Razer Abyssus eu uso os dois recomendo	18/03/2019, 14:09:01
1107692075817013248	cazorla_antonio	Toast razer 200$la tostadora con luces 800$	18/03/2019, 14:15:45
1107692842691055616	Askener_	Rapaz Tá Dando Um 10 A 0 Nos Headset Da razer por ai	18/03/2019, 14:18:48
1107698860263133184	whoistulio	Poxa razer, depois de tantos anos já.... Existe alguma chance de algum dia lançarem um teclado desse nível em ABNT2?	18/03/2019, 14:42:42
1107705512676782085	AKB_miuquinho	Aula de Lógica = origamis eh isto tchau renata razer ja vai tarde	18/03/2019, 15:09:09
1107713879172399106	sunosz	compra um pad da razer rgb ela merece mais luxo e conforto	18/03/2019, 15:42:23
1107715926101843968	Winkazi	Estou usando a versão 2.21!	18/03/2019, 15:50:31
1107717686199574528	tiba041	perdão, é que é coisas que eu faria também. Tive que trocar meu razer recentemente tb trist	18/03/2019, 15:57:31
1107718692174004224	reddy97_	@Dhaix25 como toque buah	18/03/2019, 16:01:31
1107718775401598976	kabumcombr	 Headset Gamer Razer Kraken Essential com um preço imperdível para os ninjas, mas corre que são unidades limitadas! ► http://kabum.com.br/link/40/76488	18/03/2019, 16:01:51
1107722674388848642	c4rolinaG	Só queria um fone da Razer eu ia ser muito mais feliz.	18/03/2019, 16:17:20
1107728663859081217	medropelo	Muito show. Imagina Pia Chroma Razer	18/03/2019, 16:41:08
1107729410231279616	Emy_Jota	Sonhar com periféricos da Razer&gt;&gt;&gt;&gt;&gt;&gt;&gt;&gt;&gt;&gt;	18/03/2019, 16:44:06
1107732596279177217	ManoellaGomes_	mão chega coçar pra comprar um fone da Razer	18/03/2019, 16:56:46
1107737763422629888	h2m_ventas	Controladores Arcades Razer Atrox (XBOX) y Panthera EVO (PS4) + Raiju Mobil https://ift.tt/2CqalPH	18/03/2019, 17:17:18
1107751850713976837	Saraiva	Olá, Pedro. O teclado que estamos vendendo no site é o Razer Blackwidow Ultimate 2014 que vem com led.	18/03/2019, 18:13:16
1107753251506655232	gelsnerpenha	aí vc tá lá de boas trampando e teu mouse começa a dar duplo clique sozinho. ok, razer nunca mais.	18/03/2019, 18:18:50
1107756391354302464	RazerBrazil	IRADO! 	18/03/2019, 18:31:19
1107763880711868417	personaqualquer	cara tudo oq eu mais quero é razer o curso de aph namoral	18/03/2019, 19:01:05
1107766732347920385	2550l	razer só serve de enfeite rgb. sobre qualidade tem mta coida melhor e mais barata q essa joça	18/03/2019, 19:12:24
1107774287539245056	TheMindOfWillz	Razer	18/03/2019, 19:42:26
1107776094965559296	mamone23	um antigão da razer abyssus eu acho, comprei em 2015, ta bom ainda então não pretendo mudar	18/03/2019, 19:49:37
1107777488686669824	eIasix	Alguém quer me dar o fone da Razer de presente?	18/03/2019, 19:55:09
1107780324224835584	Aninhaazeved	Mais 300 reais eu comprava um razer ,acho que tô arrependida	18/03/2019, 20:06:25
1107784718253260801	coesaulin	razer ne pai normal	18/03/2019, 20:23:53
1107788875395665920	Bruno78831818	@FilipLeme Arruma a coluna menino,Mas um vídeo maravilhoso,Sua cama GAMER é da Razer? 	18/03/2019, 20:40:24
1107790567478571009	LucaZxxs	Na minha escola tem esse teclado brabo da razer chroma pro maternal 	18/03/2019, 20:47:07
1107793489645969408	umaindie	totalmente disposta a gastar 600 reais num headset da razer	18/03/2019, 20:58:44
