id	username	text	datetime
1153820723250470914	josediogenes	Meu teclado @RazerBrazil é tão ruim que preferi arranca ele agora o PC e colocar um tecladinho Dell de 90 pila no lugar porque não tenho condições de aguentar esses cliques duplos. Vai com Deus @RazerBrazil espero nunca mais ter nenhum produto de vocês.	23/07/2019, 21:14:32
1153821962029817857	ohGump	Vende o mouse e compra um da @LogitechGesport haha	23/07/2019, 21:19:27
1153824977268776961	rita13ca	Eu sei e entendi, mas continuar este caso assim como outros faz mal perseguir, faz mal para nos mesmo, porém espero que ela não faça mais isso daqui para frente !	23/07/2019, 21:31:26
1153829142678294528	pica_reta	O garaio	23/07/2019, 21:47:59
1153831630106058754	JZika12310	Gato e cachorro nao, aq o negocio e outro nivel @RazerBrazil @razer https://www.instagram.com/p/B0R7uULJ9or/?igshid=15z5lvx073w04	23/07/2019, 21:57:52
1153834297171726337	snowzzrra	pau no teu cu	23/07/2019, 22:08:28
1153834322249412608	snowzzrra	eu confio	23/07/2019, 22:08:34
1153842083087544322	RiichardDias	Twisted Metal seria interessante um remake	23/07/2019, 22:39:24
1153847506381316097	rodrigoweis	Suporte é uma coisa, ofender as pessoas em live e também falar muita merda em live e outra. Razer é uma marca boa também. Tenho os equipes das duas empresas.	23/07/2019, 23:00:57
1153851125445070849	Moura1Amanda	Mine com os antigos amigos e um pc bom pra grava tudo	23/07/2019, 23:15:20
1153871453013663745	qduzera	do jeito q tu é baiano vai falar razer 10 vezes e pegar no sonokkkkkkkkkkkkkkkkkkkkkkkkkkkkkkk	24/07/2019, 00:36:06
1153890161832448000	Blue_Diamoond	particularmente eu ainda usaria os produtos da @RazerBrazil sem problemas, mas #pas	24/07/2019, 01:50:27
1153939840817422336	rita13ca	Meio curioso isso voltar a tona agora por fim melhor não alimentar brigas que nunca levam a nada.	24/07/2019, 05:07:51
1153962125758517248	Venator_Gui	Cara.. sou muito seu fã. Admiro muito seu trabalho e como têm crescido, mas passar pano pra discurso de ódio, e ser contra posicionamento de uma empresa que DEVE se manter longe de tretas isso infelizmente tirou boa parte da admiração que eu tinha...	24/07/2019, 06:36:25
1153962973943226369	Venator_Gui	Um erro pode justificar outro agora? A pessoa ser integrante de um grupo teoricamente desprivilegiado tem carta branca pra ser hipocrita e agir como aquilo que ela luta contra.... Entendi	24/07/2019, 06:39:47
1153986667071647745	a6ainst	Pô tem tantos, mas um remake de Prince of Persia da trilogia que começa com Sands of Time ia ser massa. Talvez uma versão parecida com Assassin's Creed. Tenho tantos jogos nessa lista que nem sei por onde começar.	24/07/2019, 08:13:56
1154000611383422976	ferreirallan	Vergonha alheia de vocês. Nunca mais compro nada dessa marca, e vou recomendar que ninguém mais compre de vocês. O que estão fazendo com ela é crime e vocês são coautores. Além do que o cdc apóia ela.	24/07/2019, 09:09:20
1154029745094516736	jcjosehue	Passar raiva, cair de patente, pegar boludo e kid no time.	24/07/2019, 11:05:06
1154049918668955648	daniel_bertuol	@RazerBrazil fica a dica.	24/07/2019, 12:25:16
1154053664849321985	arthurcardosooo	@RazerBrazil da um salve aí	24/07/2019, 12:40:09
1154070248351510528	MarcosClaudino_	@RazerBrazil minha querida, da uma força aqui a esse brother maravilhoso.	24/07/2019, 13:46:03
1154080114063421443	rafael_pessoa	@RazerBrazil eu comprei um fone Kraken 7.1 v2 e ele não veio com o código de ativação para o Surround 7.1, como que faço para resolver esse problema?	24/07/2019, 14:25:15
1154109899820949506	wakisz	@RazerBrazil me doa um fone, roubaram minha casa e levaram o meu antigo. PUFAVO SENPAI. Vou mendigar mesmo 	24/07/2019, 16:23:37
1154111073794043904	NandoStuchi	Hoje os sorteios serão esses no canal!!!! ta esperando o que? Vem para live agora! https://streamcraft.com/user/PTJ link do sorteio - https://gleam.io/jC1Hi/sorteio-especial-ptj-3-mouse-pads-gift-card-keys @StreamCraftHQ @StreamCraftBR @RazerBrazil @UbisoftBrasil @steam_games	24/07/2019, 16:28:16
1154114841596108801	lucineide111213	ela generalizou todos pq ela diz q qr iqualtade e se somos iguais mulheres tambem sao lixo n e verdade?	24/07/2019, 16:43:15
1154117441108217857	GbzinxD	@RazerBrazil me da um PC ai com todo respeito	24/07/2019, 16:53:35
1154119990813048832	KammysOliveira	Tá errada não	24/07/2019, 17:03:42
1154128740101873667	MarceLLoMarcos	@RazerBrazil boa tarde. Me informe o método de acionamento da garantia de um Headset Razer Electra V2 que comprei em 13/09/2018 no Brasil. Preciso de um canal para relatar o problema e enviar a nota fiscal.	24/07/2019, 17:38:28
1154131079290224640	web_asn	Portfólio ASN Web . Criamos WebSites, Aplicativos Android, Portfólios, Trabalhos de Design, Programação e afins. Fale Conosco. . www . asnweb . com .br . @RazerBrazil @nvidia @aorus_brasil @corsair @i9… https://www.instagram.com/p/B0UD6JtBtfC/?igshid=1951r9zok5ln3	24/07/2019, 17:47:46
1154141307956334593	psilvaffc	kkkkkkkk esse cara ta virando vô. kkkkkkkk this guy is turning grand.	24/07/2019, 18:28:25
1154142805901684736	web_asn	Portfólio ASN Web . Criamos WebSites, Aplicativos Android, Portfólios, Trabalhos de Design, Programação e afins. Fale Conosco. . www . asnweb . com .br . @RazerBrazil @nvidia @aorus_brasil @corsair @i9… https://www.instagram.com/p/B0UJPbSBTEY/?igshid=1ictfzqv69dvf	24/07/2019, 18:34:22
1154143323894046720	RazerBrazil	É hora de fazer um upgrade no seu Instagram com os novos GIFs da Razer, do nosso famoso logo até as orelhas de gatinho . Estamos no aguardo dos Stories—e dos memes, é claro: http://instagram.com/RazerBrasil	24/07/2019, 18:36:26
1154148500940218372	EuManuelaSilva	Grand Chase com toda certeza	24/07/2019, 18:57:00
1154159036905996288	zNiCoLoFF	Sem meme: Estou a 1 hora tentando encaixar o espaço do meu blackwidow @RazerBrazil, ou eu não encaixo o ferrinho ou o negócio de plastico se solta, que vontade de morrer, nunca mais limpo meu teclado	24/07/2019, 19:38:52
1154159561030414338	BoaNoiteBruxo	poha, feminista chata. e ainda é igual formiga	24/07/2019, 19:40:57
1154160943020019713	transsagrado	Man eu sou homem kkkkkkk	24/07/2019, 19:46:26
1154164971464482816	BoaNoiteBruxo	“honra dos homens que infelizmente você faz parte” tá tão difícil ler?	24/07/2019, 20:02:27
1154165245675544576	transsagrado	Tá, porque eu to enchendo a cara hoje é dia	24/07/2019, 20:03:32
1154165867489501184	BoaNoiteBruxo	tá serto	24/07/2019, 20:06:00
1154171334534094854	snowzzrra	vai se fude maluco fica ai jogando liga das legendas	24/07/2019, 20:27:44
