id	username	text	datetime
1129538751699574790	DendiJezreel	Razer &lt;3 https://www.facebook.com/story.php?story_fbid=1118453101687710&amp;id=100005690922949	17/05/2019, 21:06:38
1129539317116932096	barbomel	Vende o pc, conta da steam e os razer	17/05/2019, 21:08:53
1129539968450404352	shawn_explicit	Preciso de um daddy que me dê um razer kraken pro V2 de presente	17/05/2019, 21:11:28
1129542301573943296	pedroktorrez	6 meses ta morto razer = descartavel	17/05/2019, 21:20:45
1129543953659965441	kochleto	vou vender meu kit razer para comprar kit da corsair	17/05/2019, 21:27:19
1129544520788348928	TheLiamHarder	Razer 	17/05/2019, 21:29:34
1129552582752571393	DennyzMorales	@DaviAlts sigue a razer	17/05/2019, 22:01:36
1129553642678312961	charliedmorgan	@Massolini_19 segue eles aew	17/05/2019, 22:05:49
1129554100222406656	oshcaio	@Jaaaaaaaooo vai que eu ganho ne	17/05/2019, 22:07:38
1129555843358367745	RsMrLee	@ChritterGames oioi lad	17/05/2019, 22:14:33
1129556751517474818	Isaa__01	TU ME MARCA EM TUDO	17/05/2019, 22:18:10
1129556829208489985	Jaaaaaaaooo	@oshcaio mano quero demais	17/05/2019, 22:18:28
1129557842011348992	joonietouch	JDKSKKSKS te amo	17/05/2019, 22:22:30
1129558865052413952	shawn_explicit	E agora gente o que eu compro? Um JBL pra escutar música ou um headset da Razer?	17/05/2019, 22:26:34
1129559031599828994	MatheusRegis13	Razer mamba? Se for nem usa, trava demais	17/05/2019, 22:27:13
1129559501768744960	shawn_explicit	Já sei! Vou comprar o headset que da pra usar como fone e jogo o da asus pra garantia. Depois quando terminar de pagar o Razer eu compro meu JBL. Pqp sou um gênio 	17/05/2019, 22:29:06
1129559793486770176	kriikrisss	@graphicvilla AAHHHH! LO NECESITO!	17/05/2019, 22:30:15
1129560367607230466	superxa3e	Eu quero um Razer Orbweaver Chroma	17/05/2019, 22:32:32
1129560977186463745	tiagobaldrico54	@sergamerislife Tens que seguir tbm a página	17/05/2019, 22:34:57
1129565019551674369	mochimahri	@Vannlcan r u a gamer????? 	17/05/2019, 22:51:01
1129565274108309506	witorja	Esse negócio de o Razer e Shade não deixarem a Beth e a Lily cortarem o cabelo me deixa agoniada de um jeito vai se foder mano	17/05/2019, 22:52:02
1129567841190109186	flaamato	aposto q vc segue a razer	17/05/2019, 23:02:14
1129570196644085760	flaamato	aff, vou ter q marcar oto	17/05/2019, 23:11:35
1129570348700176385	OsoBrioso	@anicuchigc mira mira!!	17/05/2019, 23:12:12
1129570403666616320	VictorSanchs	Vc só me usa nykol	17/05/2019, 23:12:25
1129570573661757442	kai_dlx	@nagstd foi mal, mas eu preciso	17/05/2019, 23:13:05
1129570826725068800	flaamato	te amo	17/05/2019, 23:14:06
1129571625807040518	VictorSanchs	isso é fake news	17/05/2019, 23:17:16
1129572753827352578	mtsHD_BR	@kai_dlx Só vamo mlk	17/05/2019, 23:21:45
1129573208661716992	PadonJhurick	@Razer @AllenAnsing hehe boi	17/05/2019, 23:23:34
1129573876873064448	BlazeDrako93	@ElRichMC no tengo amigos para etiquetar u.u	17/05/2019, 23:26:13
1129580609431588871	kaioscaldeira	@marcelpenna custa nada sonhar né, vai que...	17/05/2019, 23:52:58
1129582688556519424	Viniciu66280629	de razer n troca 	18/05/2019, 00:01:14
1129584359655247872	caluACHE	@inaumsey Vai que cola né	18/05/2019, 00:07:52
1129584620100554753	RafaelAl13	@ayellol vou marcar vc pq n tenho quem marcar enois	18/05/2019, 00:08:54
1129587184678461440	kai_dlx	So vai	18/05/2019, 00:19:06
1129588703888908289	grace_gr1235	Razer	18/05/2019, 00:25:08
1129588758792138752	R1nkuM4ckey081	Razer？	18/05/2019, 00:25:21
1129589441482383360	Killer_Boos	Aew @FuinhaEmojiMen segue esses cara aí, vai que eu ganho né	18/05/2019, 00:28:04
1129595529917341696	gu1mzera	@NandoPesa será que vem pra cá?	18/05/2019, 00:52:15
1129603984824651778	CSR3528	Que orgulho estar ao lado dessa grande marca com a organização que eu amo. Espero podermos representar à altura, da maneira que a Razer merece. É só o começo. #godetona #teamrazer #razer @DETONAgOficial @RazerBrazil	18/05/2019, 01:25:51
1129606119985487872	gooseshelby	felpo vai te emprestar o mouse da razer véi então assim tu tá sendo praticamente obrigada a jogarkkk	18/05/2019, 01:34:20
1129606928706002949	mustaphaabou69	Razer ♡ @xSqueeZie	18/05/2019, 01:37:33
1129619931136516096	KentMETAL17	@AlbreMikkel hehe	18/05/2019, 02:29:13
1129625938659037184	warpzk	Razer Gigantus	18/05/2019, 02:53:05
1129625967188570112	frosty_d0g16	@shroud hehe	18/05/2019, 02:53:12
1129626824999227393	DCVainglory	Hehe	18/05/2019, 02:56:37
1129633070775230464	ArnoVieira	Meu sonho uma camisa da razer!!!	18/05/2019, 03:21:26
1129633959007199232	LuizBHZN	Só ganha quem e team razer já dizia o fernomenal	18/05/2019, 03:24:58
1129642537805860864	GeRi_bs	@aldosa14 segueixlos i ja 	18/05/2019, 03:59:03
1129642996503392261	esportsMv	"RT Razer ""GenG TeamRazer """	18/05/2019, 04:00:52
1129643433474371584	jjommetry	ASA TIME	18/05/2019, 04:02:36
1129647422899130368	fogcolds	@iacovic vc entro no da razer q te marquei?	18/05/2019, 04:18:28
1129647716039102464	fogcolds	Tinha que marcar alguém no da razer	18/05/2019, 04:19:38
1129655443566026753	miniguedex	Chão gamer da razer	18/05/2019, 04:50:20
1129657121308631041	reMAGKWT	razer 	18/05/2019, 04:57:00
1129659805839372288	Luxniso	vai a lavorare :c	18/05/2019, 05:07:40
1129662324607016961	ReizoSaysToU	@Agus_Dirnt para que participes :)	18/05/2019, 05:17:40
1129663737089155072	Mortal_S9	@Leoz_ztereo @franpro98 seguid a razer	18/05/2019, 05:23:17
1129676526830669824	Ipsenos	@ClemCGS tu participes ?	18/05/2019, 06:14:07
1129677543811047424	hushgnc	@SrLogak_xD que beleza	18/05/2019, 06:18:09
1129677830659420160	Acemidou	@Empiresig Hehe	18/05/2019, 06:19:17
1129678627598217216	Davidzadas_	Quando receber vou comprar os Razer verdes...	18/05/2019, 06:22:27
1129684654259429376	Missulannie	Eso eso jsjjs	18/05/2019, 06:46:24
1129685979412013056	Stiicky_NeZ	@x6jose27 vamooooo 	18/05/2019, 06:51:40
1129688208634241024	VictorRHzaum	@Pqblooo segue eles kkkkk	18/05/2019, 07:00:32
1129688716593602560	yasukotyaaaan	razer	18/05/2019, 07:02:33
1129691697422753792	Fus1on1n	Razer 	18/05/2019, 07:14:23
1129702973142118400	Bruextr	@Gabriel70670290 segue eles aí pô, vai que dá bom	18/05/2019, 07:59:12
1129703357596209153	D4nyl3	Eu não sou um gamer com MT seguidores joaoooo	18/05/2019, 08:00:43
1129705748185911296	AllanhexCR	@PipaArbitra sigueloos	18/05/2019, 08:10:13
1129706517932982272	NandoPesa	Vamos correr o risco huahuhaua	18/05/2019, 08:13:17
1129706934045687809	diegojmc	@ismaelse95 sorteito loco	18/05/2019, 08:14:56
1129708795725254656	Axn2112	Hehe 	18/05/2019, 08:22:20
1129709009731239936	Axn2112	Mas não diz que tem que ter muitos seguidores burro diz que o amigo tem que seguir a razer tambem 	18/05/2019, 08:23:11
1129710296598081536	AnVenturo	@JollyDrade dude RAZERRRR	18/05/2019, 08:28:18
1129710809775529984	leosalves_	Bora @Vitiniostt	18/05/2019, 08:30:20
1129711386228076544	MatthCranston	@PanpanLeBg la gameuse	18/05/2019, 08:32:38
1129712603746492416	DarthDosPru	vc tem gay	18/05/2019, 08:37:28
1129713544012926976	alvidi91	@5phants adoro Razer 	18/05/2019, 08:41:12
1129718186956513281	jotasx	@r3night curte ai	18/05/2019, 08:59:39
1129721920960778241	pedrosaalucas_	vininha agr é team razer, ele já gostava do verdinho e agora... não tem como kkkkkkkkkkkkkkkkkkk	18/05/2019, 09:14:29
1129723119374077958	lunkasst	@cajuxxs é só p ve se vai	18/05/2019, 09:19:15
1129724904377602051	jesstomsnacc	RAZER PETERSON	18/05/2019, 09:26:21
1129727196434718720	Cels_laura	Mira mira @das95balas 	18/05/2019, 09:35:27
1129727502023352322	cessrni	@ralphpikettt pafollow sila bebe hehe	18/05/2019, 09:36:40
1129731895066091523	AIMAN_O	@azimyazli mencuba zim	18/05/2019, 09:54:07
1129735573651021831	GuidoAlencar	@BalbyVictor segue eles	18/05/2019, 10:08:44
1129739291603681285	Vitiniostt	Bora	18/05/2019, 10:23:31
1129739665408450560	Vitiniostt	@leosalves_ espero que eles não cobrem o frete se vier de fora 	18/05/2019, 10:25:00
1129741857456558082	LucasSick	@budaflorentino @LayneStaley_ Só vamo	18/05/2019, 10:33:43
1129744625298751488	tcunha25	Hey @halimedegamer é o teu tipo de cenas!	18/05/2019, 10:44:42
1129748980378869761	ZEUS_DDR6	Razer #razer 	18/05/2019, 11:02:01
1129749559054352384	nivek27	Razer	18/05/2019, 11:04:19
1129754070317715458	leosalves_	Se cobrarem a gente roda kkkkkkk	18/05/2019, 11:22:14
1129756089468313601	MTV482	@ThiagoToroks segue eles ae	18/05/2019, 11:30:16
1129756163279654914	IsmaelCorreia14	@PedrocasDuarte Dropa o follow na página da Razer pode ser que eu tenha sorte!!!	18/05/2019, 11:30:33
1129757582938255360	PedrocasDuarte	Done meu puto! Boa sorte ahahah	18/05/2019, 11:36:12
1129763279449018373	DollinhaS2	"mano, já tem umas duas semanas que meu teclado parrou de funcionar algumas teclas... ai eu cheguei e perguntei ""alguém tem algum teclado para me emprestar"" ""-tenho um..."" ele me brota com um teclado da razer KKKKKKKKKKKKKKKKKKKKK ok né, estão me acostumando errado"	18/05/2019, 11:58:50
1129763448278126599	MaskV6	eu PRECISO de um spin-off com o razer de lanterna azul enconrando a aya	18/05/2019, 11:59:30
1129773079767474177	ThePelo2	@Willi_6illi hehe	18/05/2019, 12:37:47
1129773880741113857	emerson_ff	Gold 4 - Jogando com o headset novo da Razer #PatrocinaEuRazer https://www.twitch.tv/biadixon @biadixon_	18/05/2019, 12:40:58
1129774175999221761	Thiagohss1	Segue eles tb @madoy17362471	18/05/2019, 12:42:08
1129774386871918592	web_asn	Portfólio ASN Web . Criamos WebSites, Aplicativos Android, Portfólios, Trabalhos de Design, Programação e afins. Fale Conosco. . www . asnweb . com .br . @razer @nvidia @aorus_brasil @corsair @i9 @intel #web… https://www.instagram.com/p/Bxm_xFBlbBo/?igshid=919lheng6792	18/05/2019, 12:42:58
1129775435972251648	patrickc302	Alou @odrepcagol alou @Shinny97171865 bora ganhar essa porra aí	18/05/2019, 12:47:08
1129775728906649600	Shinny97171865	Partiu porra	18/05/2019, 12:48:18
1129777569027563520	zVino0	Quebrei o meu antigo da razer jogando for honor, peguei um machado que tenho aqui é detonei ele KKKKKKKKKKKK me arrependi na hora	18/05/2019, 12:55:37
1129777606868525056	paaulo_edu	PQP, DA RAZER? Cabrunco, amigo é esse aí viu	18/05/2019, 12:55:46
1129777693850046465	ThiagoToroks	Pra isso tu me chama	18/05/2019, 12:56:07
1129778370844082176	unicornhumanoid	@aZooRe be a palllllll, pal! :^)	18/05/2019, 12:58:48
1129779307285491715	wenjoyshler	@rosesthirlwall segue a razer ae vlw	18/05/2019, 13:02:31
1129779670675808257	SHEkinnoFLY	pra que isso vcs nem vai ganhar pow	18/05/2019, 13:03:58
1129790027393900547	wenjoyshler	um obrigado 	18/05/2019, 13:45:07
1129794192694288384	jayrhicxd	sana manalo hahaha	18/05/2019, 14:01:40
1129797313306738688	maximumcoop	SUPER SORTEIO DE 01 SSG 120GB E 01 MOUSEPAD RAZER!! SORTEIO HOJE!! PARTICIPEM!!! #STREAMAÇÃO	18/05/2019, 14:14:04
1129800103877849088	nawalkhalilah	Razer https://www.facebook.com/100000509015795/posts/2731805463513061/	18/05/2019, 14:25:10
1129800973982081026	MRLNwisp	Razer 	18/05/2019, 14:28:37
1129812986913329152	maximumcoop	É HOJE!!!! MEGA SORTEIO STREAMAÇÃO: SSD 120GB | MOUSEPAD RAZER https://gleam.io/IcQ2T/mega-sorteio-streamao-ssd-120gb-mousepad-razer #win via @GleamApp	18/05/2019, 15:16:21
1129814882549997568	JvGregory2	Alguém conhece um lugar q faca manutenção de teclados da razer?	18/05/2019, 15:23:53
1129816594123776000	Orbitalmx	https://www.facebook.com/orbital.mx/photos/a.281377565254888/2386802101379080/?type=3 Galeria de Hardware por #Razer Presentada por http://orbital.mx ¡Visitanos!	18/05/2019, 15:30:41
1129816796045938690	Allan_Neonny	N comprem nada da Razer é muito merda os produto deles	18/05/2019, 15:31:29
1129821521134923776	Juuniorandrade	Jamaisssss kkkkkkk compra o mouse pad da razer	18/05/2019, 15:50:16
1129822298544910336	apoloeilish	goals tener a un razer como bff	18/05/2019, 15:53:21
1129831395981811713	ValenGOAT	aha supp @CouRageJD	18/05/2019, 16:29:30
1129831444782751744	Yuri_R6	Mano alguem compraria um razer firefly e um mouse pad control ?	18/05/2019, 16:29:42
1129833813083906048	Presado1337	Mandei vir uns razer kraken é uma dkracing e os cabroes disseram que ia receber um email, nem email nem encomenda nem merda nenhuma 	18/05/2019, 16:39:06
1129835794653425664	nsounemo	gastei 1k nesse teclado+mouse+headset td da razer no paraguai	18/05/2019, 16:46:59
1129851708518084608	JulienCplle	@Benjamerinooo le Bg	18/05/2019, 17:50:13
1129857164326133760	maximumcoop	Galera, as 20h começa a nossa live especial participando deste evento na @StreamCraftHQ !! Vamos sortear um SSD e Mousepad da Razer!!! https://gleam.io/IcQ2T/mega-sorteio-streamao-ssd-120gb-mousepad-razer	18/05/2019, 18:11:54
1129865460323880960	friederichcsgo	e se der problema? de razer troca	18/05/2019, 18:44:52
1129867221742903296	eyeschae	meu irmão ganhou um headset da razer kk........ e eu......... nada kk	18/05/2019, 18:51:52
1129869382467948545	fisha77	Razer https://www.facebook.com/728223758/posts/10156586310088759/	18/05/2019, 19:00:27
1129882839435087873	RazerBrazil	Amanhã teremos live #RazerDay especial do @giganterichard—com sorteio de um headset Razer Kraken 7.1 V2! A stream acontecerá em nossa página no Facebook, não perca: http://fb.gg/razerbrazil	18/05/2019, 19:53:55
1129884526157729793	renerib	Razer Nari Ultimate: um subwoofer em cada orelha =&gt; https://olhardigital.com.br/noticia/review-do-headset-razer-nari-ultimate-que-tal-ter-um-subwoofer-em-cada-ouvido/85826 #review #razer	18/05/2019, 20:00:37
1129896068324450305	rodwigson	Dá pra usar até camiseta como mousepad e ces fica ai gastando 100 conto em mousepad da razer	18/05/2019, 20:46:29
