id	username	text	datetime
1128458295247810560	MuriloGoes99	Tá ok, mas e o preço final ? Tenho certeza que irá sair absurdamente caro...	14/05/2019, 21:33:17
1128459824491114497	elersonbrandao	Um kit desse vai custar 1 rins	14/05/2019, 21:39:22
1128465030163443713	picolinoth	Meu mouse fica suado porque minha mao soa cria um q fique frio	14/05/2019, 22:00:03
1128467422292455424	Victor96646204	Vtnc filha da puta	14/05/2019, 22:09:34
1128471751380410369	Jorgera93	manda mimos @RazerBrazil	14/05/2019, 22:26:46
1128473958754418688	cholannda	se fizer o preço vai ser um rim kkkkkkkkkk	14/05/2019, 22:35:32
1128478270494789638	xJehssyx	Deus me dibre, já basta meus dedos suando no meu mouse 	14/05/2019, 22:52:40
1128492552280264705	NandoStuchi	É com muita alegria que anúncio a parceria da @RazerBrazil com o evento StreamAção da @StreamCraftHQ ! Muito obrigado pelo carinho e atenção, vcs n tem noção o qto sou agradecido. @LuizFGarden tu é fera brother!!! Parabéns pelo profissionalismo e humildade! @StreamCraftBR	14/05/2019, 23:49:25
1128498865928318978	LuizFGarden	Conta com a gente, professor! 	15/05/2019, 00:14:30
1128508376252657664	Koalahhhh	Eu gostaria de um ar frio	15/05/2019, 00:52:18
1128523064763998208	sub1lucas	@RazerBrazil na espera do DA sem fio	15/05/2019, 01:50:40
1128597529736699904	gumaiorini	Oi @RazerBrazil existe algum teclado de vocês no formato abnt? Obrigado	15/05/2019, 06:46:34
1128623675857567744	SauloFis	É mais legal um shake do que esquentar ou vaporizar	15/05/2019, 08:30:27
1128662000362455041	OtaviobSilva	Com a evolução dos streamers mais viável um teclado que possa fazer essa interação e mostrar quem sabe o chat, donate, tempo de streaming, follow, etc.	15/05/2019, 11:02:45
1128669694293049345	LuizFGarden	Acabei de fazer uma entrevista com o @GruntarTV que ficou ESPETACULAR Hoje, na @RazerBrazil 	15/05/2019, 11:33:19
1128671381066080256	kiyarin	no brasil, só se saisse ar gelado pq smp é calor em td	15/05/2019, 11:40:01
1128671723367403520	suicideGuizera	n eh isso, sua mao soa, seria bom um teclado saindo ar gelado pra secar	15/05/2019, 11:41:23
1128671960182005761	Brisolaaa	Um teclado que tenha tipo um dualshock , pra dar mais imersão	15/05/2019, 11:42:19
1128671985276456961	kiyarin	sim se for pra isso tb seria bom e secaria o teclado tb q fica todo molhado	15/05/2019, 11:42:25
1128698104767766530	SrgabrieelO	Super Mario Bros	15/05/2019, 13:26:13
1128702477120016390	Rafael_Yagami_	Ai sim !! Professor!! Parabéns pela ação que vai fazer ,pois se muitos Da comunidade do @XboxBR e outras plataformas fizesse pro bem das instituições carentes !! Ajudaria muito. Ao invés de ter guerra de consoles, poderia ter guerra de quem ajudasse mais os necessitados!!	15/05/2019, 13:43:35
1128706615144845313	RazerBrazil	Saldão Razer prorrogado na @kabumcombr! Mas seja rápido, as unidades são limitadas. Até 45% OFF: http://rzr.to/saldaokbm19 	15/05/2019, 14:00:02
1128707374968180736	pLinZeira	http://twitch.tv/jockersplin segue la pra ajudar 	15/05/2019, 14:03:03
1128708287254487042	_Morrislol	Sonho, ter um headset desses... vai ficar só no sonho mesmo...	15/05/2019, 14:06:40
1128708671935066112	nmeirellestx	Poxa, o que será que consigo com R$7 reais?	15/05/2019, 14:08:12
1128709252196052992	kaiomm	É @RazerBrazil, definitivamente vocês perderam a confiabilidade de mais de uma década, TERCEIRO teclado seguido com o mesmo defeito vendido pelas lojas @Saraiva, que claramente também sabe do problema e continua os vendendo.	15/05/2019, 14:10:30
1128711027846201344	VictorVini15pe	@RazerBrazil faz uma parceria com a @kabumcombr e faz mais um #NinjaEscondeuNaKabum pf 	15/05/2019, 14:17:34
1128713603551518720	FelipeRAG	Boaaa mas OLHAR FACEBOOK NÃO QUER	15/05/2019, 14:27:48
1128714043437584386	LuizFGarden	CARAI MEU PARCERO VERDADE	15/05/2019, 14:29:33
1128714219329921024	Saraiva	Olá. Solicitamos por gentileza, que nos informe por DM o número do pedido ou CPF e o nome completo do titular do cadastro, para verificarmos.	15/05/2019, 14:30:15
1128719355137675265	NandoStuchi	Pois é leaf...eu mesmo sendo minúsculo tento fazer algo de bom...mostrar q os games podem ajudar, mostrar que podemos evoluir e ajudar pelo menos um pouco quem precisa...sem querer nada em troca... realmente muitos poderiam usar o tempo e energia em algo positivo	15/05/2019, 14:50:39
1128737135354425344	RazerBrazil	SOPA DE PEDRA? Não perca a entrevista com @GruntarTV! http://rzr.to/AoVivo	15/05/2019, 16:01:18
1128741735964790784	FelipenhoRJ	Razer Patrocina Rafaela Goulart https://clips.twitch.tv/BoldBlazingWolverineStrawBeary?tt_medium=twtr @RazerBrazil @Razer @rafaelagoulartn	15/05/2019, 16:19:35
1128753033012285440	vanillahun_	Esperando meu Kraken e minhas orelinhas 	15/05/2019, 17:04:28
1128770417408249858	giovanni_marcos	Na época que comprei o meu fiquei na dúvida entre um @RazerBrazil entre @HyperXBrasil mais acabei optando pelo mais em conta na época que comprei que foi o Razer essential foi a pior escolha que fiz o Headset e muito frágil..	15/05/2019, 18:13:33
1128773075833692160	VinniHKG	coé @RazerBrazil me manda um headset ai, ando com camisa de vcs e posto foto com ele todo dia como merchan kkkkkkk	15/05/2019, 18:24:07
