id	username	text	datetime
1157079375726161922	sameoldpeople	E hetero aleatório de 12 anos:	01/08/2019, 21:03:15
1157079575349923841	BrunoRess	sim, vou pegar um teclado da razer pra q? pra dar problema em 3 meses?	01/08/2019, 21:04:02
1157091748184776704	schlickmannvini	"Sempre tem o escroto que quer ser o ""entrosão"" do rolê"	01/08/2019, 21:52:25
1157095577383067648	marjuregay	ih minha filha, segue essa reta aqui ------------- vai parar no seu lugar, no lixo	01/08/2019, 22:07:38
1157095968472539136	huguinhoo_ofc	Não dá pra esquecer da @RazerBrazil tbm neh gente	01/08/2019, 22:09:11
1157096314032799745	Netikiin	Aaaaaaa, que tal uma @HyperXBrasil?	01/08/2019, 22:10:33
1157097270912966656	huguinhoo_ofc	A @NVIDIAGeForceBR tbm merece vir!!	01/08/2019, 22:14:21
1157098039288508421	Mixxaelll	Já ia comentando isso , falo tudo	01/08/2019, 22:17:25
1157100598229118976	Netikiin	AAAAH SE TEM NVIDIA TEM Q TER A @intelbrasil tambem	01/08/2019, 22:27:35
1157101342114160640	VictorN07350383	chegou o velho petista que usa Twitter kkKk sai daqui velhote	01/08/2019, 22:30:32
1157101376289280001	gustvms_	Eu tenho, só não discuto com gente de direita porque direitista nem é gente	01/08/2019, 22:30:40
1157102015467667456	Kumaaaaql	Não precisa msm.. Até pq as meninas foram td para hyperX	01/08/2019, 22:33:13
1157103520476270592	Gabrfr_	Nunca msm, pq as páginas apagaram os tweets q eles tinham feito e n tem como	01/08/2019, 22:39:11
1157103747530731520	Gabrfr_	Era o Globo rural, multishow, Netflix, ifood, nubank tudo Armando pra fazer uma suruba	01/08/2019, 22:40:06
1157104254856904705	Gabrfr_	Pois é, ainda falaram q iam fazer um ifode	01/08/2019, 22:42:06
1157104474693033984	KoeBiell	"Não!, falaram sobre isso numa live e ele falou que se arrepende e q n é mais assim (nem deu bola) Só pq ela se desculpou n quer dizer q a razer vai perdoar, lembra do comentario ""racista"" do cocielo?? Ele tbm n foi perdoado"	01/08/2019, 22:42:59
1157105601387929600	henriquedalmas1	a marca vender produto premium é ofensa kkkkkk	01/08/2019, 22:47:28
1157114330292391937	Zupykov	"""eu tenho ,mas"" Típico de quem n tem argumentos"	01/08/2019, 23:22:09
1157116494100279296	banhodecaju	Pau no seu cu	01/08/2019, 23:30:45
1157125197864087552	gcftokyyo	chernobyl não fica aqui não	02/08/2019, 00:05:20
1157139955673530368	toyfps	ql a previsão do viper no br?	02/08/2019, 01:03:58
1157148313201700864	yuuki_rito0	Depois da merda ser feita ela explicou. Antes, ela generalizou, com todas as palavras, que não era apenas os retardados que abusam e ofendem, mas que TODOS são. Ela mesma falou.	02/08/2019, 01:37:11
1157148680027197440	yuuki_rito0	Depois de tudo acontecer ela falou. Mas antes, ela falou com todas as palavras que não era apenas um grupo específico de homem idiota, ela disse TODOS os homens quando foi questiona por uma pessoa.	02/08/2019, 01:38:38
1157149130080210944	yuuki_rito0	Absolutamente ninguém apoia a menina ser abusada e absolutamente ninguém reclamaria se ela estivesse ofendendo os gamers tóxicos. Porém ela generalizou todo mundo por causa de alguns, isso é atitude de gente mal caráter.	02/08/2019, 01:40:26
1157149419810086912	yuuki_rito0	Kkkkk Incrível que antes a Razer era só mais uma marca e agora do nada os produtos dela são de péssima qualidade kkkkk, meu deus do ceu, você nem disfarça.	02/08/2019, 01:41:35
1157150906795773956	justlbreathin	não, ela explicou em um comentário da própria publicação, antes de dar todo esse alvoroço	02/08/2019, 01:47:29
1157151333092192260	justlbreathin	ela mesma disse q teve q generalizar pra chamar a atenção, pq muito cara fala q respeita as mulheres, mas na vdd é so aquelas q ele quer ficar, por isso o exagero, chamar a atenção	02/08/2019, 01:49:11
1157153158855942145	Gabi_silvias	Eu queria aquele papel de parede da menina ali	02/08/2019, 01:56:26
1157154695057559552	whorendell	Lixos	02/08/2019, 02:02:32
1157155821848895489	pintuhdurassu	É horrível	02/08/2019, 02:07:01
1157156415196168192	BoringOni	Mds do céu skkdkdkd se é muito doente vei pqp dkkdkd	02/08/2019, 02:09:22
1157158406127419392	CrisdanB	mds... o noronhe-se virtual... mds mds	02/08/2019, 02:17:17
1157166471866249216	Kumaaaaql	Opinião imparcial, a gente vê por aki!!!	02/08/2019, 02:49:20
1157225982497046528	lundwell	KKKKKKKKKKKK TE AMO HARU	02/08/2019, 06:45:49
1157244373316329473	caixuster	Se eu tivesse dinheiro...	02/08/2019, 07:58:53
1157250516973510656	gustvms_	Você não sabe nem usar vírgula, seu nóia	02/08/2019, 08:23:18
1157265331834052608	anesr	meu pai nunca pagou nada pra mim e sempre foi um lixo sim rs ¯\_(ツ)_/¯	02/08/2019, 09:22:10
1157265544468422659	anesr	Né? Visto que ninguém mandou não encapar o pinto, o mínimo é arcar com as consequências (que a maioria não faz visto o número de abandono parental no Brasil)	02/08/2019, 09:23:01
1157278045687955456	Sr_Furtado	Não renovaram o contrato de todos, não apenas o dela. E esse assunto já morreu e a Gabi está seguindo com a vida dela. Ficar remoendo só prejudica ela	02/08/2019, 10:12:41
1157283270230454273	ninikizinha	Melhor empresa :3	02/08/2019, 10:33:27
1157286550176260096	Zupykov	Ainnnn a gramática...	02/08/2019, 10:46:29
1157289237412290560	loslocosaz	manda mais 10 ótario, escravoceta de merda.	02/08/2019, 10:57:10
1157289677105373184	loslocosaz	tu doou 12 mil pra mina?	02/08/2019, 10:58:55
1157305623526158337	RazerBrazil	Projetado para ser o melhor—o Razer Viper garante cliques mais rápidos com os novos Switches Ópticos Razer para Mouse, tiros mais precisos com o exclusivo sensor Óptico 5G e um design leve e ergonômico, com apenas 69 gramas. Tenha Controle Absoluto: http://rzr.to/Viper-BR	02/08/2019, 12:02:17
1157306412567019522	FeehGameplay1	Um dia eu chego la rsrs	02/08/2019, 12:05:25
1157307110553772033	best_luiz	Que delicia cara, startei trabalho Razer Viper e Razer Huntsman Elite na mão	02/08/2019, 12:08:11
1157307932050112517	luizfelipedemac	Manda um ae pra min testar se é baum msm 	02/08/2019, 12:11:27
1157310736181448704	4_20friendly	Mas hétero é lixo mesmo	02/08/2019, 12:22:35
1157326496693989377	Mopocop	cadê a @RazerBrazil pra retaliar essa mulher??????	02/08/2019, 13:25:13
1157339498180689920	OAriistoteles	Razer chegou pra deixar a galera p da vida, ADOROOO	02/08/2019, 14:16:53
1157353578706690051	PessoaTao	Que lindo	02/08/2019, 15:12:50
1157354289225973760	PessoaTao	Uso video de kapope perdeu o argumento	02/08/2019, 15:15:39
1157367614215196673	brtanker	O peso ideal rs	02/08/2019, 16:08:36
1157371050084196352	LucasPDias	Ei @RazerBrazil estou precisando de ajuda, instalei o Synapse no meu PC mas nao consigo abrir de jeito nenhum!	02/08/2019, 16:22:15
1157378016386920448	Rochinha025	Sai dae o lacrador de bosta	02/08/2019, 16:49:56
1157380332238381062	Rochinha025	Mulher sábia	02/08/2019, 16:59:08
1157390942808236033	DioMelhorJojo	"""Flopou"" kkkkkkkkkkkk aiai"	02/08/2019, 17:41:18
1157398313789984768	mromchd	obrigado @RazerBrazil pelo suporte, Deus abençoe, agora posso ouvir um mc poze no meu fone dnv	02/08/2019, 18:10:36
1157417242050596864	yeolmaeyz	sai daqui	02/08/2019, 19:25:48
1157437148699738112	MERGOLIAL	Religião teu cu na minha mão meu hobbie desestabilizar vc agora tô só esperando vc responder aquilo com um argumento KSNSNAKXMAKZHNS	02/08/2019, 20:44:55
1157437853619691520	MERGOLIAL	Blz de boa q Deus te ilumine e vc tenha uma boa noite 	02/08/2019, 20:47:43
