id	username	text	datetime
1120480993285214209	AriesaintGMS	"Sacanagem, nem para responder um ""não temos mais disponível""...isso que eu queria comprar, imagina se fosse reclamando de algo. EN: I asked if there are any store with that model in Brazil...no answer... @GFXCoach @ShoutRTs @blazedrts @krustplay @Razer @RazerBrazil "	22/04/2019, 21:14:20
1120481627933683718	Bill1300	Mas o couro ainda couro ainda descasca com 6 meses?	22/04/2019, 21:16:52
1120499691672748032	Amarelliinha	5 anos na minha mão, descansa em paz guerreiro Quem reclama da @RazerBrazil e meio bobão, passei 5 anos com UM teclado deles e o danado só morreu hoje. Perto de completar 6 aninhos. Mas vamo aí vida que segue. 	22/04/2019, 22:28:39
1120504016813854721	MarinaFMenezes	Quem sabe a @SamsungBrasil tem algo a dizer?	22/04/2019, 22:45:50
1120707893467209729	Emy_Jota	@RazerBrazil manda um pra eu 	23/04/2019, 12:15:58
1120735351612559360	Myzzilol	EU TO MUITO APAIXONADA @RazerBrazil @chelok1ng 	23/04/2019, 14:05:04
1120749763043966976	vaanruiz	Por que só a @RazerBrazil lança periférico rosa e por que tão caros!? 	23/04/2019, 15:02:20
1120760458653335552	larinhagoddess	Alguém que manja de @RazerBrazil pode me ajudar? Chama na DM 	23/04/2019, 15:44:50
1120762132512088065	i9mha	Falae	23/04/2019, 15:51:29
1120762599132549125	MiziGS	meu deus isso virou minha meta agr	23/04/2019, 15:53:21
1120763091917127680	Myzzilol	eu to muito apaixonada Mizi!!	23/04/2019, 15:55:18
1120768140391141377	larinhagoddess	Vou mandar dm	23/04/2019, 16:15:22
1120791586634391552	RazerBrazil	O Ultimato está chegando! Quem também vai #Vingadores na estreia?	23/04/2019, 17:48:32
1120793354911064070	PedrimSla	eu, c te falar q comprei ontem tu n acredita, MAIS É VDD	23/04/2019, 17:55:33
1120809611844562952	Hellaaki	Tem que patrocinar o maluco aqui oh @RazerBrazil	23/04/2019, 19:00:09
