id	username	text	datetime
1117972809379196931	yohendrickXD	logo logo eu posto um meu pra logitech :p	15/04/2019, 23:07:43
1118135659116617728	RazerBrazil	Essa foto ficou irada! 	16/04/2019, 09:54:49
1118152909529780225	Adilsonffjr	Eu não aguento mais meu fone com mal contato, alô @RazerBrazil acelera pf, quero fazer live 	16/04/2019, 11:03:22
1118153366281105408	pedrohmirandas	00:00: preciso dormir.. 01:10 : O camaleão é da @RazerBrazil Chroma? 	16/04/2019, 11:05:11
1118168989346205696	lucasGamerMOD1	meu sonho ter um mouse desse @RazerBrazil Parabéis pelos produtos estou sem palavras 	16/04/2019, 12:07:16
1118212967730962432	WalisonRx	Lindo pena que custa o Rin	16/04/2019, 15:02:01
1118224204137148418	Dalkalol1	@RazerBrazil Faz em média de 1 ano que comprei o teclado razer blackwidow tournament x chroma, ele está ficando totalmente enferrujado, isso é normal ?	16/04/2019, 15:46:40
1118224399117762561	RazerBrazil	Hoje é aniversário da jogadora, streamer, modelo, cantora, mãe da Dinha e da Cookie e dona das melhores playlists da Twitch. PARABÉNS, @fravineas! 	16/04/2019, 15:47:27
1118229584967864320	__melprado	@RazerBrazil Eu comprei esse teclado na promoção da kabum, ele vem com aquele pingente de tecla? Queria muito esse pingente :c	16/04/2019, 16:08:03
1118230157041512449	leomoraistrbl	Aí @RazerBrazil patrocina aí pfv , olha o estado do meu mic @HyperXBrasil @StudioPC_BR	16/04/2019, 16:10:19
1118240249866539009	THgzPK	Lacradora,histerica e maluca...faltou colocar aí!	16/04/2019, 16:50:26
1118265460125065216	WallacEstev3s	Reparei que no filme do shazam aparece um headset e o smartphone da @RazerBrazil fiquei emocionado	16/04/2019, 18:30:36
1118276519451869184	fravineas	brigada anjos 	16/04/2019, 19:14:33
1118280194396176384	Rafaell_Lima5	@Omar12386611668 não pode mais ser machista	16/04/2019, 19:29:09
1118280977850273792	pv_digo	@RazerBrazil patrocina o streamer aqui, gameplay de qualidade	16/04/2019, 19:32:16
1118284039364980736	FerZipf	Nem rola, já tenho patrocínio fechado com a RLB ( Aqueles Bartosewiz) 	16/04/2019, 19:44:26
1118290437582807041	edilson_thadeu	Aí esta uma pessoa que respeito, mesmo sem conhecer pessoalmente... Parabéns Sasa! s2	16/04/2019, 20:09:51
1118298597571928064	Gerolindo123	ManDa foTo Da tetA	16/04/2019, 20:42:17
1118299395273916416	VictorBartooooo	Da pra parar de meter meu nome em tudo?	16/04/2019, 20:45:27
