id	username	text	datetime
1130990186849083399	StreamCraftBR	Torneio de Free Fire com o Clash War está ao vivo agorinha! Vem com a gente e participe dos sorteios de skin e do headset Razer Kraken!! http://www.streamcraft.com/user/ClashWar #StreamCraft #StreamCraftBR #FreeFire #Garena #Torneio #Gamer #Streaming #Videogames	21/05/2019, 21:14:07
1130996615081287681	ja1_pedr0	Qual foi seu primeiro celular ? — Um moto razer d3 	21/05/2019, 21:39:40
1131002096315244544	021mxts	mlq saindo da faculdade com a mochila da razer kkkkkkkkkkkk	21/05/2019, 22:01:27
1131018318746464261	Littl3Death	Sei nem como q eu fui o espermatozóide mais rápido Só não desisti ainda pq até pra razer isso eu sou inútil	21/05/2019, 23:05:55
1131021127222996992	LexLothbrock	SERA QUE O MP TA SEM O QUE RAZER? É FODA NÉ 	21/05/2019, 23:17:04
1131026120713887746	matheusallright	Chuveiro da Razer Kkkkkkk	21/05/2019, 23:36:55
1131078577032769536	claris120210	Que noveleros resultaron 	22/05/2019, 03:05:21
1131086769301151744	jovemlean	sem contar do meu orgulho de ter arrumado o ponteiro do meu razer abyssus com uma fodendo palito de unha (EU CONSEGUI QUEBRAR A MERDA DO PONTEIRO) o de madeira ta durando faz 3 ANOS	22/05/2019, 03:37:55
1131098863576768514	Srz4Lucas	Mano eu uso headset da @RazerBrazil ja faz um tempo, mas esse novo q eu comprei é totalmente diferente de todos q eu ja usei(da razer e de outras marcas), ele é melhor e parece ter sido feito um cuidado muito grande É muito bom wtf 	22/05/2019, 04:25:58
1131130515078012928	soulfiregaming1	Razer seiren x for a mic	22/05/2019, 06:31:44
1131142055391113217	arilaurs	tava olhando um razer e pqp um desses vai me ajudar pra caralho na faculdade	22/05/2019, 07:17:36
1131153569028149251	hugolcouto	Hoje acordei com um email da Razer dizendo que o Ouya chegou ao fim. Eu fui um defensor do consolezinho e gostava pra caramba dele e da idéia, apesar das falhas de projeto e equipe. Um dia ainda terei um como máquina de emulação em casa.	22/05/2019, 08:03:21
1131161626982244353	ferferdhy	apa bby	22/05/2019, 08:35:22
1131169003458703360	0D4V4	depende. o waffle foi feito na torradeira Razer? e o copo Razer, cadê?	22/05/2019, 09:04:41
1131174052209614848	porrapac	eu quero mt comprar o fone astro a40, porem eu já to com um fone da razer e outro da hyper x kkkkk não sei oq vou fazer com 3 fones	22/05/2019, 09:24:44
1131174452362924032	brunoguntz	"O mouse já estragou também. Aos poucos estou trocando tudo por produtos Logitech e sendo muito mais feliz. Outro mundo usar um mouse decente ao invés dessa coisa frágil que a multilaser vende como ""gamer"" chamando de linha Warrior (e ainda copiando a Razer)"	22/05/2019, 09:26:20
1131177556630069248	kisaragi_2342	Razer	22/05/2019, 09:38:40
1131183759578083329	arxcruz	Não, mesmo aqui é caro, olha essa configuração https://www.apple.com/de/shop/buy-mac/macbook-pro/15-zoll-space-grau-2,6-ghz-6%E2%80%91core-prozessor-(turbo-boost-bis-zu-4,5-ghz)-256gb e olhe essa do meu Razer https://www.amazon.de/gp/product/B07CZ238TY/ref=ppx_yo_dt_b_asin_title_o00_s00?ie=UTF8&amp;psc=1 paguei 700 euros a menos com melhor placa de vídeo, e melhor processador. E tela de 144hz sem problema de teclado.	22/05/2019, 10:03:19
1131188180571557889	guszera	Razer é lixo e é isso	22/05/2019, 10:20:53
1131191432767778816	LanaDelRayI	Logo chega o meu fone do patrocínio, ces nem adivinham qual é, mas é da Razer	22/05/2019, 10:33:48
1131203247874744320	Oriett85	Yeeeeeh tengo que ver esa peli 	22/05/2019, 11:20:45
1131216815454064640	FelipeOhlweiler	Excelente! @RazerBrazil é muito boa viu! Eu tenho um mouse e teclado da Razer há 8 anos. Uso os 2 até hoje, diariamente e nunca deu problema. Parabéns pela compra!	22/05/2019, 12:14:40
1131218273566171142	StingrayJS	Acho mt difícil hj em dia periféricos terem esse teor de puxarem a cor pro amarelo. Por exemplo os produtos da razer q são prateados dificilmente desbotam, so se a pessoa for mt descuidada	22/05/2019, 12:20:28
1131220718866313216	GoliasL	esse headset da http://d.va feito pela razer parece ultramente desconfortável	22/05/2019, 12:30:11
1131222770098905089	QuantumAssassin	RAZER! RAZER! 	22/05/2019, 12:38:20
1131227171043905537	Victor_Buenoo	300 conto, tá barato, mas é Razer zzzz	22/05/2019, 12:55:49
1131233147713024000	edenzudin	razer	22/05/2019, 13:19:34
1131241369941491713	Lincoln_ams	e o Razer Blade quando será vendido oficialmente aqui no Brasil?	22/05/2019, 13:52:14
1131243200012800000	alcapotino	Eeita!! ainda é fashion shock, melhor que razer	22/05/2019, 13:59:31
1131244177164054530	soonicz	pqp sou fã da razer.... to indo ae namoral	22/05/2019, 14:03:23
1131245771779649537	Andre_Sampai0	Algum inteligente o suficiente pra não comprar razer	22/05/2019, 14:09:44
1131251482286862341	heavysadsoul_	Comprei um rato da razer parece q tenho Parkinson	22/05/2019, 14:32:25
1131256687963332611	LuizFGarden	Sabe o que tem hoje? RAZER TALK COM @gstv1lol AO VIVO - 18H Se quiser fazer uma pergunta para o melhor adc que o Brasil já teve, só deixar aqui nesse tweet =)	22/05/2019, 14:53:06
1131257425259114501	PromobitOficial	#promoção #oferta KaBuM! - Mouse Gamer Razer Deathadder Essential Óptico 5 Botões 4G 6.400 - R$188,90 #informatica	22/05/2019, 14:56:02
1131260461582888962	sayuzinha_	olha aq eu n tenho como comprar um mouse gaymer razer plimplimplim eu compro os de 15 q vende no mercado	22/05/2019, 15:08:06
1131262426912120837	sayuzinha_	meu sonho é a coleção todinha da razer chroma mercury mas é caro e n vale a pena MAS É TAO LINDO PQ DEUS só de ter o teclado eu podia morre felizi	22/05/2019, 15:15:55
1131262879125127168	HolyLighit	Esse teclado igual razer e custo beneficio muito melhor 	22/05/2019, 15:17:42
1131263111078350848	Kihariii	EU TAMBÉM SAYUUU EU JÁ TE CONTEI Q EU COMOREI O FONE DA RAZER MERCURY SÓ Q MEU PAI N ESPEROU POR MIM E COMOROU NA GAME7 Q EH UMA BOSTA AÍ N CHEGOU ATÉ HJ. :’)	22/05/2019, 15:18:38
1131263579913637891	sayuzinha_	ei redragon, patrocina eu e manda mimos, razer é horrivel	22/05/2019, 15:20:29
1131265973565026304	cacharreria_la	El #mando para #PS4 que querrás tener - Razer Raiju Ultimate @RazerES #Razer #RaijuUltimate #gamepad https://blogs.larioja.com/la-cacharreria-tecnologica/2019/05/22/el-mando-para-ps4-que-querras-tener-razer-raiju-ultimate/	22/05/2019, 15:30:00
1131268901612822528	flymove_	Razer	22/05/2019, 15:41:38
1131270328582385666	calicojaack	Preciso de um Razer Kraken Pro 2	22/05/2019, 15:47:18
1131274524895469568	kennydxd	se for da Razer, isso é normal.	22/05/2019, 16:03:59
1131275181601755136	Daniewwela	Quando se sentir triste, se lembre da torradeira da razer 	22/05/2019, 16:06:36
1131277508962340866	Vislamarim	o engraçado, é q eu tenho um razer faz 3 anos e ta de boa aqui, estragou foi um logitech	22/05/2019, 16:15:50
1131277813812781057	kennydxd	isso não tem logica, ja q o Razer tem uma certa fama por estragar antes do 'tempo'.. LUL	22/05/2019, 16:17:03
1131281617383841797	calicojaack	Eu já tive um, muito bom pô... Me arrependi de ter vendido, meu Void Pro quebrou a dobradiça do microfone, o da Razer é retrátil	22/05/2019, 16:32:10
1131285822156738561	arxcruz	A mesma coisa aqui, meu único arrependimento com o Razer foi não ter esperado mais 8 meses para pegar com a RTX 20x0	22/05/2019, 16:48:52
1131288369005301761	joaosumida	de um teclado da razer pra um da bmax q pesa 1grama kkkkkkkkkkkkkkkkkkkkkkkkkkkkkkkkkkkkkkkkkkkkkkk	22/05/2019, 16:59:00
1131288427356401664	felipealvaresfc	Eis que você vai em um lugar e a razer fica lá haha, nem me liguei , ajudando uma vizinha com cadeira de rodas com sua mãe :) 	22/05/2019, 16:59:14
1131295516506169351	jcesarmelo10	Cadê o teclado e o mouse da Razer? Num tô vendo	22/05/2019, 17:27:24
1131298054143905792	LightZYear	Sim, Por isso tava com dúvida, acho Razer muito moda, se pá invisto mais um pouco e compro um Morcego da GFallen	22/05/2019, 17:37:29
1131298912936103937	loycarvalho	Uai que fone da razer???	22/05/2019, 17:40:54
1131299425773608960	heavysadsoul_	Comprei puta de rato da razer para jogar the Sims 4	22/05/2019, 17:42:56
1131302682122215424	SnocerBr	foda mano razer so tem luzinha	22/05/2019, 17:55:52
1131313452390203394	GuiCastilho15	Razer fone	22/05/2019, 18:38:40
1131317523394248705	Shinobu_uwu	É que na verdade existem vários estilos de mouse, o razer ouroboros por exemplo é parecido com esse da imagem, já o deathadder é bem simples	22/05/2019, 18:54:51
1131323825826729985	danilon3to	se fosse da razer...	22/05/2019, 19:19:53
1131323915882717185	JadenPoc	ainda vou ser burguês safado e ter tudo da razer, sonho	22/05/2019, 19:20:15
1131324206178865157	jahminho	Tem os Razer Blade, mas são caros que só a derrota	22/05/2019, 19:21:24
1131324379021942789	guiMach_	bem que a Razer podia lançar o black widow elite mercury white heim!	22/05/2019, 19:22:05
1131324703480713219	ImExotiic	Razer 	22/05/2019, 19:23:22
1131330748173168642	totiisonfire	e razer só me decepciona. nenhuma das paradas que eu tive eram decentes ou não funcionavam ou simplesmente morriam em 6 meses :(	22/05/2019, 19:47:24
1131331760816558081	MeuGamerbr	Console Ouya confirmado encerramento do suporte em junho pela Razer. #videogames #towerfall #razer #gamers #xbox #Ps4 #pcgamer #andrid #forgetv https://www.meugamer.com/noticias/console-ouya-confirmado-encerramento-do-suporte-em-junho-pela-razer/	22/05/2019, 19:51:25
1131333925614305281	RazerBrazil	"""O Razer Nari Ultimate é capaz de dar um toque físico aos seus graves, em tempo real. [...] É como ter um par de subwoofers para seus ouvidos, sacudindo seu crânio com cada batida percussiva."" Review por @OlharDigital: http://rzr.to/bXPIH"	22/05/2019, 20:00:01
1131334436589625345	ArrascaG0l	me da um mouse velho sobrando ai razer	22/05/2019, 20:02:03
1131337000139730945	oneguinchave	Alô Razer @RazerBrazil trabalhin daquele jeito	22/05/2019, 20:12:14
1131340140645949441	giovannebosco	Muitoooo tempo que não jogo um LoLzin, sei nem quando foi a última vez na real... não tenho mais tempo pra isso kkkk Mas agora com esse mouse da Razer que o Krisller trouxe pra mim diretamente de Massachusetts vou tentar voltar a jogar.	22/05/2019, 20:24:43
1131341502146318336	MrVidoto	boa noite razer, alguem vai me mandar um rabão explodindo de gostoso na minha dm hj? 	22/05/2019, 20:30:08
1131344760126496768	aliandr15842070	To namorando esse razer v2 tem dias já	22/05/2019, 20:43:04
