id	username	text	datetime
1131098863576768514	Srz4Lucas	Mano eu uso headset da @RazerBrazil ja faz um tempo, mas esse novo q eu comprei é totalmente diferente de todos q eu ja usei(da razer e de outras marcas), ele é melhor e parece ter sido feito um cuidado muito grande É muito bom wtf 	22/05/2019, 04:25:58
1131167825463107585	RazerBrazil	Bom dia, servidos? : @Shabao1Shabao	22/05/2019, 09:00:00
1131169003458703360	0D4V4	depende. o waffle foi feito na torradeira Razer? e o copo Razer, cadê?	22/05/2019, 09:04:41
1131169146132148224	LucaasHif	Cadê a torradeira??	22/05/2019, 09:05:15
1131186199157252101	RazerBrazil	Opa, ele existe mesmo!	22/05/2019, 10:13:00
1131186306904678400	kabumcombr	Calma fica vivinha pra usar este Headset e contar pra nós como tá a experiência com a @RazerBrazil	22/05/2019, 10:13:26
1131186409908396039	0D4V4	mas nao tem dele na foto :(	22/05/2019, 10:13:51
1131189099266793473	victor_lima333	E a torradeira ??	22/05/2019, 10:24:32
1131196146536394752	davidltavares	QUERO MINHA TORRADEIRAAAA! :)	22/05/2019, 10:52:32
1131200040263925760	GruntarTV	Se liga galera, nessa entrevista que fiz com o @LuizFGarden da @RazerBrazil Não reparem na cara de sono e no cabelo amassado... haha Já mandou a segunda parte e logo mais sai o final 	22/05/2019, 11:08:00
1131203849878986753	pablohconde	Po, parabéns pela aquisição, mais por experiência @RazerBrazil é só marca, produtos são péssimos, a não ser que você tenha grana para todo ano trocar tudo.	22/05/2019, 11:23:09
1131206804501913601	vanillahun_	Muita gente tá falando malzao	22/05/2019, 11:34:53
1131209102200377344	AleeMarian0	tenho um Headset da Corsair Vegance 1500 v1 uso a uns 4/5 anos, mas ja quebrou Mic e ta só o pó o cabo tbm partido e queria algo novo de outra marca, qual Headset me indicariam que tenha um qualidade similar ?? @RazerBrazil	22/05/2019, 11:44:01
1131211628790407168	gtocurintcha	Ahhh o @GruntarTV é sensacional! Merece o mundo!	22/05/2019, 11:54:03
1131216815454064640	FelipeOhlweiler	Excelente! @RazerBrazil é muito boa viu! Eu tenho um mouse e teclado da Razer há 8 anos. Uso os 2 até hoje, diariamente e nunca deu problema. Parabéns pela compra!	22/05/2019, 12:14:40
1131217859626065921	vanillahun_	eu já tenho um mouse deles que deu problema depois de dois anos porem eles arrumaram rapidinho	22/05/2019, 12:18:49
1131218300409720833	FelipeOhlweiler	Então, teve problema depois de 2 anos e arrumaram rápido. Pra mim isso é exemplo de excelência. Além do produto ser bom, quando dá problema atendem bem. Ótimo!	22/05/2019, 12:20:34
1131223727797088256	guistabarbara	Eu desafio a @RazerBrazil @TeamRazer te dar um desse e você fazer propaganda na live. DUVIDO	22/05/2019, 12:42:08
1131224217687646208	Rayuurdota	Tá lançado o desafio @RazerBrazil @TeamRazer faz a boa ae que os frutos vem.	22/05/2019, 12:44:05
1131229569132965890	fpsmanga	mlk @RazerBrazil é muito podre, arrependido demais com esse headset, bagui tem um chiado quando sai som chato pra caralho	22/05/2019, 13:05:21
1131232493947031552	RhuanzZito	@RazerBrazil ajuda eu tira uma duvida ai meus queridos plss	22/05/2019, 13:16:58
1131235017680654337	RhuanzZito	Mandei e-mail pra @RazerBrazil seja se Deus quiser pra eles responder	22/05/2019, 13:27:00
1131236873739882496	GruntarTV	Haha, que isso, tamo junto!	22/05/2019, 13:34:22
1131241369941491713	Lincoln_ams	e o Razer Blade quando será vendido oficialmente aqui no Brasil?	22/05/2019, 13:52:14
1131249978758893568	RazerBrazil	Amaral, essa situação não é normal :( por favor, entre em contato pelo suporte@razerzone.com.br para que a nossa equipe te ajude!	22/05/2019, 14:26:27
1131255647427801088	pkkkkkk47	carai rimo	22/05/2019, 14:48:58
1131282732112338945	paulovscosta_	Muito bom, meu amigo. Comecei a acompanhar seu trabalho no CD qnd a paiN caiu, e de lá pra cá vc vem em uma crescente absurda. Me divirto mais com o CD do que assistindo o CBLOL... Não desmerecendo os demais casters que tmb sou muito fã, mas a irreverência de vocês é diferenciada	22/05/2019, 16:36:36
1131292756675108865	pitou333x2	negativo irmão, tenho meus produtos a mais de 2 anos posso afirmar q estão como novos	22/05/2019, 17:16:26
1131294033131786242	RazerBrazil	Aí sim! 	22/05/2019, 17:21:30
1131294191357747201	IgorConTeR6	Meu Deus!!! Esqueci de marcar vocês mas eu amo a marca de vocês também aaaa 	22/05/2019, 17:22:08
1131303630152314880	RazerBrazil	A entrevista com o @gstv1lol começa em instantes! Acompanhe: http://rzr.to/AoVivo	22/05/2019, 17:59:38
1131333925614305281	RazerBrazil	"""O Razer Nari Ultimate é capaz de dar um toque físico aos seus graves, em tempo real. [...] É como ter um par de subwoofers para seus ouvidos, sacudindo seu crânio com cada batida percussiva."" Review por @OlharDigital: http://rzr.to/bXPIH"	22/05/2019, 20:00:01
1131334436589625345	ArrascaG0l	me da um mouse velho sobrando ai razer	22/05/2019, 20:02:03
1131337000139730945	oneguinchave	Alô Razer @RazerBrazil trabalhin daquele jeito 	22/05/2019, 20:12:14
1131338853233700864	RazerBrazil	Vamos torcer pelo 10 	22/05/2019, 20:19:36
1131339402628730880	thiagobn10	koe só queria umas coisinhas de graça @Pulma @CocaCola_Br @RazerBrazil @monsterenergyBR @RedBullBR @Cloud9 TMJ	22/05/2019, 20:21:47
1131341828349976577	PedrimSla	vao tirar 11 ouve oq to falando	22/05/2019, 20:31:25
1131345371676971008	JuninhGamePlay	@marcelozerah olha isso UAHAUAUUAH	22/05/2019, 20:45:30
1131347895305822208	_freitas_renan	O que você quer desse @Pulma ?? 	22/05/2019, 20:55:32
