id	username	text	datetime
1161432748613152768	Unicornia07	O macho oprimido chegou	13/08/2019, 21:22:00
1161453427798528000	Thiagodsa94	Corre que a feminazi chegou!! Estamos perdidos!!	13/08/2019, 22:44:10
1161464091057238017	vertaodagalera	Arrumei kkkkkk Alo @RazerBrazil patrocina um fone novo ai na humildade 	13/08/2019, 23:26:32
1161583140659441665	GatitoKelvin	Queria um teclado novo @RazerBrazil	14/08/2019, 07:19:36
1161644596629311492	Viniciu_OBRABO	Ja fiz, agora esperar?	14/08/2019, 11:23:48
1161656389313470464	eueucarionte	"O cara mandou a mina ""montar"" nele. Mas claro, a culpa é da mina. Puta merda viu. Acaba mundo!"	14/08/2019, 12:10:40
1161660100903391232	AlvaroBastos5	Tá com dinheiro em	14/08/2019, 12:25:25
1161662369929539585	JockeyPlayerEZ	toma cuidado, e uma dica n faz buttlefly nele, pq man, depois ele começa a dar doubleclick e é uma merda kkkk, mas é um ótimo mouse!	14/08/2019, 12:34:26
1161709511662592000	vitorhugocolete	É por isso que eu compro razer	14/08/2019, 15:41:45
1161714446546427905	MarlonDeFarias1	@RazerBrazil por quê o lancehead mercury é tão caro, meu Deus? sou assalariado, fica ruim de comprar. 	14/08/2019, 16:01:22
1161739837352943617	GimpeSports	Mais um dia de jogo!! Hoje nossa equipe de PBGM irá participar novamente da #razermobileleague. Iremos dar novo melhor para ficar entre os primeiros e para isso, precisamos dos nossos guerreiros na transmissão!! http://streamcraft.com/user/RazerBrasil #GOGI #AOIMPÉRIO #razer @RazerBrazil 	14/08/2019, 17:42:15
1161746129161269248	RazerBrazil	Não fique para trás no TFT: resumimos todas as mudanças do novo Patch 9.16! Conheça os campeões Hextec, os buffs, os nerfs e mais.	14/08/2019, 18:07:16
1161756101936865280	Unicornia07	Vai la gado boy	14/08/2019, 18:46:53
1161780150855458818	EoqIsraah_	Essa foto ficou clean	14/08/2019, 20:22:27
1161780214936064005	EoqIsraah_	Parabéns pela conquista :)	14/08/2019, 20:22:42
