id	username	text	datetime
1171936715075915776	yuri_Edd	Meu Xbox + HS Razer + Rap = Eu jogando puto pra caralho destruindo todos os acéfalos que se descrevem como meus adversários	11/09/2019, 21:01:01
1171937181067182081	chhopsky	RAZER MONITOR?!	11/09/2019, 21:02:52
1171939316303630336	kein_ebucher	A descoberta da ftalocianina foi uma mula que aprendeu a usar a internet ontem mas quem acha isso bonito não pode reclamar da mina da razer.	11/09/2019, 21:11:21
1171940297892388864	Rullez_	Não, só colocar o fone no monitor Eu não sei pq geral continua comprando coisa da razer, decaiu p caralho no mercado e o tempo de duração eh horrível	11/09/2019, 21:15:15
1171940413231570944	IsaPavanelii	e meu namorado que derrubou o mouse razer dele, quebrou, eu abri ele e arrumei! Caralho eu sou um anjo	11/09/2019, 21:15:42
1171953228231172096	WilliamCandid0	Sonho realizado #razer https://www.instagram.com/p/B2SsfIrAwejk7dSWU9D-u1xQwWt-9gMODLL4wM0/?igshid=1l313hjaojeiy	11/09/2019, 22:06:38
1171955024156606467	lilnetobroo30	Tem como não, vou juntar dinheiro e comprar esse novo mouse da Razer. Tmj	11/09/2019, 22:13:46
1171957205366710272	lilnetobroo30	Razer Viper, lançamento de setembro	11/09/2019, 22:22:26
1171959184579059714	JesseSvG__	Razer girl parece a melhor, o resto só esquizo(ela incluída)	11/09/2019, 22:30:18
1171961552821469185	Garuma18	uma loja incel alimentando um público incel e alt-right isso me lembrou o caso da Razer	11/09/2019, 22:39:42
1171965470582460422	faria_Dudu3	Aí meu coração 	11/09/2019, 22:55:16
1171982172053528576	leoz_p	Alô @RazerBrazil Tenho um Headset Razer Electra V2 que subitamente parou de funcionar, tem apenas 1 ano e 4 meses de uso. Poderiam me dar uma força?	12/09/2019, 00:01:38
1171985900148076546	feelast_	@jessfail meu razer deu pau menina u.u	12/09/2019, 00:16:27
1171986564777426944	kaU4k	Um dia a @W7MGaming de fortnite todo vai me seguir aloooooo @GhostUEP da textura animada de hg da razer o @fastgxmer já me segui viu ? Skksksksjs Amo vcs xd sz	12/09/2019, 00:19:06
1172000405427036160	Anderso97685221	Pra começo de história que os headsets da razer não são nem de perto bons como antigamente, ate os Logitech estão melhores. Gasta dinheiro com isso não	12/09/2019, 01:14:06
1172005027604574208	yBlackEagle	Essa nova logo da Razer tá meio estranha... 	12/09/2019, 01:32:28
1172010122903785473	vinipleasedie	e protejam a razer girl	12/09/2019, 01:52:42
1172018112599855104	brendaquadrxs	A gente só dá valor quando perde.. saudade teclado e mouse da razer e meu fone 	12/09/2019, 02:24:27
1172021411029901313	Lucena0106Lucas	N se preocupe amiga, irei razer uma simpatia pro exu sete caveiras e vc viverá	12/09/2019, 02:37:34
1172065116403068929	0290l4	RAZER 	12/09/2019, 05:31:14
1172068631435284480	sekihan134	Razer？？	12/09/2019, 05:45:12
1172078667511545856	furtleo	Os acentos do meu razer so funcionam com isso ai	12/09/2019, 06:25:05
1172093581168926720	jhony_bay	Razer girl?? Acho que não mais kkkk	12/09/2019, 07:24:20
1172095447118295040	Rods_Bins	Tapete gamer, dessa vez a @Razer perdeu pro concorrente. 	12/09/2019, 07:31:45
1172110000224968704	JaoWasabi	Se fosse Mousepad da razer iria ter aqueles led pra dar o charme a noite no piso	12/09/2019, 08:29:35
1172115864038105088	Basicmemesender	Razer Viper	12/09/2019, 08:52:53
1172115990437650432	Blansi93	Razer presenta sus fundas refrigerantes Razer Arctech para iPhone https://ift.tt/2AanUkU	12/09/2019, 08:53:23
1172116569150951424	PowerUps_ES	Razer presenta sus fundas refrigerantes Razer Arctech para iPhone 	12/09/2019, 08:55:41
1172118558693703680	sea8s041	Razer！	12/09/2019, 09:03:35
1172120398160420864	ferlustosa	Sei lá, só queria um teclado blackwidow da Razer	12/09/2019, 09:10:54
1172120555610415104	ferlustosa	Pra fechar meu acessórios full Razer só falta um mouse mexmo	12/09/2019, 09:11:32
1172120626003361792	ferlustosa	Muito cadelinha da Razer auau	12/09/2019, 09:11:48
1172122093741326337	HARINisGODLIKE	nessa casa a gente não da dinheiro pra marca machista fudida i'm looking at you @razer	12/09/2019, 09:17:38
1172123295015165952	nichepkg_kim	Razer	12/09/2019, 09:22:25
1172124585233268736	hakuchan_fps	razer?	12/09/2019, 09:27:32
1172126355040813057	heymatiashere	Conheço só a da Razer	12/09/2019, 09:34:34
1172132825467895808	djcasdagrock	NÃO FALO INGLÊS | Storytime presented by Razer https://youtu.be/yS9QIdQwwiQ via @YouTube	12/09/2019, 10:00:17
1172136284682432514	B4NighTT	Ontem campeões da 14º edição Razer Mobile League! Só vamos que PMCO está chegando #gORED	12/09/2019, 10:14:02
1172137109987221504	byulune	ESSE SORRISINHO SAPECA NAO XSNMEMWMWMWKWMSMSLWLMW CHEGA CJEHA CJEHA VOU TE Q ENCJE DE BEIKOS E SOCOD NESSA FSP Q ACHA Q TEM.O.DIREITO D RAZER QIALWJER COISA CMG CHSTA RIDÍCULA BOBOCA CHATAAAAAA 	12/09/2019, 10:17:18
1172151058426204160	jarraoplay	@ASTROGaming espero que este Astro A50 seja a melhor experiencia possível nós games de Xbox, agora só falta um stream deck , adquiri controle Razer ultimate Wolverine, Elgato Hd 60, Microsoft Hyper X e agora o Astro tudo na kabum. Acho que virei sócio da @kabumcombr	12/09/2019, 11:12:44
1172152146545934337	leakpt	Razer Nintendo Switch? A empresa quer entrar no mundo das consolas! http://dlvr.it/RCyh76	12/09/2019, 11:17:03
1172153566980714496	httpjkook	e o meu namorado que montou um pc gamer p mim e me deu um headset da razer com orelhinhas de gato	12/09/2019, 11:22:42
1172153637415485440	tatama97	razer	12/09/2019, 11:22:59
1172154630039646208	RedSideForce	"""Razer Nintendo Switch? A empresa quer entrar no mundo das consolas! - Leak"" https://twitter.com/BlueSideForce I https://twitter.com/GreenSideForce #Nintendo #NintendoBrasil #NintendoSwitch #NintendoSwitchBrasil #NotíciasNintendo"	12/09/2019, 11:26:56
1172156031776022528	naftalynda	razer pq choras? 	12/09/2019, 11:32:30
1172156372240293888	Kaiquera	casa da @sojogodeheimer só que o seu é razer	12/09/2019, 11:33:51
1172156950357925888	marcinhown	qualquer merda > razer	12/09/2019, 11:36:09
1172162107992707072	Jeymessss	Meepo amo HAHAHAHAHAHAHA	12/09/2019, 11:56:38
1172169943368065024	RazerBrazil	Designed for speed—o Razer Huntsman TE inclui ativação na velocidade da luz com o novo Switch Razer Optical Linear, um formato compacto TKL e as extra duráveis keycaps PBT Doubleshot. Domine a competição: http://rzr.to/HuntsmanTE-BR	12/09/2019, 12:27:47
1172170537994465281	Didileet	Imagin se fosse da razer nosssa pai 	12/09/2019, 12:30:08
1172170827476951041	unlovabla	Pior q quando ajudei meu namorado a se mudar quando a gente tava montando o quarto eu peguei o Mousepad da razer enrolado e achei que era aqueles tapetinho de colocar na volta da privada	12/09/2019, 12:31:17
1172171051582795776	frnndfrts	eu se não tivesse nenhuma preocupação na vida compraria mousepad da razer só pra colocar do lado do vazo sanitário mesmo	12/09/2019, 12:32:11
1172172609448022021	thatGabos	Se fosse da razer não tava errado 	12/09/2019, 12:38:22
1172179768801976320	luisfilipejr11	Cala te razer boy	12/09/2019, 13:06:49
1172187702076293126	Taxalo	al menos no fuiste gilipollas comprando unos razer	12/09/2019, 13:38:21
1172189432973316096	MundoConectadoo	Razer estaria trabalhando em controle semelhante ao do Nintendo Switch [Rumor] https://mundoconectado.com.br/noticias/v/10413/razer-estaria-trabalhando-em-controle-semelhante-ao-do-nintendo-switch-rumor	12/09/2019, 13:45:13
1172190093760745472	nammnat	Queria muito o headset quartzo da razer com as orelinhas	12/09/2019, 13:47:51
1172191973526163456	ncandioto	Verdadero ja foi na bota da razer kkkkkkk 	12/09/2019, 13:55:19
1172192412502044672	RedSideForce	"""Razer estaria trabalhando em controle semelhante ao do Nintendo Switch [Rumor] - Mundo Conectado"" https://twitter.com/BlueSideForce I https://twitter.com/GreenSideForce #Nintendo #NintendoBrasil #NintendoSwitch #NintendoSwitchBrasil #NotíciasNintendo"	12/09/2019, 13:57:04
1172198034219982848	Fr0stFN	razer viper	12/09/2019, 14:19:24
1172199162940710912	FehEdu	Parece que eu tava prevendo, ainda tinha perguntado para a @RazerBrazil, Saiu o @Razer Huntsman Tournament Edition... Eu preciso disso !!!!! &lt;3 vou vender meu teclado urgente.	12/09/2019, 14:23:53
1172199810453123081	Maulcun	O que eu quero saber mesmo, é quando o Razer BlackWidow X Tournament Edition Chroma será suportado pelo Synapse 3.0. Isso ai é uma vergonha.	12/09/2019, 14:26:27
1172200710219456512	Adrenaline	Razer pode estar trabalhando em controles ao estilo Nintendo Switch [Rumor] 	12/09/2019, 14:30:02
1172201907311521799	The_Desco	Tenis preto com luzinha verde da razer 800 pila	12/09/2019, 14:34:47
1172205320992636929	grandeguzz	Quase comprei um razer mas desisti, mas acho que vou comprar hj.	12/09/2019, 14:48:21
1172205560537780225	arthurzanitti	n faz isso não... razer é só marca, tem vários melhores e mais baratos	12/09/2019, 14:49:18
1172210053635629058	DanZZR6	Mano a galera do meu time usa meu som no -100 db NUNCA COMPREM O KRAKEN DA RAZER QUE É UM LIXO	12/09/2019, 15:07:10
1172212502526156800	LivenOff	rAzEr	12/09/2019, 15:16:53
1172219782604775424	FONEDEOViTOR	Eu usava um da steelseries e passei pr'um da razer mas não vi muita diferença, esse daí tem diferença mesmo?	12/09/2019, 15:45:49
1172236802251472899	etwu4356	razer vale kk haciendo celulares	12/09/2019, 16:53:27
1172239671671316480	lil_WXVY	Razer &gt;&gt;&gt;&gt;	12/09/2019, 17:04:51
1172247856071282691	gameszaum_	razer &gt;&gt;&gt;&gt;&gt;	12/09/2019, 17:37:22
1172249667255431168	DanielSam021	Sonho...	12/09/2019, 17:44:34
1172252536780263437	CandyHannah_	Toda hora fica aparecendo promoção do fone rosa da Razer. Me deixa em paz, não tenho dinheiro!!	12/09/2019, 17:55:58
1172255150083313664	Nguyhen4wd	Mini itx Threadripper 3, 32 GB de RAM, RTX 2080TI, Evo 970EVO 1TB, Caviar Black 20TB, Seasonic Focus SGX-650 PSU, Phanteks Enthoo Evolv, LG 34GL750, Razer Cynosa Chroma, Razer DeathAdder Elite Cero ruido / deshabilitado o cero RGB Creo que eso para empezar 	12/09/2019, 18:06:21
1172256981723287561	matpippa	E ainda por cima pede desculpa por ser homem pra mina ex razer 	12/09/2019, 18:13:38
1172261923846524957	camandis	se eh da razer eh feio.	12/09/2019, 18:33:16
1172262382816628742	sohelhb	só faltou ser rgb e da razer	12/09/2019, 18:35:06
1172262578413801483	zslwoly	da razer dispenso.. mas 	12/09/2019, 18:35:52
1172263172620857345	ijustwby	amei mas se for da razer nossa que lixo	12/09/2019, 18:38:14
1172263794464174080	isdsilk	que design tosco Razer que design TOSCO 	12/09/2019, 18:40:42
1172263884163600385	guibrle	kit razer completo, agora é trancar a faculdade por não ter dinheiro para pagar	12/09/2019, 18:41:04
1172266755093344256	semchacra	da razer não, obrigado 	12/09/2019, 18:52:28
1172267054960992256	smolsassygay	Queria tudo menos o fone da Razer mas pode me dar fone rosa de gatinho de outra marca 	12/09/2019, 18:53:40
1172270174092836864	PrateadoJulia	Lembrando aqui do dia q eu pedi um mouse num grupo de lol e um random me deu um mouse da razer e o Gabriel só fica aproveitando esses gado ksksksksksk	12/09/2019, 19:06:03
1172271062542901248	BVini19	Só qria esse fonezinho da Razer	12/09/2019, 19:09:35
1172272530117320706	eniscleris	seria esse o meu sonho??? sem o fone da razer eh claro 	12/09/2019, 19:15:25
1172273360975335424	t0k1n_	@RazerBrazil meu razer kraken te tá com problema, vocês podem me ajudar por favor??	12/09/2019, 19:18:43
1172276884182327296	siriricascuda	o fone da razer ta podre joga fora 	12/09/2019, 19:32:43
1172279903527612424	Stellarssaurus	PERFEITOOOOOO. Pena que se for Razer to boicotando	12/09/2019, 19:44:43
1172290165408063488	ACasadoCogumelo	Novo tablet gamer da Razer “se inspira” no Nintendo Switch https://www.acasadocogumelo.com/2019/09/novo-tablet-gamer-da-razer-se-inspira-no-nintendo-switch.html	12/09/2019, 20:25:30
1172291633947250688	othiagodavila	razer*	12/09/2019, 20:31:20
1172293747490598912	ratocafe123	A soundbar da razer ali atrás heuahuehau	12/09/2019, 20:39:44
1172296809395445760	RavazeJhonatan	"Atualmente estou com 3 metas e sei que vai demorar um pouco pra conseguir cada uma delas... 1- Quero mais do que nunca ter meu PC dos sonhos (Padrão @RazerBrazil de qualidade 2 - quero o fodastico @razer_phone 3 - quero um shape massa até junho. Mano é foda ser pobre no Br--"""	12/09/2019, 20:51:54
1172298236918415361	fomynha	LIVE ON Jogando o Fino >> Sorteio Mousepad Razer &lt;&lt; 500 follows 	12/09/2019, 20:57:34
