id	username	text	datetime
1131350423485308928	tngt11900	Razer… 	22/05/2019, 21:05:35
1131356021857894400	danihenriquedj	Vontade de comprar um razer Kraken, mas tenho que trocar a placa mãe primeiro aff	22/05/2019, 21:27:49
1131356989773234176	Bielflu	Magina o logo da Maresol usando um HS da Razer	22/05/2019, 21:31:40
1131359081506017285	PikachuNunes	Razer Teclado do EL Gato! https://m.nimo.tv/live/6250089174 #NimoTv	22/05/2019, 21:39:59
1131360113174953985	Gabriel1pierre	Odeio a razer mds	22/05/2019, 21:44:05
1131372116794675200	crgekidan	razer	22/05/2019, 22:31:47
1131373831011131394	redyuqi	alguem me da o headset meka http://d.va da razer por favo vo fica titi se nao comprar ele antes de acabar a promoção	22/05/2019, 22:38:35
1131375307536162819	manuelagarchet1	por 10 minutos achei que tinha perdido a conta o razer surround obg deus sei que tu me sondas	22/05/2019, 22:44:27
1131376701269860352	Nxis0	Depois que voce compra Fone da HyperX nunca mais quer comprar da Razer, ta malucl	22/05/2019, 22:50:00
1131380098760884224	Soliotariio	“Você pode até ser ruim mas seja ruim com qualidade, compre razer e de pinada com os melhores produtos do mercado”	22/05/2019, 23:03:30
1131392496725110785	JulitoJones	RAZER apoei a arte nacional 	22/05/2019, 23:52:46
1131396145790504960	FagnerSousa99	Meu Sonho é ganhar um Headset da razer	23/05/2019, 00:07:16
1131411383873150976	kwrnoski	so queria um note da razer	23/05/2019, 01:07:49
1131417655251034112	Yass_burckle	Amanhã vou ir comprar umas maquiagens pra me razer feliz pq eu mereço, estudei muito essa semana kkl	23/05/2019, 01:32:44
1131425448691359746	Glare__86	Razer*	23/05/2019, 02:03:42
1131428424910888961	JhouAbreu	Eu consegui usando razer cortex	23/05/2019, 02:15:32
1131456267510095872	GooglandoPlus	Fim do OUYA: loja de games do esquecido console será fechada: O esquecido console OUYA dará seu adeus definitivo. A marca, que foi adquirida pela Razer em 2015, já teve a produção descontinuada há algum tempo, mas… http://j.mp/2WliK27 #GooglandoPlus #Tecnologia #Notícias	23/05/2019, 04:06:10
1131494422179401728	EricaPereira74	mas vou bater à Mia porque ela foi razer as suas belas necessidades à banheira	23/05/2019, 06:37:47
1131499167656894464	_JoTanan_	Buii geralzona da minha sala vai falt aula E eu só queria razer o msm	23/05/2019, 06:56:38
1131530751164313601	kuloa_0	Razer	23/05/2019, 09:02:08
1131531574971961344	soulieset	VOCEÉ A MULEJT MAIS LINDA FESSE MUMEO I TEURO CPMO PODE RAZER ISSOCOCMIGO VOCE É EPRFIEMTA ENTENDEU EU5 E QMO MAIS DONQUE TUEO NA MINHA VIDA VOFE É TUDO PRA MIM GAROTBANEUT EMWLAO MEUD EUS VOCE É A PERIFNEIÇAO TUDO PRAMMIM?????????_? 	23/05/2019, 09:05:24
1131542240315228161	perosiperoqueno	Faz um razer pra mim?	23/05/2019, 09:47:47
1131545539525451778	whatjujubadid	Sério, eu tenho um, os periféricos da Razer não são lá essas coisas, eu comprei um Logitech G403, esperando chegar!	23/05/2019, 10:00:54
1131547489964683264	Stylish_deko	Razer	23/05/2019, 10:08:39
1131554805602803712	chimrare	@BTS_twt L evanta G ay B ora T razer a bunda pro brasil #WelcomeToBrazilBts	23/05/2019, 10:37:43
1131566622953623552	puloduploBR	A #Razer confirmou o fim do suporte ao #Ouya. A empresa adquiriu o projeto do microconsole em 2015.	23/05/2019, 11:24:41
1131572318621319168	getbyun	e o baekhyun que ganhou de presente o PlayStation razer panthera que custa quase mil reais; detalhe que esse eh só o controle, pq o xbox que ele ganhou custa 1.000 e pouco 	23/05/2019, 11:47:19
1131573336734076928	gotahcs	@itsmeERROR Error, como te estás a dar com o razer phone? Estou a precisar de um telemóvel novo e estou a ver opções	23/05/2019, 11:51:21
1131587363841429504	Rxznde	Será que se eu começar a pagar pau pra alguma marca eles me patrocina? tipo assim, eu amo razer ai os cara vai e me manda um full setup	23/05/2019, 12:47:06
1131596894583414784	gustavoaraujo28	Tô com 67.500 ms vou esperar os produtos razer rsrs	23/05/2019, 13:24:58
1131597329524506625	amandacarolgb	Ser famosa e embaixadora da razer Um sonho	23/05/2019, 13:26:42
1131607658103017474	monniquetaborda	esse fone da Razer que yan comprou é maraaaa	23/05/2019, 14:07:44
1131616100263899136	Thalespinho	pede da razer	23/05/2019, 14:41:17
1131622942058713088	Cit3rne	Mecccc les claviers razer jcomprend mais pas les sourissssssssss tu me decois	23/05/2019, 15:08:28
1131624853684068353	lucaas_gl	O da razer?	23/05/2019, 15:16:04
1131626942657159169	pequenotom	To esperando a da razer rsrs	23/05/2019, 15:24:22
1131628505635217408	awsvitor	@kabumcombr será que faria falta pra vcs um headset, queria tanto um Razer Kraken v2 branco :cccc pfvorzinho, quero dar de presente pra minha namorada	23/05/2019, 15:30:35
1131629206478180353	Orbitalmx	https://www.facebook.com/orbital.mx/photos/a.281377565254888/2394729800586310/?type=3 Galeria de Hardware por #Razer Presentada por http://orbital.mx ¡Visitanos!	23/05/2019, 15:33:22
1131632506338512898	NandoStuchi	Bora galera!!!! Se batermos 80 pessoas hj na live e 20 RT nesse post sortearei um mousepad da razer e 2 jogos de PC!!!!! Bora @StreamCraftBR @RazerBrazil https://streamcraft.com/user/PTJ	23/05/2019, 15:46:28
1131642484751310848	AizawaGordo	é da razer ?	23/05/2019, 16:26:07
1131646151478923264	Viruspyko	Bon il est temps de passer chez Razer 	23/05/2019, 16:40:42
1131647762905346049	adrielleroquini	to tao tisti alguem me da um mouse gamer da razer pra edita foto pois ele desliza que é uma beleza ):	23/05/2019, 16:47:06
1131653471973904384	EricdeBrocart	Go back to Nice ! #PressTour @Razer &amp; @WilliamsF1_BR terminé – at Heathrow Terminal 5 London Underground Station	23/05/2019, 17:09:47
1131653556702994432	poxataynaro	D eito a noite O lhos tristes, sem mexer C omo minha amiga faz isso? T razer Doctor Who difícil não deve ser O ntem teve anúncio, fiquei cheia de esperança R elembrei que nunca é, tô perdendo a confiança? W ho em todo lugar, menos no Brasil H oje mais uma vez O ccxp, DW no Brasil	23/05/2019, 17:10:07
1131654110179151873	httpsCarvalho	fone da razer pra ouvir musica KEK	23/05/2019, 17:12:19
1131656778578579462	devinhanamissao	teclado da razer é bom mesmo, aguentou um socao brabo	23/05/2019, 17:22:55
1131663558750679044	danielboettich	*Razer 	23/05/2019, 17:49:52
1131664076281663488	KevinHackali	Teclado Razer Blackwidow Chroma V1 - 80€ - sem garantia, bom estado + info dm	23/05/2019, 17:51:55
1131666158359388160	lojasngames	Para quem ama Star Wars e tem o seu Lado Gamer da FORÇA, Razer está lançando um Kit de Teclado, Mouse e Touch Pad com a temática da Saga - #SNGames	23/05/2019, 18:00:12
1131670791383277568	bela_mr	os meninos tudo falano dessa maldita razer nem sei q diabo é isso o fone é da empresa ahUahauajajsauua	23/05/2019, 18:18:36
1131671788600078338	yurisferr	já tenho 6 adesivos da razer e nunca irei usar nenhum pq tenho mto medo de usar atoa e desperdiçar	23/05/2019, 18:22:34
1131674990288486401	rrcs_1	Será que seria pedir muito ganhar uma mochila da razer de aniversário? 	23/05/2019, 18:35:17
1131675082961641473	bela_mr	meninos do tuiter EU NAO SEI Q DIABO É UMA RAZER ME PERDOEM É DA EMPRESA	23/05/2019, 18:35:39
1131680183004684288	mozaummenortres	meu sonho eh ter um teclado quartz da razer pq pqp que bagui lindo	23/05/2019, 18:55:55
1131686195589730304	RazerBrazil	O teclado mecânico icônico que dispensa apresentações —o Razer BlackWidow Elite já está disponível no Brasil. 	23/05/2019, 19:19:49
1131686625610739713	Gamer_Zorc	Por que razer é tão caro? :(	23/05/2019, 19:21:31
1131686804833353728	yurikellermann_	depois de 2 anos com meu fone da razer sem as espumas, hoje chegou as novas kakakak	23/05/2019, 19:22:14
1131687501247025152	iamKeagie	@Terry0h hehe	23/05/2019, 19:25:00
1131688004739883009	1v1NI	Estou saindo da linha razer pra testar a Logitech, e só vi comentários bom a respeito 	23/05/2019, 19:27:00
1131688045688659968	ZenWorldMusic	Razer!!!	23/05/2019, 19:27:10
1131695080601993216	GuxTa_Ac	Cyber deixa eu te perguntar, necessito muito de um fone pro R6 e vi tava vendo tua última live e tu tava com um da razer e um outro fone por baixo, tu poderia me passar os nomes ?	23/05/2019, 19:55:07
1131695979449729025	cyberzeraR6	Razer man’o e bose quietcomfort 20	23/05/2019, 19:58:42
1131704375494217729	soueuand	por acaso isso é um sinal que de a razer vai lançar uma linha de crocs com RGB?	23/05/2019, 20:32:03
1131711280203673601	_SARG1	Você já foi mordido pelo bichinho da RAZER, eu nunca mais uso nada deles. Experiência péssima!	23/05/2019, 20:59:30
