id	username	text	datetime
1178126958967889921	wzuia	É mesmo falta só isso, vamos providenciar @RazerBrazil	28/09/2019, 22:58:50
1178132954452758529	SwitchTeddy	Ae primo, boa sorte ae xD ja fiz minha parte ai <3	28/09/2019, 23:22:39
1178264693636583426	ANDREMOURASANT1	Isso não e mais um microfone é tecnologia futurista.	29/09/2019, 08:06:08
1178385921953153026	Gaules	Vim comprar o mouse do @TACOCS @RazerBrazil 	29/09/2019, 16:07:51
1178386108226387973	Marcelinho_1224	Tribo podem me ajudar tô em live quem puder me ajudar muito obrigado	29/09/2019, 16:08:36
1178386564981886978	jonny_bullit	e esse já faz ligação em 5G, olha o que é a tecnologia	29/09/2019, 16:10:25
1178386992230535169	toyfps	vai de G PRO WIRELESS.	29/09/2019, 16:12:06
1178387300763475968	romerosteam	vim pelo cs fiquei pelo fps	29/09/2019, 16:13:20
1178387547703201793	Guilher_alves	Qual nome? Goró e pigas?	29/09/2019, 16:14:19
1178387797436182531	OffSidesx	Eae gau, traz um pra mim Chegando aq te entrego o money kkkkkk	29/09/2019, 16:15:18
1178390101614895104	Guedexs	vamos ver se esse spray britadeira melhora KKKKK	29/09/2019, 16:24:28
1178393926320955392	Adelinkins	Caramba esse eh top de mais tem promoção pagando a vista vc ganha dois caildicana gelado	29/09/2019, 16:39:40
1178395689430204416	vjeey10	Trás um pra mim @alegaules	29/09/2019, 16:46:40
1178400916359303168	SporeGamesS	para com isso cara, só tu pegar um processador melhor q da conta facil	29/09/2019, 17:07:26
1178407177754677249	romerosteam	vc tocou no problema ,pegar o processador....	29/09/2019, 17:32:19
1178419172944072705	ThiaagoTHC	se ta precisando de um tambem	29/09/2019, 18:19:59
