id	username	text	datetime
1102733275360120832	ladyjannebr	Arrazô, Jhonny !	04/03/2019, 21:51:15
1102750594228518912	Bernardo__08	Que desgreta é essa do meu celular ficar fazendo ruído no fone Só ele entrar em conexão com a internet e estar perto DO FIO OU DO FONE que já começa a dar chiado E O FONE É DE FIO?? Sério isso¿?¿ @RazerBrazil (Chroma 7.1)	04/03/2019, 23:00:04
1102751216742944768	Bernardo__08	80 dólares pro headset xiar via proximidade com o FIO pela antena do CELULAR & depois de 1 ano estar descalibrado Nem pra ser um 7.1 surround real @RazerBrazil	04/03/2019, 23:02:32
1102975343789522944	RhuanzZito	@RazerBrazil pls me dá um fone o meu Kraken não estrago juntei 1 ano de salário pra compra	05/03/2019, 13:53:08
1102995202992734216	GustavoJava1	Morreu um grande parceiro , ficou comigo durante uns 3 anos , sem me abandonar sequer um minuto , vá em paz Razer Krait @Razer @RazerBrazil Luto 	05/03/2019, 15:12:03
1102996866067775488	two_bacca	Larga de ser fei	05/03/2019, 15:18:40
1102997010028716033	GustavoJava1	Vai se fuder , respeita meus sentimentos	05/03/2019, 15:19:14
1103018057616801794	Pdro_K7	Livezinha na @NimoTV_Brasil @NimoTVglobal broto gente em , e não podia fazer ali os periféricos da grande @RazerBrazil esse é trab!!! Me Sigam Guys https://m.nimo.tv/live/6903329028	05/03/2019, 16:42:52
1103027530590760960	Oisouone	Só queria um headset da @RazerBrazil de presente, é pedir muito?????	05/03/2019, 17:20:31
1103028634045087744	beittuw	Azar de quem tem	05/03/2019, 17:24:54
