id	username	text	datetime
1175567210821144576	IJakeii	Razer Mamba	21/09/2019, 21:27:18
1175576265232986112	gabscornio_	Nao kkkkkkkkkkkk minha blusa é M e nem o patrocinio da razer tem e mt menos o nome dele kkkkk	21/09/2019, 22:03:17
1175576312397869056	Cipherrs_	Razer	21/09/2019, 22:03:28
1175600578510184448	vertigocomicss	Tirando o fone podre da razer eu quero mesmo 	21/09/2019, 23:39:54
1175614616531025921	VitorFerreir4CH	E pra dizer que tudo começou porque o Tio Phil não ficou satisfeito em ter ganhado um Razer Kraken Pro.	22/09/2019, 00:35:41
1175617446314745857	AvelarFoxy	Queria compartilhar isso Mas tá razer Não Empresa machista fudida	22/09/2019, 00:46:55
1175620888026206208	tenpura322001	Razer	22/09/2019, 01:00:36
1175622618013151237	mk_R0ut	Razer tinha q vir com um superbonder junto	22/09/2019, 01:07:28
1175628316776251393	chichaboysu	Live on no hs pegando rank 3 kit razer na casa da namorada comendo resto de lanche 	22/09/2019, 01:30:07
1175640934186463234	gblsk71	e eu que comprei um mouse da razer por 50 conto KKKKJJJ	22/09/2019, 02:20:15
1175648595103690753	bogoww	razer nem da pc mn kkkkk	22/09/2019, 02:50:42
1175658709105762304	ElSquirtleGG	Razer 	22/09/2019, 03:30:53
1175661328519720960	hiroHK416cARP9	Razer？	22/09/2019, 03:41:18
1175671030582562817	DesignWorlds	Razer Sila https://www.amarillyan.com/razer-sila/	22/09/2019, 04:19:51
1175674270527238145	WebMarketShop1	Razer Sila https://www.amarillyan.com/razer-sila/	22/09/2019, 04:32:43
1175679311065563137	noahcameron21	Razer Sila https://www.amarillyan.com/razer-sila/	22/09/2019, 04:52:45
1175680138605993984	TpiuArt	Razer ;) (par contre c'est cher)	22/09/2019, 04:56:02
1175683847066963968	AceDamon2	Razer Sila 	22/09/2019, 05:10:46
1175693867804442624	NewAmarillyan	Razer Sila 	22/09/2019, 05:50:36
1175705577709850624	ParaEles2017	Capas da Razer prometem resolver problema sério dos smartphones 	22/09/2019, 06:37:07
1175733207016165377	Turmalinalilas	Com certeza. Fora ficar sem nada do que gosta de razer. Porque se tem um comportamento desses está claro se não corrigir... Vira Marginal . Agora que Ideia mais Doida .	22/09/2019, 08:26:55
1175761449404309505	NightGabriell	nota: nunca mais pegar fone da razer	22/09/2019, 10:19:08
1175761608561385474	joaohenrique_fb	Ela sim consegue me razer raiva de um jeito fora do normal	22/09/2019, 10:19:46
1175781886498660353	ArthurNog_	Ei @RazerBrazil @Razer @razer vai tomar no cu com seus sub produtos feitos de bosta, empresa tenebrosa	22/09/2019, 11:40:21
1175792166951632896	ShyTaquittJ	Meu razer kraken pro v2 foi o pior periférico que eu ja comprei, eita fone lixo do cacete	22/09/2019, 12:21:12
1175795224335003649	MagnaKaiser	Se o mouse for da razer quer dizer q eu sou machisto?	22/09/2019, 12:33:21
1175796070540042241	MagnaKaiser	Voce quer mouse da razer machisto ou da industria nacional?	22/09/2019, 12:36:43
1175801424220999680	julewhtx	nss pior que eu não duvido ele deve amar a razer	22/09/2019, 12:57:59
1175803481212502019	witchcraftless	finalmente esse Synapse da Razer me foi útil, fiz um macro e vou deixar ele rodando enquanto durmo	22/09/2019, 13:06:09
1175807684978892800	luxcasfps	to vendo se da para testar gostei do razer viper	22/09/2019, 13:22:52
1175808318494990338	beittuw	Eu já tive problema com 2, Deus o livre, Razer é muito nome do	22/09/2019, 13:25:23
1175811610079838209	julinaaanas	e a razer CHORA com meu mouse de 10 conto da ketchup 	22/09/2019, 13:38:28
1175816321382178823	Darckfe009	Vc achou que ela tinha enfiado um headset razer rgb dentro da buceta ?	22/09/2019, 13:57:11
1175854812346404864	vihzao	alguem q tenha um headset 7.1 v2 da razer p me dar um help	22/09/2019, 16:30:08
1175873045967310851	giptorres	Mto feliz que meu primo me deu um mouse da razer velho dele	22/09/2019, 17:42:35
1175874320150798336	RnNCSGO	nn razer eh mto ruim bagulho quebra do nada	22/09/2019, 17:47:39
1175875148215439361	edivaldobrito	Configure mouse Razer no Linux com o Razercfg 	22/09/2019, 17:50:56
1175905294888722435	RazerBrazil	No Razer Cast #003—as novidades apresentadas na TGS 2019, a estreia de @kngvito na @MiBR e as primeiras impressões do Razer Viper. Ouça agora : Spotify: http://rzr.to/brcast-s YouTube: http://rzr.to/brcast-yt Deezer: http://rzr.to/brcast-d Apple: http://rzr.to/brcast-a	22/09/2019, 19:50:44
