id	username	text	datetime
1104896043865567233	VanteStore	Não gosto da razer kk	10/03/2019, 21:05:19
1104901659623337989	anddrk	cristiano é um demonio no meu ombrinho ele quase me fez comprar um kit razer de 300 conto n vou mentir q valia a penakkkk mas olha	10/03/2019, 21:27:38
1104903710386335744	FKFlaviusking	Precisamos 8 subs para o objectivo e estamos live vem decidir se os mereço ou nao !! We need 8 subs to objective and we r live come decide if im worthy!! https://www.twitch.tv/fkflaviuskings Almost 100k views Giveaway with Razer @DNRRTs @Mighty_RTs @ShooterRTs @CapRTs #twitch #PS4share	10/03/2019, 21:35:47
1104905267588841472	Nautike94	Mirage	10/03/2019, 21:41:58
1104906303753867264	SrBraam	Eu contratava.	10/03/2019, 21:46:05
1104908041164677121	eenrietti	Eu, Mouse e Teclado Razer e umm Headset Kraken bem delicinha!	10/03/2019, 21:52:59
1104912355933208576	kl1mroth	eh a razer o seu problema...	10/03/2019, 22:10:08
1104916460856594433	thiiagovf	Eu só queria um pc da Razer que vi hj. Pena que custa 4k.	10/03/2019, 22:26:27
1104921090776801280	mfesilveira	trabalhar pra ter meu setup razer quartz	10/03/2019, 22:44:51
1104931036566310914	vitorcabanela	duvido alguém comprar o controle da razer que to vendendo	10/03/2019, 23:24:22
1104933143470055429	RafaelB96112680	Cê não tem aquele fone da razer que comprou na loja do Nando ?	10/03/2019, 23:32:44
1104937157804912641	zachary2029	Razer	10/03/2019, 23:48:41
1104944185365446656	KroosBr3	Mano tô vendo isso tudo dos cara falando quem vai dominar a Razer e eu nem sei qual dia ela lança kkkk	11/03/2019, 00:16:37
1104944906496294912	KroosBr3	Os Cara tudo com Fac montada doido pra dominar e eu Aki que nem Fac tenho pra ir jogar na Razer &lt;\3	11/03/2019, 00:19:29
1104961527596150785	moleque_dfavela	Meu irmão mais novo sabe fazer as coisa pra comer So sei fritar mistura e razer miojo	11/03/2019, 01:25:32
1104974739347591169	TRG_MoPower	Razer 2	11/03/2019, 02:18:01
1104980131733430272	877387	RAZER	11/03/2019, 02:39:27
1105006613285330944	apex_kohaku	Razer！	11/03/2019, 04:24:41
1105019331354771456	Lynxy18199546	Razer	11/03/2019, 05:15:13
1105028970918031361	otenki_airu	Razer！！	11/03/2019, 05:53:31
1105056643044171776	PriaGondrong73	PC/HP RAZER 	11/03/2019, 07:43:29
1105085346444906496	i9zrd	Razer é só nome, eu tinha uma black window que durou 6 meses e depois começou a dar dois clicks em várias teclas e por fim metade do teclado parou de funcionar	11/03/2019, 09:37:32
1105091317665804289	SrBraam	Me dá a empresa e o dinheiro que eu contrato kkkkkkkkkkk	11/03/2019, 10:01:16
1105101950847238144	JulkoMelo	uma coisa que eu nunca mais compro na vida é razer, tentei entrar em contato por todos os meios deles, tive 0 respostas, preferi pegar meu kraken e jogar no lixo depois de 2 meses sem resposta	11/03/2019, 10:43:31
1105113854248452097	FacundoFerraraa	El razer paaa	11/03/2019, 11:30:49
1105119277269475328	_murasan_	25. Razer	11/03/2019, 11:52:22
1105121645813997568	DvNHvY	A dejar de comprar razer 	11/03/2019, 12:01:47
1105122206869307393	Kooleo_Bro	Razer pi	11/03/2019, 12:04:00
1105122322241990659	dukaptr	fiquei triste, perdi um mouse da razer	11/03/2019, 12:04:28
1105127399128252422	esportsMv	"RT Razer ""xerox_000 """	11/03/2019, 12:24:38
1105129019924713474	Kaduuzeraa	Escutar música é bom Escutar pink floyd é bom demais Agora escutar pink floyd no razer 7.1 é do caralho	11/03/2019, 12:31:05
1105139343809638401	DigitalTrendsEs	Pusimos el Razer Phone 2 vs. Razer Phone frente a frente http://bit.ly/2NYWdBB	11/03/2019, 13:12:06
1105141439095279617	KakaxeRataque	oi razer quer namorar comigo 	11/03/2019, 13:20:26
1105141946253746177	itachinha_	Sai fora eu que vou namorar com a Razer kkkkk ;-;	11/03/2019, 13:22:27
1105142704479051776	ferpweber_	A razer é minha seu talarico do caralho	11/03/2019, 13:25:27
1105144371236749315	notasbit	Pusimos el Razer Phone 2 vs. Razer Phone frente a frente https://www.notasbit.com/item/pusimos-el-razer-phone-2-vs-razer-phone-frente-a-f/	11/03/2019, 13:32:05
1105146497870499840	n1ckao	nada da razer presta	11/03/2019, 13:40:32
1105146608314998785	Amiseralk	só queria um full setup rosa da razer..	11/03/2019, 13:40:58
1105153091329052678	vtetejjung	@LiveNationBR oi boa tarde, tenho uma reclamação a razer! Bom eu a efetuei uma compra para o show do bts, foi discontado no cartão porém o eventim não mandou email do ingresso pfvr eu peço q vcs ajeitem isso, não quero ficar prejudicada por um erro de vcs ou da eventim	11/03/2019, 14:06:44
1105153175273787392	voqsisnoob	razer 	11/03/2019, 14:07:04
1105157012856496128	plancton_007	esse teclado luminoso é da Razer? kkkkkkkkkk	11/03/2019, 14:22:19
1105163023902072832	forevergeorge5	Pusimos el Razer Phone 2 vs. Razer Phone frente a frente https://google.com/newsstand/s/CBIwrZbFtj8	11/03/2019, 14:46:12
1105164228040802304	aliyigit_tas44	Razer mamba ?	11/03/2019, 14:50:59
1105167413463650305	denardi777	qm manja esse razer 	11/03/2019, 15:03:39
1105177470641291264	ju_png	razer coisa de corno	11/03/2019, 15:43:36
1105181542370942976	yirenpoem	razer tv mo. só não sei se tem pra ios	11/03/2019, 15:59:47
1105187423607291905	ketlyn_schuch	Aí mds que horror	11/03/2019, 16:23:09
1105187551952941056	thais_tunon	O fone é confortável? Pq ele custa uma grana né? Sei que o áudio e o microfone são excelentes mas, queria saber se o custo x benefício vale à pena. To entre pegar um da razer e um da oex. Pq olha, comprei um na BGS que o áudio é ótimo mas o microfone uma porcaria :( .	11/03/2019, 16:23:40
1105190144057974787	EmpregadoDaMae	Infartei de leve aqui	11/03/2019, 16:33:58
1105191616644632576	ketlyn_schuch	Estou indo aí te proteger	11/03/2019, 16:39:49
1105195272727130112	EmpregadoDaMae	VEM MEU AMOR	11/03/2019, 16:54:21
1105196546709221376	natanvieiralive	Estou com placa de video EVGA GTX560 TI 1 Gb pra jogo e mouse Razer Deathadder modelo 2013 china vem pv	11/03/2019, 16:59:24
1105197950647578626	ketlyn_schuch	To chegando	11/03/2019, 17:04:59
1105199110301323265	bieelneeves	E eu não reclamei de valor, reclamei de uma infraestrutura fodida, e mais uma coisa aqui, esse dinheiro aí não é pra putaria igual o que você ganha pra comprar periférico da razer, aqui eu ajudo minha família inteira com isso, seu merda	11/03/2019, 17:09:36
1105199226483589122	g_biasi	Razer Kraken.. Vc num tem um desses?	11/03/2019, 17:10:03
1105201813463142400	klebersonx1	Não sei se a razer sabe mas quem vai comprar esse set são dois grupos,as patricinhas no começo da adolescência e os caras esquisitões	11/03/2019, 17:20:20
1105202475596959744	minetafanboy	ta virando fangirl da razer por minha causa velho	11/03/2019, 17:22:58
1105202914866483200	klebersonx1	Porque eu conheço muitas minas games que não gostam de rosa e até se sentiria se ofendida se oferecerem para elas,mas se bem que e um set da razer eu aceitaria mesmo que tivesse escrito que curto Golden shower	11/03/2019, 17:24:43
1105203252604358656	d_buitoni	Eu não to botando fé que comprei uma cama, um tecladão da razer e 1 mouse hoje	11/03/2019, 17:26:03
1105205458548207616	Sandalxdxd	Quanto foi? Razer não é bom em relação a custo benefício, mas se tu gostou da aparencia e pode gastar com isso, eh oq vale	11/03/2019, 17:34:49
1105209336719200257	GuilhermeDilli	vou tatuar o tribal da razer em julho	11/03/2019, 17:50:14
1105217831879274497	filipemedd	Eu jogo no PC, mas quando eu jogava no ps4 eu treinava recoil no caça terrorista, foi facil: Atira na parede e ve a curva que a bala faz, e pra controlar é só fazer a curva contraria dela com o analogico.	11/03/2019, 18:23:59
1105218440153968646	RazerBrazil	Você pode se complicar nos jogos sem uma boa qualidade de som. Abra caminho para a vitória com o novo Razer Kraken Tournament Edition e a tecnologia de Áudio Espacial by THX. Já disponível: http://rzr.to/KrakenTEGreen	11/03/2019, 18:26:24
1105219444362694657	HANOFF	Oi, Razer, tudo bem? Poderiam me dizer se o headset do Overwatch (amarelo) é compatível com o Ps4?	11/03/2019, 18:30:24
1105242567619289088	modaafoca	PT: Estamos a experimentar os @razer Kraken Tournament Edition no playapex, mas alguém não é muito bom nisto... EN: We are trying Razer Kraken Tournament Edition at APEX Legends, but… https://www.instagram.com/p/Bu4r_TgBVs6/?utm_source=ig_twitter_share&amp;igshid=n0swcjr2by6c	11/03/2019, 20:02:17
1105244173362438144	EmpregadoDaMae	Ai ai socorrooooo	11/03/2019, 20:08:40
1105246928147828736	brunooliver85	Concordo. Parte lunática da esquerda fazendo teatro toscoe defendendo ditadura chavista ao invés dedialogar e razer oposição de verdade. 	11/03/2019, 20:19:36
1105249744291536896	MadridCenter1	Razer Tiamat 7.1 V2 10 drivers discretos - 5 em cada ouvido. som surround 7.1 Ímã de neodímio de 40 mm com diafragma revestido em titânio 	11/03/2019, 20:30:48
1105249889401884683	Riuskyfps	Quer dizer, nem tanto em comparação a outros teclados (redragon, logitech, razer) , mas valeria apena um com um switch brown	11/03/2019, 20:31:22
1105250586583154689	TigresDeNegro	Se mama la razer	11/03/2019, 20:34:09
1105253578074193922	youngxpvpi	Cascos Razer?	11/03/2019, 20:46:02
