id	username	text	datetime
1103807636783448064	lucasauarek	Olha como balança esse cabelo... linda demais! Parabéns Gigante!! Te amamos muito!	07/03/2019, 21:00:23
1103809280191410176	Coelhoout15	Meu fone quebrou e a @RazerBrazil so tem suporte em santos, mt longe p mim ;--;	07/03/2019, 21:06:54
1103828539940487168	heartguto	uma pena, era muuuuito bom OI @RazerBrazil DA UM PC PRA ELE FAZER LIVE	07/03/2019, 22:23:26
1103858651339481088	TheAndersonss_	o melhor streamer que a razer fez parceria, richard gente boa demais	08/03/2019, 00:23:05
1103865474465488897	EuSouOGlitched	Feliz aniversário @giganterichard &lt;3	08/03/2019, 00:50:12
1104029535715000320	DarioTMSilva	Me doa um pc para eu jogar meu fortnite com pelo menos 60fps	08/03/2019, 11:42:07
1104029675075055617	cxsmaia	g29 é o melhor amigo de um homem	08/03/2019, 11:42:41
1104029836933320704	DarioTMSilva	https://www.pichau.com.br/computador-pichau-gamer-ryzen-5-2600-geforce-rtx-2060-6gb-zotac-8gb-ddr4-hd-1tb-500w-pouter-2 Este aqui esta bom	08/03/2019, 11:43:19
1104029999269642241	Hamamura_Hugo	Chama no cs	08/03/2019, 11:43:58
1104036979849728000	RazerBrazil	Mas há como enviar pelos Correios!	08/03/2019, 12:11:42
1104043308274331649	_hdsj	@RazerBrazil Vocês nem deveriam vender acessórios! #paz	08/03/2019, 12:36:51
1104044768223551499	GuaxinimGamer	MLK, OLHA ESSE KIT QUE A @RazerBrazil ME MANDOU, meu deus do céu eu to muito nojento agr NOSSA SENHORA to apaixonado 	08/03/2019, 12:42:39
1104045059484381184	vulgosamuka	Parabéns mano, voce merece bb 	08/03/2019, 12:43:49
1104045139893342213	Prenholato__	Imagina se ela me mandassr pra mim vomrçar a streamar q lindaza	08/03/2019, 12:44:08
1104045287813902337	DaviBarbosa972	Parabéns hermano	08/03/2019, 12:44:43
1104045825880219649	VictorHenriq7	Razer brasil? Vc ta no japao retardado	08/03/2019, 12:46:51
1104045870826307584	kkashude	dnv guaxi?	08/03/2019, 12:47:02
1104045933627531264	ImmortalSprings	Fds eu sou burajirojin	08/03/2019, 12:47:17
1104046037579251719	gikinhagameplay	@RazerBrazil SERA SE VOCE PODERIA???? EU SEI Q VOCE TEM MOUSE SOBRANDO AI,,,,, ME MANDA SÓ UMZINHO 	08/03/2019, 12:47:42
1104047766693654528	_Minguado	Eu quero	08/03/2019, 12:54:34
1104048019207532544	Naty_xDi	Feliz Níver @giganterichard 	08/03/2019, 12:55:34
1104048384720162818	Lhamatorrinco	Oi @RazerBrazil me manda um mouse, o meu quebrou.	08/03/2019, 12:57:01
1104051699088588800	imbizita	sucessoooo	08/03/2019, 13:10:12
1104051754403053570	GUAXlNIM	ce já chegou de viagem??????	08/03/2019, 13:10:25
1104051774451781632	KakaxeRataque	eu tbm	08/03/2019, 13:10:29
1104056625151856640	LFelllllipe	@RazerBrazil eu amo vcs pra krl, só q não tenho dinheiro pra comprar seus fones, me doem um Headset pfvr &lt;3	08/03/2019, 13:29:46
1104058056353243136	raphaelthiago	Então a @RazerBrazil #Razer virou a marca preferida dos mendigos virtuais...	08/03/2019, 13:35:27
1104062050609913858	FevezStylinson	Agora vou ver meu namorado em 4k HD	08/03/2019, 13:51:20
1104062695802896384	blograle	@RazerBrazil @Razer de Deus,o que tá acontecendo com os produtos de vocês? Não tem nem um ano de uso esse Razer kraken Essentials e olha isso cara. Nem que eu tivesse uma cabeça de caixa d’água iria partir tão fácil assim. Aguerdo retorno mais profissional de vocês dessa vez.	08/03/2019, 13:53:53
1104067855933468674	niggamelaokkkkk	Eu queria mesmo era um PC novo, o meu não roda nem Roblox	08/03/2019, 14:14:24
1104068861794627584	mateusbmo	o teclado mecânico da @RazerBrazil é uma porcaria, não tem exatidão nas entregas de comando! acho que vou voltar a usar um teclado comum mesmo... 	08/03/2019, 14:18:23
1104075159290503168	carlosgu3	@RazerBrazil Eu vi na RazerStore mouse pra canhoto, ele é vendido no Brasil?	08/03/2019, 14:43:25
1104083210131128320	chaves_lm	A @RazerBrazil não me ama	08/03/2019, 15:15:24
1104083486456119298	LuanaPMartins18	Mas vc ama a @Razer isso q importa kk	08/03/2019, 15:16:30
1104085069264814080	cuckardo	Tá todo verdinho agora AAAAAAAA	08/03/2019, 15:22:48
1104088476855791618	Myzzilol	@chelok1ng os mimos q eu quero	08/03/2019, 15:36:20
1104088700521189376	RazerBrazil	Mais uma pra conta, você joga muito! Parabéns 	08/03/2019, 15:37:13
1104098513594527747	lipeantunes	Ta voando rapaz... parabéns	08/03/2019, 16:16:13
1104098750883160064	rubenfranca8	Um dia eu ainda vou ter meu monitor de 240hz da @ZOWIEeSportsBr , minha cadeira gamer da @DXRacerBR e um teclado bem top da @RazerBrazil ! A N O T A !	08/03/2019, 16:17:10
1104100563971698694	Rian_Felipe4	@RazerBrazil olha o que fizeram! 	08/03/2019, 16:24:22
1104101722866229250	ZOWIEeSportsBr	"Nós não temos dúvidas que terá! Foque nos seus objetivos e siga sempre em frente. ""O impossivel é só questão de opinião""."	08/03/2019, 16:28:58
1104106214085062664	Mateusitox	Jogando Logo um Apex	08/03/2019, 16:46:49
1104113824045715463	HANOFF	Ei, @RazerBrazil, esse headset é compatível com o PS4? 	08/03/2019, 17:17:03
1104114869371064321	chelok1ng	qm n quer ne uHNHUISAUHJ	08/03/2019, 17:21:12
1104117561531265025	reversotario	Oq vcs tem ai nem é mouse teclado e headset pra mim é merda @RazerBrazil 	08/03/2019, 17:31:54
1104121266259275776	IagoAleixo	A nao	08/03/2019, 17:46:38
1104121356038406144	jeonlisten	uma pessoa bem pequena tipo eu	08/03/2019, 17:46:59
1104124201009582084	RazerBrazil	Nesse #8M2019, queremos relembrar as inúmeras personagens que marcaram nossas vidas. Com qual você se identifica?	08/03/2019, 17:58:17
1104124833208680449	arieshiro1	pqp @RazerBrazil só tem periférico ruim... 	08/03/2019, 18:00:48
1104126584238280709	patripopes	Chun Li foi uma das primeiras personagens femininas que não era uma “donzela em apuros”. Fiz cosplay dela porque ela foi a primeira personagem que joguei na primeira vez que usei um SNES. Lembro de ter ficado muito feliz por ter uma mulher no jogo. Foi ela quem abriu as portas.	08/03/2019, 18:07:46
1104126929236578304	RazerBrazil	CLÁSSICA, rápida e poderosíssima! Com certeza, um dos primeiros símbolos femininos nos games.	08/03/2019, 18:09:08
1104127296955445249	yoguskunk777	essa merda nem deveria ser chamada de Headset Razer Kraken USB 7.1 @RazerBrazil 	08/03/2019, 18:10:35
1104127565286031361	SpOoKy_CSGO	Joguei muuuuuito de Chun Li! :D	08/03/2019, 18:11:39
1104127965703622658	RazerBrazil	O que você está tentando fazer...	08/03/2019, 18:13:15
1104128287301922816	yoguskunk777	fica a pergunta..	08/03/2019, 18:14:32
1104129797897228288	RazerBrazil	Cherry, você nunca tinha me contado isso 	08/03/2019, 18:20:32
1104130153502961664	paiNGamingBR	Um homão desse, bicho	08/03/2019, 18:21:56
1104130409078636546	cherryrar	sou uma caixinha de suprise	08/03/2019, 18:22:57
1104131623195475972	cebolaodadepre	Estagiário da paiN tem fl fazer tmb?	08/03/2019, 18:27:47
1104133810122301441	Makalysterlol	essa resposta é simples , Jovirone bate as meta da twitch, cellin n	08/03/2019, 18:36:28
1104144597041758208	aneydesign	"Fiz esse ""fan-design"" tendo como produto principal o Razer Kraken da dona @Razer ( @RazerBrazil ). Fiz para treinar os meus conceitos de iluminação! I made this ""fan-design"" with the product of @Razer , the Razer Kraken. I made this for training my concepts of illumination."	08/03/2019, 19:19:20
1104148506057547777	patripopes	Desculpa moço, mas eu falei “umas das primeiras” não a primeira. Você que está equivocado e querendo “lacrar” aqui. Eu só quis mostrar meu amor pela personagem.	08/03/2019, 19:34:52
1104148660969984001	patripopes	Maravilhosa!	08/03/2019, 19:35:29
1104168237196103680	MathSh4d0w	Pisca pisca vem embutido	08/03/2019, 20:53:16
