id	username	text	datetime
1158538616731254784	jbbrazil84	@RazerBrazil @Razer A alegria durou pouco... Eu recebi em 12 de junho e hoje dia 5 de agosto ele quebrou. O botão esquerdo rachou no meio (ponto de pressão). Eu gostaria de um reembolso total ou de um produto diferente que não quebre em menos de 2 meses. Podem ajudar? Obrigado.	05/08/2019, 21:41:45
1158581121715716097	GatinhaSuicida	Me patrocina @RazerBrazil e faça duas pessoas felizes	06/08/2019, 00:30:39
1158597228707090434	LSerradourada	É oficial, preciso de outro fone. Depois de quase 5 anos usando o @RazerBrazil Kraken Pro, o guerreiro pediu arrego. Pesquisando os @HyperXBrasil e os @RedragonBR pra ver se algum tá a altura	06/08/2019, 01:34:39
1158729964528816130	RazerBrazil	Oi, acabamos de seguir você. Por favor, siga-nos de volta ou deixe uma DM para que nossa equipe possa te ajudar o mais rápido possível. Obrigada!	06/08/2019, 10:22:06
1158740937142624257	pgsoak	@RazerBrazil @kabumcombr Não tô conseguindo ativar o código do simulador 7.1 que supostamente iria vir com meu fone Kraken Essential, me helpa pls!!!!!	06/08/2019, 11:05:42
1158741225094049797	kabumcombr	Entre em contato em nosso atendimento no topo do site, iremos lhe ajudar ;)	06/08/2019, 11:06:51
1158748840733892613	pgsoak	Me mandaram falar com o suporte da @RazerBrazil que não me nota	06/08/2019, 11:37:06
1158756248734654464	jbbrazil84	Seguido, enviem em razersuporte. Está @brazil não permite DM ;)	06/08/2019, 12:06:33
1158760286930841602	LiipeeFF	Meu sonho de consumo	06/08/2019, 12:22:35
1158766641787932672	Super_FOG	Rindo pra não chorar.	06/08/2019, 12:47:50
1158767902251716610	imiozz0	Otaku fedido. Designer gráfico - @RazerBrazil Santos, Brasil	06/08/2019, 12:52:51
1158768339927392258	lucasamaral	oia o pinado do cara	06/08/2019, 12:54:35
1158780653942521857	___neves_	era o meu tbm 	06/08/2019, 13:43:31
1158809966712676357	GalaxyThe1_	@RazerBrazil ajuda o menino	06/08/2019, 15:40:00
1158818232385646594	MeganeDrepesso	Meu piru voltou a vida!	06/08/2019, 16:12:51
1158819658075709440	frioecaIculista	você é patrocinada pela @RazerBrazil ? Cuidado!!	06/08/2019, 16:18:30
1158822122048958465	Gaules	Do lado esquerdo o primeiro fone que usei nas lives e do lado direito o novo fone que recebi hoje! A @RazerBrazil é o mais novo patrocinador da tribo e vai disponibilizar mensalmente produtos pra vcs pela loja de gaupoints da Tribo! Muito obrigado por confiar sempre 	06/08/2019, 16:28:18
1158822331357257729	ygor_ds	Razer patrocinando streamer de verdade <3	06/08/2019, 16:29:08
1158823155521245184	Staz_54	Faz um leilão do antigo	06/08/2019, 16:32:24
1158823228657360899	Garcia9Fernando	no começo a razer acreditava, ele msm ja falou isso	06/08/2019, 16:32:42
1158823768397139968	BartKasss	De um lado eu tô com o mouse razer abyssus e do outro um fone de celular da samsung Agora o farm vai rolar solto! hahahah E seja bem vindo a tribo Razer! 	06/08/2019, 16:34:50
1158823935871528961	fecx11	A razer foi a primeira marca q acreditou no gaules, ele ha contou essa historia, q ele foi no bar pegar um mouse com o boss da razer pra jogar o camp no dia seguinte	06/08/2019, 16:35:30
1158823942481690625	weareandy045	Me vende esse antigo gau kkkkkk	06/08/2019, 16:35:32
1158824112086814720	FranciscPeixoto	Sorteie esse fone usado para Tribo.	06/08/2019, 16:36:12
1158824169548726277	Jaumvctr	Marca líder	06/08/2019, 16:36:26
1158824293209464837	Ron_1c	Se assistisse as lives em vez de vir aqui lacrar saberia a importância da Razer na trajetória do Gaulês	06/08/2019, 16:36:56
1158824732873150464	aztracs	acho que ele deveria guardar, pra servir como relíquia quando ele virar presidente	06/08/2019, 16:38:40
1158824777953488896	Dollynhh_	Parabéns gau N tem ré	06/08/2019, 16:38:51
1158824823277137930	GustavoooMF	Me dá uma promoção aí tenho q trocar meu Kraken !	06/08/2019, 16:39:02
1158825008162136064	tiltado38	obrigado @RazerBrazil por apoiar esse mito desde o início, valeu @alegaules por nos proporcionar tantos momentos de alegria e agora dar a chance de termos produtos da qualidade da razer.	06/08/2019, 16:39:46
1158825087086276608	stormwarsbr	agora assistir live mais do que nunca	06/08/2019, 16:40:05
1158825107827101699	RedragonBR	No que você precisar, estaremos aqui para te ajudar! Quer um dicão também? Dá uma olhada no Minos: https://www.redragon.com.br/minos	06/08/2019, 16:40:10
1158825395392790528	tuusqyx	Poderia sortear o antigo né ksks	06/08/2019, 16:41:18
1158827290056429571	luiz_carlos2p	Gau colocar os fones muito caro não eu tô precisando de um novo e meus gaupoints tá pouco obg 	06/08/2019, 16:48:50
1158827405588553728	vjeey10	Salve @alegaules, já q agora vc tá com a razer, me doa os periféricos da HyperX? LUL	06/08/2019, 16:49:18
1158827756232368134	Fleex33105334	Parcerias milionárias	06/08/2019, 16:50:41
1158828740912308226	bernardowcds	Tá sabendo legal	06/08/2019, 16:54:36
1158829494238687232	g0rd4o	lacreiro safado	06/08/2019, 16:57:36
1158830848726245378	1Ryano	rapaz, quer dizer que eu vou deixar meu pc 24h ligado? @_aNtcs	06/08/2019, 17:02:59
1158832180581294084	paulojbm	Boa meu caro você merece tudo que está conquistando...	06/08/2019, 17:08:16
1158832422697545729	Caioanbatista25	Lacreiro sfd	06/08/2019, 17:09:14
1158832463566651392	FalleNCS	Confia na verdadeira	06/08/2019, 17:09:24
1158832824763539456	OporaMaah	CONFIA GARAI	06/08/2019, 17:10:50
1158833908668145664	Chefedoslink	Eu comecei a trabalhar e vou comprar meu setup game em breve, me conceda essa honrra de jogar contigo @alegaules. Depois de tanto sacrificio heheheheheh ira dar uns lag pq to na europa do que da nada	06/08/2019, 17:15:08
1158835383402151938	SrBzrra	Aii galules nunca te pedi nada mais me danda esse usado ai, o meu ja ta pedindo para ir base e nao tenho grana e nem condicao para comprar outro 	06/08/2019, 17:21:00
1158835983665836032	_Nogueira6	PRA GANHAR TEM QUE TER O QUE? TEM QUE TER O VERDINHO, TEM QUE SER TEAM RAZER TÁ LIGADO	06/08/2019, 17:23:23
1158836082542297094	g0rd4o	voz do fer ( porra o fallen fez eu colocar a cor verde se nao tava fora do time ) uhashusauhasuhasuhauhsuhas	06/08/2019, 17:23:46
1158836672613761024	ChromosCB	Me arrependi demais, que teclado ruim, MEU DEUS. Nem aqueles brancos antigos eram assim, vtnc. Nunca mais @RazerBrazil, relações cortadas, depois do headset de papel agr o teclado. (O mouse é bom, mas só). 	06/08/2019, 17:26:07
1158837638708781057	arihelsecron	Tem lacrador chorando aqui já?	06/08/2019, 17:29:57
1158837647210614785	Guuii_R	Cole Gau, outro dia você meteu o pau. Até trocou para o hyperx, agora já está voltando ....	06/08/2019, 17:29:59
1158837886613110785	Alexrebequii	Ta bom Cláudia senta lá.	06/08/2019, 17:30:56
1158837931936821248	Richard_Fer1	Na moral man to um nojo com esse fone, muito top ... Alô @RazerBrazil patrocina nós 	06/08/2019, 17:31:07
1158838792750608387	Guuii_R	Posso estar enganado, se tiver me desculpe.	06/08/2019, 17:34:33
1158840658704195584	FnxWF1337	Um lacreiro que nem assiste as lives antes de querer lacrar.	06/08/2019, 17:41:57
1158843487183409154	evertlsousa	Gau gau Se ñ tiver onde guardar, pode mandar que nois guarda.	06/08/2019, 17:53:12
1158843641735106560	nothingnear64	relacionado a fones e headset, concordo contigo, mas em partes, prefiro razer, tipo os teclados	06/08/2019, 17:53:49
1158845037490397187	gsantier7	pô gaugas coloca um preço acessivo de gaupoints que com certeza comprarei meu fone quebrou faz 2 meses e tô jogando até hoje com o áudio da TV apenas, tá virando até comum já nego me xingar na gc me chamando de surdo mas a vida continua, vem level 20	06/08/2019, 17:59:21
1158845630007185410	brauliogmoura	Tinha um monte de perguntas pra fazer, @FalleNCS Mas deixo aqui apenas meu agradecimento a tudo que você fez pelo cs e pelo pais Forte abraço	06/08/2019, 18:01:43
1158846327117221889	fernacoc	AÍ sim	06/08/2019, 18:04:29
1158846506419576833	fernacoc	AÍ sim	06/08/2019, 18:05:12
1158846972222156801	saronpk	Patrocina nois tbm @RazerBrazil ashahahhshahshhahahhs Sonho	06/08/2019, 18:07:03
1158847006170914818	matheouxx	Sai fora lacreiro	06/08/2019, 18:07:11
1158848300130492418	OstanJr	Se vc fosse verdadeiro, já lançava esse aí pra nóis... 	06/08/2019, 18:12:19
1158850147490652160	Exit_iwnl	Aí gau desculpa está incomodando, mas eu acompanho o cs desde de 2015 mas nunca joguei, e agora estou com condições de compra um PC até 2 mil reais, mas não entendo de Pc pode me indicar um que rode o csgo até esse preço ?	06/08/2019, 18:19:40
1158850316969938944	FeehGameplay1	Booooooa gaaaaaau !	06/08/2019, 18:20:20
1158853028642021376	XwesleiX	A tribo ta ficando tão grande que, daqui a pouco vamos ter que dividir em umas 2 stream's pra caber todo mundo! Já pensou tribo, Gau transmitindo em 2 canais ao mesmo tempo!	06/08/2019, 18:31:07
1158853977796202498	viniaraujs	@DudsLG olha que delícia	06/08/2019, 18:34:53
1158860159629832192	Douglaswmelo	Não entendo porque esse tfue tem tantos views. Nego só fica parado jogando sem falar um A. Não faz sentido	06/08/2019, 18:59:27
1158865321345933313	faria_Dudu3	Hahaha confia na líder 	06/08/2019, 19:19:57
1158865681439440896	malvestio_vini	Bora ficar juntos também, ajuda aí	06/08/2019, 19:21:23
1158866712873320453	KawhiPraiaGrand	Manda os mouse com luisinha aí se for humilde 	06/08/2019, 19:25:29
1158875654978490368	RodolfoDotti_	Agora a @RazerBrazil acertou na parceria!!!	06/08/2019, 20:01:01
1158875895203028992	ItaloAdila	queria somente um teclado @RazerBrazil/@alegaules Tem como mandar um?	06/08/2019, 20:01:58
1158878965441933318	gabrieldeodat	Faz um sorteio desse antigo gau, pode ser muito util pra quem não tem	06/08/2019, 20:14:10
1158880203877359616	_Mot4_	"Como o Fer diria... ""Pra vc ser bom vc tem q ter o verdinho"""	06/08/2019, 20:19:06
1158880357955112961	_Mot4_	Falou pouco mas falou bosta	06/08/2019, 20:19:42
1158881068604383232	tasfrei_	me doa esse antigo ae gau	06/08/2019, 20:22:32
1158881866403000321	PollKill	Dae sim em.	06/08/2019, 20:25:42
1158883895372406786	shenbrJ	Se tu quer fone bom não vai achar barato procura na hyperX ou na @RazerBrazil	06/08/2019, 20:33:46
