id	username	text	datetime
1149493421939101696	sodio01	Trae razer y la gente participará hahaha	11/07/2019, 22:39:23
1149497712443715584	Lucas52250563	Teve aquele episodio da gabi catuzzo da razer!! A ayu disse a mesma coisa!! Se um homem nao tem direito de xingar uma mulher entao uma mulher tambem nao pode ter direito de xingar um homem!! Começaram a chamar a menina de racista 1 hora depois!!	11/07/2019, 22:56:25
1149498864719679489	IzyButNtSleazy	A gente teve uma embaixadora da razer aí mas deu merda tb...	11/07/2019, 23:01:00
1149503532074037250	calangoxd	Razer, você desprezou 53% do público gamer brasileiro https://cabanadoleitor.com.br/razer-voce-desprezou-53-do-publico-gamer-brasileiro/#.XSfuL4XgH7E.twitter via @CabanaDoLeitor	11/07/2019, 23:19:33
1149517396832481287	ElPrincipeDicee	uffas mi razer https://twitter.com/JulioEnMty/status/1149517233552420866/photo/1	12/07/2019, 00:14:39
1149518465251721216	LORD_Lore_	É pedir muito muito um Razer blade 17' 2019 ?	12/07/2019, 00:18:53
1149524448447365121	g_diniz_	Quando eu vi uns caras gravando vídeo dando martelada em mouse por causa daquela confusão da razer eu percebi que tem nego com a psique tão ligada na buceta de mina gamer na internet que a ditadura gamer vai ser realidade sim	12/07/2019, 00:42:40
1149527474776113152	Breikin7u7	Participo :v	12/07/2019, 00:54:41
1149532116603924480	GabrilosG	boa, parabéns xd esse gabinete é top demais mano! tenho um versão da razer tb	12/07/2019, 01:13:08
1149537954869596162	darkaizoku	razer é foda man	12/07/2019, 01:36:20
1149558154985738240	hzdalgw	ai pá ele viu um mousepad e mouse da razer	12/07/2019, 02:56:36
1149558162434842624	hzdalgw	"ai eu falei ""ta, compra da razer, mas eu n vou usar"""	12/07/2019, 02:56:38
1149558169430921216	hzdalgw	"""ela so se defendeu e a razer tirou o patrocinio dela, quer dizer que ngm mais pode se defender? toda vez q a gente reagir a gente perde alguma coisa?"""	12/07/2019, 02:56:40
1149575646470791168	Lovecircuses	razer	12/07/2019, 04:06:06
1149606375632166914	Eseshinpu	Razer blade 15(ノートpc) #peing #質問箱 https://peing.net/ja/qs/291509817	12/07/2019, 06:08:13
1149622742834020354	LRojo__	TOSTADORA RAZER GENTE. 	12/07/2019, 07:13:15
1149624033748508672	FLG1_	Eu tenho aquele hammerhead pro v2 da razer, mas jogo com o hyperx S. O intra no cs é um absurdo, já no pubg é muito ruim... o som desse jogo é triste dms	12/07/2019, 07:18:23
1149641286430818305	JohnDyyyy	razer o rog HAHHAHAHAHA	12/07/2019, 08:26:56
1149669078035865600	walmarth0e	Ainda não percebi o que se passa com o meu pc, mas o que é certo é que ainda não fez nada desde que deixei de usar o headset Por um lado é chato, porque se estragou logo >razer&lt;, mas por outro lado estou feliz por não ser nada com o pc	12/07/2019, 10:17:22
1149702582492905474	datterbayoo	Razer é assim	12/07/2019, 12:30:30
1149703975211622400	Julessuxx	Graças a deus diariamente aqui -1 razer na minha mesa e +1 hyperX 	12/07/2019, 12:36:02
1149705112539058176	piokil	Razer	12/07/2019, 12:40:33
1149721702647128064	PpereiraNicolas	MEU FONE DA RAZER CHEGOU 	12/07/2019, 13:46:29
1149725612539547648	HonorLusca	Se você tava FADIGADO do caso Razer/cattuzo e não quis me ver falando por FODENDO 30 MINUTOS sobre empatia e comunicação, acabou de sair uma versão condensada do video, de apensa 10 minutinhos no LInkedin 	12/07/2019, 14:02:01
1149730850130579461	maldto_kakaroto	"o eduardo bolsonaro ta que nem aquela mina la da razer ""embaixador"""	12/07/2019, 14:22:50
1149732675135164416	Vulzyun	Les razer	12/07/2019, 14:30:05
1149735307194933248	n3gflash	@RataoBorrachudo oi nego me ajuda com uma coisa, eu tenho um mause da razer e sem querer, ele caiu uns 3 metros, ele liga normalmente o computador reconhece ele porém ele não funciona nego, tem como me ajuda ?	12/07/2019, 14:40:32
1149736986560700416	DomPedroManero	de acordo com a razer eu posso colocar gamer como minoria então: gamer gamer gamer gamer gamer mgaer	12/07/2019, 14:47:13
1149740181974593536	proplayerg2	Razer	12/07/2019, 14:59:55
1149745560213237760	prissguerrero1	Sem Foco 37 – Gabi Catuzzo e a Razer - Ou Chorume Nerd de Sem Foco https://player.fm/1wnpwG #nowplaying #podcastfriday #mulherespodcasters	12/07/2019, 15:21:17
1149746759582674945	_guittk	nunca comprem nada da razer pf	12/07/2019, 15:26:03
1149750339807133697	GALODEKALSA	Compra da razer só para irritar as massas	12/07/2019, 15:40:16
1149754667766865920	Fllwwws	Só não pode divulgar a razer eles têm que se fuder	12/07/2019, 15:57:28
1149756623021174784	HTierno7	Oi Razer rs	12/07/2019, 16:05:15
1149758575432146944	GustavoOkamoto3	Incrível, assim que a Razer trabalha meu chapa!	12/07/2019, 16:13:00
1149763278593282050	csUF0	Desculpa aí @RazerBrazil - reveja sua meta e me dê um cupom de desconto na @kabumcombr para meu mouse pad Razer. 	12/07/2019, 16:31:41
1149771158553792516	Gabyranha	Mensagem subliminar: O fone da Razer esquecido no churrasco	12/07/2019, 17:03:00
1149777845687848960	moretidu	Eita, tenta reinstalar o razer synapse pra ver se resolve	12/07/2019, 17:29:34
1149778116329574400	jyeolps	 evanta gay ora razer o Holland pro Brasil (Especialmente Recife rs) Faz MAKE por 홀랜드(#holland) em https://mmt.fans/NBPT/!	12/07/2019, 17:30:39
1149783118053818368	EdlMack	O engraçado é que quando eu era menor jogava em notebook e o teclado era mt bom daí meu fone e o mouse são da razer e o teclado parece da superlegal	12/07/2019, 17:50:31
1149783887989694464	luiz_fmsantana	Legal ver que a razer está investindo em esportes radicais, muito daora esse paraquedas ai! hahaha	12/07/2019, 17:53:35
1149785484102684672	raafaelrabelo	Falta de conhecimento é um dos motivos, me lembro que naquela polêmica da razer comentei em tweet de vocês e dê certo critquei o projeto por algumas coisas que eu li em uma breve pesquisa, mas depois vi que eram mentiras e pedi desculpas, acho que se todo mundo divulgasse e se +	12/07/2019, 17:59:56
1149790289802014723	luizeduardomo	diz isso a quem defendeu aquela embaixadora da razer 	12/07/2019, 18:19:01
1149790969409232896	GuiilheermeP	@caju_sz e @Kamizeon falaram em vídeo exatamente o que eu falei com algumas pessoas sobre o caso da Razer e eu sai como machista. Saudades de pessoas que sabem interpretar um texto.	12/07/2019, 18:21:43
1149801224109273088	VictorRHzaum	Cara, entrei de férias hoje e meu W parou de funcionar, de acordo com o suporte da razer é problema do teclado. RIP 	12/07/2019, 19:02:28
1149808568348086279	braunn__	um fone de ouvido da razer ou da jbl	12/07/2019, 19:31:39
1149820598903812098	ogatolatiu	Alguem me da um kraken pro 7.1 chroma da razer eu nunca pedi nada	12/07/2019, 20:19:28
1149823751091085315	henrique_rdrgz	Vendo Teclado Gaming RAZER Cynosa Chroma (USB) ! - Pouco Uso - Preço acessível -Dm-	12/07/2019, 20:31:59
1149829218244661250	AnotherOSRS	Ah não então o mlk tava descendo num carrinho de rolimã gamer da razer po haushaushsuhausha	12/07/2019, 20:53:43
