id	username	text	datetime
1131354354001305600	thiagobn10	kkkkkkkk qual foi nem vi q era um cara, quero Tênis da Pulma né mano, só q parece q empresa n tem Twitter 	22/05/2019, 21:21:12
1131360442792710144	oneguinchave	Quase laaaaaa	22/05/2019, 21:45:23
1131360970104823810	Medina_Lucas24	Boa sorte cara!	22/05/2019, 21:47:29
1131362471594405888	JovemDinamico2	 *correção de webabraço*	22/05/2019, 21:53:27
1131376690209415168	FelipeArent	oi @RazerBrazil quantos curtidas e quantos rts esse tweet precisa pra eu ganhar um headset de vcs? 	22/05/2019, 22:49:57
1131384164702400512	pepinot2000	quebrei a correntekkkkkkkkkkkkkkkkkkkkkkkkkkkkkkkkkkkkkkkkkkkkkkkk	22/05/2019, 23:19:39
1131384619646033920	marcelakkjjkk	o cara zoa vei	22/05/2019, 23:21:28
1131384940204101633	pepinot2000	eu sou muito zueiro cara kkkk penes da sam	22/05/2019, 23:22:44
1131385150405783553	marcelakkjjkk	sem tempo pra esses cara q zoa vei kkkkkkkkkk	22/05/2019, 23:23:34
1131386479622668290	pepinot2000	flw vo aposta corrida com o rezendkkkkkkkkk	22/05/2019, 23:28:51
1131396145790504960	FagnerSousa99	Meu Sonho é ganhar um Headset da razer	23/05/2019, 00:07:16
1131402271730884609	conrado_tv	@RazerBrazil Boa noite. Estou tendo uns problemas com minha webcam kiyo. Ela funciona, mas não da forma quue deveria. Algum whatapp ou insta para comunicação?	23/05/2019, 00:31:36
1131404833729208322	MarceloPutte023	@gratis150pdl ESSA CORTINA DE 4K ERA DA @RazerBrazil ?	23/05/2019, 00:41:47
1131528597330640896	SauloFis	Esse banner custou de 830 reais é veio com RGB. Kkkk	23/05/2019, 08:53:35
1131587906332692480	arnolts	Eu sbippo muito esse casal! Vem @RazerBrazil	23/05/2019, 12:49:15
1131632506338512898	NandoStuchi	Bora galera!!!! Se batermos 80 pessoas hj na live e 20 RT nesse post sortearei um mousepad da razer e 2 jogos de PC!!!!! Bora @StreamCraftBR @RazerBrazil https://streamcraft.com/user/PTJ	23/05/2019, 15:46:28
1131633523272683520	otaviovcarneiro	@RazerBrazil estou procurando um descanso de pulso para o teclado blackwidow tournament v2, mas não achei.. consegue ajudar? 	23/05/2019, 15:50:31
1131649772346064896	flex_elder	@RazerBrazil @kabumcombr é ou não é uma lindeza? 	23/05/2019, 16:55:05
1131655611417014276	RazerBrazil	Somos suspeitos pra falar, mas esse fone é sim 	23/05/2019, 17:18:17
1131664445820813312	RazerBrazil	Estamos nos Campos da Justiça com @KenHarusame! Assista: http://rzr.to/AoVivo	23/05/2019, 17:53:23
1131684276297187329	numplol	@RazerBrazil me mandem mimos pfv	23/05/2019, 19:12:11
1131686195589730304	RazerBrazil	O teclado mecânico icônico que dispensa apresentações —o Razer BlackWidow Elite já está disponível no Brasil.	23/05/2019, 19:19:49
1131686625610739713	Gamer_Zorc	Por que razer é tão caro? :(	23/05/2019, 19:21:31
