id	username	text	datetime
1141891279283990530	samugalaniz	Alo @RazerBrazil, o que a gente faz com um fone Kraken que pegou fogo no cabo enquanto usava? 	20/06/2019, 23:11:10
1141899633901412352	balerostyle	Recebi mais um mimo da @RazerBrazil Fiz unboxing lá no https://www.instagram.com/balerostyle/ Acompanhem lá!	20/06/2019, 23:44:22
1141900115352965126	freirelol	aquela ak tinha que ser uma vulcan em	20/06/2019, 23:46:17
1141900604270419969	ssilva_fe	@RazerBrazil Oi gato/gata	20/06/2019, 23:48:14
1141901179296854016	balerostyle	a q eu uso é patrocínio dahudhua	20/06/2019, 23:50:31
1141901630767546368	balerostyle	eu tbm, foi por causa da q eu gosto e uso po kkk por isso foi feita essa kk	20/06/2019, 23:52:18
1141960817417609216	RomarioCRVG_	todo tímido pra fazer os stories, se solta porra kkkkk	21/06/2019, 03:47:30
1141991574987071489	balerostyle	Uefilho o único é assim msm kk	21/06/2019, 05:49:43
1142037694215839745	kabumcombr	E aí, bora pra festa lá na goma da @RazerBrazil? 	21/06/2019, 08:52:58
1142062065848336384	primoburro	@RazerBrazil @RedragonBR @pichauinfo dê uma migalha de headset para esse Youtuber necessitado	21/06/2019, 10:29:49
1142077142735474692	RazerBrazil	No momento: correndo na @NetflixBrasil pra (re)assistir Evangelion	21/06/2019, 11:29:44
1142078087003332614	LuizMasu	Esse anime 	21/06/2019, 11:33:29
1142118826982723592	gamersegames	Razer lança bebida que ajuda no desempenho dos gamers durante as partidas: http://encurtador.com.br/qDITZ @RazerBrazil #respawngameon #GamerseGames	21/06/2019, 14:15:22
1142130070502486016	Keoma89	Novos companheiros de treino e competição. Muito obrigado @RazerBrazil pelo apoio! 	21/06/2019, 15:00:03
1142134718466527232	rpsromano	E se não estiver enganado começou com pé direito estreando o novo brinquedo né? Parabéns mano!	21/06/2019, 15:18:31
1142140472909094912	MarcosAcatauass	@RazerBrazil , eu tb agradeço por manter vivo o espírito dos jogos de luta. Continue apoiando nossos guerreiros profissionais. =)	21/06/2019, 15:41:23
1142142640051408904	RazerBrazil	Depois que te vimos destruir dois adversários ao mesmo tempo com um Panthera, nada mais justo do que ele ser seu. Keoma lendário! 	21/06/2019, 15:50:00
1142142809673273344	locky099	@RazerBrazil o que acham de controles de Gamecube personalizados pro pessoal do Smash Bros? Olha que não seria má ideia e os jogadores iam gostar pra caramba da ideia	21/06/2019, 15:50:40
1142143238624727040	RazerBrazil	Saudade, Branca!	21/06/2019, 15:52:22
1142143516321169413	RazerBrazil	É preciso ver algumas questões quanto a isso por ser um console que não é mais produzido, mas vamos anotar a sugestão! ;)	21/06/2019, 15:53:28
1142143576459157504	brancagaldino	Sábios. Sou fã eterna deste menino! 	21/06/2019, 15:53:43
1142143683329966080	BrasilGameSpot	Será que agora eu viro pro player, @RazerBrazil? Meu time de Overwatch agradece! http://bit.ly/2KtJrw7 http://bit.ly/2KtJrw7	21/06/2019, 15:54:08
1142143803463229440	RazerBrazil	Nós amamos jogos de luta! Inclusive, temos um grupo no Facebook dedicado a organização de competições em diversos fighting games, você já viu? http://rzr.to/RFL	21/06/2019, 15:54:37
1142145034889961473	Deikiw	O nome é o mais top	21/06/2019, 15:59:31
1142146868232839168	locky099	Uau, que mágico, não achei que responderiam ao meu tweet haha. É, fazer um produto Premium para um grupo de nicho não é tão vantajoso porém algumas empresas licenciadas pensaram numa alternativa, que é adaptar o pro-controller do switch para que se pareça com um controle de GC.	21/06/2019, 16:06:48
1142147017906556928	locky099	Mas é com vocês, #ficaadica hahahaha	21/06/2019, 16:07:23
1142147138895437825	cafe_renato	Boa tarde Preciso trocar as almofadas do meu Kraken 7.1 Chroma. Onde acho as originais????	21/06/2019, 16:07:52
1142147270542073857	cafe_renato	Boa tarde Preciso trocar as almofadas do meu Kraken 7.1 Chroma. Onde acho as originais????	21/06/2019, 16:08:24
1142147352867868677	cafe_renato	Boa tarde Preciso trocar as almofadas do meu Kraken 7.1 Chroma. Onde acho as originais????	21/06/2019, 16:08:43
1142160860493819906	portalsodapop	#Saúde: @RazerBrazil lança bebida que ajuda no desempenho dos #gamers durante as partidas http://www.sodapop.com.br/saude-razer-lanca-bebida-que-ajuda-no-desempenho-dos-gamers-durante-as-partidas/	21/06/2019, 17:02:24
1142164753286094848	whyleandro	Alô @RazerBrazil Comprei um mouse mas ele não tá funcionando direito	21/06/2019, 17:17:52
1142171264641064960	naoChoraQPiora	@RazerBrazil Pessoal... uma dúvida: a garantia oficial do Razer Thresher Ultimate é de 12 ou 24 meses??	21/06/2019, 17:43:44
1142177973124161538	FehzinLima	Alow @RazerBrazil ajuda aí o rapaz... pra poder bater a gameplay.	21/06/2019, 18:10:24
1142178454672236544	brancagaldino	Saudades!!! Vem #BGS pra eu abraçar todos vcs! 	21/06/2019, 18:12:18
1142186681505853441	VersusEsports	Não é mais uma brincadeira de 1º de abril da @RazerBrazil! 	21/06/2019, 18:45:00
1142190458124349446	RazerBrazil	Essas são as equipes que disputarão a nova etapa da Razer Mobile League. Ao vivo agora: http://rzr.to/AoVivo	21/06/2019, 19:00:00
1142191673000243201	enzomondardo	Bando de corno que joga free fire	21/06/2019, 19:04:50
1142193359789989888	MatheusMoBn	e o camp de pubg lite razer, quando vai rola?	21/06/2019, 19:11:32
1142200181020139520	Salt_danha	A capacidade do homem de criar conteudo é impressionante, se eu fosse dono da @RazerBrazil dava um pc só pela brincadeira, visto que ele é um menino que dispõe de poucos recursos financeiros.	21/06/2019, 19:38:38
1142215091322068993	web_asn	Portfólio ASN Web . Criamos WebSites, Aplicativos Android, Portfólios, Trabalhos de Design, Programação e afins. Fale Conosco. . www . asnweb . com .br . @RazerBrazil @nvidia @aorus_brasil @corsair @i9… https://www.instagram.com/p/By_ZJWQhi53/?igshid=10d7ezvbdwo14	21/06/2019, 20:37:53
1142216361453559809	BorracheiroSua1	Merecido pra caramba!!!	21/06/2019, 20:42:56
