id	username	text	datetime
1150946955603972096	matheusgiaimo	Tive que apagar o um app da fazer agora está pedido um código de ativação e não consigo ativar pqp @RazerBrazil da uma ajudada aí, preciso que me envie de novo o código de ativa do surround e não consigo solicitar em nenhum lugar do site, poxa vida chateado	15/07/2019, 22:55:12
1150952177655013377	biscoitinhuss	@RazerBrazil oi sua linda	15/07/2019, 23:15:57
1151018017821724674	robertqualquer	Nome do jogo ??	16/07/2019, 03:37:34
1151075072427339776	CarlJoh45394385	"A mina xinga o público dela de gado falando que tá montada em cima deles e quando alguém do público dela fala ""pode montar em mim a vontade"" ela é a vítima, vocês precisam de uma análise no cérebro pra entendermos oq se passa na cabeça de vocês Td retardados :V"	16/07/2019, 07:24:17
1151077563227344896	CarlJoh45394385	E o pior é que ela falou que tava montada em cima deles	16/07/2019, 07:34:11
1151078080540217345	CarlJoh45394385	Que jogo é esse ?	16/07/2019, 07:36:15
1151080072935350272	CarlJoh45394385	Acho que teve essa repercussão toda pq ela chamou o público dela de gado/corno disse que tava montada em cima deles, aí quando alguém do público dela disse que pode montar nele a vontade ela fez esse alvoroço todo, c ela não tivesse zoado eles primeiro ctz q n teria essa tretaTd	16/07/2019, 07:44:10
1151080607176417280	CarlJoh45394385	Oq ela fez é a msm coisa de bater em alguém, apanhar de volta e se fazer de vítima	16/07/2019, 07:46:17
1151083129484058626	CarlJoh45394385	Kkkkkk pelo que eu vi nessa segunda print o cara ENTROU EM DEPRESSÃO POR NÃO SER ASSEDIADO, FAZENDO COM Q NINGUÉM QUEIRA ELE Pqp, oq foi que eu acabei de ver	16/07/2019, 07:56:18
1151083400348000257	CarlJoh45394385	As pessoas tbm são bastante tóxicas aq	16/07/2019, 07:57:23
1151084761491939329	TheNandyDiaries	Em todos os lugares Mas conseguem ser ainda mais tóxicos na internet, já que acreditam que aqui podem tudo e não pagaram por nada	16/07/2019, 08:02:47
1151085003146694656	CarlJoh45394385	Não foi bem isso oq aconteceu, ela falou que o público dela era gado/corno falou que tava montada em cima deles e um deles rebateu, fazendo com que ela criasse esses discursos de ódios e ainda perdeu o contrato da razer A culpa é completamente dela	16/07/2019, 08:03:45
1151085518752485376	CarlJoh45394385	Antes de ficar falando merda certifique-se que você saiba 100% da história	16/07/2019, 08:05:48
1151086117833367552	CarlJoh45394385	Ah e só pra deixar claro estou falando doq aconteceu com a Gabi, e não das mulheres que sofrem nas mãos de outros homens	16/07/2019, 08:08:11
1151086891581804544	CarlJoh45394385	Wtf mano, o cara tá falando de jogo que não tem ND a ver com o assunto Pq tirou essa conclusão que ele criou conta só pra atacar mulher ? Sem Sentido	16/07/2019, 08:11:15
1151087751758012417	CarlJoh45394385	Retardada por que ? Atualmente o feminismo só tem mimimi msm Pelo que eu vi vocês não querem igualdade, querem supremacia	16/07/2019, 08:14:40
1151089538854465537	CarlJoh45394385	Explodiu pq tem não tem senso de humor, não tem oq debater nem revistar Pra resumir oq aconteceu é Gabi: tô montada no chat *foto dela montada em um boi* Chat: pode montar em mim a vontade Gabi: Homem é lixo etc etc etc Razer: Am i a joke tô you ?	16/07/2019, 08:21:46
1151090716447260672	CarlJoh45394385	Sentir prazer oq a razer fez ? Não, não senti mas a Gabi mereceu Quanto ao desejar a morte dela é realmente escroto Eu me pergunto oq aconteceria se acontecesse uma guerra de gêneros, literalmente	16/07/2019, 08:26:27
1151093044353130496	TheNandyDiaries	Pq ele realmente fez isso E a cada block ele criava outra conta Pq tá puto? Era vc ou se dói quando um macho fodido leva a resposta devida??? Affs Nem sei pq respondo vcs Block	16/07/2019, 08:35:42
1151155272993464323	eutiamokrl	jogo de entregas do gugu	16/07/2019, 12:42:59
1151213017188749313	96Ygorbastos	Bem decepcionado com o produro da @RazerBrazil e com o atendimento da @kabumcombr	16/07/2019, 16:32:26
1151232959535603713	RazerBrazil	O guardião do Lancehead Saozi_low	16/07/2019, 17:51:41
1151266173348130822	LucsTyler	Simplesmente meu 3 fone morreu hoje DANDO CURTO E SAINDO FUMAÇA DA LATERAL, correndo risco de me dar um choque ou até mesmo queimar meu ouvido @RazerBrazil 	16/07/2019, 20:03:39
1151267202915536897	LucsTyler	Marca ridícula do caralho	16/07/2019, 20:07:45
1151267458151571458	oakIeaves	pega um sennheiser custa um rim	16/07/2019, 20:08:46
1151267499809394689	PablitoZ7	Desculpa demora mas no, tu errou fei kqkqkqkqk	16/07/2019, 20:08:56
1151267594072145922	ue_gus	fone da estação não acontece essas merdas, visão é comprar lá msm	16/07/2019, 20:09:18
1151268198790127616	PablitoZ7	Porra caixoty essa ai me fiz rir pra k7	16/07/2019, 20:11:42
1151270318885036032	LucsTyler	Mano não gasto mais q 500 em um fone novo	16/07/2019, 20:20:08
1151270342272401412	LucsTyler	Acho q vou pegar um cloud	16/07/2019, 20:20:13
1151270637857648640	oakIeaves	eu tenho arcano so q eh headphone mic tem q comprar separado	16/07/2019, 20:21:24
1151270969421508609	LucsTyler	Fala uns bons ae	16/07/2019, 20:22:43
1151271444497743875	oakIeaves	o meu é o mais bosta, sf666	16/07/2019, 20:24:36
