id	username	text	datetime
1157803543211970568	stevxn08	No compres nada de razer	03/08/2019, 21:00:50
1157804434614702080	SL1N_Allister	gpro heroか、razer viper	03/08/2019, 21:04:22
1157822720027037696	RazerBrazil	Graças a @NIOGlobal, orgulhosamente revelamos a edição limitada NIO x Razer ES6 Night Explorer. Nossa parceria trará o Razer Chroma a uma nova geração de veículos elétricos inteligentes. O maior ecosistema de iluminação RGB gamer está prestes a ganhar mais potência. 	03/08/2019, 22:17:02
1157824786074165248	TRosindo	O carro é feito pela NIO, a razer fez parte do projeto de uma edição limitada, colocando alguns elementos da linha chroma. Pelo oq eu entendi.	03/08/2019, 22:25:15
1157825193601052672	Juniorgoms87	A RAZER LANÇOU UM FUCKING CARRO BROTHER 	03/08/2019, 22:26:52
1157825415190319106	htempszera	A RAZER ANUNCIOU A CARALHA DE UM CARRO, UMA PORRA DE UM CARRO GENTE	03/08/2019, 22:27:44
1157825527115407360	olavocx	razer simplesmente falo fodase carro gamer 	03/08/2019, 22:28:11
1157826553981673472	htempszera	Não pera, é um carro, tipo, um carro? Mas não dá pra joga jogo de carro nao? É tipo um carro de dirigir? Não pra joga? Pera, a >>RAZER&lt;&lt; fez um carro, UM CARRO? tá bom, blz	03/08/2019, 22:32:16
1157826926620356615	RazerBrazil	É uma edição limitada por meio da parceria na qual colaboramos no projeto, enquanto a NIO ainda é a fabricante. Pensamos na melhor forma de integrar o Razer Chroma e o THX Spatial Audio com as tecnologias do carro para trazer efeitos inteligentes de luz e performance de som. 	03/08/2019, 22:33:45
1157827110947446786	Lucass_Oli_	Mano, a Razer é muito fodaaa 	03/08/2019, 22:34:29
1157830132784140289	twSoz1n	Acho que é mais uma parceria. A fabricante não é a Razer, ela só deu uns toques finais no carro, eu acho.	03/08/2019, 22:46:29
1157830861359845381	Prietaoo	@Fire7z CARRO DA RAZER KKKKKKKKKKKKKKKKKKKKKKK	03/08/2019, 22:49:23
1157831759150637056	matinhol	kkkkkkkkkkkkkkkkk- vai custar 10x mais só pq tem o nome razer	03/08/2019, 22:52:57
1157832403471294464	cheesefps	se o carro do @Erickaolol ja vive no mecanico imagina um carro da razer kkkjjj	03/08/2019, 22:55:31
1157832970193031178	ShotxNTC	vc merece taco!	03/08/2019, 22:57:46
1157833835255672832	isvdora	simplesmente sempre foi machista burro quando teve aquela polemica da razer falo que a mulher&lt;&lt; tinha se expressado de maneira infeliz e errada	03/08/2019, 23:01:12
1157834410881966081	RRaulCN	Se dá pra colocar RGB, a Razer vai fazer.	03/08/2019, 23:03:29
1157835150392266752	MrMateusSB	Que foda!! razer a cada dia ganhando meu respeito	03/08/2019, 23:06:26
1157838365703716864	HomeSixers	Razer 	03/08/2019, 23:19:12
1157838688837144576	marceland0	pronto, um carro ja é barato... agora cê imagina um carro da razer 	03/08/2019, 23:20:29
1157840543868751872	gfreitass_	mano a razer fez um carro wtf 	03/08/2019, 23:27:51
1157852842289520640	Ethozera	Tenho um mousepad da razer modelo kabuto não irei mais usar alguma sugestão de vídeo que eu posso fazer com esse mousepad ? Considerando que já ta bem usado !	04/08/2019, 00:16:44
1157853611331923969	nerinhass	Ao prejuízo, montei o pc agora e me veio na mente pra comprar um teclado da razer que eu queria ter em 2017 kkkkk	04/08/2019, 00:19:47
1157854132428070917	ravnhk	eu acho que começaram a perdoar ele quando ele fez um comentário sobre a razer e o tratamento machista deles, nem consideraram todas as mercas que ele falou antes. https://twitter.com/lwstdanc/status/1157050206476800006/video/1	04/08/2019, 00:21:51
1157860543182643202	edu_faveiro	já tá assim hahahaha vide o caso da embaixadora da razer	04/08/2019, 00:47:20
1157861666199166976	arddhu	pior que eu falo que Redragon é uma marca boa e nego ri da minha cara... fica falando em Razer, RGB e bla bla bla	04/08/2019, 00:51:47
1157862899072847874	4dlerx	eu tenho o meu a quase um ano e eu tinha um razer antes, sinceramente? esse mouse é absurdamente bom, tipo pra caralho mesmo mas tive que alterar a minha pegada no mouse pra poder usar ele	04/08/2019, 00:56:41
1157865051287707648	typhoeu5	Ele passou pano pra ela no caso da razer agora ela ta retribuindo passando pano pra ele kk	04/08/2019, 01:05:14
1157869563272290304	redeaprizion	Razer lança SUV elétrico em parceria com a montadora chinesa NIO https://aprizion.com/razer-lanca-suv-eletrico-em-parceria-com-a-montadora-chinesa-nio/	04/08/2019, 01:23:10
1157878497248985088	salosmao	Psicólogo: o carro da razer não é real e não pode te machucar Carro da Razer: 	04/08/2019, 01:58:40
1157884043213582336	woodenskeleton	razer naga	04/08/2019, 02:20:43
1157887799862820864	nhgbsun	Razer Viper https://youtu.be/9sv-TFaEHbs	04/08/2019, 02:35:38
1157895949399707653	christopherwams	Razer*	04/08/2019, 03:08:01
1157896639065088000	koalabiscoitos	Vamos lá.... Razer tem o pior suporte de sempre (meu primeiro e último periférico que compro deles), eu q resolvi o meu problema, comprei novas proteções (falsas) no eBay.	04/08/2019, 03:10:46
1157898104907210753	koalabiscoitos	"E o slogan da Razer ""For Gamers. By Gamers"", ñ corresponde a verdade. Pura enganação, se fosse de ""For Gamers. By Gamers"", eles não sugeriam ao consumidor cortar o cabo do headset para receber um novo. No acto da entrega do novo, o consumidor entregava o antigo, era mais sensato."	04/08/2019, 03:16:35
1157921803920125955	frnkiroween	aquela menina da Razer	04/08/2019, 04:50:45
1157949892574294022	fgskyyy	Razer chroma RBG	04/08/2019, 06:42:22
1157961982139654144	judeuThegreat	Esse mouse agora alem de bom com a sua foto é bonito tambem, incrivel!	04/08/2019, 07:30:25
1157963341538713600	Alask444	Acho que qualquer microfone condensador que não precise de uma placa de áudio e que seja de uma marca boa é uma boa escolha. Blue Yeti é o mais famoso mas devem ter outros mais baratos e que também sejam bons. Eu só daria preferência para marcas de audio do que Razer ou HyperX.	04/08/2019, 07:35:49
1157974341503483904	gumi6281	Razer⁽˙³˙⁾？	04/08/2019, 08:19:31
1157976430187307008	RincGeek	Analizamos el mando Razer Raiju Ultimate https://rincongeek.es/analisis/analisis-razer-raiju-ultimate-el-mando-gaming-ideal-para-los-usuarios-de-ps4-y-pc/	04/08/2019, 08:27:49
1157986095126274048	warlockS802	Carro da razer pronto 	04/08/2019, 09:06:14
1157988998561882112	PedroHe55095229	E a razer?	04/08/2019, 09:17:46
1157995276151341057	_vxta	Razer	04/08/2019, 09:42:43
1158000037017923585	faalafiote	"a timeline é sempre a mesma. Começa namorar o ""influencer"", ganha uns seguidores no instagram, larga o cara, exposed sofri relacionamento abusivo. essa sasa jaja vem com patrocinio da razer"	04/08/2019, 10:01:38
1158001502348304385	jonny_bullit	ela já é patrocinada pela Razer	04/08/2019, 10:07:27
1158002739420512256	styrriver	Quando a Razer faz merda e dá publicidade: apoiem as meninas, sejam contra machismo. Quando é para fazer algo contra homem que fez merda: galera, ele mudou não precisa disso. Vejam aqui no vídeo como ele mudou	04/08/2019, 10:12:22
1158006450297483264	leo_sausen	Aposentei meu antigo teclado da razer e to DOANDO, se alguem quiser só vir buscar aqui em casa	04/08/2019, 10:27:07
1158009196140552192	FireJaskins	Eu na época da treta da streamer girl lá com a razer: Mulher não tem local de fala e nem deveria está no meio do jogos. Hoje: bora fazer uma conta no twitch por curiosidade, e lá está eu só me inscrevendo em canais de streamer girl. É isso mesmo, é a contradição em pessoa aqui.	04/08/2019, 10:38:01
1158014822178533380	lightning_pora	NEM FUDENDO QUE A RAZER VAI LANÇAR UM CARRO 	04/08/2019, 11:00:23
1158028914738024448	7rGTACO	Quero um!!! Que máximo! Parabéns @TACOCS amo você. @RazerBrazil #recife #pernambuco #sportrecife	04/08/2019, 11:56:23
1158030077529088000	RazerBrazil	Rápido, preciso e veloz—tenha CONTROLE ABSOLUTO com o Razer Viper. Incluindo o novo Switch Óptico Razer para Mouse, sensor 5G Óptico exclusivo e design ergonômico com apenas 69 gramas. Elimine a competição: http://rzr.to/Viper-BR	04/08/2019, 12:01:00
1158034895698059267	__808dxviz	vai toma no cu razer mouse caiu 2 vezes e quebrou vsf	04/08/2019, 12:20:09
1158038744785707008	ALLTECH5	Razer anuncia Viper: mouse com alto desempenho e precisão 	04/08/2019, 12:35:26
1158039261859500034	marcosmpj	Carai... Olhando assim até parece aquelas fotos da Razer (só q eu azul)	04/08/2019, 12:37:30
1158043375620239360	MulisV	Agora quero ver os boyzao full razer 	04/08/2019, 12:53:50
1158051478151368705	RhyderVijay	Gillete Razer a 	04/08/2019, 13:26:02
1158051656715649025	vitu_barbo	Sonhei q quebraram meu razer, meu Deus acordei até c medo	04/08/2019, 13:26:45
1158051767525019656	ALLTECH5	Razer lança Viper, mouse ambidestro voltado para profissionais dos eSports 	04/08/2019, 13:27:11
1158053489110593536	carolezzzzzz	Lendo você falar que fazer exposed é atitude baixa, lembrando que quem fez exposed da mina da Razer pro teu público e tirou o que ela disse de contexto pra parecer um absurdo, e ainda continuou enchendo o saco mesmo depois dela pedindo desculpa foi vocezinha. Adoro tua hipocrisia	04/08/2019, 13:34:02
1158053612897148929	vulgodoN	Razer me faliu pprt	04/08/2019, 13:34:31
1158055049202950146	gaabrielccosta	Um mouse novo da razer	04/08/2019, 13:40:14
1158058246894182400	lestratus	e acha mesmo que empresas como Razer,Ubisoft e outros ligam pra isso? acham mesmo que eles tem essa consciência linda quando fazem demissão em massa? acha mesmo que diminuindo o imposto tudo vira mágica? empresas como Apple, Google entre outras fazem isso constantemente	04/08/2019, 13:52:56
1158059523917209600	humbsjr	Os mouse pads da Razer no #CBLoL que nojo ein	04/08/2019, 13:58:00
1158063304847306754	MorenaBabs	blz a razer agora tem carro	04/08/2019, 14:13:02
1158065349688004609	Rick_rlt	Liga GA.Razer #1 - 1ª Divisão - Keyd Stars vs. Dexterity Team (Mapa 3) https://youtu.be/TxogRrHeioo via @YouTube	04/08/2019, 14:21:09
1158065845584760832	mvttzx	decepcionado com a razer mais uma vez	04/08/2019, 14:23:08
1158066854855958528	worthxka	o que eu acho incrível é que toda polêmica que tem no cenário ela chega com os textinhos querendo puxar Ibope pra ela (como na treta da Gabi e da Razer) só dando voltas e sem tocar realmente no realmente problema parabéns, caju! diagnóstico: biscoiteira	04/08/2019, 14:27:08
1158068914166915072	carolezzzzzz	Me poupe hahahaha “olha essa feminista sendo misandrica, seguidores que detestam feministas e não têm maturidade emocional/at all pra lidar com pensamentos diferentes... mas não ataquem ela viu???? Rsrs” ela foi a primeira a pedir que a Razer acabasse com o contrato dela.	04/08/2019, 14:35:19
1158075126660894720	srryforall	mais facil de configurar doq o da razer e tem suporte pra razer	04/08/2019, 15:00:00
1158080531457875968	k_3NNYY	razer &lt;3	04/08/2019, 15:21:29
1158081174314586113	JeanBrumatti	Abaixo da Razer em questão de custo benefício claramente a escolha ideal é a Redragon	04/08/2019, 15:24:02
1158083196489273347	TheGOATSquirrel	Exato. E se reservassem um canal, os anuncios e publicidades seriam voltados pra esse publico (razer, amd, etc...) Atrairiam mais parceiros e ganhariam ainda mais É win-win	04/08/2019, 15:32:04
1158088568214097920	rafofaoo	ces lembram quando a razer falou q gamers sao oprimidos kkkkk	04/08/2019, 15:53:25
1158091012893487105	mathxusF	o cara com headset da razer no VAR	04/08/2019, 16:03:08
1158093174235181056	TargetHD	Razer Viper, um mouse gaming ambidestro, leve e rápido 	04/08/2019, 16:11:43
1158095460738981890	xdjimothy	Razer	04/08/2019, 16:20:48
1158103832498495489	CoisaTanta	Percepção aprimorada, comunicação aprimorada e controles ampliados - o áudio para jogos entra em uma nova fronteira com o novo Razer Kraken Tournament Edition #Razer #Gaming #PAXWest #IFA2018 Aumente os seus… https://www.instagram.com/p/B0wSgg2gb-9/?igshid=wi10w9g5x2dt	04/08/2019, 16:54:04
1158107119712911361	Prad0Davi_	@zEmanuel09 mano a razer lançou um carro 	04/08/2019, 17:07:08
1158109301371756550	japa__28	incrível que quando eh macho escroto e MACHISTA ngm fala nada né? quando foi a Razer uma pá de gente ficou defendendo aquela merda, me poupe	04/08/2019, 17:15:48
1158114918681501703	Beeccks	Razer mamba	04/08/2019, 17:38:08
1158119411175366657	Tricktor_21	Eu não sei do RDR 1, mas o GOW antigos você consegue jogar sim com certeza absoluta! Sobre usar placa de captura sim, porque você consegue transmitir sem delay nenhum e vale muito a pena o investimento Telinha! Eu tenho uma Razer Ripsaw e nunca tive problemas! Elgato tb é boa.	04/08/2019, 17:55:59
1158121427352113153	ArthurBaleki	@katsunoruii, mano um carro da RAZER 	04/08/2019, 18:03:59
1158121473162338310	WSchultzen	caralho fazem 4 anos que eu entrei pra pain gaming, meu mouse da razer ainda ta nos tRiNQuEss Você se lembra quando começou a fazer parte do Twitter? Eu me lembro! #MeuAniversárioDoTwitter	04/08/2019, 18:04:10
1158127067441061889	scyitsart	Finalmente vou trocar meu mouse da razer por um mouse de uma empresa que preste Obg deus 	04/08/2019, 18:26:24
1158128959302885376	_furiousfla	Eu não! Daqui a 1 semana ninguém lembra mais. Mal de BR, igual o lance da mina lá da Razer e pá... deixa eles viverem a vida deles e eu vou cuidar da minha!	04/08/2019, 18:33:55
1158130824698638336	philipdistefano	(Razer Viper)	04/08/2019, 18:41:20
1158135703420751873	tesuoka	hyperex e razer no VAR, 7.1 esses porras fazem cagada	04/08/2019, 19:00:43
1158146123430805509	iagomoura_99	agr não vou precisar ouvir as merdas q cês fala pq to de Razer	04/08/2019, 19:42:07
1158158753377804291	JRossi_	@razer me patrocina que eu ganho a EVO	04/08/2019, 20:32:19
1158161083913388037	xMartino93	Razer.5329	04/08/2019, 20:41:34
