id	username	text	datetime
1140771694476480512	rennanaxduarte	Sorteio de um headset Razer Kraken pelo @williangordox, participa aí! https://wn.nr/fdkCwG	17/06/2019, 21:02:21
1140774210639454209	WeCrazyC	Sorteio de um headset Razer Kraken pelo @williangordox, participa aí! https://wn.nr/vyHx3x	17/06/2019, 21:12:21
1140774509848514565	notwp_	CAMINHAO RAZER DOS ESPORTS	17/06/2019, 21:13:32
1140776403006296064	pseudobia_	L evanta G ay B ora T razer à tona coisas que você achava que já tinha resolvido na vida e ficar na bad porque não sabe mais o que quer.	17/06/2019, 21:21:03
1140777532461072387	Gustavri0s	Sorteio de um headset Razer Kraken pelo @williangordox, participa aí! https://wn.nr/gdNKJ6	17/06/2019, 21:25:33
1140779084798144512	ImSaaaDBoooy	Sorteio de um headset Razer Kraken pelo @williangordox, participa aí! https://wn.nr/ndnqgz	17/06/2019, 21:31:43
1140779424666796033	ImSaaaDBoooy	Sorteio de um headset Razer Kraken pelo @williangordox, participa aí GOGO! https://wn.nr/ndnqgz	17/06/2019, 21:33:04
1140780046233341952	LimJooJ1	Sorteio de um headset Razer Kraken pelo @williangordox, participa aí!	17/06/2019, 21:35:32
1140780776436457482	Julianaa_ac	Comprei um fone da Razer só pq as cobrinhas do lado brilham kkkkkkk	17/06/2019, 21:38:26
1140781734046420997	ScratesGenilton	Sorteio de um headset Razer Kraken pelo @williangordox, participa aí! https://wn.nr/K8pdRD	17/06/2019, 21:42:14
1140785451931983872	RafaelH21430548	Sorteio de um headset Razer Kraken pelo @williangordox, participa aí! https://wn.nr/rZA62d	17/06/2019, 21:57:01
1140786984396492802	melvin43811409	Sorteio de um headset Razer Kraken pelo @williangordox, participa aí! https://wn.nr/RRAqjD	17/06/2019, 22:03:06
1140796198367969280	ok_peps	RAZER 	17/06/2019, 22:39:43
1140797162256764929	Julianaa_ac	Minha prima me arrasou só pq eu comprei o fone da Razer e nem jogo nada, ela disse que eu ter comprado só por ter gostado das cobrinhas que brilham é uma ofensa para os gamers KKKKKKK	17/06/2019, 22:43:33
1140799210327027713	wellmodeneze	Sorteio de um headset Razer Kraken pelo @williangordox, participa aí! https://wn.nr/ScA9Sg	17/06/2019, 22:51:41
1140800094834499584	GutoGamees	Sorteio de um headset Razer Kraken pelo @williangordox, participa aí! https://wn.nr/rZM2EM	17/06/2019, 22:55:12
1140806802831028226	vitorfrana	Sorteio de um headset Razer Kraken pelo @williangordox, participa aí! https://wn.nr/Q8ANZG	17/06/2019, 23:21:51
1140808184120139777	DennerLucasS	Sorteio de um headset Razer Kraken pelo @williangordox, participa aí! https://wn.nr/vyHhWL	17/06/2019, 23:27:20
1140810335152214016	Daltecas	Sorteio de um headset Razer Kraken pelo @williangordox, participa aí! https://wn.nr/z4JEMB	17/06/2019, 23:35:53
1140812179022778368	usalvim	depois de 3 meses to usando meu razer, que puta qualidade de som velho	17/06/2019, 23:43:13
1140818115707703297	estelionathaIia	Quem sabe onde vende fone razer falso ae? Tô devendo p meu priminho mas tô lisa	18/06/2019, 00:06:48
1140823224596516866	criststa	Muito bom ! Para min, este telefone é 5 estrelas!! Muito obrigado @Razer @ScanComputers !!	18/06/2019, 00:27:06
1140828843655258112	edsoncaires_	Eu sou o maior imbecil do mundo, compro um fone da Razer pra jogar R6 e To aqui ouvindo música nele kkkkkkkk vsf	18/06/2019, 00:49:26
1140831502877544450	mateus_jhony	Sorteio de um headset Razer Kraken pelo @williangordox, participa aí! https://wn.nr/fdkZhP	18/06/2019, 01:00:00
1140832694433189888	1LeoGiusti	E o kit razer lá atrás 	18/06/2019, 01:04:44
1140838948782125056	hervoltz	@RazerBrazil Olá, tenho um Headset Gamer Razer Kraken 7.1 V2 Chroma Oval desde 14/10/2017, as espumas não estão em um bom estado após esse tempo de utilização. Conseguem me ajudar informando onde consigo achar esse acessório para comprar ?	18/06/2019, 01:29:35
1140855006591180800	Filch_1	Razer é um lixo, unica coisa que presta e o teclado e olhe lá	18/06/2019, 02:33:24
1140872041249329152	CarlosRenp	Sorteio de um headset Razer Kraken pelo @williangordox, participa aí!	18/06/2019, 03:41:05
1140902309792231425	LauraCartoon	#RTXOn #E32019 Nvidia 6600GT	18/06/2019, 05:41:22
1140906039988162561	DonJavierTwitea	#RTXOn #E32019 Nvidia 6600GT	18/06/2019, 05:56:11
1140911704840331264	BenincaNati	Ninguém: a Bruno: razer Eu: 	18/06/2019, 06:18:42
1140917845536022529	AsrockJ	Razer！	18/06/2019, 06:43:06
1140919899285590016	juanmacastana	#RTXOn #E32019 Nvidia 6600GT	18/06/2019, 06:51:15
1140933940800303105	allef68385811	Sorteio de um headset Razer Kraken pelo @williangordox, participa aí! https://wn.nr/cdgzD6	18/06/2019, 07:47:03
1140943659535405056	MarciodeCassio	@RazerBrazil meu mouse Razer Naga Hex, esta apresentando muitos problemas, gostaria de mandar para suporte para ver se tem algum conserto	18/06/2019, 08:25:40
1140943901945147392	Anderso08380198	Sorteio de um headset Razer Kraken pelo @williangordox, participa aí! https://wn.nr/F8ppHZ	18/06/2019, 08:26:38
1140949951675011074	fomynha	LIVE ON Jogando o Fino >> Sorteio Mousepad Razer &lt;&lt; 500 follows 	18/06/2019, 08:50:40
1140950725825978369	kiick_ZA	Nvidia Gt 210	18/06/2019, 08:53:45
1140951343080845313	ccvdiego	Sorteio de um headset Razer Kraken pelo @williangordox, participa aí!	18/06/2019, 08:56:12
1140954950920540161	Augusvideos	algo de razer?	18/06/2019, 09:10:32
1140956598753464321	TarSeelie	es algo de razer 	18/06/2019, 09:17:05
1140959780208553984	Sr_T21	Razer de algo.	18/06/2019, 09:29:44
1140964022298337281	heavysadsoul_	E eu q fiquei a criar tomates durante 1 mês p usar o meu autocolante da razer e qnd o fui usar rasguei-o sem querer	18/06/2019, 09:46:35
1140967829912608776	echoboomerpt	Análise – Razer Panthera para PlayStation 	18/06/2019, 10:01:43
1140970943625519104	marantinii	Quando finalmente compras aquele conjunto da Razer 	18/06/2019, 10:14:05
1140973390397956096	MessiEnojado	Vocês só dão atenção pra famosos? E nós meros mortais que pagamos pelos produtos e sustentamos a marca? Meu segundo DA da problema e estou sem mouse pra jogar, o mouse parece com prazo de validade. Pela segunda vez no prejuízo sem garantia.. @RazerSupport @RazerBrazil @Razer	18/06/2019, 10:23:49
1140974125906878469	MessiEnojado	Boa... Meu DA estragou pouco tempo após a garantia terminar e estou IMPLORANDO por uma resposta da razer, coisa que não acontece. Paga-se caro num produto e não tem o mínimo respeito com o cliente. Razer foca em luzinha, Logitech foca no CLIENTE, por isso cresce cada vez mais...	18/06/2019, 10:26:44
1140975031100551169	RazerBrazil	Oi Rodrigo, vamos te contatar por DM, basta nos seguir de volta.	18/06/2019, 10:30:20
1140975279961247745	gordo1352	Sorteio de um headset Razer Kraken pelo @williangordox, participa aí! https://wn.nr/ddzMVs	18/06/2019, 10:31:19
1140976101780533249	Bamufic	Sorteio de um headset Razer Kraken pelo @williangordox, participa aí! https://wn.nr/kd6ytJ	18/06/2019, 10:34:35
1140978671941013511	carly_jb17	Es de razer	18/06/2019, 10:44:48
1140983691721814017	Dreeuz	Razer Brasil desde sempre	18/06/2019, 11:04:45
1140987795198095360	RazerBrazil	Aí simmm! Parabéns e seja bem-vindo ao Culto da Razer 	18/06/2019, 11:21:03
1140987873828769800	Patrick_Barb02	Sorteio de um headset Razer Kraken pelo @williangordox, participa aí! https://wn.nr/P8CzBk	18/06/2019, 11:21:22
1140993682784628736	bonacolsii	To vendendo minha mi band 3, fone da jbl, combo da Razer, precinho camarada, quem quiser chama em	18/06/2019, 11:44:27
1140997052983173121	real_hashiii	2 blade from SAO	18/06/2019, 11:57:50
1140997526822293511	MessiEnojado	Pronto	18/06/2019, 11:59:43
1140999635911270401	bigodaun	Eu tive o mesmo problema e acabei não comprando mais teclado razer e mouse estou no segundo	18/06/2019, 12:08:06
1141001024968298497	nxtzzz	Razer blackwidow stealth tournament, uso faz 3 anos e nunca deu problema, soh eh meio ruim de limpar p shift	18/06/2019, 12:13:37
1141002051083821057	AnaBornhofen	Sorteio de um headset Razer Kraken pelo @williangordox, participa aí! https://wn.nr/92JbKj	18/06/2019, 12:17:42
1141003306329939973	homerfagaraz	Sim, o barulho perfeito de quebrar um razer so pode ser obtido quebrando um autêntico razer. E o melhor razer para isso é o mais barato razer.	18/06/2019, 12:22:41
1141004612406829056	Felipe_Denys	Sorteio de um headset Razer Kraken pelo @williangordox, participa aí! https://wn.nr/CRpDHp	18/06/2019, 12:27:53
1141006025757265927	dex_terz	Já ouviu falar da Samsung? Ela sim que é a mais usada no Brasil. Ninguém quer mais Positivo, e não sei onde você achou que Multilaser é a melhor marca de eletrônicos. Acho que você não conhece Logitech, Razer e por aí vai...	18/06/2019, 12:33:30
1141006231231844352	RazerSupport	Olá Marcio, Obrigado pelo seu contacto, lamento que esteja a ter problemas com o seu Razer Naga. Por favor, envie-nos uma mensagem em privado para que o possa ajudar com este problema.	18/06/2019, 12:34:19
1141006453110534146	RazerSupport	Olá Herbert, Obrigado pelo seu contacto. Lamento que esteja a ter problemas com as suas esponjas do Razer Kraken. Por favor, envie-nos uma mensagem em privado para que o possa ajudar adequadamente.	18/06/2019, 12:35:11
1141010215879565313	TheDarknessPGDM	Se você pegar meus backups de 18 anos atrás, vai ver que minha pasta de wallpapers é forrada de Alienware, Dell, intel, nvidia, razer, corsair, microsoft, Ubisoft, activision, etc., mesmo tendo um pczinho véio que mal rodava CS. To vivendo vários sonhos que tinha naquela época 	18/06/2019, 12:50:09
1141013958675111936	alienXGAME	Sorteio de um headset Razer Kraken pelo @williangordox, participa aí! https://wn.nr/5Rv3DT	18/06/2019, 13:05:01
1141017937006010370	Thiagopaul00	Sorteio de um headset Razer Kraken pelo @williangordox, participa aí!	18/06/2019, 13:20:49
1141019545211219968	ImL3G1T3X	Mau uso dos produtos, tenho um blackwidow chroma a 4 anos, deathadder a 3, e nunca tive problema com perifericos da razer	18/06/2019, 13:27:13
1141026201030582272	VextorDJ_	razer, motospeed, logitech mandaram abraços	18/06/2019, 13:53:40
1141030161707614215	AlexwyViana	Sorteio de um headset Razer Kraken pelo @williangordox, participa aí! https://wn.nr/mFqrVy	18/06/2019, 14:09:24
1141030390385250304	herosemanuel7	Sorteio de um headset Razer Kraken pelo @williangordox, participa aí! https://wn.nr/7tpCdY	18/06/2019, 14:10:19
1141031006587277312	leandrossch	Sorteio de um headset Razer Kraken pelo @williangordox, participa aí! https://wn.nr/2Rphkt	18/06/2019, 14:12:45
1141033536184565763	Pyr0Maker	Sorteio de um headset Razer Kraken pelo @williangordox, participa aí! https://wn.nr/DVpFmZ	18/06/2019, 14:22:49
1141035401664192518	SomeCallMeBee	Razer	18/06/2019, 14:30:13
1141035953227780097	WillianCainna	Sorteio de um headset Razer Kraken pelo @williangordox, participa aí! https://wn.nr/XdAFTX	18/06/2019, 14:32:25
1141036370586210305	jeseoliverII	Sorteio de um headset Razer Kraken pelo @williangordox, participa aí! https://gleam.io/AHNay-Tb5wLcmsD5	18/06/2019, 14:34:04
1141037147807293440	jeseoliverII	Sorteio de um headset Razer Kraken pelo @williangordox, participa aí! https://wn.nr/ScAFvn	18/06/2019, 14:37:10
1141037166811856896	jeseoliverII	Sorteio de um headset Razer Kraken pelo @williangordox, participa aí! https://wn.nr/ScAFvn	18/06/2019, 14:37:14
1141038973319561218	EpifanioDouglas	Sorteio de um headset Razer Kraken pelo @williangordox, participa aí! https://wn.nr/J8ApmG	18/06/2019, 14:44:25
1141045334103248896	Diegofx123	Sorteio de um headset Razer Kraken pelo @williangordox, participa aí! https://wn.nr/Q8ACSG	18/06/2019, 15:09:41
1141052179412922368	BispoJulian	Sorteio de um headset Razer Kraken pelo @williangordox, participa aí! https://wn.nr/XdAr84	18/06/2019, 15:36:53
1141053890298830849	werickhebert	Sorteio de um headset Razer Kraken pelo @williangordox, participa aí! https://wn.nr/XdArWn	18/06/2019, 15:43:41
1141053911437991937	werickhebert	Sorteio de um headset Razer Kraken pelo @williangordox, participa aí! https://wn.nr/XdArWn	18/06/2019, 15:43:46
1141060785877278722	_anddn	Sorteio de um headset Razer Kraken pelo @williangordox, participa aí! https://wn.nr/mFqjr8	18/06/2019, 16:11:05
1141061218473598976	clubedeofertas_	Mouse Gamer Razer DeathAdder Essential Óptico 5 Botões 4G 6400 DPI #Geekbuying R$103.62 (USD $25.99) → Cupom: Oferta Flash → Link: http://bit.ly/2FhT2SG Parcele em até 12x no Cartão, ou a Vista no Boleto! Visto em: @clubeofertaschina	18/06/2019, 16:12:49
1141061746360279042	Felponei2k	Sorteio de um headset Razer Kraken pelo @williangordox, participa aí! https://wn.nr/V8ZqsA	18/06/2019, 16:14:54
1141061916355436545	JayceLoiro	Sorteio de um headset Razer Kraken pelo @williangordox, participa aí!	18/06/2019, 16:15:35
1141062104088240130	FBornhausen	Sorteio de um headset Razer Kraken pelo @williangordox, participa aí! https://wn.nr/hdYXjq	18/06/2019, 16:16:20
1141063394977558530	helderdf	Me patrocina @RazerBrazil Nunca te pedi nada @Razer Vai que neh 	18/06/2019, 16:21:27
1141064256361775104	1ndie1_	Sorteio de um headset Razer Kraken pelo @williangordox, participa aí! https://wn.nr/ScA6VA	18/06/2019, 16:24:53
1141065163002601473	iamwendyzinha	Sorteio de um headset Razer Kraken pelo @williangordox, participa aí! https://wn.nr/J8A3cq	18/06/2019, 16:28:29
1141068243249061889	Lukszer0	Sorteio de um headset Razer Kraken pelo @williangordox, participa aí! https://wn.nr/Q8AQD7	18/06/2019, 16:40:43
1141068310383083521	Thiagozr1Silva	Sorteio de um headset Razer Kraken pelo @williangordox, participa aí! https://wn.nr/CRpQwj	18/06/2019, 16:40:59
1141070578616545281	ChAcAlDaRk02	Sorteio de um headset Razer Kraken pelo @williangordox, participa aí! https://wn.nr/ZdAQjR	18/06/2019, 16:50:00
1141070900596477955	Steh_Brunetti	Como ando desatualizada, preciso de ajuda pra comprar mouse e teclado. Alguém pode me falar em questão custo x benefício? Pq eu só conheço razer. ME AJUDEM	18/06/2019, 16:51:17
1141071221477564417	KairoSouza98	Sorteio de um headset Razer Kraken pelo @williangordox, participa aí! https://wn.nr/K8pQgH	18/06/2019, 16:52:33
1141071578349867008	4r7huur	Sorteio de um headset Razer Kraken pelo @williangordox, participa aí! https://gleam.io/AHNay-k5SMnuE8aZ	18/06/2019, 16:53:59
1141073199821729792	Lorranlol	Sorteio de um headset Razer Kraken pelo @williangordox, participa aí! https://wn.nr/vyHqjb	18/06/2019, 17:00:25
1141073417908740098	luanlima27	Sorteio de um headset Razer Kraken pelo @williangordox, participa aí! https://wn.nr/MbR5XN	18/06/2019, 17:01:17
1141074125772992512	Lucas_rural	Sorteio de um headset Razer Kraken pelo @williangordox, participa aí! https://wn.nr/ndnmTs	18/06/2019, 17:04:06
1141077410835775488	PabloAl15013301	"""Danem-se todas as garotas bonitas, elas só querem te razer mal"" ""Você é uma garota divina"""	18/06/2019, 17:17:09
1141077829066665987	Saitoraphaelgm	Sorteio de um headset Razer Kraken pelo @williangordox, participa aí!	18/06/2019, 17:18:49
1141077877934497792	Lemaxo2K	Razer 	18/06/2019, 17:19:00
1141082572807659520	Guixz44	Sorteio de um headset Razer Kraken pelo @williangordox, participa aí! https://wn.nr/H8bAsg	18/06/2019, 17:37:40
1141083777684451330	sunosz	não posso to sem meu chifre da razer	18/06/2019, 17:42:27
1141093982463807489	fakeugene	@Razer @kabumcombr ameno	18/06/2019, 18:23:00
1141095133963833345	Defterosx	PC pelo visto, apareceu parada da razer ali	18/06/2019, 18:27:35
1141095494594248705	PedroJapa1414	Sorteio de um headset Razer Kraken pelo @williangordox, participa aí! https://wn.nr/cdg866	18/06/2019, 18:29:01
1141097309167636482	ProGoncalo	Sorteio de um headset Razer Kraken pelo @williangordox, participa aí! https://wn.nr/Q8Ad7t	18/06/2019, 18:36:13
1141097759295995904	BlossomFPS	Razer	18/06/2019, 18:38:01
1141099267731460097	Raxyz0	É o NVidia shareplay. Quero deixar bem claro que não é Razer pra ninguém pensar que eu sou rico e tenho mal gosto. Ahsjahsjahsuahsuahsuahsush	18/06/2019, 18:44:00
1141099413181538305	edush_	Aguardando o stories agradecendo a Razer e a Logitech	18/06/2019, 18:44:35
1141099909824876544	Loskavae	Sorteio de um headset Razer Kraken pelo @williangordox, participa aí! https://wn.nr/F8pTt7	18/06/2019, 18:46:33
1141102996736086018	brunoacioli1	Sorteio de um headset Razer Kraken pelo @williangordox, participa aí! https://wn.nr/XdWfBG	18/06/2019, 18:58:49
1141104198735597569	eloelho	Sorteio de um headset Razer Kraken pelo @williangordox, participa aí! https://wn.nr/ddcgXc	18/06/2019, 19:03:36
1141104320424947713	JoaoVRC1	Sorteio de um headset Razer Kraken pelo @williangordox, participa aí! https://wn.nr/ddcgHD	18/06/2019, 19:04:05
1141106176450617344	_bren00	Sorteio de um headset Razer Kraken pelo @williangordox, participa aí! https://wn.nr/NSW4qT	18/06/2019, 19:11:27
1141106844368351232	_KeKo____	Sorteio de um headset Razer Kraken pelo @williangordox, participa aí! https://wn.nr/wH6HGp	18/06/2019, 19:14:07
1141107831741001729	_KeKo____	Sorteio de um headset Razer Kraken pelo @williangordox, participa aí! https://wn.nr/wH6HGp Correm la	18/06/2019, 19:18:02
1141108641854099458	RafaRazor	Últimas horas: sORTEIOx de um headset Razer Kraken Mercury https://wn.nr/NSWHF5	18/06/2019, 19:21:15
1141109171645026304	gabrielcmpr	Sorteio de um headset Razer Kraken pelo @williangordox, participa aí! https://wn.nr/LdR54c	18/06/2019, 19:23:21
1141113453509320704	porquinhos595	Sorteio de um headset Razer Kraken pelo @williangordox, participa aí! https://wn.nr/4RmjQz	18/06/2019, 19:40:22
1141114081811865601	hard_bertoni	Sorteio de um headset Razer Kraken pelo @williangordox, participa aí! https://wn.nr/ZdWVHN	18/06/2019, 19:42:52
1141115402757582848	avontsCS	Sorteio de um headset Razer Kraken pelo @williangordox, participa aí! https://wn.nr/pHcZzs	18/06/2019, 19:48:07
1141119325807550469	_Rick_Siqueira	Sorteio de um headset Razer Kraken pelo @williangordox, participa aí! https://wn.nr/wHcyPj	18/06/2019, 20:03:42
1141125230850715648	Kinhuvaladares	Sorteio de um headset Razer Kraken pelo @williangordox, participa aí!	18/06/2019, 20:27:10
1141127261183254535	beittuw	Razer kraken tava 200 na kabum ótimo preço até	18/06/2019, 20:35:14
