id	username	text	datetime
1149485373875032064	Emy_Jota	no Brasil quando? @RazerBrazil 	11/07/2019, 22:07:24
1149512446081556480	AndreLirio_	Eu quero man que setup lindo cara	11/07/2019, 23:54:58
1149528966182555649	CH00J1	@RazerBrazil melhor marca hehehe	12/07/2019, 01:00:37
1149530362369859584	WhoIsCarlos	me passaram um whats p/ contato dps ignoraram ahahahha	12/07/2019, 01:06:10
1149541678857904130	TiagoMa89432318	Chola mais. o cara não fez nada de errado em responder a piada dela com outra piada, Ela sim errou em começar a zueira e não aceitar a resposta...	12/07/2019, 01:51:08
1149550986400169987	TiagoMa89432318	E o que ela fez foi certo?	12/07/2019, 02:28:07
1149684568716431361	CH00J1	Tenta dnv... Você é de+ sei que não vai desistir.. qualquer coisa usa minha 2 marca favorita que amo os teclados @HyperX @HyperXBrasil haha	12/07/2019, 11:18:55
1149695081244291073	joelS4s	HEY, @RazerBrazil Please nunca lhe pedi nada Sou Main JURI, @joelS4s	12/07/2019, 12:00:42
1149706191636971520	Silvedic	Se a @RazerBrazil recusar meu pedido de Garantia do meu teclado Eu juro q eu mudo todo meu setup pra @LogitechG To certo	12/07/2019, 12:44:51
1149716471678980096	Winona_bel	Mãe diná chego 	12/07/2019, 13:25:42
1149738109799686144	FlavioPBianchi	Amigo você mais do que ninguém sabe que existem limites que devem ser respeitados em contrato.	12/07/2019, 14:51:41
1149745443288551424	NeoViceCity	os periféricos branco são os mais top	12/07/2019, 15:20:49
1149747203394719744	TenguPk	Concordo, sai do padrão preto e se destaca mais fora q é cor neutra tbm combina com tudo, lindo demais o fone.	12/07/2019, 15:27:49
1149756506423750656	nKpacla	que teclado é esse @RazerBrazil ? Tem pra vender em terras tupiniquins?	12/07/2019, 16:04:47
1149756538107527168	idmthedy	Faltou o monitor xD	12/07/2019, 16:04:54
1149756549952413696	_beniih	Só faltou ser uma RTX ao invés da GTX	12/07/2019, 16:04:57
1149756623021174784	HTierno7	Oi Razer rs	12/07/2019, 16:05:15
1149756710241918977	2D_0ver3D	Que coisa maravilhosaa	12/07/2019, 16:05:35
1149757381212901377	RazerBrazil	Oi Nicolas! É o BlackWidow X edição Mercury, que está por R$599,90 à vista no @kabumcombr! Corre que ainda tem 4 unidades: http://rzr.to/iBpCn	12/07/2019, 16:08:15
1149758575432146944	GustavoOkamoto3	Incrível, assim que a Razer trabalha meu chapa!	12/07/2019, 16:13:00
1149758952327938049	303vanvan	@RafaDinoRJ tem na sua loja?	12/07/2019, 16:14:30
1149759025053126656	_kvnds	Qual é esse gabinete?? e a placa mae? agradeço quem souber	12/07/2019, 16:14:47
1149759522925400065	Albert0Cristino	Empresa lixo	12/07/2019, 16:16:46
1149759967135711233	RazerBrazil	Oi Beatriz, nossos mouses possuem 2 anos de garantia caso haja algum problema do tipo. Te chamamos via DM ;)	12/07/2019, 16:18:32
1149760941539713025	GamesJooj	Se quiser me dar, meu aniversário e daqui dois meses kkkk	12/07/2019, 16:22:24
1149761046002962435	mxc0t	falta a verba kkkkkkk @joaks132	12/07/2019, 16:22:49
1149761729062146049	MarcioZuque19	Se quiser me dar sabe, meu aniversário é daqui 7 dias kkkkk	12/07/2019, 16:25:32
1149762206424293377	mxc0t	chegaremos	12/07/2019, 16:27:26
1149762930256171008	_Visctor_	Manda um desse pra mim @RazerBrazil.	12/07/2019, 16:30:18
1149763120392523776	JoiceGimenes	O meu caiu no chão dai eu passei umas fita isolante, ces podiam me presentear com oto 	12/07/2019, 16:31:04
1149763250319499264	beatrizcappio	eu acho que é normal uma marca de grande nome assim tem que fazer pelo menos o mínimo de responder os clientes, não esperava menos	12/07/2019, 16:31:35
1149763278593282050	csUF0	Desculpa aí @RazerBrazil - reveja sua meta e me dê um cupom de desconto na @kabumcombr para meu mouse pad Razer.	12/07/2019, 16:31:41
1149763538459746311	beatrizcappio	KKKKKKKKKKKKKKKK aí não da né, nunca derrubei os meus, sempre tratei que nem um bebê e deu problema	12/07/2019, 16:32:43
1149763745964580864	kabumcombr	Chama na DM com o link! :)	12/07/2019, 16:33:33
1149764047618707456	RazerBrazil	Aí o papo ficou interessante! 	12/07/2019, 16:34:45
1149765108664586241	Silvedic	Papo bom é o q eu to tendo cm o suporte de vcs q nn querem trocar uma tecla do meu teclado	12/07/2019, 16:38:58
1149771375047073793	paiNDinho	Manda um desse pra mim fazer um teste rapidinho!!!	12/07/2019, 17:03:52
1149772656176226311	LeandroMMagal	Gosto mais de periféricos 'noirs', mas tenho que admitir que esse ficou lindo.	12/07/2019, 17:08:57
1149773232733675520	767Davib	"É serio isso ""gordofobia"" .kk q merda. Pensei q isso fosse só zueira, mas o pessoal leva a serio msm. + Uma perda de tempo genérica."	12/07/2019, 17:11:15
1149773891952357376	767Davib	Eu n faço ações ofenssivas e vc tá dizendo q eu devo mudar? Sério msm. Essa generalização está certa?	12/07/2019, 17:13:52
1149775391063719938	odeiogauchos	Me dá uma CPU dessas que eu compro o resto ;)	12/07/2019, 17:19:49
1149779813751762944	RazerBrazil	SORTEIO + LIVE Hoje, às 19h30, tem #RazerDay do @HearthstoneNess! O sorteio será ao vivo. Siga-o para saber quando começa: http://twitch.tv/Ness	12/07/2019, 17:37:24
1149782038045761536	HHiore	E eu que nem bebia, nem saia... ♫ ♪ So me dedicava a ela ♪ 	12/07/2019, 17:46:14
1149787387297435649	talesdanilo	Pronto Agora as mulheres nunca mais vão comprar produtos da @RazerBrazil para seus filhos e maridos. Teremos que fazer isso pessoalmente. #Trágico	12/07/2019, 18:07:29
1149789319307104256	Rob3rSenna	Eu viviiia so pra ela NessEZ	12/07/2019, 18:15:10
1149808151954374657	RazerBrazil	O #RazerDay do @HearthstoneNess está AO VIVO! Não perca a dupla chance de ser sorteado assistindo a live: http://twitch.tv/Ness	12/07/2019, 19:30:00
1149817971583389696	giovanni_marcos	Vixxi quem me dera conseguir ter um setup desses acho que nem em sonhos conseguiria ter....	12/07/2019, 20:09:01
