id	username	text	datetime
1165776713311248385	trevxrbelmont	poxa to tao titi alguem quer me dar o setup quartz da razer	25/08/2019, 21:03:22
1165786198624952335	CansadaCaveira	o cara é jogador de lol, vai matar a todos nós com um combo de ultimate apertando várias teclas do razer dele.	25/08/2019, 21:41:03
1165789883023142917	nshdisnxj	Pois olha, c fosse assim, levando a sério, meio q a própria razer n tinha acabado com o patrocínio daquela senhorita que falou que todo homem é um lixo, e mt mais. Kk	25/08/2019, 21:55:42
1165790730469724160	leandrosmfilho	Participe do sorteio de 100 pins Razer Gold e tenha a chance de participar de uma live com seus influenciadores favoritos! %{link} https://wn.nr/jg6nA6	25/08/2019, 21:59:04
1165796992561438721	demofps	Epoca de fallen na kabum, ligas ga razer, falai bidao JAUAHAUAHUAHA	25/08/2019, 22:23:57
1165799535123152896	riiaf_	razer?	25/08/2019, 22:34:03
1165821411740585984	luizfsantiago	Tem q mandar tomar no cu com qualidade, e não é tão caro qnto os da razer	26/08/2019, 00:00:59
1165844400662032384	gabruno_	Mano esse fone melhor escolha que fez na sua vida namoral melhor headset ever. Web da logitech e pika. Microfone eu pegaria o QuadCast HyperX mas esse da Razer Eu nunca vi então não posso opinar mas eu particularmente pegaria o QuadCast	26/08/2019, 01:32:20
1165867646467944448	thaimoon_	incrível falei mal da razer hj e acho q o universo conspirou contra mim e enroscou o fone no meu shorts e quase q eu derrubo o notebook, a mesinha e o ipad	26/08/2019, 03:04:42
1165868868117696513	MxDurand	Pelo menos não derrubou. Pau no cu da razer	26/08/2019, 03:09:33
1165868976410378240	thaimoon_	antes vamos boicotar a razer 	26/08/2019, 03:09:59
1165871192810631169	xMartino93	Razer.5329	26/08/2019, 03:18:47
1165871925777895429	rxbot3	Razer tiamat 7.1 mandou abraços, o único 7.1 de verdade kk	26/08/2019, 03:21:42
1165905657486290945	Menconcini	Participe do sorteio de 100 pins Razer Gold e tenha a chance de participar de uma live com seus influenciadores favoritos! %{link} https://wn.nr/9rrLGs	26/08/2019, 05:35:44
1165927807530258432	MarceloMaciel1	Participe do sorteio de 100 pins Razer Gold e tenha a chance de participar de uma live com seus influenciadores favoritos! %{link} 	26/08/2019, 07:03:45
1165947271839502336	supra8823	razer viper！	26/08/2019, 08:21:06
1165950030232137728	RebecaPinhoDS	Manda outro, não tenho nada contra a Razer, apenas com uma atitude específica. Quanto a qualidade dos produtos não posso opinar pois nunca tive um periférico da marca, porém relatos de pessoas próximas a mim é de que a durabilidade dos produtos deles é inferior a dos concorrentes	26/08/2019, 08:32:04
1165954683849953281	bonsplanstech	Clavier Razer Ornata Chroma (RGB) à 64,99 euros http://dlvr.it/RBvSxV	26/08/2019, 08:50:33
1165955122565959683	VJV_Bonplan	Clavier Razer Ornata Chroma (RGB) à 64,99 euros 	26/08/2019, 08:52:18
1165957203347378176	runchaq	Razer	26/08/2019, 09:00:34
1165963479183974400	Iuxstarguardian	mano a razer tem algo mt sinistro, é so eu criticar q meu mouse acende no meio da noite e nao apaga mais ate eu tirar o cabo do pc mesmo q desligado	26/08/2019, 09:25:30
1165973273680605184	lqrHAAYPHXtPAA3	RAZER 	26/08/2019, 10:04:25
1165981054395670531	Guillaume_c1	tu pense quoi de la nouvelles razer viper	26/08/2019, 10:35:20
1165983482130026496	Monchi98512	RAZER VIPER	26/08/2019, 10:44:59
1165990036665450498	kein_ebucher	2019 e gente falando de politica - brigar com a cara da mina da razer.	26/08/2019, 11:11:02
1165990744387182592	venancioacastro	É da Razer certeza	26/08/2019, 11:13:51
1165997467948716035	MainEspanol	@RazerES Estoy indeciso, demasiados ratones buenos tenéis. ¿Razer Basilisk, Razer DeathAdder Elite o Razer Mamba Elite?	26/08/2019, 11:40:34
1166008314557284352	GufinnF0D4	razer BRASIl?	26/08/2019, 12:23:40
1166030256727195648	muzyunn07061	Razer viper	26/08/2019, 13:50:51
1166045425637441541	judesune_	7 - talvez mas acho que ficaria rindo 8 - nn 9 - NÃO MAS SE FOR UMAS LED KIT RAZER MT FODA ATÉ VAI 10 - sim mas eu fico sem graça 	26/08/2019, 14:51:08
1166047987941986306	Leo92993967	Razer ornata	26/08/2019, 15:01:19
1166050766316068865	yallnoname	L evanta G ays B ora T razer barra Q os (foi o que deu pra fazer hoje)	26/08/2019, 15:12:21
1166052249249996800	PereiraAriston	Só lembrando eu comprei e não me arrependo .. apesar de estar com menos de 30% de audição (condição deixada após um acidente), hoje com o morcego escuto até o som de uma flash, algo que antes não conseguia indentificar com meus headsets da razer	26/08/2019, 15:18:15
1166052369773268992	python_70	Nunca usei Razer, só HyperX, Logitech, ou Cooler M mesmo Mas valeu pela moral kkk	26/08/2019, 15:18:43
1166057120443379712	fellpfsa	Consegui o link da nova música do Magyn pela live dele kk Razer tá brabrooo	26/08/2019, 15:37:36
1166061448465981440	Rodrigo_rgr	Participe do sorteio de 100 pins Razer Gold e tenha a chance de participar de uma live com seus influenciadores favoritos! %{link} https://wn.nr/qfrdGP	26/08/2019, 15:54:48
1166068360200753157	cobyalmond	Razer?	26/08/2019, 16:22:16
1166068968919986176	bethdean	Razer Ornata	26/08/2019, 16:24:41
1166075113940357120	Dulliblue	Participe do sorteio de 100 pins Razer Gold e tenha a chance de participar de uma live com seus influenciadores favoritos! %{link} https://wn.nr/ThXG8g	26/08/2019, 16:49:06
1166075145359937536	fernshadows	quando que a razer vai lançar camisinha pros gamers conseguirem transar??	26/08/2019, 16:49:13
1166075435920367616	LuizVignochi	Participe do sorteio de 100 pins Razer Gold e tenha a chance de participar de uma live com seus influenciadores favoritos! %{link} 	26/08/2019, 16:50:23
1166077170390839298	JotaMaktub	Ze só ficavas contente com um giveawayzinho dum dildo da razer	26/08/2019, 16:57:16
1166085983592488960	StivalMat	Razer?	26/08/2019, 17:32:17
1166087325002227712	rodrigoal3ncar	ainda n tenho condiçao de comprar um da razer, mas qm sabe um dia	26/08/2019, 17:37:37
1166091326640668672	koumeikundayo	RAZER VIPER	26/08/2019, 17:53:31
1166093988883046400	EdgyAWP	razer	26/08/2019, 18:04:06
1166095838713700352	thaismatxs	Logo menos vem as parcerias com a razer e a kabum	26/08/2019, 18:11:27
1166096931329908736	Gabriel80261701	Melhore seu FPS em todos os jogos com esse Programa(Melhor que RAZER COR... https://youtu.be/WTLeHbcxMc0 via @YouTube	26/08/2019, 18:15:48
1166097316253712385	Chxrlls	VENDO RAZER FIREFLY 200 SOLES	26/08/2019, 18:17:19
1166097346859544577	frost_oww	ta dando vontade de vender meu razer deathstalker só pra ter um mecanico, o barulho é melhor KKKK	26/08/2019, 18:17:27
1166112457200480256	_VagnerFerreira	Usando os programas da Razer p dar boost no Premiere? Claroooo	26/08/2019, 19:17:29
1166112789741604869	marcelotoledo23	Queria vou jogar jaja posto foto, vou usar o razer Blade do fallenzao	26/08/2019, 19:18:49
1166113566774243328	_VagnerFerreira	É um programa da Razer p aumentar o desempenho de jogos, ele encerra alguns processos/serviços e libera RAM, dai configurei o premiere nele. Razer Córtex o nome, só não lembro se funciona em qualquer mouse ou só os da Razer.	26/08/2019, 19:21:54
1166114506835189761	flppoc	Da RAZer,? Pode subir uns 300 conto kkkkk	26/08/2019, 19:25:38
1166118158375276544	hcDinno	Da razer eu n compro pois empresa machista e otária	26/08/2019, 19:40:09
1166123497665511427	YohananCSGO	Nunca duvides do grande Golden meu caro, confia no verdadeiro team razer!	26/08/2019, 20:01:22
1166124326179000320	ka13atsugi	"""A Ariel já podia nascer com um fone da Razer, porque ela é ruiva e peituda."" ~Canella, Matheus. 2019. @CanellaMatheus"	26/08/2019, 20:04:39
1166128528674426881	DeboraFuzeti	Vc tá chorando razer?	26/08/2019, 20:21:21
1166129990569811968	WhiteBot_	Razer	26/08/2019, 20:27:10
1166130764553117698	MrJ0hnn	Produto da razer é tão merda q eu to tendo q usar peça de produtos velhos da multilaser pra consertar os da razer KKKKKKKKSUAHUHADOIHGD	26/08/2019, 20:30:14
1166131935934144515	hatsunemiguu	Feliz em convencer mais um gamer™ a não comprar razer	26/08/2019, 20:34:53
1166134853391265793	mariafogueta	Graça a deusa n é razer 	26/08/2019, 20:46:29
