id	username	text	datetime
1156361653384097792	renegadeninja	Alo @RazerBrazil me patrocina aí por favor 	30/07/2019, 21:31:16
1156363439876575232	zCaju	A razer eu não sei, mas essa live patrocina conteudo de qualidade. boa noite KKKKK	30/07/2019, 21:38:22
1156378419313225729	Beouve1	Alô @RazerBrazil essa é a Line, uma streamer extremamente promissora. Pra quem já deu chance até pra Gabi Cattuzzo, que tal dar chance pra essa amorzinho aqui? 	30/07/2019, 22:37:54
1156380243869032449	Roberth_Cesar	mas qual a ligação do cara com a razer?	30/07/2019, 22:45:09
1156419946227863552	joayoanab	Se eu chego na sua casa e vc tem qualquer coisa da @RazerBrazil vou embora na hora	31/07/2019, 01:22:55
1156421777544962048	rizakhtv	Faz a boa ai @RazerBrazil	31/07/2019, 01:30:11
1156452725430857728	oqlizz	@RazerBrazil vcs apoiam nazismo também??? kakaka	31/07/2019, 03:33:10
1156518809043382273	Moura1Amanda	Lindo de mais	31/07/2019, 07:55:45
1156522283042840581	FeehGameplay1	Mminha mini gamer @RazerBrazil @Razer	31/07/2019, 08:09:34
1156525107420045312	amaridabari	@RazerBrazil nota essa princesa princesa! Olha que amorzinho que ela é &lt;3	31/07/2019, 08:20:47
1156580696917458944	rosiimv	@RazerBrazil Ajuda essa estrela a brilhar mais! Prometo que um dia vendo meus gatos e meu namorado só pra comprar mais produtos de vcs! &lt;3 	31/07/2019, 12:01:41
1156580895501017088	lineallstar	Siiimmm, vamos vender todoss @RazerBrazil	31/07/2019, 12:02:28
1156582781566312448	LontraMene	@RazerBrazil estou tendo problemas em receber o codigo de ativação do razer surrond pro, ja registrei meu produto porem o codigo de ativação nao foi enviado	31/07/2019, 12:09:58
1156602657454338048	lovelyvillain1	KKKKKKKKKKKKKKKKKKKKKKKKKKKKKKKKKKKKKKKKKKKKKK n uso razer	31/07/2019, 13:28:56
1156603037827371009	castrovadorismo	droga acabaram meus argumentos então	31/07/2019, 13:30:27
1156603205557661696	lovelyvillain1	ta maluco quebra mt facil	31/07/2019, 13:31:07
1156603544662872064	castrovadorismo	e ainda por cima é caro e ruim	31/07/2019, 13:32:28
1156613604965326848	___neves_	comprei um V2 da @RazerBrazil só vem 	31/07/2019, 14:12:26
1156634791535665153	LadyMoonFIower	@Razer @RazerBrazil ela é tão cheia de energia! É humilde demais! A live é divertida do começo ao fim! É felicidade demais! Aliás, nunca é demais ser tão feliz e perseguir os sonhos assim! Não sei se conheço alguém que mereça mais esse agrado! Sejam humildes! 	31/07/2019, 15:36:38
1156637526867795970	koallanoficial	@RazerBrazil Tenho uma dúvida, poderiam me ajudar na DM? please	31/07/2019, 15:47:30
1156645378852306945	kabumcombr	Ajuda ai @RazerBrazil essa merece hein? :)	31/07/2019, 16:18:42
1156645710013640704	lineallstar	OMG OMG OMG AAAAAA MUITO OBRIGAAAAAADA @RazerBrazil nota noisssssss &lt;3 hahahahaha	31/07/2019, 16:20:01
1156645816381116416	kabumcombr	Se a @RazerBrazil não se pronunciar, eu providencio um desconto! 	31/07/2019, 16:20:26
1156650386335424512	Beouve1	Alô @RazerBrazil olha a @kabumcombr aqui dando oportunidade pra uma das streamers com mais ascensão nos últimos tempos: @lineallstar , e sem xingar todos os homens de lixo como a antiga embaixadora eim! Bora dar essa moral ou vamos ter que falar com a @Logitech ou @HyperXBrasil ?	31/07/2019, 16:38:36
1156650534440493056	OTG5K	@kabumcombr me beija	31/07/2019, 16:39:11
1156651761815437324	rizakhtv	Desse jeito eu vou ter que pegar minha camisa da Kabum de novo quando voltar ao Brasil	31/07/2019, 16:44:04
1156652424863670272	rizakhtv	@kabumcombr esse sorriso merece um headsetzinho desses não, é? Combina perfeitamente!	31/07/2019, 16:46:42
1156652570846404608	smolsassygay	Realmente, considerando teu público.	31/07/2019, 16:47:17
1156652719689613313	BoringOni	Dxa de ser chata caralho	31/07/2019, 16:47:52
1156652869526970368	beired1	agr escreve sem chorar	31/07/2019, 16:48:28
1156653021499199488	PanosDeSom	Sentiu	31/07/2019, 16:49:04
1156653048246222848	liroumuri	seria engraçado se não fossem um bando de criança msm, vagabundos	31/07/2019, 16:49:10
1156653064100679680	underlinefreire	Vaza ow	31/07/2019, 16:49:14
1156653212600086528	GGTonzano	Ainda doi?	31/07/2019, 16:49:50
1156653552636506114	Syslog13	pqp esquece meu deus	31/07/2019, 16:51:11
1156653965074927616	nickosan1	O mesmo público da qual tu faz parte (?)	31/07/2019, 16:52:49
1156653977641082880	joaoxxyy	chegou o homem feministo KKKKKKKKKKKKKKKKKKKKKK	31/07/2019, 16:52:52
1156654064089862144	petxrson	Você não.	31/07/2019, 16:53:13
1156654075469094912	smolsassygay	Amo quando a carapuça serve kkkkk	31/07/2019, 16:53:15
1156654131836280833	raonileal	É bem a mentalidade dessa empresa de bosta ter só 6 anos mesmo	31/07/2019, 16:53:29
1156654284311842817	anesr	vem com gracinha não que ninguém esqueceu sua palhaçada ainda	31/07/2019, 16:54:05
1156654321603362821	brendstorm_	o meme acabou de perder a graça	31/07/2019, 16:54:14
1156654520069476352	AlxJr10	@RazerBrazil se quiser me patrocinar um fone monstro, tmj 	31/07/2019, 16:55:01
1156654824613715969	sapphiciri	Os machos chorando kkkkk	31/07/2019, 16:56:14
1156654887448563712	creaturefea_r	ele nao falou literalmente nada demais	31/07/2019, 16:56:29
1156654893458952194	beacpain	chegou o homem machista que acha bonito ser escroto KKKKKKKKKKKK	31/07/2019, 16:56:30
1156654937792745472	smolsassygay	AMO HUAHAHAHAHA	31/07/2019, 16:56:41
1156655125546582016	joaoxxyy	e eu falei?	31/07/2019, 16:57:26
1156655203577450498	shinya_igor	que bom que sabem que quem trabalha ai tem 6 anos, dadas as posições ideológicas	31/07/2019, 16:57:44
1156655246745198593	henriqu3_valim	Ainda doi ne bb?	31/07/2019, 16:57:55
1156655524517167104	henriqu3_valim	Ainda doi?	31/07/2019, 16:59:01
1156655549360103435	leonanghenov	Entrosa não, vaza fia.	31/07/2019, 16:59:07
1156655654540591106	invernao	falou	31/07/2019, 16:59:32
1156655758429347840	btslievers	eita KKKKKKKKKKK na cara n	31/07/2019, 16:59:57
1156655782898937856	beacpain	KKKKKKKKK que fofo me stalkeando	31/07/2019, 17:00:02
1156655819221544961	maripereira113	Bora fazer uma doação pra essa estrelinha @RazerBrazil	31/07/2019, 17:00:11
1156655823172636672	absolutchae	Ninguém te chamou aqui	31/07/2019, 17:00:12
1156655856504758273	smolsassygay	Sim, né, impossível jogar videogame sem ser macho que reclama de moça streamer e ter produtinho da Razer :((	31/07/2019, 17:00:20
1156655949899337728	Mateus05_SC	"""Sim, dói. Dói em todas as mulheres a discriminação que elas sofrem graças a marcas como a razer."" -Victor"	31/07/2019, 17:00:42
1156656255659909120	Gaybrielindo	Falou	31/07/2019, 17:01:55
1156656535981961228	rafaaagonz	chegou a misogininha que ninguém se importa	31/07/2019, 17:03:02
1156656543833690113	shinehinoah2	Sai encosto	31/07/2019, 17:03:04
1156656575077130240	liroumuri	pra quem vive essa porra o tempo inteiro doi mais n, ja calejou mas pelo visto a carapuça aí encaixou certinho 	31/07/2019, 17:03:11
1156656964484632576	laulauls	Cala boca porra	31/07/2019, 17:04:44
1156656965973618688	lucasmecas	 empresta machista	31/07/2019, 17:04:44
1156657125004910592	LoboASolta	Você não faz parte da turma	31/07/2019, 17:05:22
1156657264385597440	yasfuckinmin	não sei o que veio fazer aqui fofa kkkk xispa entulho	31/07/2019, 17:05:56
1156657280701685761	grace1_rafa	Nem vem	31/07/2019, 17:06:00
1156657361764962304	Nathanhensf	Mimimi	31/07/2019, 17:06:19
1156657462017187840	bellisariocrush	entrosa nao beleza	31/07/2019, 17:06:43
1156657464454144000	Nakalio	@bwbigirl você	31/07/2019, 17:06:43
1156657565826265088	euphucks	n vc n tem graça	31/07/2019, 17:07:08
1156657620780015616	andrelsmedeiros	Diga lá,Tino	31/07/2019, 17:07:21
1156657639574724608	joaoxxyy	sim estou apaixonad.	31/07/2019, 17:07:25
1156657670398627840	anadeity	nossa cê deve tá bem preocupado, né migo? eu vi mais de 3 respostas suas nesse post sobre o mesmo assunto kkkk	31/07/2019, 17:07:32
1156657757900148738	joaoxxyy	foto de rapper americano morto q batia em mulher KKKKKKKKKKKKKKKKKKKKKKKKKKKKKKKKKKKKKKKKKKKKKKKKKKKKKKKKKKKKKKKKKKKKKKKKKKKKKKKKKKKKKKKKKKKKKK	31/07/2019, 17:07:53
1156657813457899522	lcsouzac	Tomara que não seja seu futuro né? Todo mês indo no postinho tomar coquetel. Cuzão do caralho...	31/07/2019, 17:08:07
1156657898044436481	maystark_	sai fora	31/07/2019, 17:08:27
1156658092966318081	leonanghenov	Nao tenho mais oq fazer, vou lamber bola de marca multimilionária que apoia comportamento machista Alem de explorar o consumidor brasileiro com preços exorbitantes...	31/07/2019, 17:09:13
1156658119734415360	leonasmo	Entrosa não porra	31/07/2019, 17:09:20
1156658232758276096	privedro	sai daqui	31/07/2019, 17:09:47
1156658350228148225	GOLF911TY	pfvr n faça interação, nós não gostamos de vc	31/07/2019, 17:10:15
1156658410181410816	koeitsu_	tá puto?	31/07/2019, 17:10:29
1156658424773525504	carlito_crvg	Os caras que não representam nada no lucro da Razer choramingando KKKKKKKKKKKKK	31/07/2019, 17:10:32
1156658482243866624	all_weiss	Sai daqui flopada, ng te chamou	31/07/2019, 17:10:46
1156658619238236160	camulazap	quem te chamou aqui?	31/07/2019, 17:11:19
1156658755431534592	pedrohcgondim	nunca imaginei que viveria pra ver uma empresa entrosar pra tentar recuperar público	31/07/2019, 17:11:51
1156658924801724418	lcsouzac	"Tópico virjão barbado, sem vida social que fica o dia todo na internet compartilhando meme e cacarejando ""mito"". Hum kk bjs"	31/07/2019, 17:12:32
1156658947132141570	oKayoba	KKKKKKKKKKK agora aguenta que lá vem os militontos pra encherem o saco	31/07/2019, 17:12:37
1156658988076941312	samulel77	Falou	31/07/2019, 17:12:47
1156659026861731840	creaturefea_r	falou	31/07/2019, 17:12:56
1156659074467061760	jovileira	KKKKKKKKKKKK ifood me vem com uma dessa JKKKK	31/07/2019, 17:13:07
1156659113918652416	julliajuno	Vlh fui atras de um fone pra comprar VLH UM FONE DA RAZER 885,00 ME EXPLIQUE ISSO BRASILLL @RazerBrazil	31/07/2019, 17:13:17
1156659150379786240	uttaejins	nao precisa pedir nao ele ta no twitter dele e ele fala oq quiser irmao	31/07/2019, 17:13:25
1156659153248641024	lcsouzac	Mas que um dia você não pegue HIV sabe... Se alguém ainda quiser te dar, o que é meio difícil...	31/07/2019, 17:13:26
1156659481079615490	beatchskg	parabéns destruíram o meme	31/07/2019, 17:14:44
1156659535693647873	adamfrancoo	Quem?	31/07/2019, 17:14:57
1156659809502056451	koeitsu_	eu não :)	31/07/2019, 17:16:02
1156659973985886208	orgasmatron__	Tentativa fail de ser engraçado. Vaza porra	31/07/2019, 17:16:42
1156660039958061057	cherry_vane	Miga te venero UHAHUAHUAHUHUAUHAUHA	31/07/2019, 17:16:57
1156660166777102336	adamfrancoo	Grazadeus não represento nada mais. Gloria irmãos.	31/07/2019, 17:17:28
1156660202894217221	Jojolia_14	puta merda a não	31/07/2019, 17:17:36
1156660343688577024	pjodiangeIo	kkk ninguém te chamou aqui n krl	31/07/2019, 17:18:10
1156660415688056832	xerekim	Percebe-se que só tem 6 anos de idade quando trata mulher como retardada e nazista ok	31/07/2019, 17:18:27
1156660668554235904	nickosan1	Público da razer: gamers em geral. Eu uso essa merda e eu só fiquei sabendo dessa guria depois da polêmica, como se todo usuário da razer se enquadra nisso que tu falou. Chata pra caralho, querendo problematizar em cima de tudo.	31/07/2019, 17:19:27
1156660840071933952	igonorante	Tendi nao mas continua vai	31/07/2019, 17:20:08
1156661056380506112	erinzinhu	sai daqui excomungado	31/07/2019, 17:21:00
1156661085518356480	cherry_vane	"Reclama do ""todo mundo"" mas tu bem que tomou as dores para si, não? Quem não deve não teme."	31/07/2019, 17:21:07
1156661154829295616	SephirothWingz	Ai explicou o que sabe. Garota posta foto com comentario ambiguo, recebe resposta ambigua, por algum motivo se estressa e perde a linha. Mete o loco e xinga o maior mercado da empresa que ela representa. Ela não teve contrato rompido, simplesmente não foi renovado por conta disso	31/07/2019, 17:21:23
1156661162706124800	DaronWrymper	Relaxa que eu resumo pra você: Uma streamer chamou todos os homens de lixo, a Razer cortou contrato com a mesma porque ninguém quer sujar o cu com bosta do outros, a comunidade dela ficou putinha da vida e acharam que a Razer fez algo que não devia. :)	31/07/2019, 17:21:25
1156661345561055232	Edypohs	Meo Deus Razer, que chorinho maravilhoso esse nas replys ein	31/07/2019, 17:22:09
1156661348371222529	mxriacrf	Sai daqui fedorenta	31/07/2019, 17:22:09
1156661416180551680	joaoxxyy	curti o vídeo, massa	31/07/2019, 17:22:26
1156661560431042560	joaoxxyy	eu mencionei o bolsonaro em algum momento?	31/07/2019, 17:23:00
1156661768502087680	DouglasNr	Kkkkkk so o pessoal gamer de celular chorando.	31/07/2019, 17:23:50
1156661963096776709	nickosan1	Nossa cara, tem razão, eu tenho 6 anos porque uso Razer.	31/07/2019, 17:24:36
1156661988040355840	Th3_D0ugl45	Mai C tá puto?	31/07/2019, 17:24:42
1156662239149137920	luckjpg	sai nojento	31/07/2019, 17:25:42
1156662362071543808	vtrdnc	Não tá sarando ?	31/07/2019, 17:26:11
1156662533694136321	fuckinddg	sai daqui, lixo do caralho	31/07/2019, 17:26:52
1156662918710288386	viniciusms911	Vai toma no cu carai	31/07/2019, 17:28:24
1156662948124925953	peterol55811838	Entroza não	31/07/2019, 17:28:31
1156663021420404736	netolaaaaaaaaaa	entrosa nao	31/07/2019, 17:28:48
1156663137837494278	Gabriel30845537	Como assim véi Kkkkkk	31/07/2019, 17:29:16
1156663138349146112	MandarkBR666	“Ninguém te chamou aqui”, “você não”, “não fala comigo”, “tô de mal..” 	31/07/2019, 17:29:16
1156663217868955648	marginel	Entrosa não porra	31/07/2019, 17:29:35
1156663298714198017	AzorAhaiTheOne	Hahahaha perfeito!	31/07/2019, 17:29:54
1156663316925882368	yuuts_u	Mano kkkkkkkk	31/07/2019, 17:29:59
1156663535025311744	DaronWrymper	Só resumi a histórinha tô super suave	31/07/2019, 17:30:51
1156664002753290240	bloodhurr	Vai se fuder	31/07/2019, 17:32:42
1156664125210185729	CoffeeUniverse1	Está vendo @RazerBrazil VCS NAO PODEM PERDER UMA oportunidade dessas, ses nao são loucos de perder minhas compras né? kkskkkkkk acho bom.	31/07/2019, 17:33:11
1156664387291287552	Deathblowd	Se o pai paga pensão coisa boa com a mãe delu ele não fez, pagar a internet ela mesma pode pagar com um trabalho que ela mesma pode arranjar, ele pode pagar pra uso próprio, pagar contas não te faz bonzinho, nem todo mundo que paga é gente boa querido	31/07/2019, 17:34:14
1156664598780678144	CoffeeUniverse1	@kabumcombr Ela merece algumas coisas de vcs tbm né, tipo um patrocínio, ja que ela é algo tão importante, assim só acho sem colocar pressão, mas vcs ja disseram que ela é incrível e eu concordo. ELA MERECE TUDO E UM POUCO MAIS, ESSA RAINHAAA @lineallstar	31/07/2019, 17:35:04
1156664800446955520	Jubirubax	LACROU MOÇO KKKKKKKKKKKK arrasou	31/07/2019, 17:35:52
1156664945230172160	Leo_BSouzaM	VAI TOMA NO CÚ, RAZER. NGN TE CHAMOU NA BRINCADEIRA, SEUS FELADAPUTAS. #pas	31/07/2019, 17:36:27
1156665064352624640	DiogoGwBruck	"Maluco acha que é um ambiente ""opressor"" Eu tenho amigo q finge ser mulher em jogo pra ganhar skin KKKKKKK"	31/07/2019, 17:36:55
1156665174713131013	dollynho_sarado	Pq da mais view pro video	31/07/2019, 17:37:22
1156665211216171008	devil_crue	Vai tomar no cu Razer	31/07/2019, 17:37:30
1156665213745356800	XXXofanie	sem moral.	31/07/2019, 17:37:31
1156665217151115269	estivemine	"""eu ser homem feministo eu dizer que uma marca ser misogina so porque fez o certo eu ter 1 neuronio e meio hur dur"""	31/07/2019, 17:37:32
1156665224453414913	jxurachi_	tu é homi, tu é lixo	31/07/2019, 17:37:33
1156665249216565248	Leo_BSouzaM	falou. bosta. passar bem.	31/07/2019, 17:37:39
1156665588820975618	eastfefanowhere	Foda se ngm liga p vcs seus pau no cu do caralho machistas de merda	31/07/2019, 17:39:00
1156665634471718913	estivemine	"""Comportamento machista"" não renovar com uma pessoa que diz que mais da metade das pessoas do mundo é lixo pq sim"	31/07/2019, 17:39:11
1156665650514944002	dollynho_sarado	Pqp kakskskak	31/07/2019, 17:39:15
1156665907604799489	SK_K1ng	Boa razer 	31/07/2019, 17:40:16
1156665935966744576	jxurachi_	tu se esquivou bastante da pergunta	31/07/2019, 17:40:23
1156665947698147329	acedo_jean	Eu amo a kabum sim ou claro?	31/07/2019, 17:40:26
1156666006804271104	edzahida	Você não é engraçado, é apenas machista. Vaza!	31/07/2019, 17:40:40
1156666013997576193	raonileal	Ainda bem que você já aprendeu isso, né vagabundo	31/07/2019, 17:40:42
1156666094985330688	devil_crue	Pau no cu da @RazerBrazil	31/07/2019, 17:41:01
1156666108042186752	Salfy707	Nem você lol	31/07/2019, 17:41:04
1156666301697462273	Gaybsss	se poupa e nos poupe de você	31/07/2019, 17:41:50
1156666356156293125	RenatoSouzaADV	A toxicidade dessa empresa impregna o ar. Vaza!	31/07/2019, 17:42:03
1156666375466827776	jxurachi_	eu acho q vc realmente não entendeu	31/07/2019, 17:42:08
1156666418521395200	triallsofapollo	entrosa não, irmão	31/07/2019, 17:42:18
1156666420991791106	DiogoGwBruck	Tudo os cuckold feministo passando pano pra aquela streamer escrota nos comments... Já pediu desculpa por ser homem hoje?	31/07/2019, 17:42:19
1156666579339419650	jxurachi_	eu aprendi com a maravilhosa embaixadora q vcs tanto defendem	31/07/2019, 17:42:56
1156666626382675970	prmrwhores	ninguém te chamou vaza	31/07/2019, 17:43:08
1156666773443416067	JulieneTrindad3	Peguemos ranço	31/07/2019, 17:43:43
1156667076314112000	raonileal	Agora só falta aprender a arrumar um emprego e deixar de ser um mongolóide chupa bola de empresa	31/07/2019, 17:44:55
1156667109826543621	rurugly	sai fora razer ninguém te chamou pro role	31/07/2019, 17:45:03
1156667164503490562	SephirothWingz	Sim, mas a maioria desse pessoal do twitter é assim, tem nem o que fazer. Resposta padrão deles é isso	31/07/2019, 17:45:16
1156667209512566786	jxurachi_	to chupando bola de ngm to só falando oq a embaixadora de vcs disseram ue	31/07/2019, 17:45:27
1156667371236593664	MERGOLIAL	Ta bom vai lá fazer teu Stand up agora	31/07/2019, 17:46:05
1156667388248711170	zaialuiz	não entrosa.	31/07/2019, 17:46:09
1156667426987302913	psixue	ninguém chamou nerd machista que vende teclado de luzinha por 200 reais na conversa. Vaza.	31/07/2019, 17:46:19
1156667595518545921	gc_romulo	xispa, razer! tá queimada	31/07/2019, 17:46:59
1156667823453851648	BFR_Renato	Sai daqui, Razer. Vai procurar sua turminha pois aqui ninguém gosta de vocês.	31/07/2019, 17:47:53
1156667932182831104	ofabiofarias	Chegou o que quer mandar uma de descolado, mas todo mundo sabe que é otário. VAZA!	31/07/2019, 17:48:19
1156667985827905539	SephirothWingz	Só uma questão de tempo kkkk. Por isso é foda levar esses cara a serio, é uma distorção muito foda do que aconteceu pra encaixar nos parâmetros loucos deles	31/07/2019, 17:48:32
1156668072931012608	rafaaagonz	chegou mais um babaca passa pano que, assim como a marca misogininha, ninguém se importa kkk	31/07/2019, 17:48:53
1156668084033335302	jxurachi_	eu realmente qria q vc me respondesse aonde eu defendi a razer	31/07/2019, 17:48:55
1156668239218429953	vantesennin	ta bom minha filha cale a boca que ninguém gosta de você	31/07/2019, 17:49:32
1156668252489166848	vkirigakure	ah não lixo sai daqui	31/07/2019, 17:49:35
1156668280884617218	foxlady_	A ifood está mancumunada com essa marca lixo??? Se sim, excluo meu app agora e ainda dissemino pra amigos e família! Putaria e promiscuidade eu aceito, machismo, preconceito NÃO!	31/07/2019, 17:49:42
1156668293253664769	Marcos6883	Chegou o bobão que ninguém gosta kkkk	31/07/2019, 17:49:45
1156668332403240960	ijustrar	cala boca porra	31/07/2019, 17:49:54
1156668414452260867	Marcos6883	"Vdd quem compra msm é o ""CEO do armazém do meu pai"" kkkkk Micão"	31/07/2019, 17:50:14
1156668450800115714	gui_araujo19	entrosa nao fdp	31/07/2019, 17:50:23
1156668451605405697	MERGOLIAL	Com certeza não foi pra enfia um meteoro no seu cu (sarcasmo) acho que foi pelo mesmo motivo q tu fazer um comentário	31/07/2019, 17:50:23
1156668467262763008	estivemine	eu ser babaca pq o gigante digital influencer rafael gonzaga disse eu estar abalado 	31/07/2019, 17:50:27
1156668636918145025	uselessperson73	Chegou a guarda chuva de imbecil	31/07/2019, 17:51:07
1156668681071550465	MERGOLIAL	Ninguém te chamo também tá sendo hipócrita	31/07/2019, 17:51:18
1156668837712019456	bluecoloredboy	na vdd eu tbm digo: MAIS UM BABACA 	31/07/2019, 17:51:55
1156668851855269893	g0iabaOnYT	Meu deus mano,como jovem é um câncer pqp kkkkkk	31/07/2019, 17:51:58
1156668979282403328	estivemine	Eu estar abalado mais ainda 	31/07/2019, 17:52:29
1156668991009624064	enrico_wtt	E vc é né	31/07/2019, 17:52:31
1156669277795229696	sim_aquele_la	Nego chorando pra fazer kkk	31/07/2019, 17:53:40
1156669494225453057	MERGOLIAL	Ta faltando criatividade pra ataca os outros já vi um 6 caras seguidos falando a mesma coisa	31/07/2019, 17:54:31
1156669535048601600	jhobisaturns	ninguém te chamou	31/07/2019, 17:54:41
1156669597430534146	estivemine	the king of fighters é desenho tá serto	31/07/2019, 17:54:56
1156669739898462208	rwless	igual seus clientes	31/07/2019, 17:55:30
1156669757023752192	caioo_edu	EU TO MORRENDO KKKKKKKKKKJJJJ	31/07/2019, 17:55:34
1156669804041908232	lukskiedis	ngm liga pra vc, não	31/07/2019, 17:55:45
1156669804662710273	frenks_	ninguém se importa com vocês, out more	31/07/2019, 17:55:45
1156669835616690182	Jao2um	E ta errado?	31/07/2019, 17:55:53
1156669840754655232	MERGOLIAL	PQP FDP PARA DE FALA ENTROSA KRL SEM CRIATIVIDADE DA POHA	31/07/2019, 17:55:54
1156670077611249665	twmaanu	cala os dedos aí	31/07/2019, 17:56:51
1156670234520109056	v_ctrs	SHHH MISÓGINO AQUI NÃO.	31/07/2019, 17:57:28
1156670386953687045	rafaaagonz	ô meu anjo, como eu disse ninguém se importa KKK fica aí mendigando atenção, tá? bjs de luz que deus te elimine	31/07/2019, 17:58:04
1156670600758382592	estivemine	Ninguem se importa comigo porque o rafael gonzaga disse me abalou muito mais 	31/07/2019, 17:58:55
1156670715124486144	HugoAlexanderrr	Os comentários pegando fogo 	31/07/2019, 17:59:23
1156670916342046722	RazerBrazil	Não fique para trás no TFT: resumimos todas as mudanças da atualização 9.15, que saiu HOJE, 31 de julho! Se você fazia comp de Demônio, Vastinata ou Dragão, é melhor assistir o vídeo...	31/07/2019, 18:00:11
1156671098504785920	keyton_bessa	mimimi	31/07/2019, 18:00:54
1156671448632766466	parcimonioso	Não vem ganhar biscoito aqui não, fodidos	31/07/2019, 18:02:17
1156671479083393024	estivemine	Hur dur gaymer hur dur nao acredito que joga joguinho hur dur	31/07/2019, 18:02:25
1156671510540685312	thaisbmartini	Para de forçar amizade fracassado	31/07/2019, 18:02:32
1156671554811568128	JinsuisAmado	Eu ia curtir, mas me lembrei de teus pecados.	31/07/2019, 18:02:43
1156671602387496960	yzamora_	ninguém te chamou	31/07/2019, 18:02:54
1156671979610677249	leoesdraz	Gabi Catuzzo Superou Ayu Superou Depois os que querem atenção são os BoZoMinIonD	31/07/2019, 18:04:24
1156672106186321920	yzamora_	grazadeus me livrei dessa	31/07/2019, 18:04:54
1156672248897515520	estivemine	Não importa o argumento, se o cara usar foto de desenho(que nem desenho é, é o grandissimo The King of Fighters) automaticamente não vale foi o que o Sr. satirico disse no twitter eu tenho que respeitar	31/07/2019, 18:05:28
1156672483086471168	carai_math	Já que todo mundo tá te esnobando @RazerBrazil , me manda um kit gamer completo aí. Mandei endereço na DM.	31/07/2019, 18:06:24
1156673037699358722	VictorSnow21	Esses nano influencers são um saco, raça maldita	31/07/2019, 18:08:36
1156673386606735361	igonorante	Ah beleza eu to olhando o corpo entao obrigado kkk	31/07/2019, 18:09:59
1156673662080245761	estivemine	Que Deus te ilumine tbm 	31/07/2019, 18:11:05
1156673733765058560	Barros_Bfr	Melhor empresa do mundo nessa porra	31/07/2019, 18:11:22
1156674393331970048	clara_do_ov0	tá bom amor volta que ngm gosta de tu não	31/07/2019, 18:13:59
1156674402286755840	arhonis2	Já falou demais na primeira letra q digitou	31/07/2019, 18:14:02
1156674688124407808	jao_bernardo	Que que cê tá falando mano, tu nem compra nada na razer KKKKKKKKKKKKKKKKKKK	31/07/2019, 18:15:10
1156674753823985664	liljorg1	achei gostosa	31/07/2019, 18:15:25
1156674755333885960	JuniorGiga	Dá para perceber a imaturidade mesmo!	31/07/2019, 18:15:26
1156675128757039104	AndreySeisdedos	CAI FORA MACHISTA NOJENTO	31/07/2019, 18:16:55
1156675287830138881	estivemine	Nao precisa ser agressivo 	31/07/2019, 18:17:33
1156675713338093574	raianesmachado	Não vale o dinheiro!! Tão frágil quanto a masculinidade dos compradores	31/07/2019, 18:19:14
1156675748549279747	xerekim	@policiafederal o cidadão aqui ta fazendo apologia ao nazismo. Onde abro um B.O?	31/07/2019, 18:19:23
1156675758796025858	MattProenca	Você não tinha nem que estar aqui querida	31/07/2019, 18:19:25
1156675810335567883	Crierylol	mama aqui marca de merda	31/07/2019, 18:19:37
1156675860168151040	CooperRodi	Me dá um fone pfvr	31/07/2019, 18:19:49
1156675879071899648	BrenoBZ_	Não falou não	31/07/2019, 18:19:54
1156676086597656577	estivemine	Ok eu te respeitarei	31/07/2019, 18:20:43
1156676362649911299	livalifa_d	Péssimo dia pra ser o estagiário da Razer	31/07/2019, 18:21:49
1156676420254556160	lact0vacil0s	Sai daq lixo	31/07/2019, 18:22:03
1156676717257342978	lact0vacil0s	Não, eles só comentaram pra entrar no hype	31/07/2019, 18:23:14
1156677225632149506	SephirothWingz	"Esse sabe que a garota foi juvenil na sua escolha de frase e que o ""assedio"" foi bem uma resposta ao mesmo tom que ela tava falando(frase com duplo sentido), só que aparentemente é difícil admitir isso. Famoso pensamento tribal"	31/07/2019, 18:25:15
1156677249954930694	Dierry22	so os gamers de free fire militando	31/07/2019, 18:25:21
1156677344045801483	wilkercosta14	Não sei dessa treta da razer, mas imagino que uma galera ai ta só aproveitando e nem sabe oq ta falando	31/07/2019, 18:25:43
1156677485205053446	twcexoz	entrosa nao	31/07/2019, 18:26:17
1156677878471430144	FireJaskins	E aqui que as feministas arrogantes estão mad ?	31/07/2019, 18:27:50
1156678363643355137	Debazebra	O que está acontecendo aqui???? Socorro!	31/07/2019, 18:29:46
1156678547332882434	cardosomeh	Qual é @RazerBrazil não vai participar do happy hour dos estagiários na casa do @iFood HAUehuaehueahae	31/07/2019, 18:30:30
1156678693227552769	joaoxxyy	eu tambem mano daora demais	31/07/2019, 18:31:05
1156678709014913024	LuizFGarden	Fizemos isso aqui na @RazerBrazil pra ajudar quem tá de olho no TFT. RTs ajudam e se quiser dar dicas, tou aqui para ouvir e melhorar os próximos! :) 	31/07/2019, 18:31:08
1156678814874963970	tenente_027559	Razer sendo atacada pela galerinha da bolha. 	31/07/2019, 18:31:34
1156678889151881218	C_ngrats	Imagino o Kpopero com roupa colorida apertada no calor de 37 graus da bahia saindo de casa a pé pra denunciar nazismo no twitter na delegacia de crimes virtuais KKKKKKKKKKKKKKKKKKKKKKKKKKKKKKKKKKKKKKKKKKKKKK	31/07/2019, 18:31:51
1156679171298537472	MERGOLIAL	Otaco minha rola na sua boca eh Otaco minha rola na sua cara ah Otaco minha rola na tua boca no teu carro e coroa (desestabilizado)	31/07/2019, 18:32:59
1156679215028363266	itzeros	entrosa não mlk vsf	31/07/2019, 18:33:09
1156679229213478914	tenente_027559	Olha a cara do cidadão. 	31/07/2019, 18:33:12
1156679490787061761	mrsbutterfly__	Iiiih chegou a entrosada	31/07/2019, 18:34:15
1156681076414263297	wesleydiax	ngm te chamou aqui, se mete não	31/07/2019, 18:40:33
1156681488689242118	Bruno157lolbr	Cala a boca ae o retardado	31/07/2019, 18:42:11
1156681511095209985	MacacoBionetta	KKKKKKK olha esse povo chorando engraçado d+++	31/07/2019, 18:42:17
1156681554279751680	wesleydiax	A Razer não, mas vc pelo jeito sim	31/07/2019, 18:42:27
1156681799071875073	BrenoBZ_	Ta carente amiguinho?	31/07/2019, 18:43:25
1156681903082299392	emobsidian	meu deus?? vei o cara só criticou a empresa pela atitude machista que ela teve agora tudo pra voces eh ser gado puta que pariu	31/07/2019, 18:43:50
1156681987467423744	Salfy707	Eu que pergunto	31/07/2019, 18:44:10
1156682142669254656	wesleydiax	É bem essa galera do seu tipo de perfil mesmo.	31/07/2019, 18:44:47
1156682242309140480	BrenoBZ_	Toma aqui , e para de escrever merda, boa noite.	31/07/2019, 18:45:11
1156682471351693314	SpiderMenes	"""vaza razer"""	31/07/2019, 18:46:05
1156682796196335619	BrenoBZ_	???????????????? Ta tentando lacrar de qualquer jeito é muito biscoitera msm	31/07/2019, 18:47:23
1156682833731231744	DiogoGwBruck	"""Foto de anime"" A r g u m e n t o"	31/07/2019, 18:47:32
1156683052682285056	Maaztheus	Putz da o fora daqui radiação	31/07/2019, 18:48:24
1156683131870732288	BrenoBZ_	Foi um prazer te bloquear biscoitera agora espero do Fundo do meu coração que você vai tomar no cu 	31/07/2019, 18:48:43
1156683626089783296	VFnasCopas	Os cara ainda tão se doendo kkkkkkkkkkkkkkkkkkkkkkkkkkkkkkkkkkkk	31/07/2019, 18:50:41
1156683859200811008	OHobbit_	Quem??? Xispa	31/07/2019, 18:51:36
1156683966512021504	joaofalando	cala a boca aí empresa de nerd virgem lixo fracasso toxico do caralho	31/07/2019, 18:52:02
1156684007175835649	felispess	passou pano pra machista amore se fuder	31/07/2019, 18:52:12
1156684480595316736	pedrohcgondim	A razer n tenho certeza, mas fã babaca que nem tu afetou e muito.	31/07/2019, 18:54:04
1156684563340505088	HugoAlexanderrr	Achei brega anjo.	31/07/2019, 18:54:24
1156684568755396608	scarjx	Chegou a radiação na suruba, sofro	31/07/2019, 18:54:26
1156684815552458755	DiogoGwBruck	Ih, sentiu? A zoação ñ era nem com você 	31/07/2019, 18:55:24
1156685001007816704	vamotomaruma	Sai estranha	31/07/2019, 18:56:09
1156685120486572032	mikka_sansil	Vazaaaaaaaa... Tóxico.. Chernobyl..	31/07/2019, 18:56:37
1156685260677144576	joaoxxyy	uau, como você destruiu ele no argumento. Parabéns.	31/07/2019, 18:57:10
1156685364125413383	Arthur_tri	Mds kkkkkkkkkkk	31/07/2019, 18:57:35
1156685576822644737	abpvini	KKKKKKKKKKKKKk sensata	31/07/2019, 18:58:26
1156685703062986752	fuckingzlezzy	ce nem tinha que ta aqui, lixo	31/07/2019, 18:58:56
1156685786806476800	edylobianco	Sai daqui Zé buceta	31/07/2019, 18:59:16
1156685914749493248	LuizHenrike_4	Adoro ver o choro da esquerdalha que nunca comprou um produto da razer na vida , e fica fica se doendo até hoje pela babaca femimi que foi chutada da marca . Chora mais que tá pouco esquerdalha kkkkkkkk	31/07/2019, 18:59:46
1156685916393660416	Bittencourtch	Sai daqui e pare de usar meme engraçado.	31/07/2019, 18:59:47
1156686298540888065	TT_Terrivel	Ia curtir mas é a bosta da empresa machista do caralho	31/07/2019, 19:01:18
1156686682227388416	gustvms_	Chegou a inconveniente	31/07/2019, 19:02:49
1156686708538322944	HugoAlexanderrr	Gosto é igual cú, eu não dou o meu 	31/07/2019, 19:02:56
1156687018803552256	simeumsm	Sai fora	31/07/2019, 19:04:10
1156687175636926464	nicolaspietro1	Kibe surdo hahahaha	31/07/2019, 19:04:47
1156687309410111489	fernandaimamura	O único que não foi chamado	31/07/2019, 19:05:19
1156687785727856640	henrisetti	ta achando que é festa seus porra? ninguém chamou vcs aqui não!	31/07/2019, 19:07:12
1156687990741184513	OrdepHenr31	até tu razer?	31/07/2019, 19:08:01
1156688803454771200	zhongtoxic	sai lixo	31/07/2019, 19:11:15
1156688858945339393	DaviFortuna	quem chamou a radiação	31/07/2019, 19:11:28
1156689151883915264	asabuttter	Eu todooooo	31/07/2019, 19:12:38
1156689303596126209	KakashiHataake	Radiação pura	31/07/2019, 19:13:14
1156689478989352961	aamandafern	HAHAAHAHAHAH melhor comentário	31/07/2019, 19:13:56
1156690785267605504	Zupykov	Como eu amo essa empresa chamada Razer	31/07/2019, 19:19:08
1156690815663726593	willianhuller1	Meme hétero é uma porcaria, né não? Você não está convidado para a suruba de plataformas digitais, fora!	31/07/2019, 19:19:15
1156690847230058496	MERGOLIAL	Mano mas vc também não argumento se vc acha que isso é argumento oq seis ta falando ti t q rever teus conceitos de argumento	31/07/2019, 19:19:22
1156691038653861890	MERGOLIAL	-falando tu tem-	31/07/2019, 19:20:08
1156691173928525824	Zupykov	"entrosa não"""""	31/07/2019, 19:20:40
1156691320397795328	Decs_01	Galvão.	31/07/2019, 19:21:15
1156691359857856513	Decs_01	Sentiu.	31/07/2019, 19:21:25
1156691378463825923	Zupykov	"""Sai fora"" ""vaza"" ""Ngm te quer"" ""maxistas"" ""Incels"""	31/07/2019, 19:21:29
1156691462433718275	nandaduarteg_	Sexo é intimo e sagrado, o seu corpo é um templo e vc não deve compartilha-lo com quem defende a atitude da Razer com a Gabi	31/07/2019, 19:21:49
1156691513809805313	pjodiangeIo	se for assim amigo, apaga o twitter pq ninguém tá pedindo pra tu tweetar nada blz 	31/07/2019, 19:22:01
1156691971727118339	beacaotica	iih lá vem a embuste do role	31/07/2019, 19:23:51
1156692121988083713	churaice1	@RazerBrazil nota noiz uai vai la!!	31/07/2019, 19:24:26
1156692464427839488	deisgao	Razer fazendo o trabalho da riot. Ok	31/07/2019, 19:25:48
1156692799183577090	Celso_Hector	@RazerBrazil OOOOO Razer patrocina esse menina linda aqui! Ela merece!! @lineallstar	31/07/2019, 19:27:08
1156693561536057345	EugeoFavs	Vaza daqui	31/07/2019, 19:30:10
1156693740473466881	MERGOLIAL	Mano ela falo merda e se fudeu nada d+ acontece vida q segue não é a primeira vez q isso acontece nenhuma empresa q ter seu nome vinculado a gente q fala bosta dos outros tlg e eu até entendo q sim a maior parte eram crianças e adolescentes mas isso não diminui eles	31/07/2019, 19:30:52
1156694313872613376	MERGOLIAL	E me explica sério eu acho q eu devo ser um mongolóide pq eu não consigo ver onde fala q os cara tem 6 anos é argumento não minha humilde opinião isso aí é só uma forma de xinga eles pq não gostou do posicionamento deles aí caga qualquer coisa e fala q é argumento	31/07/2019, 19:33:09
1156694425751511045	gc_romulo	o zé buceta aqui não sou eu rsrsrs	31/07/2019, 19:33:36
1156694449562558465	luawav	tu ta sendo tóxico também, mas ta bom	31/07/2019, 19:33:41
1156694986555088896	98mlz	Isso pra mim é atestado de que a razer eh lixo KKKKKKKKK eu n to nem aí	31/07/2019, 19:35:49
1156695173851750400	pqpIucas	ainda doi	31/07/2019, 19:36:34
1156695379192274944	oKayoba	KKKKKKKKKKK Bem isso	31/07/2019, 19:37:23
1156695705769193472	oKayoba	VoCê nÃo eNtRa pRo GrUpinHo.	31/07/2019, 19:38:41
1156695801797795842	98mlz	Vdd né more	31/07/2019, 19:39:04
1156695857711996928	carolpilao_	AMIGA KKKKKKKKKKKKKKK PQP	31/07/2019, 19:39:17
1156695958144655360	wesleydiax	mas ce ta brava?	31/07/2019, 19:39:41
1156696030039162880	joaofalando	Não to cortando relação com nenhuma mulher por um bando de neandertal virgem escroto ter ficado nervosinho por ela ter feito o que eles fazem a todo segundo, igual essa empresa de rato imundo fez aí	31/07/2019, 19:39:58
1156696464401326090	magynifico	Nas quartas usamos rosa @RazerBrazil 	31/07/2019, 19:41:42
1156697292675657728	edylobianco	Se você não apoia a movimentação de um grande mercado hoje no Brasil o problema não é meu, também não ligo se você é esquerdista, e que também não sabe nada de administração	31/07/2019, 19:44:59
1156697792062078978	satanicxss	fiz um comentário apenas, e eu sou só uma pessoa que comprou o produto da razer e se arrependeu xd	31/07/2019, 19:46:58
1156698191410208770	N1icKk	Mano qual a brisa de fazer um comentário qualquer e botar um vídeo de 2 minutos de umas coreanas dançando?	31/07/2019, 19:48:33
1156699035782275074	Rheonan	Você não.	31/07/2019, 19:51:55
1156699460988280834	Heraldaum	kkkkkkkkk as kpopera falando besteira dá vergonha alheia	31/07/2019, 19:53:36
1156699494127472646	poesyonn	Ngm te convidou pro rolê	31/07/2019, 19:53:44
1156699510577520640	MERGOLIAL	A cara desisto vai toma no cu e acabou pqp	31/07/2019, 19:53:48
1156699736268820481	pqpIucas	o mundo mordeno só piora.	31/07/2019, 19:54:42
1156699777725272069	CarlaSeigan	Você, não.	31/07/2019, 19:54:52
1156699961687519232	heravenenosaxX	Nachistas	31/07/2019, 19:55:35
1156699983351078912	prioliers	Sai daqui empresa machista	31/07/2019, 19:55:41
1156701099346337792	jxurachi_	casa cmg	31/07/2019, 20:00:07
1156701117562216452	RiandSL	Ainda ta nessa?	31/07/2019, 20:00:11
1156701137317376008	satanicxss	"só tô respondendo tua pergunta, já que meu comentário foi baseado em não gostar da marca e por isso em minha opinião ""ela não entra no grupinho"" compreendeu?"	31/07/2019, 20:00:16
1156701969521827840	invernavas	ninguem gosta de vc	31/07/2019, 20:03:34
1156702075138580480	RiandSL	Falo nada, vc n vale a pena	31/07/2019, 20:03:59
1156702206990700544	LeoZardetto	"""e fica se doendo até hoje"" puts, que eu me lembre quem ficou dizendo ""nunca mais compro razer, marca ruim"" foram vcs KKKKKKKKKKKKK"	31/07/2019, 20:04:31
1156702243221057536	kageyemo	sai daí lixo	31/07/2019, 20:04:39
1156702368257445888	Digilitix	fui rir, daí lembrei que eh a razer	31/07/2019, 20:05:09
1156702433105592325	RiandSL	Surtei n, to bem de boa	31/07/2019, 20:05:25
1156702457059323904	QqLixo	mano olha o tipo de gente que fica hateando alguém dhasudhsaduhasduhd parece uma criança mandando gif dos desenhos :V	31/07/2019, 20:05:30
1156702814476759040	DaronWrymper	O Kra vem no tweet da Razer só pra hatear treta que já morreu, que povinho que se dói	31/07/2019, 20:06:56
1156702891970891777	RiandSL	Quer um abraço? Parece q vc ta precisando de atenção, diga para mim, o que lhe aflinge?	31/07/2019, 20:07:14
1156703308834381824	RiandSL	N to hateando, só fiz uma pergunta	31/07/2019, 20:08:53
1156703437905649664	_Sabrisa	Kkkkkkkkkkkkkk mds	31/07/2019, 20:09:24
1156703603320659970	Hiro_016_Br	Os cara são muito fudido, treta na internet é coisa de 1 semana.	31/07/2019, 20:10:04
1156703653056667649	liljorg1	belo cowboy bebop amigo	31/07/2019, 20:10:16
1156703848683245572	teamgowez	pronto, os estagiários criaram um terceiro braço só com a presença da radiação	31/07/2019, 20:11:02
1156703868820082689	heyjurisleine	Oq aconteceu??? Tô por fora da treta	31/07/2019, 20:11:07
1156704265290887169	Saiene5	KKKKKKKKKKKKKKKK ISSO TA MT BON	31/07/2019, 20:12:42
1156704326884220929	RiandSL	"Então bota um ""?"" Pq sem ele da pra interpretar sua resposta de outra forma, tendeu?"	31/07/2019, 20:12:56
1156704384367104004	Kutney16	Mas ninguem te chamou	31/07/2019, 20:13:10
1156704483377864704	RiandSL	N, to de boa mesmo	31/07/2019, 20:13:34
1156704642132271105	liljorg1	? ta falando ainda	31/07/2019, 20:14:11
1156704846784946176	RiandSL	Interpretação, entendeu? Sem ponto de interrogação da pra interpretar de várias maneiras, só to querendo dizer isso, calma, ouxi	31/07/2019, 20:15:00
1156704909460480002	RiandSL	N to forçando nada, to de boa msm	31/07/2019, 20:15:15
1156705524613861377	BrenoBZ_	Sim conseguiu 	31/07/2019, 20:17:42
1156705651705487360	fuckingzlezzy	kkkkkk ah pronto	31/07/2019, 20:18:12
1156706140878716928	itzeros	n gostou me da dinheiro 	31/07/2019, 20:20:09
1156706195996106752	RiandSL	Desnecessária a ofensa. Mas na vdd o fato de n ter (?) Abre uma área cinzenta de interpretação	31/07/2019, 20:20:22
1156706324371116038	bre10no_Me	ta uma graca esses comentarios kkkkkkkk	31/07/2019, 20:20:52
1156706617787920385	foxlady_	Só macho chorão 	31/07/2019, 20:22:02
1156706918527918082	pdepipoca	Aí gente, taca bebida nessa ferida pqp, deixa os estagiários da @RazerBrazil participar do rolê	31/07/2019, 20:23:14
1156707228713439232	plyvivid	ninguem te chamou	31/07/2019, 20:24:28
1156707294777958400	bre10no_Me	mano, pensei que o assunto ja tinha morrido, mas ele simplesmente chamou todo homem de lixo, nao que eu ou algum homem tenha ficado ofendido, mas a Razer fez o que qualquer empresa faria, que e cortar relacoes com gente preconceituosa, era o minimo, agora vcs ficam ai com ranco.	31/07/2019, 20:24:44
1156707564882661376	tonpechs	A galera ainda tá doida. Hahaha Recalque que chama? @RazerBrazil sempre será bem vinda!!!	31/07/2019, 20:25:48
1156707786392252417	98mlz	KKKKKKKKKKKKK vamos ser amigos	31/07/2019, 20:26:41
1156707801894445057	bre10no_Me	o bagulho ja ta no passado meu, a mina ja ta com outra patrocinadora e tomando cuidado pra nao dar outro vacilo desse, e a razer ja ta ai com novos embaixadores, vida que segue, e voces tao ainda ai ate hoje em todo post da razer xingando a marca, serio cara, ja deu nao acha nao?	31/07/2019, 20:26:45
1156708121286512640	fuckingzlezzy	eh que eu adoro rir do perfil de gente tipo voce	31/07/2019, 20:28:01
1156708316548087814	fuckingzlezzy	escreve direito	31/07/2019, 20:28:47
1156708418687819777	fuckingzlezzy	to puta nao, to dando risada mesmo, vc eh de dar peninha	31/07/2019, 20:29:12
1156708535381700608	bre10no_Me	"quem sao ""vcs""? Esqueceram que toda essa discussao comecou por generalizacao? Definam quem sao esses ""vcs"" que ai a gente se entende"	31/07/2019, 20:29:40
1156708639463366657	Gaaaaabriiieel	Pqp, a mina xingou os próprios seguidores e chamou eles de lixo	31/07/2019, 20:30:04
1156708809680838657	fuckingzlezzy	vai chorar? kkkkkkkkkkkkkk	31/07/2019, 20:30:45
1156709009359089664	fuckingzlezzy	chorao pra caralho hahahaahhahaha	31/07/2019, 20:31:33
1156709016157990915	ceratixwalker	preconceituosa por falar verdades?	31/07/2019, 20:31:34
1156709039579025414	elmoiam90	Nem precisa! O nome da marca e seus excelentes produtos falam por si só! Parabéns @RazerBrazil 	31/07/2019, 20:31:40
1156709060718342145	ceratixwalker	broxei	31/07/2019, 20:31:45
1156709084533596160	Gaaaaabriiieel	Pqp que merda	31/07/2019, 20:31:51
1156709231288094720	bre10no_Me	Ja tem um mes que a merda foi feita e nego ainda ta dizendo que fede, irmao, ja deram discarga faz tempo, amadurece ae fera! Big day 	31/07/2019, 20:32:26
1156709353359065088	SKARZINHAx	O estagiário não tem culpa da empresa lixo :(	31/07/2019, 20:32:55
1156709406542848000	fuckingzlezzy	ainnnn a femea falou mal da razer vou lá perguntar se ela vai chorar sendo que o chorao sou eu hahahaahahahah	31/07/2019, 20:33:07
1156709438809620480	fuckingzlezzy	fracassado demais meu deussss	31/07/2019, 20:33:15
1156709819971063808	ivyxvera	Te amo razer	31/07/2019, 20:34:46
1156709919648886785	fuckingzlezzy	ainnn to discutindo com uma adolescenteEeeEeEEe	31/07/2019, 20:35:10
1156710097852272647	fuckingzlezzy	vc eh muito adulto indi chorar pras mina criticando uma marca que nem te paga pra isso kkkkkkkkk	31/07/2019, 20:35:52
1156710135546503168	fuckingzlezzy	chacota do caralho	31/07/2019, 20:36:01
1156710309631012864	fuckingzlezzy	VAI CHORA? KKKKKKKKKK TO CRITICANDO MESMO SE NAO GOSTAR EU CRITICO MAIS BB	31/07/2019, 20:36:43
1156710438287085569	fuckingzlezzy	marca lixo de consumidor lixo	31/07/2019, 20:37:13
1156710456653955072	Jucaa69	so imbecil lacrador aqui vão tomar no cu	31/07/2019, 20:37:18
1156710572718776326	Jucaa69	metade daqui não tem grana pra comprar nem um mouse e tão aqui falando bosta vão se foder	31/07/2019, 20:37:45
1156710611813896200	Zupykov	gosta s	31/07/2019, 20:37:55
1156710712783360005	Jucaa69	pq machista mano	31/07/2019, 20:38:19
1156710903452176384	Jucaa69	pqp quanto viado junto	31/07/2019, 20:39:04
1156711177914896392	fholha	Tá bom	31/07/2019, 20:40:10
1156711402159136770	Mala_Br	"""leonina"""	31/07/2019, 20:41:03
1156711747836960769	Mala_Br	uma menina q jogava lol falou merda de homem, a razer aproveitou que o contrato ia acabar e n renovou, ai essas lacradoras ficam falando merda da razer sendo q nem jogar um clash royale essas porra joga	31/07/2019, 20:42:26
1156712259684638720	Zupykov	pq eu deveria te dar dinheiro?	31/07/2019, 20:44:28
1156712364923871233	Invicto_11	“Ain, sai machista” O mimimi tá comendo solto aqui KKKKKKKK	31/07/2019, 20:44:53
1156712417138810883	fuckingzlezzy	vadia feminista kkkkkkkkkkkkkkkkk vc eh de dar pena mesmo, chorao demais	31/07/2019, 20:45:05
1156712617651658753	vermeinsolente_	fodaze	31/07/2019, 20:45:53
1156712630003949568	fuckingzlezzy	ia falar pra vc ir chupar uma xana ao inves de ficar chorando as pitangas na internet mas vc eh daqueles que tem nojo de mulher, entao só te desejo melhoras seu fracassadoh	31/07/2019, 20:45:56
1156712905343164418	fuckingzlezzy	oq tem a ver seu retardado kkkkkkkkkkkkkkkkk meu deus VC EH MUITO MONGO ESTOU PERPLEXA	31/07/2019, 20:47:01
1156712973911711746	mariaesbotelho	ô mano, pesquisa sobre a razer demitir uma mulher por uma declaração que ela fez. já tem um tempinho, você com certeza vai achar tudo explicando (é que explicar aqui é muita coisa kkkk)	31/07/2019, 20:47:18
1156713270876807168	fuckingzlezzy	olha para pra pensar aqui: vc tirou SEU DIA PRECIOSO pra ficar CHORANDO nesse tweet infernizando a vida de gente que vc nem conhece coloca a maozinha nessa sua cabeça pra vc refletir o QUANTO isso eh coisa de gente fracassada ok	31/07/2019, 20:48:29
1156713530135056384	fuckingzlezzy	só isso mesmo meu jovem reflete aí com o que vc ta fazendo da sua vida qualquer coisa chega na sua mae e pede desculpas por isso que vc faz, este foi meu conselho de amiga se cuide fique com deus	31/07/2019, 20:49:30
1156714375006343168	blodxreina	ia rir mas ai vi que é a razer	31/07/2019, 20:52:52
1156714439502106625	lucasshcoelho	Mulher mau educada que xingava os possíveis consumidores da marca. Explica direito.	31/07/2019, 20:53:07
1156714774773862401	Tsuri678	Tbm n sei kk	31/07/2019, 20:54:27
1156715261480882177	raffhcp_	Cara nem tenta, é tipo você tentar argumentar com aquele seu primo(a) que tem 4 anos, ele vai falar um monte de coisa sem sentido, e no final não leva à nada.	31/07/2019, 20:56:23
1156715703996575744	confiraotroco	Ninguém te chamou aqui não fiote Vai correr atrás dos seus punheteiros vai	31/07/2019, 20:58:09
1156715759957159938	RafitchaOAS	Apareceu a passadora de pano de machista pra estragar a brincadeira...	31/07/2019, 20:58:22
1156715943046864898	Carlabreal	Ninguém gosta de você.	31/07/2019, 20:59:06
1156715957156552706	infercalada	ia dar like, vi quem era....... puts......	31/07/2019, 20:59:09
1156716037422964737	amandarinscky	Sai imunda	31/07/2019, 20:59:28
1156716090917101569	mariaesbotelho	issoo mesmo	31/07/2019, 20:59:41
1156716153328295937	AKarolFN	La vem a bixa escrota. Sai fora, imunda	31/07/2019, 20:59:56
