id	username	text	datetime
1156354418809462784	GamepushFr	Clavier Gaming - Razer Ornata Méca-membrane vert à 49.99 euros https://www.jvdeal.fr/4988-deal-clavier-gaming-razer-ornata-meca-membrane-vert.html	30/07/2019, 21:02:32
1156355634121625605	herickks	agora a razer vai contratar ele	30/07/2019, 21:07:21
1156356243000365056	Ravengarden_	Sim, o melhor foi os caba safado defendendo ela quando perdeu patrocínio da Razer querendo dar Pussy Pass pra ela	30/07/2019, 21:09:47
1156357488188391424	SUWAZINch	Razer!!!!	30/07/2019, 21:14:43
1156357872378421248	pedro_ramalho28	trocar esse fone da razer por um mais brabo hehe	30/07/2019, 21:16:15
1156361379454042114	poxasantanna	Passo 1: economizar pra comprar um pc Passo 2: economizar pra comprar ser da razer Passo 3: economizar pra fundo de faculdade Minhas exatas prioridades nessa exata ordem sobre o uso do meu salário	30/07/2019, 21:30:11
1156362787716775936	ShitRohan	Eu imaginei que um monte de gente ia entender relacionar isso com o da menina da Razer, só não queria acreditar que dá pra ser tão desonesto assim	30/07/2019, 21:35:47
1156363439876575232	zCaju	A razer eu não sei, mas essa live patrocina conteudo de qualidade. boa noite KKKKK 	30/07/2019, 21:38:22
1156373770174697472	apujhin	Eu vi Os maluco não se contenta em falar bosta Acabou com a carreira E lembrando, em nenhum campeonato patrocinado pela Riot Maluco viveu a vida dele pra isso Agora vai atuar como outra coisa Foda Riot não é razer	30/07/2019, 22:19:25
1156377228139204613	lineallstar	Ajudaa noissss @Razer &lt;3 &lt;3	30/07/2019, 22:33:10
1156378873615081477	ohnolulu91	Incrível que como o caso do coach de esports relativizando nazismo não está tendo nem 1% do impacto que teve o casa da Gabi com a Razer. 	30/07/2019, 22:39:42
1156379296442867712	JuniuhCosta	pedi um fone da Razer para minha mãe kk, vamos ver oq ela vai dizer	30/07/2019, 22:41:23
1156380243869032449	Roberth_Cesar	mas qual a ligação do cara com a razer?	30/07/2019, 22:45:09
1156385371263053825	abrevrnt	eu tenho um razer que tem uns 8 anos (na época nem existia essas luzinhas e viadagens do tipo) que ainda funciona perfeitamente, lembro que paguei tipo 40 reais no eBay	30/07/2019, 23:05:31
1156385954921373696	keerogt	unas custom o que? https://www.twitch.tv/keerogt #razer #RazerStreamer #twitch #fortnite	30/07/2019, 23:07:50
1156386012186251264	rauzinhooooo	nossa lendo aqui a thread original deu uma VONTADINHA DE VOMITAR TODAS AS MINHAS VICERAS O MLK FALOU QUE TECLADO DA RAZER É BOM KKKKKKKKKKKKKKKKKKKKKKKKKKKKKKKKKKKKKKKKKKKKKK FILHO DA PUTAAAAAAAAAAAAAAAAAAAAAAAAAAAAAAAA	30/07/2019, 23:08:04
1156386434355552256	rauzinhooooo	Razer é chacota, tudo caro e horrível (menos os mouses)	30/07/2019, 23:09:45
1156390804732219393	hcstaticorg	Razer mamba elite	30/07/2019, 23:27:07
1156391136430366721	ravennakimov3	Mano, você vacilou feio, e assim, você está na Internet, quando você fala merda as pessoas vão atrás de você, da sua família, é assim. Bem vindo a Internet. Talvez seja bom até pra repensar o caso da Gabi com a Razer né	30/07/2019, 23:28:26
1156393945842225152	DanielBas18	Patrocinado pela razer	30/07/2019, 23:39:36
1156396731904471040	fastpxce	O CHANI VAI RAZER UM FILME CONO ASSIM	30/07/2019, 23:50:40
1156398969720848386	Trouxa_Martins	KKKKKKKKKKKKKmas tipo, sabe aquele momento em que você tá dormindo de tarde e acorda achando que já é outro dia??? Então, pensei que fosse isso, é pq as vezes o filho da puta tbm inventa de razer essa merda de manhãzinha.	30/07/2019, 23:59:33
1156402379551649793	lemao14	Já achava gamer babaca dps do rolo com a razer, agr q o biroliro está apoiando então...	31/07/2019, 00:13:06
1156410975312105472	duarte_juliaaa0	porra meu fone da razer ta se desintegrando	31/07/2019, 00:47:16
1156417330252877825	reft2052	Razer~^ 	31/07/2019, 01:12:31
1156421777544962048	rizakhtv	Faz a boa ai @RazerBrazil	31/07/2019, 01:30:11
1156430766437523456	DiDi1361	Se for para trabalhar e jogar recomendo Razer Valerie 	31/07/2019, 02:05:54
1156454239553540097	Vio1et_Vein	Razer 	31/07/2019, 03:39:11
1156458624715317249	srsozinho1	Mlq to doido kakakak, mouse #RAZER+ mouse pad #RAZER. Faz diferença, dá gosto de jogar, muita diferença. Felizzz #CSGO	31/07/2019, 03:56:36
1156459034830151680	srsozinho1	Bem... Teclado mecânico chegando, mouse RAZER+ mouse pad #RAZER, +8gb de ram e um headset no transporte tb. Só esperar e depois: Vamos ri, vamos ri... #CSGO #gamer	31/07/2019, 03:58:14
1156516206431625216	fxvnder	HAHAHAHAHAAHAHAHAHAHAHAHAHAHAAHAHAHAHAHAHAHAH com uns razer também?	31/07/2019, 07:45:25
1156522283042840581	FeehGameplay1	Mminha mini gamer @RazerBrazil @Razer 	31/07/2019, 08:09:34
1156527454292455426	Anahera0	Tem outros também, esses são os mais comuns. O kraken da razer não vale a pena, distorce muito o áudio. 	31/07/2019, 08:30:07
1156531089260724224	EazydealB	Razer Blade Pro 17 | http://Eazydeal.com.bd https://www.eazydeal.com.bd/product/98309-Razer-Blade-Pro-17-Core-i7-9th-Gen-173-Full-HD-Gaming-Laptop-With-RTX-2080-MaxQ-8GB-Graphics#.XUF_HIldgaY.twitter	31/07/2019, 08:44:33
1156536988000018432	sakasawa1	é amigão igual a razer, livre mercado não quero contratar nazista não	31/07/2019, 09:08:00
1156550104817512448	kbenicius	n to defendendo a razer mas quem disse q ess cuzao n se fodeu? 	31/07/2019, 10:00:07
1156551250298773504	ferreira_juaum	Gente alguém me ajuda pls. Não to conseguindo decidr entre o Razer Man O'war 7.1 e o Razer Kraken 7.1	31/07/2019, 10:04:40
1156552045882744833	MoistCordBoard	Razer mamba elite	31/07/2019, 10:07:50
1156553057511120897	GravesGothic	Pensei que tinha tudo comprado na Razer	31/07/2019, 10:11:51
1156554408559120385	AutumnEquinnox	Razer	31/07/2019, 10:17:13
1156558392778985472	FURRYOKITA	razer cortex?	31/07/2019, 10:33:03
1156558831775813632	Juarezelone	Pelo menos nao foi a favor dos escrotos, tipo a razer	31/07/2019, 10:34:47
1156559499039322112	letoddles	Ow pessoal gamer, alguém lembra qual marca mais que existe de headset, mouse e tals? Não quero comprar da Razer lixa, quero lembrar o nome de outra marca q tavam falando (sem ser a Multilaser)	31/07/2019, 10:37:27
1156562327434477573	Mrzhou518	Razer 	31/07/2019, 10:48:41
1156572182128058372	eyeamtom	@fangrear @KKOesports hehe	31/07/2019, 11:27:50
1156572777132056576	5guigabytes	Eu ia discutir sério com o cara, aí ví que ele compartilhou o manifesto da Razer sério. Passou a raiva, entrou a pena. Tadinho...	31/07/2019, 11:30:12
1156580856003268612	XygenI	Razer	31/07/2019, 12:02:18
1156582781566312448	LontraMene	@RazerBrazil estou tendo problemas em receber o codigo de ativação do razer surrond pro, ja registrei meu produto porem o codigo de ativação nao foi enviado	31/07/2019, 12:09:58
1156582852030582785	pOwOlice	Razer. 	31/07/2019, 12:10:14
1156583012257140737	TrashByFour	Razer panthera	31/07/2019, 12:10:53
1156583516517392386	hyeflowery	vixi agr todas as minhas chances de algum dia ser patrocinada pela razer já eram	31/07/2019, 12:12:53
1156584405906972673	Zagobertooo	é isso a razer lançou o carro gamer 	31/07/2019, 12:16:25
1156586084245168134	duneves007	Curti demais porque tu é fan da razer, que também sou ksjsksjsk, pro meu setup ficar Full Razer, só falta o mouse pad, que não faz tanta diferença	31/07/2019, 12:23:05
1156586291611521027	GuilhermeCabre7	Na cdd ele n é tão caro não é o mouse mais barato da razer	31/07/2019, 12:23:54
1156586773029498880	Apple_Bck	N de ha k da da	31/07/2019, 12:25:49
1156587895832162309	duneves007	Só ir no site da razer e baixar, https://www.razer.com/downloads	31/07/2019, 12:30:17
1156594098679296001	bringmethepzk	#AmizadeAbusiva MEU AMIGO YOUTUBE DARKMELATOCON NAO ME DEU MICROFONE DA RAZER FALO QUE IA DA NAO DEU VAMOS ACABR COM ELE GALERA VAMOSLA A CASA CAIU @DarkMelocoton @DarkMelocoton @DarkMelocoton @DarkMelocoton DOENTE	31/07/2019, 12:54:56
1156594174013169665	Don_Kamu	Siono razer.	31/07/2019, 12:55:14
1156595177320042497	AndreyYuriNune6	Olhe só o cara que devia ter saído do time patrocinado pela razer !	31/07/2019, 12:59:13
1156601177091579906	vendogeIo	e eu que tô full razer do nada obrigado aos envolvidos!	31/07/2019, 13:23:03
1156602657454338048	lovelyvillain1	KKKKKKKKKKKKKKKKKKKKKKKKKKKKKKKKKKKKKKKKKKKKKK n uso razer	31/07/2019, 13:28:56
1156609203647238152	vinextz	ainda bem que gabi saiu da razer olha quem que ela patrocina kkkkk	31/07/2019, 13:54:57
1156617365695672322	henisfrenny	Só achei uma coisa engraçada: todas erraram, q Razer simplesmente não renovou o contrato, não houve rompimento algum	31/07/2019, 14:27:23
1156618602793058304	thiagoa_tag	Tava de boas aqui tomando um café e lembrei daquele lixo de post que os bola murcha da Razer Brasil fizeram falando da opressão sofrida pelos g4m3rs no caso da streamer e etc	31/07/2019, 14:32:18
1156618747148455937	Jaquomzin	Ala o cara se chama André razer Passa pano pra empresa machista	31/07/2019, 14:32:52
1156619491373191171	rafadececchetto	Caçando mouse bom para jogar que não seja razer.	31/07/2019, 14:35:50
1156623845643771906	Sunset28	meu catioro comeu o fio do meu fone razer lamentável	31/07/2019, 14:53:08
1156625474929532929	AzulBassi	Clave espert auspiciando razer 	31/07/2019, 14:59:36
1156626680892547072	pichauinfo	Cansado de parecer uma metralhadora jogando durante a madrugada?! Razer Blackwidow Ultimate Stealth disponível no site! Confira https://bit.ly/335zWZZ	31/07/2019, 15:04:24
1156629618591510529	SraMisantropia	O que você achou do caso Razer? — Gostei muito da atitude da Razer. https://curiouscat.me/SraMisantropia/post/917799830?t=1564596964	31/07/2019, 15:16:04
1156629928131084288	Louder_Speakers	El de razer?	31/07/2019, 15:17:18
1156634045800824832	Estuperritojosh	RAZER	31/07/2019, 15:33:40
1156634791535665153	LadyMoonFIower	@Razer @RazerBrazil ela é tão cheia de energia! É humilde demais! A live é divertida do começo ao fim! É felicidade demais! Aliás, nunca é demais ser tão feliz e perseguir os sonhos assim! Não sei se conheço alguém que mereça mais esse agrado! Sejam humildes!	31/07/2019, 15:36:38
1156636577961041921	JuniuhCosta	minha mãe vai me dar o fone da Razer, OH SORTEE 	31/07/2019, 15:43:44
1156637563307925506	jpthecoach	Rapaziada to vendendo, DM Open. MasterMouse MM530 ( mesmo sensor do EC2-B com uma pegada diferente e um pouco mais pesado). R$150,00 i5 7400 OEM(sem caixa) R$650,00. Quem ficar com o mouse leva um bungee da razer de brinde =). RT humilde.	31/07/2019, 15:47:39
1156638813881606145	oVirusLOL	O que eu tenho que fazer pra razer me patrocinar?	31/07/2019, 15:52:37
1156641058513661956	vevezx	to tao tist, algum homem feministo afim de me dá um mouse da razer novo?	31/07/2019, 16:01:32
1156643577126146053	DECOcsgo__	#RazerStreamer @Razer Sem VOCÊS ISTO SERIA IMPOSSIVEL OBRIGADO FAMILIA (sim é mesmo da razer) 	31/07/2019, 16:11:32
1156643872858136577	DECOcsgo__	Um obrigado especial para o @flaviompereira por me ter dado esta oportunidade 	31/07/2019, 16:12:43
1156647037204598784	Dealinator_	Razer	31/07/2019, 16:25:17
1156647161435762688	sarkoviano	- homens - caso gabi: ALO RAZER VAI DEIXAR??? TA CHAMANDO LIXO DE LIXO caso halier: caça as bruxas/riot é merda	31/07/2019, 16:25:47
1156647821719801857	vchad_	boa tarde amigos estou vendendo os seguintes itens Logitech g430 Logitech g403 Razer Deathadder 2013 interessados me chamem por favor preciso muito de dinheiro	31/07/2019, 16:28:24
1156649275994050561	fernando_benoda	Sorry meu inglês que é um lixo só quis falar q o 3k foi melhor :v	31/07/2019, 16:34:11
1156651612997410817	NSE_Vini	Pessoal estou vendendo um controle da razer Wolverine Quem tiver interesse, me chama!! posso fazer um preço bem legal!! Bem mais barato que essa imagem!!! kkkkkkk 	31/07/2019, 16:43:28
1156652434195996673	lofizera	RAZER tentando fazer piadinha depois das merda q eles fizeram nao caiam nessa nao deem audiência pra esse lixo de empresa ok meme eh engraçado mas publicidade gratis com rt e like NAO É	31/07/2019, 16:46:44
1156655856504758273	smolsassygay	Sim, né, impossível jogar videogame sem ser macho que reclama de moça streamer e ter produtinho da Razer :((	31/07/2019, 17:00:20
1156655919729651713	Vini_fmo	nem, prefiro razer msm sendo mais caro	31/07/2019, 17:00:35
1156655949899337728	Mateus05_SC	"""Sim, dói. Dói em todas as mulheres a discriminação que elas sofrem graças a marcas como a razer."" -Victor"	31/07/2019, 17:00:42
1156657946237034496	HenrikeRocker	quem chamou a Razer no rolo me? 	31/07/2019, 17:08:38
1156658424773525504	carlito_crvg	Os caras que não representam nada no lucro da Razer choramingando KKKKKKKKKKKKK	31/07/2019, 17:10:32
1156658583850889217	kingkardec	gente e a razer que curtiu minha foto	31/07/2019, 17:11:10
1156659113918652416	julliajuno	Vlh fui atras de um fone pra comprar VLH UM FONE DA RAZER 885,00 ME EXPLIQUE ISSO BRASILLL @RazerBrazil	31/07/2019, 17:13:17
1156660668554235904	nickosan1	Público da razer: gamers em geral. Eu uso essa merda e eu só fiquei sabendo dessa guria depois da polêmica, como se todo usuário da razer se enquadra nisso que tu falou. Chata pra caralho, querendo problematizar em cima de tudo.	31/07/2019, 17:19:27
1156661162706124800	DaronWrymper	Relaxa que eu resumo pra você: Uma streamer chamou todos os homens de lixo, a Razer cortou contrato com a mesma porque ninguém quer sujar o cu com bosta do outros, a comunidade dela ficou putinha da vida e acharam que a Razer fez algo que não devia. :)	31/07/2019, 17:21:25
1156661345561055232	Edypohs	Meo Deus Razer, que chorinho maravilhoso esse nas replys ein	31/07/2019, 17:22:09
1156661518517317633	WTFcarioca	Que isso Jesus e até a Razer entrou pra zuar kkkkk 	31/07/2019, 17:22:50
1156661963096776709	nickosan1	Nossa cara, tem razão, eu tenho 6 anos porque uso Razer.	31/07/2019, 17:24:36
1156662025923321861	vinisoviet	Realidade: empresas lacradoras no twitter falando a linguagem dos jovens visando aumentar os lucros. A Razer respondeu com um meme, daqui a pouco esquecem do machismo que cometeram com a menina que era patrocinada por eles no mês passado. 	31/07/2019, 17:24:51
1156662192953053186	pjodiangeIo	os cara antes da razer comentar: ai marca lixo lacradora nunca mais vou comprar. pessoal defendendo a gabi: ok, n vai fazer diferença se vc compra ou n. *razer comenta* os cara: pau no cu da esquerda lacradora. o pessoal defendendo a gabi: n vou mais comprar isso.	31/07/2019, 17:25:31
1156662259046899714	Th3_D0ugl45	A razer Brasil comentou nisso aí agora vê os comentários do comentário da Razer Brasil	31/07/2019, 17:25:46
1156664945230172160	Leo_BSouzaM	VAI TOMA NO CÚ, RAZER. NGN TE CHAMOU NA BRINCADEIRA, SEUS FELADAPUTAS. #pas	31/07/2019, 17:36:27
1156665211216171008	devil_crue	Vai tomar no cu Razer	31/07/2019, 17:37:30
1156665907604799489	SK_K1ng	Boa razer 	31/07/2019, 17:40:16
1156666435378266113	_L_u_c_a_s_C	A razer KKKKKKK 	31/07/2019, 17:42:22
1156666958911328257	Miller_CSC	A Razer n pode falar nada que ja vem os gadão da net	31/07/2019, 17:44:27
1156667109826543621	rurugly	sai fora razer ninguém te chamou pro role	31/07/2019, 17:45:03
1156667595518545921	gc_romulo	xispa, razer! tá queimada	31/07/2019, 17:46:59
1156667823453851648	BFR_Renato	Sai daqui, Razer. Vai procurar sua turminha pois aqui ninguém gosta de vocês.	31/07/2019, 17:47:53
1156668084033335302	jxurachi_	eu realmente qria q vc me respondesse aonde eu defendi a razer	31/07/2019, 17:48:55
1156668121966686208	HVitral	até a razer 	31/07/2019, 17:49:04
1156669645044232193	LucasFundao	https://twitter.com/razerbrazil/status/1156652345197023234?s=21 véi a razer KKKKKKKKKK	31/07/2019, 17:55:07
1156669658306699264	ikruexperience	Pelo menos eu n dou dinheiro pra razer	31/07/2019, 17:55:11
1156670257551085569	bekaaspfc	por mim a razer podia falir agora	31/07/2019, 17:57:33
1156670969655812097	ColinWills_	Razer*	31/07/2019, 18:00:23
1156671799800795136	Shacoxinha	wow tweet gamer kkkkkkkk humor gamer não é mesmo? led RGB razer ei jogo online não ter pause ok	31/07/2019, 18:03:41
1156674356472418306	isabellaon_	quase curti um tuíte da razer foi por bem pouquinho gente e ceis ainda diz que deus n existe	31/07/2019, 18:13:51
1156674688124407808	jao_bernardo	Que que cê tá falando mano, tu nem compra nada na razer KKKKKKKKKKKKKKKKKKK	31/07/2019, 18:15:10
1156675426741379073	FiDoTuuuKringed	teclado da hyperx sao melhores do que razer	31/07/2019, 18:18:06
1156675515396370433	nickmartins_	Enquanto ouvem música com o fone da razer	31/07/2019, 18:18:27
1156676362649911299	livalifa_d	Péssimo dia pra ser o estagiário da Razer	31/07/2019, 18:21:49
1156676481159966720	MikaelSMachado	Alguém explica oq tá acontecendo, até a Razer tá no meio 	31/07/2019, 18:22:17
1156676488915312640	rochapravoce	A Razer lixenta participando também 	31/07/2019, 18:22:19
1156677344045801483	wilkercosta14	Não sei dessa treta da razer, mas imagino que uma galera ai ta só aproveitando e nem sabe oq ta falando	31/07/2019, 18:25:43
1156678814874963970	tenente_027559	Razer sendo atacada pela galerinha da bolha. 	31/07/2019, 18:31:34
1156678902875660288	bera163	Só esperando meu mouse novo da Razer chegar	31/07/2019, 18:31:55
1156679293537325057	Raphaeldau	O choro nas replys da Razer fez meu dia melhor, quando for renovar meus periféricos já sei de qual marca vou comprar 	31/07/2019, 18:33:28
1156680054992232448	yungbzz	Cada dia sinto mais vontade de comprar na Razer 	31/07/2019, 18:36:29
1156680098373935104	Tiu_Play	KKKKKKKKKKKKKKKKKKKKKKKKKKKKKKKKKKKKK BROTOU A RAZER, KABUM, NUBANK...	31/07/2019, 18:36:40
1156680742765809664	JooHenriqueHS1	KKKKKK eis q vc e seu amg viram estagiários na Razer e no Ifood 	31/07/2019, 18:39:13
1156681554279751680	wesleydiax	A Razer não, mas vc pelo jeito sim	31/07/2019, 18:42:27
1156682471351693314	SpiderMenes	"""vaza razer"" "	31/07/2019, 18:46:05
1156682969425297408	ferrazmarc	tô impressionado com a galera comparando a atitude da RAZER com a da Riot	31/07/2019, 18:48:04
1156684480595316736	pedrohcgondim	A razer n tenho certeza, mas fã babaca que nem tu afetou e muito.	31/07/2019, 18:54:04
1156684828710002688	Harpenho	Opa dei rt na razer esqueci q essa empresa EH UM CU vo desdar rt	31/07/2019, 18:55:27
1156684876898361344	yungbzz	Por isso msm sinto vontade de comprar na Razer	31/07/2019, 18:55:39
1156685914749493248	LuizHenrike_4	Adoro ver o choro da esquerdalha que nunca comprou um produto da razer na vida , e fica fica se doendo até hoje pela babaca femimi que foi chutada da marca . Chora mais que tá pouco esquerdalha kkkkkkkk	31/07/2019, 18:59:46
1156686176385929216	EriqueElias	Isso que vc n viu o da Razer xD	31/07/2019, 19:00:49
1156686510797795328	Ottovonthiago	"-Menina fala que homem é lixo -Razer tira ele -""Razer é machista"" ????????????"	31/07/2019, 19:02:09
1156687990741184513	OrdepHenr31	até tu razer?	31/07/2019, 19:08:01
1156689411293229056	RafaBaker_	fone e mouse da razer, so falta o teclado 	31/07/2019, 19:13:40
1156690785267605504	Zupykov	Como eu amo essa empresa chamada Razer 	31/07/2019, 19:19:08
1156691462433718275	nandaduarteg_	Sexo é intimo e sagrado, o seu corpo é um templo e vc não deve compartilha-lo com quem defende a atitude da Razer com a Gabi	31/07/2019, 19:21:49
1156691924847407105	Celso_Hector	@Razer OOOOO Razer nota nois!!	31/07/2019, 19:23:39
1156692408672968705	joaodkr	Olha o da razer	31/07/2019, 19:25:35
1156692464427839488	deisgao	Razer fazendo o trabalho da riot. Ok	31/07/2019, 19:25:48
1156692799183577090	Celso_Hector	@RazerBrazil OOOOO Razer patrocina esse menina linda aqui! Ela merece!! @lineallstar	31/07/2019, 19:27:08
1156694031990251521	paocomqueijx	Razer intrusa 	31/07/2019, 19:32:02
1156694986555088896	98mlz	Isso pra mim é atestado de que a razer eh lixo KKKKKKKKK eu n to nem aí	31/07/2019, 19:35:49
1156695437480484865	Nathan46512	Nubank, Letras, Razer, Globo Rural, Nuvem... Gnnnnt que encontro aleatório kkkkk	31/07/2019, 19:37:37
1156696152932343808	sarkoviano	infelizmente o halier tbm ta sofrendo ameaças, n compactuo com essas ideias, mas ambos foram afetados na sua carreira diretamente, gabi perdeu contrato com uma grande marca por mero capricho de macho chorando p razer halier perdeu o direito de andar na riot por falar merda	31/07/2019, 19:40:27
1156696948495343616	joana_cz	ATÉ A RAZER MANO 	31/07/2019, 19:43:37
1156697792062078978	satanicxss	fiz um comentário apenas, e eu sou só uma pessoa que comprou o produto da razer e se arrependeu xd	31/07/2019, 19:46:58
1156698940546437121	rafaelpires822	Pior é a razer tentando entrosar, logo com nego que destruiu os produtos deles e prometeram boicotar a marca.	31/07/2019, 19:51:32
1156700792453287937	marianeribs	As pessoas esqueceram bem rápido do caso da razer né Militaram, falaram que nunca mais iam usar, exploraram o assunto até o fim, conseguiram os likes que queriam e voltaram a usar kkkkkkkk 	31/07/2019, 19:58:54
1156702206990700544	LeoZardetto	"""e fica se doendo até hoje"" puts, que eu me lembre quem ficou dizendo ""nunca mais compro razer, marca ruim"" foram vcs KKKKKKKKKKKKK"	31/07/2019, 20:04:31
1156702368257445888	Digilitix	fui rir, daí lembrei que eh a razer	31/07/2019, 20:05:09
1156702814476759040	DaronWrymper	O Kra vem no tweet da Razer só pra hatear treta que já morreu, que povinho que se dói	31/07/2019, 20:06:56
1156703156555919362	jarlgabu	odeio a razer mas vc viu o que eles responderam também? NAIDNDIDB ri com ódio	31/07/2019, 20:08:17
1156704380831354881	https_milani	@ZorziGabi1 ifood, globo rural, letrasmus, nuvem, razer, blowtex e companhia organizando o surubão oficial, vamos?	31/07/2019, 20:13:09
1156705225178341378	brunododireito	é que no meu ver a empresa riot games seria semelhante ao porte do facebook e havan=razer para ambos os casos , mas se ta certo , so acho que deveriam as duas medidas o mesmo peso mas isso é o que as empresas definem e n acredito que ele sera totalmente banido vide o mid da tl	31/07/2019, 20:16:30
1156706603900559360	thejoker_player	Estamos ao vivo, acesse: https://twitch.tv/thejokerplayer #twitch #thejokerplayer #live #liveon #twitchtv #corep3 #thermaltakecorep3 #masterrace #pcmasterrace #rgbfusion #streamer #streammer #custompc #razer #corsair… https://www.instagram.com/p/B0mXIIGHeZ5/?igshid=per63n1uhwrw	31/07/2019, 20:21:59
1156707294777958400	bre10no_Me	mano, pensei que o assunto ja tinha morrido, mas ele simplesmente chamou todo homem de lixo, nao que eu ou algum homem tenha ficado ofendido, mas a Razer fez o que qualquer empresa faria, que e cortar relacoes com gente preconceituosa, era o minimo, agora vcs ficam ai com ranco.	31/07/2019, 20:24:44
1156707766502862848	stereNVS	Gozando da cara da razer	31/07/2019, 20:26:36
1156707801894445057	bre10no_Me	o bagulho ja ta no passado meu, a mina ja ta com outra patrocinadora e tomando cuidado pra nao dar outro vacilo desse, e a razer ja ta ai com novos embaixadores, vida que segue, e voces tao ainda ai ate hoje em todo post da razer xingando a marca, serio cara, ja deu nao acha nao?	31/07/2019, 20:26:45
1156708926139838464	carolinne_hsl	QUE TÉDIO N TEM ND PRA RAZER PQP	31/07/2019, 20:31:13
1156709406542848000	fuckingzlezzy	ainnnn a femea falou mal da razer vou lá perguntar se ela vai chorar sendo que o chorao sou eu hahahaahahahah	31/07/2019, 20:33:07
1156709819971063808	ivyxvera	Te amo razer	31/07/2019, 20:34:46
1156711747836960769	Mala_Br	uma menina q jogava lol falou merda de homem, a razer aproveitou que o contrato ia acabar e n renovou, ai essas lacradoras ficam falando merda da razer sendo q nem jogar um clash royale essas porra joga	31/07/2019, 20:42:26
1156712973911711746	mariaesbotelho	ô mano, pesquisa sobre a razer demitir uma mulher por uma declaração que ela fez. já tem um tempinho, você com certeza vai achar tudo explicando (é que explicar aqui é muita coisa kkkk)	31/07/2019, 20:47:18
1156714375006343168	blodxreina	ia rir mas ai vi que é a razer	31/07/2019, 20:52:52
1156715316552044544	sarkoviano	cada empresa tem sua forma de lidar, a razer encerrou contrato com a gabi mas isso n impede ela de consumir produtos da marca, halier teve contrato encerrado c os projetos da Riot mas isso n impede ele de consumir os produtos da Riot	31/07/2019, 20:56:36
