id	username	text	datetime
1140051962018390016	beztswtf	Ninguem esquece o melhor;)	15/06/2019, 21:22:23
1140076250238791681	Gabriel25991019	Oi Raaazer	15/06/2019, 22:58:54
1140139340149985280	bruna1__	q setupzinho meigooooooo vei 	16/06/2019, 03:09:36
1140286414636142593	jvkt_	@RazerBrazil me ajuda aí, tem hora que meu synapse simplesmente nao loga :(	16/06/2019, 12:54:01
1140306541620473856	Namelessbr	Lá se vai meu teclado exatamente após um ano que comprei #RIP meu Razer Anansi @RazerBrazil :(	16/06/2019, 14:14:00
1140356370467819534	CSR3528	Setup atualizado com novo Microfone Condensador Razer Seiren X. No final fiz o teste da diferença entre o mic convencional do Kraken, pra esse semi profissional. Coloquem fone de ouvido pra conseguir perceber a diferença. @RazerBrazil Assista aqui: https://www.instagram.com/p/ByyLoCBg-pC/?igshid=12lu53blemlkx	16/06/2019, 17:32:00
1140363651666386944	RazerBrazil	Mas esse setup já tá sensacional! 	16/06/2019, 18:00:56
1140368580460142593	RazerBrazil	Mais que um setup, uma obra de arte. sergey_sound_wave	16/06/2019, 18:20:31
1140368852204904448	Rigueti_Thais	Se quiser me dá um, pq ro precisando	16/06/2019, 18:21:36
1140368884014489600	yNG_AM	que pika .. queriaaaaaaaaaaaa kskks	16/06/2019, 18:21:43
1140369280862572544	pedrukkkkkk	Queria só esse fonezinho	16/06/2019, 18:23:18
1140369803070382085	BielCardoso0	O coração chega a errar as batidas	16/06/2019, 18:25:22
