id	username	text	datetime
1165051539091836929	sucenps	Glorious model o Razer deathadder elite o como se escriba Logitech xd	23/08/2019, 21:01:47
1165053037431406592	Yzzi01	Razer ;)	23/08/2019, 21:07:44
1165058960145178630	CaioR_CS	Participe do sorteio de 100 pins Razer Gold e tenha a chance de participar de uma live com seus influenciadores favoritos! %{link} https://wn.nr/SX77Wt	23/08/2019, 21:31:16
1165068129526923264	MEGA_01_26	Razer	23/08/2019, 22:07:42
1165074438225846272	Gabriel80261701	Melhore seu FPS em todos os jogos com esse Programa(Melhor que RAZER COR... https://youtu.be/WTLeHbcxMc0 via @YouTube	23/08/2019, 22:32:46
1165094048098652160	Luan_Servinski	Participe do sorteio de 100 pins Razer Gold e tenha a chance de participar de uma live com seus influenciadores favoritos! %{link} 	23/08/2019, 23:50:42
1165109823949672448	ESports32901694	Razer:oioi Bot do Chat do Master:Teclado Red Dragon Kumara Red	24/08/2019, 00:53:23
1165141316008914944	devascsgo	Usa algum antivírus? Usa algo da Razer?	24/08/2019, 02:58:31
1165141929673351170	anderson_lage	Redmi note 5 capinha da razer perdido no show de Zé neto e Cristiano Compartilha ai galera	24/08/2019, 03:00:57
1165177701214433281	Shadowoulf	Razer Electra V2 https://wn.nr/Z2XKy6	24/08/2019, 05:23:06
1165187449825320961	kaorikaoru321	 Razer 	24/08/2019, 06:01:50
1165200161603080192	Leichyz	Razer Viper	24/08/2019, 06:52:21
1165210579121913856	YaasuraH	Fallen team Razer, tbm conhecido como verdadeiro 	24/08/2019, 07:33:45
1165210827638693888	daviid_beco	A minha bolsa dos fones da razer tá a cheirar mm bem 	24/08/2019, 07:34:44
1165212166103781377	Mrzhou518	RAZER 	24/08/2019, 07:40:03
1165215094327906305	sync_mast3r	Participe do sorteio de 100 pins Razer Gold e tenha a chance de participar de uma live com seus influenciadores favoritos! %{link} https://wn.nr/pUzFPm	24/08/2019, 07:51:41
1165218344095469568	Maple_xd893	Razer 	24/08/2019, 08:04:36
1165218989670379520	henriqgarca	To levando os fones da razer pra ouvir na viagem azar	24/08/2019, 08:07:10
1165230407861669889	GamingEndy	Razer mamba elite	24/08/2019, 08:52:32
1165247079301701632	CasRaio	@sapequitcha Me da um mouse de presente? quero o Razer DeathAdder de 16.000 DPI, estou esperando, obrigado!	24/08/2019, 09:58:47
1165249755389288449	e_Broky	Review Razer Panthera EVO – O idee buna, executata prost http://ebroky.com/review-razer-panthera-evo-o-idee-buna-executata-prost/	24/08/2019, 10:09:25
1165251716721233922	KimJ_sa	razer	24/08/2019, 10:17:13
1165257130884177920	FSkillsCS	Participe do sorteio de 100 pins Razer Gold e tenha a chance de participar de uma live com seus influenciadores favoritos! %{link} https://wn.nr/8PA89n	24/08/2019, 10:38:44
1165258359836225536	fabiovenuto	Sorteio Razer https://wn.nr/NrnTcK	24/08/2019, 10:43:37
1165258390974713856	Skillo_	Sorteio Razer https://wn.nr/NrnTcK	24/08/2019, 10:43:44
1165259277273055232	scrimexhehe	consider g pro	24/08/2019, 10:47:15
1165259304439570432	OdairJnior6	Participe do sorteio de 100 pins Razer Gold e tenha a chance de participar de uma live com seus influenciadores favoritos! %{link} https://wn.nr/wP6B73	24/08/2019, 10:47:22
1165260499996614656	PoLacoS_	Participe do sorteio de 100 pins Razer Gold e tenha a chance de participar de uma live com seus influenciadores favoritos! %{link} https://wn.nr/nN3MYH	24/08/2019, 10:52:07
1165265863148261379	will_w8	Participe do sorteio de 100 pins Razer Gold e tenha a chance de participar de uma live com seus influenciadores favoritos! %{link} 	24/08/2019, 11:13:26
1165271649391960064	PiloJp1	Brabo! Quero mouse com 2 botões do lado mesmo, me ajudam na hora de movimentar a cam pelo mapa. Único mousepad decente que tive foi da Razer, nunca testei de outras marcas, mas ta anotado aqui já, GOSTOSO	24/08/2019, 11:36:25
1165272232203100160	neewr0z	Tipo, eu tinha um speed da razer que foi ficando desgastado rapidão e aí começou a ficar prendendo o mouse, sla. O meu da Logitech é speed tbm já faz 2 anos e continua lisinho. Talvez tenha sido azar	24/08/2019, 11:38:44
1165274721509941248	Vcds10	é algum razer que eu não sei o nome(acho)	24/08/2019, 11:48:38
1165277761910579201	IsmaPSan	Descasca com o tempo :(	24/08/2019, 12:00:42
1165277915686297601	Luiz_Cortello	Só eu q não gosto dos fones da Razer?	24/08/2019, 12:01:19
1165280638154338304	zorahmagdaross	razer	24/08/2019, 12:12:08
1165281085120557056	eliasomessias	razer não razer nem fazer uma dissertação	24/08/2019, 12:13:55
1165281589393276928	Luiz_Cortello	Eu não manjo muito de fone, mas os fones da Razer nunca me agradaram, me falaram q o Morcego do Fallen é um bom custo benefício, mas eu sempre opto pelos fones da HyperX, o Cloud Alpha e o Cloud 2 são os melhores q já vi	24/08/2019, 12:15:55
1165284276847489025	giovannxaaa	alguem sabe um teclado mecanico massa SEM SER DA RAZER??????	24/08/2019, 12:26:36
1165288827143032832	rodrigobocheca2	Participe do sorteio de 100 pins Razer Gold e tenha a chance de participar de uma live com seus influenciadores favoritos! %{link} https://wn.nr/P7PvWh	24/08/2019, 12:44:41
1165302284722540546	wDpLays	Participe do sorteio de 100 pins Razer Gold e tenha a chance de participar de uma live com seus influenciadores favoritos! %{link} https://wn.nr/36Z7Pg	24/08/2019, 13:38:09
1165302694422204416	rayssao_2000	se o seu namorado tem um pc da razer ele tem condições de comprar presentes mais caros pra vc sim	24/08/2019, 13:39:47
1165306379659304960	Gabriel80261701	Melhore seu FPS em todos os jogos com esse Programa(Melhor que RAZER COR... https://youtu.be/WTLeHbcxMc0 via @YouTube	24/08/2019, 13:54:25
1165309726718144512	Renatofasano	Participe do sorteio de 100 pins Razer Gold e tenha a chance de participar de uma live com seus influenciadores favoritos! %{link} https://wn.nr/GfNRnv	24/08/2019, 14:07:43
1165310160866304003	LorenzoLuis_	Comprei um mouse pad q brilha da razer	24/08/2019, 14:09:27
1165311077594423301	aeongf	espero q nao seja da razer	24/08/2019, 14:13:05
1165318427088707585	MacawTv	Live Stream Online! Brawlhalla Razer Fighting League Qualifiers#2! Dessa vez live stream na Twitch também! https://www.twitch.tv/macawtv	24/08/2019, 14:42:18
1165322244215713793	EstevoMelo2	Participe do sorteio de 100 pins Razer Gold e tenha a chance de participar de uma live com seus influenciadores favoritos! %{link} 	24/08/2019, 14:57:28
1165323026482810880	pichauinfo	Seu nível nas gameplays aumentou e precisa investir em um teclado melhor? Se liga no Blackwidow da Razer! https://bit.ly/2HnLu1D	24/08/2019, 15:00:34
1165325255902224384	phantom90451	Mete fav e dou-te 12 perguntas. 1- Já acabei por enquanto 2- 19 3- 1 4- Touro 5- Kinda 6- Na da minha sorte 7- Agora? Incrível! 8- MUITOOO 9- Ser traído 10- Razer e Alien 11- Acho que começo a acreditar 12- Espero que com o tempo venha a ser 100% 	24/08/2019, 15:09:26
1165330693347368961	TRTChamp	Nosso amado torneio IRONFIST #5 que jogo amigos!! #tekken7 #twtdojo #bandainamcobr #razer #trtchamp #fliperama #hype em Cooldown E-Sports n' Burgers https://www.instagram.com/p/B1jo5lwBHVf/?igshid=15bs7obi1y6bd	24/08/2019, 15:31:02
1165333273855365120	TheReelVenom	Razer Electra v2	24/08/2019, 15:41:17
1165336478400032769	apatab	Razer Carcharias http://specsan.com/computer-headset-razer/razer-carcharias #Razer	24/08/2019, 15:54:02
1165337816345300993	tsuatome	falei desse filho da puta quando ocorreu o caso com a razer, esse canal tem que ser derrubado urgente 	24/08/2019, 15:59:21
1165338392797876225	EmiiyTV	razer ornata	24/08/2019, 16:01:38
1165339071872479232	DV2THEFOX	Razer ^^	24/08/2019, 16:04:20
1165339204684922880	Calling_Field	Razer	24/08/2019, 16:04:52
1165341178721656834	dendeadahahaha	razer	24/08/2019, 16:12:42
1165344001798676481	GamaKoch	Participe do sorteio de 100 pins Razer Gold e tenha a chance de participar de uma live com seus influenciadores favoritos! %{link} https://wn.nr/v5fqFB	24/08/2019, 16:23:55
1165344364001923072	OBrisado_	Participe do sorteio de 100 pins Razer Gold e tenha a chance de participar de uma live com seus influenciadores favoritos! %{link} https://wn.nr/bhXj4P	24/08/2019, 16:25:22
1165345701318074369	Reapys1	Participe do sorteio de 100 pins Razer Gold e tenha a chance de participar de uma live com seus influenciadores favoritos! %{link} https://wn.nr/Bm3zJt	24/08/2019, 16:30:40
1165346168961937408	JucaAbreu13	Participe do sorteio de 100 pins Razer Gold e tenha a chance de participar de uma live com seus influenciadores favoritos! %{link} https://wn.nr/6nAZmW	24/08/2019, 16:32:32
1165355002942169088	8banho	aquelas mouse da razer iam durar 0,1 segundos na minha mao kkkkk	24/08/2019, 17:07:38
1165362188191764480	ioN_Grove	Razer Electra V2	24/08/2019, 17:36:11
1165365238423851009	_Velrok	Pobre teclado de razer	24/08/2019, 17:48:18
1165370548194557953	wzuia	Tá rolando um sorteio da Razer Gold valendo 100 pins e nele também 10 felizardos vão ter a oportunidade de ir pra sede da @razerbrasil em Santos participar da live Razer Gold XP comigo e mais influenciadores Não deixem de participar e boa sorte! https://gleam.io/xagdc/razer-gold-xp	24/08/2019, 18:09:24
1165378664554520578	Gramado3	Participe do sorteio de 100 pins Razer Gold e tenha a chance de participar de uma live com seus influenciadores favoritos! %{link} 	24/08/2019, 18:41:39
1165378967303524353	Vins_GTA	Razer Abyssus 1800+	24/08/2019, 18:42:52
1165388117622317057	fallendadepre	"Nem a razer tá curtindo tanto ""verdinho"" igual esse chapa aí primo"	24/08/2019, 19:19:13
1165390559646822400	https_dvrk	Joga esses trem da razer fora 	24/08/2019, 19:28:55
1165409117151858688	LiroouTT	Ta chegando junto c seu fone razer	24/08/2019, 20:42:40
1165409341572362240	Kroulyne	só queria um headset da razer é pedir dms??	24/08/2019, 20:43:33
