id	username	text	datetime
1125928969293967360	S2Enos	Como vou comparar meu notebook com uma torradeira agr >:(	07/05/2019, 22:02:39
1125930623808540678	liborio_b	Tá faltando um teclado não?	07/05/2019, 22:09:14
1125931985829093376	gustavopres	Mim da 1 @RazerBrazil 	07/05/2019, 22:14:38
1125960546455621632	reisvictor7	acabei de ver como uma pessoa vulgo eu é influenciada :o @gabicattuzzo @RazerBrazil 	08/05/2019, 00:08:08
1126019516796952576	esportsMv	"RT Razer ""porori_razer RazerJP RazerES minliangtan RazerGermany RazerBrazil RazerLatino """	08/05/2019, 04:02:27
1126092893448482816	SxtoruUS	Quero um ninja escondeu de um kit gamer de qlq marca preferencia @CorsairGamingBR ou @RazerBrazil	08/05/2019, 08:54:02
1126095021890002944	cebolaodadepre	a @RazerBrazil é linda msm	08/05/2019, 09:02:29
1126134222866063360	fama_arthur	Eu quero o #NinjaEscondeu com @RazerBrazil	08/05/2019, 11:38:15
1126136960253341705	RazerBrazil	Uma torradeira	08/05/2019, 11:49:08
1126137511250731008	anderp1231	Vo jogar gta 5 nessa torradeira	08/05/2019, 11:51:19
1126141982978584576	Danielsdesu	As streams só foram possiveis durante a minha viagem porque a @RazerBrazil me arranjou essas belizinhas, gostei muito do microfone por ser bem portátil,facil de carregar pra lá e pra ca e a web cam tem iluminação própria, o que ajuda se não estou em um ambiente bom, brigado &lt;3 	08/05/2019, 12:09:06
1126142210938945537	Jazzinhos	essa foi boa Kkkkkkkkkk	08/05/2019, 12:10:00
1126142490145325057	hastadlol	queria. 	08/05/2019, 12:11:07
1126142603030933504	paodealho_	Queria, pena que é o valor do meu rim	08/05/2019, 12:11:33
1126142701047390208	klauslol1_	consegue uma cam dessas pra mim pls 	08/05/2019, 12:11:57
1126142796736466944	LpTitus666	Cadê a promoção da @RazerBrazil ?	08/05/2019, 12:12:20
1126142938529005568	g01001111011010	Vai compra	08/05/2019, 12:12:53
1126143091067498496	Thiagohss1	Esse é o kit dos sonhos de qualquer streamer @RazerBrazil, a gente entende que é de alta qualidade, só é uma pena estar tão caro!!!	08/05/2019, 12:13:30
1126143287751061504	Wendelzeraa	eles tão dando só pra quem não da o cu	08/05/2019, 12:14:17
1126145090622296065	nashinhafps	Essa web é boa mesmo?	08/05/2019, 12:21:27
1126145799614869511	SZG101	Eu tenho essa webcam, e top demais ! Ela completa a falta de iluminação !!!! O microfone ainda não tenho, mas está nos planos ! Boa sorte	08/05/2019, 12:24:16
1126146731022979075	RazerBrazil	Ainda bem que você curtiu 	08/05/2019, 12:27:58
1126148392328015878	HenriqueCaue2	Agora q ñ precisa mais faz a boa pra um inscrito q qr streamar? 	08/05/2019, 12:34:34
1126149423975759872	c_sppl	vc quebra	08/05/2019, 12:38:40
1126161917574299648	NordikVikingTw	Bem que a @RazerBrazil poderia me oferecer esse siren x também hahaha	08/05/2019, 13:28:18
1126171424668946433	feededigno	Olha esses periféricos da @RazerBrazil​! Eles são inspirados na franquia #StarWars! E aí, o que achou dessas belezuras? https://feededigno.com.br/tecnologia/razer-lanca-linha-de-perifericos-com-visual-inspirado-em-star-wars/	08/05/2019, 14:06:05
1126171819977977858	thalisrangel	Kd a torradeira da @RazerBrazil isso não aconteceria	08/05/2019, 14:07:39
1126172470162149376	RazerBrazil	Gente que presenteia com Razer 	08/05/2019, 14:10:14
1126174358068760576	RazerBrazil	Podemos ver isso aí.	08/05/2019, 14:17:44
1126188465341837313	MtHFino	MANOOO, comprei esse mouse pra jogar Tibia. Será que vai dar bom?	08/05/2019, 15:13:48
1126188521188921344	MtHFino	É fácil pegar as manhãs de apertar os botões?	08/05/2019, 15:14:01
1126188988694396930	pitou333x2	droga, ele sabe demais	08/05/2019, 15:15:53
1126191099150831616	MtHFino	Valeu pelo feed, eu ainda nem escolhi qual esquema de botão eu vou usar do lado, mas acho que esse que tem mais botões é melhor. To aprendendo a configurar ainda obrigado	08/05/2019, 15:24:16
1126198102036242442	RazerBrazil	Estamos AO VIVO jogando Free Fire pela @StreamCraftBR! Vem pra live: http://rzr.to/AoVivo	08/05/2019, 15:52:05
1126199045213519872	Yutaahh	NEM FUDENDO KKKKKKKKKKKKKKK	08/05/2019, 15:55:50
1126199588090777606	Major_Kalu	Façam live de outro game melhor.	08/05/2019, 15:58:00
1126200469305593862	vxniciusg	comprar periférico da razer pra jogar fogo livre 	08/05/2019, 16:01:30
1126200608019685382	RazerBrazil	WOW a madrinha que todo gamer queria ter.	08/05/2019, 16:02:03
1126202097509261314	Kayna132	Na moral	08/05/2019, 16:07:58
1126205339844718594	nataconect	e minha vontade de comprar um kit @RazerBrazil ta crescendo cada dia mais DIA 10 QUE ME ESPERE	08/05/2019, 16:20:51
1126230465755656199	cherryrar	@RazerBrazil aí meus amores bora fazer uma geladeira quartz rgb por favor ne	08/05/2019, 18:00:42
1126262422958944257	caue_cap	Caraca aconteceu a mesma coisa comigo e com o mesmo mouse (naga). Kkkk.	08/05/2019, 20:07:41
