id	username	text	datetime
1166503243469524992	Allyson_7Sep	E dinheiro...	27/08/2019, 21:10:20
1166507880759123969	Italosilva1995	Que Deus abençoe seu trabalho	27/08/2019, 21:28:46
1166508231797157890	yDaviPvPz	Manda ou eu te mato	27/08/2019, 21:30:09
1166566737132888064	firneto	Só me falta o glamour...	28/08/2019, 01:22:38
1166594282695905280	CoisasGameplay	Se o Maduro cair antes, me manda um heaset da @RazerBrazil	28/08/2019, 03:12:05
1166704145694363648	RazerBrazil	ACORDEI NÉ TALS E MEU SOBRINHO VEIO ME DAR BOM DIA... HOJE É DIA DE GUERRA, MANÉ BOM DIA! #SomosMIBR	28/08/2019, 10:28:39
1166712421651832832	aziz_sawaya	Mds, o q esse paraiba fala e gesticula se jogasse metade carregaria qqr time.	28/08/2019, 11:01:32
1166715703010975744	sapanema	@l_psantana é o quarto do Neto?	28/08/2019, 11:14:34
1166716166234157056	bipolarlizandra	até eu queria um assim amiga	28/08/2019, 11:16:25
1166716271842471936	igoroliveira997	Troca com o cara primo	28/08/2019, 11:16:50
1166717518586818560	aziz_sawaya	Quem anda de lado é carangueijo. É pra frente, regredir fica com o pessoal que gosta de ser advogado de Twiter.	28/08/2019, 11:21:47
1166719776053506054	Lucas_DGabriel	Lacraste Poiola 	28/08/2019, 11:30:45
1166729775903379457	igoroliveira997	Tô sendo advogado de ninguém não padrin, vc tá criticando uai tô pedindo pra trocar com o cara	28/08/2019, 12:10:30
1166737039821299714	HanZJooJ	E alguém pra pagar a conta de luz	28/08/2019, 12:39:21
1166755340601438208	invernavas	kkkkk fodase	28/08/2019, 13:52:05
1166790152750084099	HmJoaok	se eu n me engano ela era fundadora ou algo assim sla	28/08/2019, 16:10:24
1166795892818632705	VnsnitraM	Hoje tem Flamengo, dia de guerra mesmo	28/08/2019, 16:33:13
1166796237963763712	colaresz1	se a mibr ganhar e o mengo é festa na favela mlk	28/08/2019, 16:34:35
1166804234270072832	htmluluke	As vezes tudo que a gente precisa é menos machismo mesmo	28/08/2019, 17:06:22
1166817161605734401	igoroliveira997	Respeito sua críticas primo, mas vc tem que aceitar...	28/08/2019, 17:57:44
1166817457845297153	joaovictorriba3	Crítica mais #SomosMIBR	28/08/2019, 17:58:55
1166817957269442560	aziz_sawaya	Era zica reversa manoooo, ganhamos e o @TACOCS moeuuuuu!!!! #gomibr	28/08/2019, 18:00:54
1166818224018743296	aziz_sawaya	Tmj pró clicador!!!	28/08/2019, 18:01:57
1166818743890120706	aziz_sawaya	"Ai sim, copiador de comentario, advogado de twiter! Eu tenho minha opinião, e emito ela como bem entender! Falou ""Smiles"""	28/08/2019, 18:04:01
1166821892877160449	diie_go_	Como é? Kk	28/08/2019, 18:16:32
1166822778391191554	dodopires	Eu acho que esse novo mouse da @Razer @RazerBrazil veio com a mira quente. Certo @TACOCS ? Já chegou o #RazerViper no Brasil? #SomosMIBR #BerlinMajor @mibr	28/08/2019, 18:20:03
1166823121950838793	faeel_m	Acho que ele jogou com um desse wireless 	28/08/2019, 18:21:25
1166823233703882753	_danalves8	Ad milionário	28/08/2019, 18:21:52
1166823386883985410	web_asn	Portfólio ASN Web Theme Kratos . Painel nanolef , PC pichaugaming, Periféricos @RazerBrazil, Figuras ironstudios e Notebook @Avell_Notebooks . . Perfil do Portfólio com conteúdo Geek, Action Figures, Games e… https://www.instagram.com/p/B1uPs3uBVig/?igshid=id78gwz7jtif	28/08/2019, 18:22:28
1166823451509886979	igoroliveira997	Rlx, respeito sua opinião primo	28/08/2019, 18:22:44
1166823726735941632	prtskc	Respeita o homi	28/08/2019, 18:23:49
1166824355675934721	LucasDaMatta6	Ata mano , ja ia te procurar pra esfregar o resultado na tua cara , #SomosMiBR	28/08/2019, 18:26:19
1166824588950540294	RazerBrazil	Quem viu o jogo vai concordar! #SomosMIBR E logo mais o Razer Viper aterrissa no Brasil. Já vamos separar o seu, @dodopires 	28/08/2019, 18:27:15
1166824670898737152	web_asn	Portfólio ASN Web Theme Kratos . Painel nanolef , PC pichaugaming, Periféricos @RazerBrazil, Figuras ironstudios e Notebook @Avell_Notebooks . . Perfil do Portfólio com conteúdo Geek, Action Figures, Games e… https://www.instagram.com/p/B1uQSVvBH9T/?igshid=a5juvfxyayq5	28/08/2019, 18:27:34
1166824782056177664	HexaCdB	Me empresta um aí pra eu testar rapidinho aqui, bicho!	28/08/2019, 18:28:01
1166824803673792513	dodopires	Aí sim. Minha mira ta precisando de um upgrade! #RazerViper #SomosMIBR	28/08/2019, 18:28:06
1166826411916693504	Thomazaum	Joga contra o Inter o mesmo tanto q taco jogou contra a nip hj	28/08/2019, 18:34:29
1166828516542996480	_SteffyPudd	Si do nada eu descubro q a @RazerBrazil e a NIO tao fazendo um fucking carro rgb.. fui no video ler os comentarios.. mano, faz tempo que nao dou tanta risada	28/08/2019, 18:42:51
1166828730125377537	k3k3_____	Porra perdi mts jogos da 1ª parte, nego já tá 200 pt na minha frente kkkkkk	28/08/2019, 18:43:42
1166830212946022400	Cleidim_	Inclusive, estamos precisando de um mouse desse pra ver se o time volta a jogar bola. Afina, @Cruzeiro ta noob que só nesse ano, né!?	28/08/2019, 18:49:36
1166831153480896512	jpzao2	Segue o lider	28/08/2019, 18:53:20
1166831655903989762	MisterGraiig	Dodo, eu sou Cruzeiro apaixonada e fa de CS. Acho que se voce me responder, eu grito de felicidade.	28/08/2019, 18:55:20
1166832528755429378	crynando	Não tá dando pra criar registar usando a Twitch	28/08/2019, 18:58:48
1166833042700349442	Kngustmartins	Taquinho é um dos caras mais constantes da história do cs. Entra ano,sai ano ele aumentando o nível,sendo sólido e nos orgulhando sempre. Admiro demais essa fera. @TACOCS parabéns e obrigado por tudo que você faz por nós. Monstro. #SomosMIBR	28/08/2019, 19:00:50
1166834976878469123	TeamPlay	Dá para buscar Kéké, tu é o demônio nas apostas! CONFIAMOS em você ;)	28/08/2019, 19:08:31
1166842761963810822	llcfromhell	Meu velho companheiro Abyssus veio a falecer após muito CS:GO (literalmente eu sentei o dedo por bons 5 anos e ele trincou no botão direito). Acho que vou seguir o @TACOCS e pegar um Viper quando chegar.	28/08/2019, 19:39:27
1166845721162723328	gnominhoCEC	Preciso de um computador novo URGENTE o meu já tá nos últimos dias de vida. Alo @RazerBrazil ajuda nos aí 	28/08/2019, 19:51:13
1166860392053772288	otheusvinicius	Tava mesmo era querendo o fone da @RazerBrazil. Aqueles com as orelhinhas. Verde de preferência.	28/08/2019, 20:49:31
