id	username	text	datetime
1128093256854585344	moicaNET	" ... Projeto ""Chassi de Grilo Men"". #Fitness #Devagarinho #brasil #freefire #moicanet #gym #Razer https://www.instagram.com/p/BxbDRy-AVr1/?utm_source=ig_twitter_share&amp;igshid=1az0hw9re07v9"	13/05/2019, 21:22:46
1128095926663483392	VitorStoker	Venha conferir a grande final da @WarfaceOfficial CHALLENGER no canal da @RazerBrazil no Youtube!! Link para conferir: https://www.youtube.com/watch?v=e77HMPa0_eU #WARFACE #RAZER #LEVELUP @levelup	13/05/2019, 21:33:22
1128103456378585088	1_Zanon	O auge do meu dia foi meu cartão ter chegado e eu comprado um razer com ele 	13/05/2019, 22:03:17
1128107499788414979	FabriciouBorges	é o kraken da razer	13/05/2019, 22:19:21
1128108241873965057	nataconect	Fone da Razer tá me chamando atenção mais ainda	13/05/2019, 22:22:18
1128111773968752640	ghxstineedy	Com 500mil eu mudaria de casa,adotaria um bichinho talvez um doguineo,compraria um fone da razer, um computador novo,viajaria com minhas migs,daria vários presentes aos meus avós,compraria muitos moletons e as roupas do @oMeiaUm e @Vito_Palmito #ACORDAMENINA	13/05/2019, 22:36:20
1128115541485477888	Matheus_joaoo	Mano, eu odeio ficar com raiva e n poder xingar, n poder falar ou razer nd. Isso me deixa com mais ódio ainda	13/05/2019, 22:51:19
1128126372856176641	muniquecancian	Vish, vai se achando aí, bunita. To com pc GAYMER, com fone razer GAYMER, com teclado GAYMER, até meu mousepad é GAY-MER. Vamo lá então, x1	13/05/2019, 23:34:21
1128129420101922816	anaa_0660	chap: ia comprar o kraken da razer rosa de orelhinhas, ia ficar um arraso	13/05/2019, 23:46:28
1128129906490183680	brtanker	"Só vejo nego encher a boca pra dizer: ""Meu iPhone"" ao invés de ""meu celular"" ""Minha JBL"" ao invés de ""minha caixinha"" Mas é só eu resolver ligar o led do meu fone que só se ouve: ""ALA, SÓ PRA MOSTRAR QUE TEM COISA DA RAZER"" Meu amigo, vá tomar no seu cu"	13/05/2019, 23:48:24
1128136135811698689	MateusCaniceiro	Meu filho desde criança vai aprender a usar armas. As primeiras serão mouse e teclado da Razer.	14/05/2019, 00:13:09
1128141879797850112	naoehoharon	o @RazerBrazil namoral, vamo trabalhar essa ideia ai, no inverno ia ajudar altos em chico bel, sem contar nos países que são são frios normalmente	14/05/2019, 00:35:58
1128157222800957440	Richinho2k	estraguei meu headset da razer, boa Richard	14/05/2019, 01:36:56
1128157609809391618	caliari0	Usei por 2 anos o Corsair Vengeance 1500 v2, mas ele foi descontinuado (foi o fone que eu mais amei na vida). Fiquei uma semana com um Corsair HS60 e achei ótimo, provavelmente comprarei inclusive e passei um dia e pouco com um Razer Kraken Pro que achei um lixo do caralho.	14/05/2019, 01:38:28
1128167368256045056	imarcebba	oi gente ajudem aqui eu vcs são a minha consciência o headset razer http://d.va tá literalmente pela metade do preço e eu quero essa merda desde 2016 eu tenho dinheiro e posso compra mas tô desempregada EU COMPRO OU NÃO?	14/05/2019, 02:17:15
1128171066201858048	ONu_Mon	Razer	14/05/2019, 02:31:57
1128172547671912448	athletics231	RAZER!!!!!!!!!	14/05/2019, 02:37:50
1128184742917152769	deathfess	Razer 	14/05/2019, 03:26:18
1128194369968910336	nsfbot	Bancada do Razer	14/05/2019, 04:04:33
1128194799113265152	esportsMv	"RT Razer ""ArchersArcade """	14/05/2019, 04:06:15
1128205840471810049	beittuw	O meu é razer, e tem isso, porém mudo DPI pelo synapse	14/05/2019, 04:50:08
1128230734471278593	ZEED_DNO	razer +1 https://www.facebook.com/sweettpartyy/posts/1394835533990196	14/05/2019, 06:29:03
1128231299444031488	cesrkk	Grand Chase, queria ver se um teclado razer aguentava tanto ZZZZZZZZZZZZZ	14/05/2019, 06:31:17
1128261137840128000	AzorAhaiTheOne	Pau durão da Razer! Hahahahahahahahahahahhaahahhaha	14/05/2019, 08:29:51
1128273446939570177	lzrd_ou	Razer *	14/05/2019, 09:18:46
1128292152226848768	AppointedKnight	Teclado da Razer ai compra 3 cadeiras	14/05/2019, 10:33:06
1128292624513884160	MateusD87699169	Queria o confirmatory das nassão 3 das tutor alegre rev 9 1 Razer 3 European precise hanger multiracial melee. 3 rear Evelyn need familiarity. O chafe deb Cisco tang mum quando Razer com q Minh 3 tambourine Center 0941 round compositions e centro ano femoral	14/05/2019, 10:34:59
1128304890462314496	RazerES	Felicidades adelantadas! 	14/05/2019, 11:23:43
1128305451861446657	MOD_UwU	RAZER?	14/05/2019, 11:25:57
1128308669467320321	_gnc8	Sdds faker absolutic homem louco picando razer completamente puto e acabando com o jogo sozinho	14/05/2019, 11:38:44
1128314268531744775	harulol1	Razer Kraken pro v2 (eu uso óculos e comprei ele justamente por isso, ele tem uma almofadinha muito macia e usar ele com o óculos não machuca e nem estraga o headset)	14/05/2019, 12:00:59
1128321708186853377	O_Raul	Pronto, depois da razer agora a oneplus com refresh rate alto. Refresh rate alto trás maior consumo de bateria. Se não for adaptativo, tipo quando você abre um joguinho ou streaming de video, vai ser uma draga. 	14/05/2019, 12:30:33
1128323213044400128	MateusD87699169	Leo o fendas! Astounds tem respected ! E respeito! Merry Razer nao quiver q optimal depositado vampire nao pics to integer !legislated comigo ram does minding! save 9 quem exceed 3 European ramble! Call mil later ? Baylor plotter umas del Este ochre as grander brutas	14/05/2019, 12:36:31
1128335444519735296	CreoETE	Razer	14/05/2019, 13:25:08
1128336934860935170	wagner_pike1	Faz um mouse que gela nossa ceva PF @Razer @RazerBrazil	14/05/2019, 13:31:03
1128343382424637441	PluckySquatch	Luna is precious	14/05/2019, 13:56:40
1128352611609010177	CaioDreyer	Bah um tempo atras eu era mt fanboy da razer, hj em dia a hyperx domina mt	14/05/2019, 14:33:21
1128361200583094277	vgBR	A força é grande nestes periféricos :P #razer #starwars #vgBR https://vgbr.com/2019/05/09/razer-lanca-linha-de-perifericos-com-visual-inspirado-em-star-wars/	14/05/2019, 15:07:28
1128362615565164544	sr_presidiario	Anel da razer	14/05/2019, 15:13:06
1128367314955534336	Orbitalmx	https://www.facebook.com/orbital.mx/photos/a.281377565254888/2380221112037179/?type=3 Galeria de Hardware por #Razer Presentada por http://orbital.mx ¡Visitanos!	14/05/2019, 15:31:46
1128369867885809665	MODZ3US	Nem é tudo isso: Razer Deveria ser mais valorizada: entradas para Fone Fez eu me apaixonar por tecnologia: Placas de Vídeo Acabou e tenho saudades: celular barato Uso mas não falo pra ninguém: snapchat kkkk	14/05/2019, 15:41:55
1128375675721867264	kyobr	Compra um Razer Seiren, é basicamente o Blue Yeti com uma embalagem diferente =P	14/05/2019, 16:04:59
1128380110795608065	kyobr	"É bom sim, mesmo que a marca ""Razer"" nem sempre traga confiança. Na real ele é uma remarcação do Blue Yeti mesmo, eles pagaram a licença e botaram a embalagem deles"	14/05/2019, 16:22:37
1128381726248591360	aurelio_yuri	@kabumcombr baixa o preço ai dos headset top de linha. Razer Nari Ultimate e Steelseries pro + GameDac	14/05/2019, 16:29:02
1128398533080551424	fallenstorebr	O Teclado Gamer Ornata da Razer possui um descanso para o pulso que garante seu conforto, não importando a intensidade das suas maratonas de jogo. Garanta o seu e bom jogo! https://buff.ly/2WLmoPM #SomosTodosJogadores	14/05/2019, 17:35:49
1128404618352967682	MiguelP91135221	Vou razer o piercing no mamilo	14/05/2019, 18:00:00
1128413801232195584	salejeune_	Je tente ma chance 	14/05/2019, 18:36:29
1128414208415211520	umnomequaIquer	full razer, meu sonho de criança está realizado	14/05/2019, 18:38:06
1128416011340996609	daniel_asilva	KKKKKKKKKKKK já vi vários virem enrolados assim, é o primeiro q vejo não ficar esticado. O meu da razer por exemplo não ficou assim não (não é carteirada, só um adendo msm)	14/05/2019, 18:45:16
1128418374831284224	Vinicius__2105	MEU FONE RAZER CHEGOUUUU	14/05/2019, 18:54:40
1128422997122002945	PromobitOficial	#promoção #oferta Home Theater para Jogo Razer Nommo Preto - R$599,00 	14/05/2019, 19:13:02
1128425454673776643	GuilhermeGorkom	só de pensa q vou ter um i5 8gb ram e uma gtx 1050 de 4gb, e talvez um semi-full Razer. Já fico feliz por ter algo q eu queria a tanto tempo . . 	14/05/2019, 19:22:48
1128435306439610368	G_Toxic_	Razer man : 	14/05/2019, 20:01:57
1128438894930870272	RaposoRDP	Manda mimos Razer	14/05/2019, 20:16:12
1128440257454723073	guto_snz	Confira C9 X luminosity [SKINS GRÁTIS] SORTEIO MOUSE RAZER DEATH ADDER 2013 - !skins !subgratis !loots !sorteio https://www.twitch.tv/videos/424886906	14/05/2019, 20:21:37
1128442893352493056	liliipad_	quero o fone de gatinho da Razer! mas tenho outras coisas pra comprar antes pra melhorar a stream =/	14/05/2019, 20:32:05
1128446030767382529	vivirichil	Galeraaaaa, corre lá na stream, tá boa pra caralho, e o melhor de tudo, vamo sortear um teclado razer blackwindow Basta seguir a live e comentar algo no chat que o moderador vai pegar o nick... boa sorte pra vcs 	14/05/2019, 20:44:33
