id	username	text	datetime
1178461204773298176	marianeribs	incrível como vcs esqueceram das merdas que a razer fez e já estão babando o ovo dela de novo	29/09/2019, 21:07:00
1178468185189818368	Taealien20	As vezes eu me pergunto como um simples sorriso pode me razer tão feliz 	29/09/2019, 21:34:44
1178470164339335169	DylanGmez9	Razer	29/09/2019, 21:42:36
1178494102712803329	jpvalle027	Dou tanto hate na razer, mas porra, a acústica desse fone é boa demais vsf	29/09/2019, 23:17:44
1178502262332809216	pippew	Razer viper o logitech 403?	29/09/2019, 23:50:09
1178503822500610049	DylanGmez9	Es el puto Razer	29/09/2019, 23:56:21
1178511622861721600	luxcasfps	mano meu pai chegou em casa assim filho comprei um mouse gamer pra mim CARALHO EH RAZER?? LOGITECH?? nao filho é multileizer	30/09/2019, 00:27:21
1178519080535576577	thur_nunes	ganhei um fone da Razer muito pica	30/09/2019, 00:56:59
1178541468161581056	bizorrofps	Gente to vendendo meu MOUSE da Razer! ( ñ mousse kkkkk ) quem tiver interesse só entrar em contato! 98101-3583 ( Bizotto ) 1 deathadder eseential WHITE só saiu da caixa pra teste R$200 e 1 Deathadder Chroma usado mas muito bem conservado! R$180 RT da ajudaaaa! 	30/09/2019, 02:25:56
1178564458442043392	PCGamingit	Razer Seiren Emote è il primo microfono con display per le emoticon - https://pc-gaming.it/razer-seiren-emote-e-il-primo-microfono-con-display-per-le-emoticon/	30/09/2019, 03:57:18
1178577242580045824	NEWS_AUTOCAR	Razer&amp; http://tinyurl.com/y4r7f4cx	30/09/2019, 04:48:06
1178580764578873344	bonsplanstech	Souris Razer Basilisk Essential (6 400 dpi, 7 boutons) 29,99 euros http://dlvr.it/RF9Vv8	30/09/2019, 05:02:05
1178582038611464193	trastienda3	RAZER #Trastienda #Amazon COMPRAR AQUÍ https://amzn.to/2nJ3j4m	30/09/2019, 05:07:09
1178583031923298304	VJV_Bonplan	Souris Razer Basilisk Essential (6 400 dpi, 7 boutons) 29,99 euros https://www.nextinpact.com/bons-plans/21300-souris-razer-basilisk-essential-6-400-dpi-7-boutons-2999-euros.htm	30/09/2019, 05:11:06
1178587196678443010	HugoMedeirosYT	 A Razer, a Xiaomi e outras estão a rir. 	30/09/2019, 05:27:39
1178588871040221184	hanseungyoun	Razer anjir 	30/09/2019, 05:34:18
1178597341810573312	FraxZone	Va s'y bg	30/09/2019, 06:07:58
1178616985346723840	Ujjwal_Jain1	Moto razer 6 S	30/09/2019, 07:26:01
1178625588178886656	Yannarrow	Y sont pas sponso logitech mais razer	30/09/2019, 08:00:12
1178627314168541184	JoaoPKenzo	Odeio a @Razer namoral pqp, 3 vez q o Kraken para de funcionar	30/09/2019, 08:07:04
1178633039263539200	Marcheti_Gui	Compra aqueles fone de 20 reais que é GG	30/09/2019, 08:29:49
1178633246097248256	JoaoPKenzo	Tô usando um fone de ouvido de 15 reais agr KKKKK Amanhã vou fzr aniversário vou pegar a grana e pegar um hyperX msm, razer n da n	30/09/2019, 08:30:38
1178633502809567238	Marcheti_Gui	Tá certo !!	30/09/2019, 08:31:39
1178635079658201088	JoaoPKenzo	Mas vc eh MT burro kkkkk ele parou de pegar e voltou 3 vezes animal ksjkasksk	30/09/2019, 08:37:55
1178645311868289024	Valentinobreno2	Team razer taco	30/09/2019, 09:18:35
1178646555668205568	pvrisiscrush	vendo mis razer kraken pro v2 para comprarme estos 	30/09/2019, 09:23:31
1178662763876499456	Valentim____	desisti de vender meu razer naga ele é bonito dms	30/09/2019, 10:27:56
1178673878593343488	_sparkingg	Essa loja tem tudo .. hyperX, razer, logitech, steelseries, senheiser, cadeiras, tudin, so que eh mais cara do q o normal	30/09/2019, 11:12:06
1178674649938485249	UltimaFichaGame	Nosso super tutorial sobre o Razer Gold, veja como usar, onde, quando, o que, para, por, perante etc... http://ow.ly/7F2X50wwK2M	30/09/2019, 11:15:09
1178675222242906114	meiobit	Razer Viper: o mouse para quem atira primeiro — Review https://meiobit.com/412208/mouse-razer-viper-review/	30/09/2019, 11:17:26
1178675229155106816	RonaldoGogoni	Razer Viper: o mouse para quem atira primeiro — Review https://meiobit.com/412208/mouse-razer-viper-review/	30/09/2019, 11:17:28
1178678904598474752	vescnet	Razer Viper: o mouse para quem atira primeiro — Review https://ift.tt/2oBHhAN	30/09/2019, 11:32:04
1178678909728100352	gfeedk	Razer Viper: o mouse para quem atira primeiro — Review #tecnologia #tech	30/09/2019, 11:32:05
1178686472230187009	mousesports	Razer Gigantus	30/09/2019, 12:02:08
1178687731829837826	dominique_droxe	razer 	30/09/2019, 12:07:08
1178688421860188161	DinosauloRaw	Por acaso é um da razer?	30/09/2019, 12:09:53
1178688507776245761	NukeBogdanov	Razer Seiren	30/09/2019, 12:10:13
1178700803579813888	JoaoChZ	quero um razer viper mas ele custa 500 conto, comofaz?	30/09/2019, 12:59:05
1178700923733983232	_guiiiiiii	me apaixonei pelo Razer Viper mas 500 conto eu n pago n	30/09/2019, 12:59:34
1178701071495155712	OficinadaNet	[Razer] Conheça o novo microfone RGB com tela da fabricante de periféricos, o Seiren Emote -&gt; https://www.oficinadanet.com.br/headphones/27873-razer-conheca-o-novo-microfone-rgb-com-tela-da-fabricante-de-perifericos-o-seiren-emote?utm_source=twitter&amp;utm_medium=twitter&amp;utm_campaign=RedesSociais #headphones #razerseirenemote | Por @Vitor_Valeri	30/09/2019, 13:00:09
1178703031887650818	JoaoPKenzo	Apple é igual razer, só tem nome msm	30/09/2019, 13:07:56
1178703764863234048	RazerBrazil	ELE CHEGOU O Razer Viper está à venda com exclusividade no @KaBuMcombr, com valor promocional para as 200 primeiras unidades! http://bit.ly/ViperKBM	30/09/2019, 13:10:51
1178708662128463874	kabumcombr	Pode aplaudir meus amigos Ninjas, está passando em sua timeline 𝐨 𝐦𝐨𝐮𝐬𝐞 𝐦𝐚𝐢𝐬 𝐥𝐞𝐯𝐞 𝐝𝐨 𝐦𝐮𝐧𝐝𝐨! Neste a Razer mandou bem demais galera! Se liga no monstro → http://kb1.me/razer_viper Pesando apenas 68g, este mouse irá lhe surpreender e elevar sua gameplay!	30/09/2019, 13:30:19
1178708876398649345	Abxzrx	Hummm Deus me livre, razer fede a machismo	30/09/2019, 13:31:10
1178708905813319682	_cocaSB	esperando todo esse tempo pra comprar o razer viper pra me sair por 500 CONTO ahhhh puta que pariu	30/09/2019, 13:31:17
1178709314200055814	porquedie	Foi no camelo perguntar o preço do mouse da Razer; 500 reais mano? KKKKKKKKKKKK um novo do mesmo modelo é 300 reais caralho AUEHAUHEUHEUHEAUH	30/09/2019, 13:32:54
1178715643815907329	keyboardmc_	@Direx_YT @sxrpentz_ @aspectrc11 el teclado razer	30/09/2019, 13:58:03
1178717606641127424	flavitorg	Razer Viper: o mouse para quem atira primeiro — Review - Meio Bit - https://noticiasamericadosul.com/2019/09/30/razer-viper-o-mouse-para-quem-atira-primeiro-review-meio-bit/	30/09/2019, 14:05:51
1178730163640643585	larafroot	a razer criou energético pra gamer, não duvido que no japão tenha	30/09/2019, 14:55:45
1178736375824289800	madacadabra	boa tarde, Razer 	30/09/2019, 15:20:26
1178739305952481285	baka_oliver	KK Razer lança um linha para pobres vão vender o dobro	30/09/2019, 15:32:05
1178744952387522560	_brents	Razer&gt;	30/09/2019, 15:54:31
1178757627033128962	astaribe	vo compra um desse pra minha vó da razer	30/09/2019, 16:44:53
1178758234208919552	adrenalinke	astaribe sua vozinha é da razer?	30/09/2019, 16:47:17
1178758765212000256	nerdweekblog	Razer Viper tem tecnologia inovadora e exclusiva que proporciona tempo de acionamento dos comandos três vezes menor do que os mouses gamers tradicionais e é ideal para usuários que buscam alta performance nas partidas - 	30/09/2019, 16:49:24
1178759317400342528	ahhparaneh	Razer Viper: o mouse para quem atira primeiro — Review http://dlvr.it/RFCqN7	30/09/2019, 16:51:36
1178760225060524033	ovicio	Novo mouse para jogos Razer Viper chega ao mercado brasileiro https://ovicio.com.br/novo-mouse-para-jogos-razer-viper-chega-ao-mercado-brasileiro/	30/09/2019, 16:55:12
1178763929465577472	ligacaoteen	Novo Mouse Razer Viper começa a ser vendido no Brasil http://www.ligacaoteen.com.br/geek-games/novo-mouse-razer-viper-comeca-a-ser-vendido-no-brasil/109722/	30/09/2019, 17:09:55
1178765154235883520	Suprimatec	Razer Viper e o primeiro mouse da Razer lançado no Brasil com switches ópticos https://suprimatec.com/razer-viper-e-o-primeiro-mouse-da-razer-lancado-no-brasil-com-switches-opticos/	30/09/2019, 17:14:47
1178769752191160321	vonivar	Razer Viper: o mouse para quem atira primeiro — Review - Meio Bit http://dlvr.it/RFCyGB	30/09/2019, 17:33:04
1178771420886814722	sanchesidc	Ok eu também quero ser aquela gamer básica com o setup razer quartz + orelhinhas de gato nada nada cringe	30/09/2019, 17:39:41
1178775063950061568	yt5115	RAZER 	30/09/2019, 17:54:10
1178777505626542080	BRabbit367	Razer o corsair?	30/09/2019, 18:03:52
1178779021464621056	Zarzob	Razer Cobra	30/09/2019, 18:09:54
1178780737732055040	amaterasu580	Razer?	30/09/2019, 18:16:43
1178788476671541248	summerkaface	Cute!	30/09/2019, 18:47:28
1178790490965192705	Suprimatec	Razer Viper e o primeiro mouse da Razer lançado no Brasil com switches ópticos https://www.bloglovin.com/blogs/suprimatec-14139329/razer-viper-e-o-primeiro-mouse-da-razer-lancado-7129242133 on @bloglovin	30/09/2019, 18:55:28
1178791773436555265	Kihariii	RAZER EU TE ODEIO SÉRIO	30/09/2019, 19:00:34
1178792977021505537	e2m_Amorim	Po aí eu ja nao sei, to com o Cloud Revolver tem 1 ano ja e olha muito bom. O meu antigo era o Razer Kraken Chroma porem entre ele e o HiperX eu prefiro o HiperX mesmo com o Kraken durando tipo 4 anos que foi o tempo que fiquei com o meu	30/09/2019, 19:05:21
1178793463095156737	Aaronieiro	como sempre tdo que é da razer é mt top e caro tbm kkk	30/09/2019, 19:07:17
1178795348216729600	Luscaisso	Queria ganhar patrocínio da Razer mas da no preguiça de ser YouTube	30/09/2019, 19:14:46
1178800749997940742	Sailoorcake	Ter um setup gamer fofinho (sem itens da razer rsrsrs) 	30/09/2019, 19:36:14
1178818362677301253	spikdtrn	razer 	30/09/2019, 20:46:13
