id	username	text	datetime
1126638488353480704	anathejoker	Procsssador razer é bom?	09/05/2019, 21:02:02
1126645815366361088	LucasCCG_	Faltou a torradeira nova da razer!	09/05/2019, 21:31:09
1126649352104050688	web_asn	Portfólio ASN Web . Criamos WebSites, Aplicativos Android, Portfólios, Trabalhos de Design, Programação e afins. Fale Conosco. . www . asnweb . com .br . @razer @nvidia… https://www.instagram.com/p/BxQyqpzA5ho/?utm_source=ig_twitter_share&amp;igshid=rsvo6lexvd8r	09/05/2019, 21:45:12
1126653722950557696	Huetir1	tu quer msm é um fogão da razer	09/05/2019, 22:02:34
1126661262291677184	LuizFGarden	Meus clans 2015 - Delfos 2016 - Delfos 2017 - Promo Arena 2018 - Promo Arena, Techtudo 2019 - Razer 	09/05/2019, 22:32:31
1126670251175895041	Thalles01233	Nem é tirando vou junta uns 180 reais para fazer uma coisa que eu sempre sonhei em razer quando eu comessace a trampar 	09/05/2019, 23:08:15
1126680139729907712	BiaMirandola	Um momento revolucionário para não perder 110 reais em menos dd um mês. Eu literalmente to aqui digerindo como pude ser tão bruta com um item inocente e furreco mas bem caro. Imagina se fosse um Razer 	09/05/2019, 23:47:32
1126680756208586758	oseuyuS	Razer	09/05/2019, 23:49:59
1126693936943194113	cozer247	Não comprem produtos Razer.	10/05/2019, 00:42:22
1126709255682150400	Cyrouge	R$261,39 36%de desconto | Razer Basilisco 5G Sensor Óptico de 16000 DPI Rato para jogos FPS Chroma RGB Resistência Personalizável Scroll Wheel 8 Buttom Com Fio rato https://s.click.aliexpress.com/e/AfQGzEo	10/05/2019, 01:43:14
1126744281392115712	selusava	ppicchia maestrobilly Compete diretamente com a Razer (;	10/05/2019, 04:02:25
1126772326278680576	jeremieardr	Razer ManO’War	10/05/2019, 05:53:51
1126785661602881536	Confidentiel__	Razer !!!!	10/05/2019, 06:46:51
1126803236646637568	Riti_R6s	#音フェチキーボード#Razer 	10/05/2019, 07:56:41
1126817190764789760	tizekrol	Ai hoje, trouxe de volta no mesmo rapaz que fez o serviço e recebi uma facada! Vai ter que razer uma limpeza profunda e trocar umas coisas! Passada.	10/05/2019, 08:52:08
1126836385602842635	zecrideMCZ	Razer ornata	10/05/2019, 10:08:24
1126848071277563907	NewWasapi1212	Razer	10/05/2019, 10:54:50
1126860513357512707	jomeviXx	Me e comprado unos altavoces Razer de 130 euros solo para ver el MSI	10/05/2019, 11:44:17
1126861719752585217	Gabriel84091178	@GSorteios estou concorrendo do sorteio do laptop Razer	10/05/2019, 11:49:04
1126868984333328389	guzzzz1	sinceramente eu queria muito a torradeira da Razer	10/05/2019, 12:17:56
1126870910651256832	_Stramosk	Ansioso pra caralho pra chegar as peças do meu pc, aquele mouzezinho da razer coisa mais lindria	10/05/2019, 12:25:36
1126871728691523584	moisesgobila	Pra vc que babá no mouse razer RGB, onled foi criando com pesquisa de base 	10/05/2019, 12:28:51
1126875198328672256	web_asn	Portfólio ASN Web . Criamos WebSites, Aplicativos Android, Portfólios, Trabalhos de Design, Programação e afins. Fale Conosco. . www . asnweb . com .br . @razer @nvidia… https://www.instagram.com/p/BxSZXn9gCeF/?utm_source=ig_twitter_share&amp;igshid=1m5paoauhpzku	10/05/2019, 12:42:38
1126878949693362176	likerxses	Bora razer qualquer coisa owo &lt;3	10/05/2019, 12:57:32
1126886583041269761	kuchienkku	Hp razer	10/05/2019, 13:27:52
1126887634628902913	lipe2008lipao	Eu quero #NinjaEscondeu com o novo Razer Kranken 7.1 da @RazerBrazil. Razer me ame como eu te amo , 	10/05/2019, 13:32:03
1126892641466167297	jarraoplay	A o meu bolso esta bravo, por que mal adquirir uma webcam e um controle da razer agora vocês fazem ela abrir de novo.	10/05/2019, 13:51:57
1126899018112602114	Barbas_30	Obrigado @Razer Só qualidade 	10/05/2019, 14:17:17
1126907990962057216	vitoriadenadai	será q se eu fosse um teclado da razer ou um computador vc mentiria pra mim 	10/05/2019, 14:52:56
1126910965835010048	MorboAalst	T'haha :D	10/05/2019, 15:04:45
1126911315690258432	Nievesfornos	Participo	10/05/2019, 15:06:09
1126916674312114177	victoorww	obviamente o da razer nao eh kkkkkk	10/05/2019, 15:27:26
1126916710517415936	dandowski	Razer em 2k19 kk	10/05/2019, 15:27:35
1126917623877447680	gabrielgiacoo	nao pega razer pelo amor de deus	10/05/2019, 15:31:13
1126918087385726976	conectprovedor	Razer lança linha de periféricos inspirados nos Stormtroopers de Star Wars http://bit.ly/2LAF1F8	10/05/2019, 15:33:03
1126918523857657856	jeolcavaco	Razer lança linha de periféricos inspirados nos Stormtroopers de Star Wars http://bit.ly/2LAF1F8 #umRei #TimBeta #RT #SDV #missaobeta #betaajudabeta #retwitter	10/05/2019, 15:34:47
1126918959255650304	epopeiaorg	Razer lança linha de periféricos inspirados nos Stormtroopers de Star Wars 	10/05/2019, 15:36:31
1126919455181819905	publicelnet	Razer lança linha de periféricos inspirados nos Stormtroopers de Star Wars https://news.publicel.net/2019/05/10/razer-lanca-linha-de-perifericos-inspirados-nos-stormtroopers-de-star-wars/	10/05/2019, 15:38:29
1126920997733576710	YNeizox	Razer v1.2	10/05/2019, 15:44:37
1126921028482097154	Vinny_G4	Se for pegar corsair pega o k70 ou pega o alloy razer eh um lixo	10/05/2019, 15:44:45
1126921587603791872	quanyizehn	alguém me diz oq eu faço com uma caixa/suporte de mouse razer SEM o mouse prfvr	10/05/2019, 15:46:58
1126923114468782081	GeekStart	Razer lança linha de periféricos inspirados nos Stormtroopers de Star Wars https://buff.ly/2Vru2Cg	10/05/2019, 15:53:02
1126925758658752512	millionairebz	vc já tá acostumado com o da razer? o blackwidow stealth edition é sensacional. (eu n largo de teclado razer nem fudendo, mas tem a parada que eu sempre gostei da ergonomia, tamanho, e que da pra lavar ele facilmente)	10/05/2019, 16:03:32
1126925912392515589	gosma_YT	Razer eu comprei o Razer Kraken 7.1 v2 Chroma Mercury porém não esta reconhecendo no razer synapse, pode me ajudar?	10/05/2019, 16:04:09
1126928482380988416	FaelzNep	Exatamente, razer e horrível kkkkkkk	10/05/2019, 16:14:22
1126930795405377537	FaelzNep	Sim, eu não posso criticar pois ja fui fanboy 100% de razer, os teclados mouses e hs, nunca tinha me decepcionados, mais vamos lá né, hoje em dia tem coisa muito melhor, por preço muito mais acessível.	10/05/2019, 16:23:33
1126932615662047232	anzrk_	Essa linha Star Wars da razer... Nem preciso de periférico novo e a mãozinha de comprar já ta coçando	10/05/2019, 16:30:47
1126939288845869061	mickey_oldie	Cutucou meu coração forte agora einh dona Razer 	10/05/2019, 16:57:18
1126942614203322370	RandomWordsCast	Razer...	10/05/2019, 17:10:31
1126943045029642241	aleat0r10	pra ser uma garota gamer voce tem que ter headset da razer com orelhas de gato	10/05/2019, 17:12:14
1126945550513917955	Spinasccp	Hj eu cheguei em casa recebendo um fone da razer e que eu vou pra praia, por mais chegadas em casa assim	10/05/2019, 17:22:11
1126947646361436160	yunglore666	@williangordox me da um mouse e um mousepad da razer aí, casando de usar esse mouse branco e meu caderno como mousepad QUERO SAIR DO PLATINA	10/05/2019, 17:30:31
1126949043148431360	harleyguimaraes	Razer lança linha de periféricos inspirados nos Stormtroopers de Star Wars http://dlvr.it/R4Sq2K	10/05/2019, 17:36:04
1126949417955643392	MeuFeed	Razer lança linha de periféricos inspirados nos Stormtroopers de Star Wars http://dlvr.it/R4SqD1	10/05/2019, 17:37:33
1126949420518363139	_thiago__silva_	Razer lança linha de periféricos inspirados nos Stormtroopers de Star Wars http://dlvr.it/R4SqDY	10/05/2019, 17:37:34
1126952938205671424	Maomede	Razer lança linha de periféricos inspirados nos Stormtroopers de Star Wars http://dlvr.it/R4SrxM	10/05/2019, 17:51:32
1126966231368650755	rokyori_	Nunca mais compro nada da razer vai se fuder, só tem marca mesmo pq qualidade n tem nenhuma.	10/05/2019, 18:44:22
1126967415189979136	RazerBrazil	AMANHÃ é dia de sorteio #RazerDay com @netenho1, valendo um mouse Razer DeathAdder Elite e um mousepad Gigantus! Siga-o para receber notificação do início da live: http://fb.gg/Netenho	10/05/2019, 18:49:04
1126974857495883776	hoodzmusic	Minha experiência com fones em geral, sempre é decepcionante, salve os da Sony e Razer. Comprei um da JBL agora pra testar	10/05/2019, 19:18:38
1126976291092279297	RedSmokePT	Comprar outro rato, Razer 	10/05/2019, 19:24:20
1126976777837056002	Orbitalmx	https://www.facebook.com/orbital.mx/photos/a.281377565254888/2374605055932118/?type=3 Galeria de Hardware por #Razer Presentada por http://orbital.mx ¡Visitanos!	10/05/2019, 19:26:16
1126977149490081793	RedSmokePT	Já tive se tudo... e para mim razer é um patamar acima.	10/05/2019, 19:27:45
1126978242676707328	SonycomSono	Patrocínio da Razer	10/05/2019, 19:32:05
1126979121786105856	shitsray	Ainda monto meu kitzin + setup da razer	10/05/2019, 19:35:35
1126979888014086152	HikoRS121	Razer	10/05/2019, 19:38:38
1126981063371370496	oittavio	as pessoa compra aqueles teclado d 20 conto que duram 10 anos, gastei 200 conto nisso da razer em 2015 e ja ta parando d funciona fodase o capitalismo obg bolsonaro mais uma vez	10/05/2019, 19:43:18
1126982399752122368	dantazin	k63 ou alloy, tanto faz, mas razer nunca	10/05/2019, 19:48:37
1126986104400437254	ouzxmt	estou baixando o programa da razer pra usar o macro do meu mouse ta safe	10/05/2019, 20:03:20
