id	username	text	datetime
1149833422006865926	fnddR6S	mano eu só gosto dos mousepads da razer,o resto é horrível	12/07/2019, 21:10:25
1149835803041906688	canaldocamaleao	o meu que não da mais é um Razer 7.1 chroma	12/07/2019, 21:19:53
1149835848466276357	pokesaponinja	Eu acho que vc pode pegar ou um hyperx clound 2 ou um razer kraken v2	12/07/2019, 21:20:03
1149837288035237888	porralusgas	Só não compra da Razer 	12/07/2019, 21:25:47
1149843281951547399	lucas_aledelz	"Fui fazer o corre da massa, peguei 40 arregado, dps dui pegar o cogumelo, qnd cheguei consegui o cogu(1g), cápsula de cogu(0,5), dps ele botou um ""limon razer""(massa tipo), e me deu carona até o trampo do Vitor pra fuma um escutando sonzao kkkkkkkkkk"	12/07/2019, 21:49:36
1149858367789293569	LiloVLOG	Razer o que mais tem é grave haha	12/07/2019, 22:49:32
1149864034373701632	thiago__urbano	Caralho, 2017.. Eu nem trampava na Razer ainda, e eu era magro :( Sdds	12/07/2019, 23:12:03
1149866650155593728	Shafwan7	"RT TeamRazer ""Team Razer https://twitter.com/dummy/status/1149850074106589186"""	12/07/2019, 23:22:27
1149871174534467584	albertonog_	Alô Razer e demais! TMJ! 	12/07/2019, 23:40:26
1149876112601833473	OficinadaNet	"Razer Basilisk Essential, a versão ""melhorada"" e mais barata do Basilisk Original - 1º REVIEW BR -&gt; https://www.oficinadanet.com.br/perifericos/25130-razer-basilisk-essential-a-versao-melhorada-e-mais-barata-do-basilisk-original-review?utm_source=twitter&amp;utm_medium=twitter&amp;utm_campaign=RedesSociais #mouses #perifericos"	13/07/2019, 00:00:03
1149881680922128385	xhikaara	@Razer Ae man, da um computador so de zoeira o meu ta muito ruim, da pra jogar nada não man kkkk	13/07/2019, 00:22:11
1149888348216909826	almakashi	Razer Panthera	13/07/2019, 00:48:40
1149900121674518528	Zeref_Official	Hm... isso parece um teclado da Razer	13/07/2019, 01:35:27
1149906895714414592	___TYGA___	Razer GIGANTUS！	13/07/2019, 02:02:22
1149907584477851648	Katop87177768	#DEDMIRAMISETUP con mi teclado razer 	13/07/2019, 02:05:07
1149940104875524096	haruto062213	RAZER #BoxFresh http://boxfresh.site/questions/0poanra8-e23g-oc9y-brl3-ara0nbri6t7s	13/07/2019, 04:14:20
1149949073052639232	RD1160	Bonito e vagabundo, tenho dois com problemas diversos. Conserto da Razer? Mais caro que um novo...	13/07/2019, 04:49:58
1149954046750593025	J_Jimenez30	Probando razer tartarus v2 #razer #tartarus #red #JaJimenez30 #leagueoflegends #league #keyboard #https://www.instagram.com/p/Bz2YaMwJu-Y/?igshid=1o35vkdztcmo0	13/07/2019, 05:09:44
1150007191132225536	4shida1122	Razer??	13/07/2019, 08:40:55
1150011484346339328	droidconSG	Team or solo	13/07/2019, 08:57:58
1150041954039803909	agthristie	Exatamente eu na minha cadeira gemer com a mão no meu mouse razer e teclado razer ouvindo o som do jogo no meu fone da razer	13/07/2019, 10:59:03
1150043621430874112	Rushinolk	realizar um sonho de moleque que é comprar um fone da Razer	13/07/2019, 11:05:40
1150046324563283968	natimoya	Essas pessoa ryka com headset da razer	13/07/2019, 11:16:25
1150059725570170880	vitiin_luz	O razer :/	13/07/2019, 12:09:40
1150060882661171200	portwgas	sim, eu quis dizer numa questao que a pessoa publica que é militante, recebe muito hate. e acabou de acontecer o caso da razer que prova esse tipo de coisa, sabe? o universo geek/gamer é mt machista/homofobico, tem gente que nao consegue lidar com isso	13/07/2019, 12:14:16
1150063172096843777	Rodrigomalhei7	Copo de água da razer 50 reais na promo	13/07/2019, 12:23:22
1150065438195355653	vinitoretto	Cara, SWAT Cats era top d+ . Razer e Tibon. Eles tinham as luvas Trix e eram donos de ferro velho.	13/07/2019, 12:32:22
1150079898058461184	gaysandpop	eu ja tinha estralado p mark vou razer isso de novo p sumir da Existência	13/07/2019, 13:29:49
1150082719680012293	NovaMufasaa	TEAM PLAY MARAVILHOSO [ RAZER LEAGUE ] NOVA ESPORTS PUBG MOBILE https://youtu.be/5CWeTFWrAGU https://youtu.be/5CWeTFWrAGU https://youtu.be/5CWeTFWrAGU	13/07/2019, 13:41:02
1150089329596928003	riquexr	https://youtu.be/5CWeTFWrAGU essa play foi louca dms, primeira queda da Razer League. Passem lá no vídeo galera, vale apena 	13/07/2019, 14:07:18
1150090734919249921	NoaimL	Razer #質問タイム	13/07/2019, 14:12:53
1150093452979388419	LaLouraJosefina	Razer machista	13/07/2019, 14:23:41
1150095253778632704	whereissuke	Gente, este perfil que vos fala está vendendo um Razer Deathstalker Essencial, quem tiver interesse me chama, RT AI PRA AJUDAR NO BOTA FORA DA AMIGUINHA 	13/07/2019, 14:30:50
1150099659899265025	ioiartist	poxa minghao. ngm é perfeito, mas usar coisa da razer.... 	13/07/2019, 14:48:21
1150107869590802438	Viper1g	el puto razer	13/07/2019, 15:20:58
1150114099407335425	cherabck	procurando crack pra programa da razer to baixando tudo de chernobyl possivel	13/07/2019, 15:45:44
1150114962922188801	cherabck	perdi meu codigo pro razer synapse	13/07/2019, 15:49:09
1150126249534038017	KevinGa08732329	Razer	13/07/2019, 16:34:00
1150132647441698817	orgxsoul	razer panthera evo	13/07/2019, 16:59:26
1150132791637684225	RazerBrazil	Quantas versões do Razer DeathAdder você conhece? Saiba a resposta aqui: http://rzr.to/DA10m	13/07/2019, 17:00:00
1150136879871713280	YuvrajMundhra	Razer	13/07/2019, 17:16:15
1150145222678110210	1988glow	L evanta G dragon B ora T razer o Seungri de volta	13/07/2019, 17:49:24
1150149320387284997	pedrin_dsr	o negócio é o custo-benefício, eles tem um aparelho mt superior por um preço competitivo mas se dinheiro n fosse problema eu comprava só os razer phone ou samsung	13/07/2019, 18:05:41
1150154090724364289	piscianapunk	Vendo os tuitis de ex lembro q o meu foi bem troxa terminando comigo no meio do meu intercâmbio ele deixou d ganhar todas as coisa de luz colorida da razer	13/07/2019, 18:24:38
1150154345301860352	yurisferr	Quando tocam nesse assunto, o tópico era a comunidade gamer e como as minas são tratadas nos jogos, e chegaram nisso pq começaram a falar do caso da mina da Razer, n tem nada a ver com bolsonaro kk	13/07/2019, 18:25:39
1150157558457483265	Paschoal4243	Ent luba meio q a internet odeia a razer, depois pesquisa razer em noticias e tire suas prorpias conclusões a minha e de usar razer nunca mais	13/07/2019, 18:38:25
1150164014321852416	ZConzyy	Razer	13/07/2019, 19:04:04
1150175122369724416	_Curcan	razer	13/07/2019, 19:48:13
1150176157322633217	josebinus2	Se a razer n tivesse feito aquilo ia perder mt mercado no br e eu ia ficar sem meu teclado gamer lgbt	13/07/2019, 19:52:19
1150180273692262401	JNDJ0	razer	13/07/2019, 20:08:41
1150183399182786560	overacty	Pode ser um not da razer?	13/07/2019, 20:21:06
1150191820678270981	overacty	KKKKKKK PATROCINADA PELA RAZER	13/07/2019, 20:54:34
