id	username	text	datetime
1137910713006067712	Will_Parreiras_	Boa noite clã, dormir sonhando no setup da @RazerBrazil no insta	09/06/2019, 23:33:49
1138061000211664896	carriet_	@RazerBrazil a nova linha quartz chega no Brasil esse mês ainda?	10/06/2019, 09:31:01
1138068806843207690	direitamesmo	kkkkkk pq você da rt no boulos então? invadir propriedade privada é crime, além de que ele apoia o Lula, e soltaria o Lula.... além dele ser contra o capitalismo e empresas como a @RazerBrazil e o @FacebookGaming :)	10/06/2019, 10:02:02
1138070865520803841	rvnvolpato	O cara vez essa “luzarada” piscando, o dedo coça pra dar uns tiros hahahahahhaahha	10/06/2019, 10:10:13
1138072687593611264	Drosdosqui1	só faltava o mouse prar subirr o elo, agora sim	10/06/2019, 10:17:27
1138131872985337856	RazerBrazil	Vai dormir	10/06/2019, 14:12:38
1138144258781847552	gfmbrabo	@RazerBrazil pelo menos o suporte de vcs presta ? pq os fone ta dificil kk	10/06/2019, 15:01:51
1138145043594850304	gfmbrabo	@RazerBrazil vao tomar no cu essas porra de fio fica falhando e agora nem funciona mais , faz a porra do fio pelo menos prestar vou eh comprar @HyperXBrasil nunca ouvi falarem mal	10/06/2019, 15:04:58
1138149683044503552	Breno86688	Tudo	10/06/2019, 15:23:24
1138154036652363777	anjoscaarol	olha vc por aqui	10/06/2019, 15:40:42
1138165543373090816	starksom	@RazerBrazil O kit de mouse chegou, só falta decidir qual o melhor teclado para compor o setup. 	10/06/2019, 16:26:26
1138171854299049984	RazerBrazil	Vai de Huntsman tá irado!	10/06/2019, 16:51:30
1138172062852354048	RazerBrazil	Oi, lamentamos o ocorrido :( você pode contatar a nossa equipe pelo email suporte@razerzone.com.br. Qualquer dúvida, estamos à disposição.	10/06/2019, 16:52:20
1138179307950563329	weslleycmps	Que coisa mais perfeita.	10/06/2019, 17:21:08
1138182150426112000	JhonBoyy	Saudades do que a gente ainda não viveu kkkkkk	10/06/2019, 17:32:25
1138185603252654085	Kaiohrq	oi fake	10/06/2019, 17:46:08
1138197727811162113	mellindow	Parece equipamento médico	10/06/2019, 18:34:19
1138201907724468224	CSGOD_A	só o mouse q é bom msm de resto..	10/06/2019, 18:50:56
1138204078071263232	lagorafael_	@Mouktae economizar que fala?	10/06/2019, 18:59:33
1138205276593709057	Mouktae	nuss, prioridades né kkkk	10/06/2019, 19:04:19
1138206024765190145	lagorafael_	É mas nem consta	10/06/2019, 19:07:17
1138206853815558144	Mouktae	preço do meu celular	10/06/2019, 19:10:35
1138218369524686848	calcagno_enzo	@RazerBrazil olha quem está usando o razer man o'war 	10/06/2019, 19:56:21
1138226054517198849	willianrocha138	"@RazerBrazil Pq todo teclado blackwidow da problema nos led ? ja foi pra garantia 2 vezes, ""ganhei"" um teclado novo hj e ele ja ta com problema em um dos leds DE NOVO"	10/06/2019, 20:26:53
