id	username	text	datetime
1163606354944319495	flaviofcoborges	Razer Electra V2 https://wn.nr/pUMA8m	19/08/2019, 21:19:08
1163611394190786562	fabioitalgonca	Razer Electra V2 https://wn.nr/MP3qRQ	19/08/2019, 21:39:09
1163613345150148609	Pistoncupbr	Parabéns aos vencedores do IGP da Grã Bretanha. ELITE P1- VOORHEES RACING P2- UYEDA IGP MOTORSPORT P3- SOETHE SPORTS PRO P1- KAVORKA RACING P2- RAZER SPORT P3- ALMEIDA COSTA RECRUTA P1- ESPERANÇA RACE P2- SAN… https://www.instagram.com/p/B1Xb8Z9FNmI/?igshid=c0s6vidn9l6	19/08/2019, 21:46:55
1163614918127620096	MarceloNDN	Razer Electra V2 https://wn.nr/UZfYrL	19/08/2019, 21:53:10
1163616224854626305	rk_jonato	pra onde vc vai viajar? — Vou razer intercambio na Espanha 	19/08/2019, 21:58:21
1163617825992450050	Lucc_sg	Eu perdi um mouse da razer e eu não sei como	19/08/2019, 22:04:43
1163618736953319432	saulosantosns	Razer Electra V2 	19/08/2019, 22:08:20
1163619406884290561	marccellu	Vagina Led RBG da razer 199R$	19/08/2019, 22:11:00
1163631069758939138	OrlandoBerssane	Razer 	19/08/2019, 22:57:20
1163636961996918786	leoappio	macbook pro ou razer blade? pqp nunca fiquei tão indeciso	19/08/2019, 23:20:45
1163640126582349824	sushidaisushi	Razer	19/08/2019, 23:33:20
1163644067261112320	jogador_casual	Razer Electra V2 https://wn.nr/kzqcyh	19/08/2019, 23:48:59
1163650466246529025	patumdeate	meninas nunca comprei razer em !! isso foi presente	20/08/2019, 00:14:25
1163655352971407360	munixmat	Calcinha da Razer 	20/08/2019, 00:33:50
1163656311835365376	Bl4cK_LaG	Ata então ta safe, é fone razer po	20/08/2019, 00:37:39
1163657413628764160	Ferreira_ALEK	Fanboy da razer (apaixonado por essa foto) 	20/08/2019, 00:42:01
1163689005097074688	papacynix	*Razer	20/08/2019, 02:47:33
1163691535742976000	AnjaGabrie	Se eu tivesse um amigo bem próximo daria um Razer Kraken de presente pra ele	20/08/2019, 02:57:37
1163714549926658048	RapRapValencia	seeeees hahahahaha	20/08/2019, 04:29:04
1163752104466505728	TodoOfertas75	PACK GAMING RAZER Pack gaming de Razer teclado Cynosa Chroma silencios+ratón Abyssus Essential 7200DPI 3botones+alfombrilla Goliathus Chroma Aquí: http://bit.ly/2RMSby8 Oferta: 79,99€	20/08/2019, 06:58:17
1163755684900605955	9nethree	Razer naga	20/08/2019, 07:12:31
1163782398171131904	KaristonSilva1	Kakakakak pra que muié se chegou ontem um fone razer e uma rtx1060 aki no meu pc kakakakak	20/08/2019, 08:58:40
1163785756332003328	IWATENGU_DOA	Razer	20/08/2019, 09:12:01
1163786948684734464	Wx7d_SZN	Tu demandera a lequipe	20/08/2019, 09:16:45
1163788684652625920	Steno_R6	Razer mamba elite or razer viper	20/08/2019, 09:23:39
1163793577152876544	leakpt	Razer Phone começa a receber o Android 9.0 Pie! Atualize já! http://dlvr.it/RBY92b	20/08/2019, 09:43:05
1163793829734100993	regiissantana	Queria que voltasse com o teclado Razer BlackWidow X Mercury White 	20/08/2019, 09:44:05
1163799199923748864	RadioReBre	Razer Electra V2 https://wn.nr/cAmNxK	20/08/2019, 10:05:26
1163806632670912514	jeandeavila	Razer Electra V2 https://wn.nr/RhNFAs	20/08/2019, 10:34:58
1163813004443451400	MaiconPoncio	Razer Electra V2 https://wn.nr/wPWJV2	20/08/2019, 11:00:17
1163818971574853635	DavidCaves2	#RTXOn Razer	20/08/2019, 11:24:00
1163819032996225024	PetrinMachado	Razer Electra V2 https://wn.nr/9rJqGW	20/08/2019, 11:24:14
1163822427169837061	monesi31	Razer Electra V2 https://wn.nr/FUnHwZ	20/08/2019, 11:37:44
1163826147349671936	Thyykki	To vendo a Razer lança um já kasdkaskdas	20/08/2019, 11:52:31
1163834847539933186	DRIKKA1966	Razer Electra V2 https://wn.nr/g9UvYC	20/08/2019, 12:27:05
1163843476410294272	Lukalot_	Razer Empire #razer #empire #starwars #aurebesh #scifi #insignia #pixel #pixelart #gaming #gamers #hardware	20/08/2019, 13:01:22
1163843719151456256	jvictorMA14	Razer Electra V2 https://wn.nr/DNDZmP Entra ai	20/08/2019, 13:02:20
1163844330685108225	Chagones	Fala isso não irmão! Logo logo tu faz um Kit Razer! Fé	20/08/2019, 13:04:46
1163844779303563264	MarioDesigner	Razer Electra V2 	20/08/2019, 13:06:33
1163856995105071104	lucamiguel8	razer	20/08/2019, 13:55:05
1163862534635569152	condekassadin	atualizando o firmware e torcendo por headset voltar a fucionar razer eu te odeio	20/08/2019, 14:17:06
1163867924601483264	TJ_Gilson	Razer	20/08/2019, 14:38:31
1163870135276449793	NinjSZN	razer mamba elite	20/08/2019, 14:47:18
1163870731668578304	MoeModeru	Razer Viper http://rzr.to/sPiDC	20/08/2019, 14:49:40
1163876168367517697	Viciooso	Razer Gigantus	20/08/2019, 15:11:16
1163885279213694978	GVP_1999	Acho que vou me presentear com o fone da razer ou hyperx	20/08/2019, 15:47:29
1163894564509429767	NyhumGaming	Posso te vender a minha razer ripsaw por um sorriso	20/08/2019, 16:24:22
1163911841581621252	vegasfortnite	você comprou o viper no site da razer? se sim não foi taxado?	20/08/2019, 17:33:02
1163913466354311168	rezenbruno1	Razer	20/08/2019, 17:39:29
1163914559352184832	sadgadoo	Ah mano, pelo menos eu tenho um mouse da razer kkk	20/08/2019, 17:43:50
1163917846600212482	mark1fps	Razer Electra V2 https://wn.nr/bhdJdM	20/08/2019, 17:56:53
1163928425553420289	RicardoXavier86	Razer Electra V2 https://wn.nr/Gf8SqT	20/08/2019, 18:38:56
1163932188582338560	luizfsx	Essa porra parece um teclado da razer de tanto q muda de cor 	20/08/2019, 18:53:53
1163938233610317824	jojoysamn	Razer Electra V2 	20/08/2019, 19:17:54
1163941634670813187	taeginxxs	sony e razer sao as empresas q eu tenho mais odio qual a proxima nesse inferno :???	20/08/2019, 19:31:25
1163946576471048194	tigerllama	Meu trabalho na lc é fazer ninguém levar razer quando pedem fone	20/08/2019, 19:51:03
1163955254775488512	Prblol1	Alguém que tem a mochila da razer sabe me dizer se vale a pena?	20/08/2019, 20:25:32
1163956257180520450	FlyteCosmos	Razer*	20/08/2019, 20:29:31
1163959807537233925	LuscasAll	So pra quem usa cigarro da razer	20/08/2019, 20:43:38
