id	username	text	datetime
1140409235001528320	Templanteii	Bonito razer	16/06/2019, 21:02:04
1140409582818381824	Riuskyfps	Razer mamba?	16/06/2019, 21:03:26
1140409590074499072	Vlex5	Nvidia 310m	16/06/2019, 21:03:28
1140409814440390656	redfish_2016	Sorteio de um headset Razer Kraken pelo @williangordox, participa aí!	16/06/2019, 21:04:22
1140414308825862144	cpxbnhneguin	Investimento pô, vai chegar outro da razer na mesma semana	16/06/2019, 21:22:13
1140414403541721090	Platzus	Razer	16/06/2019, 21:22:36
1140415316582948864	fezaru80	NVIDIA riva tnt 2	16/06/2019, 21:26:14
1140422404788948992	breakedtwin	nvidia 9600 gt...	16/06/2019, 21:54:23
1140422420161007616	baeksungz	eu nao sei oq razer kkkkkkkk	16/06/2019, 21:54:27
1140423173143502850	SergioSynyster	Nvidia GT 520.. #RTXOn #E32019	16/06/2019, 21:57:27
1140425128490209280	dreeeew_s	Faaaaala galerinha, tudo bem? Deixa eu falar prucês... O @danielhe4rt tá fazendo live, codando a melhor I.A do Brasil. http://Twitch.tv/danielhe4rt Da RT aí e fica até o final da live, vai ter sorteio de kit razer!	16/06/2019, 22:05:13
1140428301552537600	CltShiro	Intel jd 	16/06/2019, 22:17:49
1140430478035603457	Nalleleb	Pentium 120mgz	16/06/2019, 22:26:28
1140431941201813505	Anthony_Bateman	NVIDIA Riva TNT 2	16/06/2019, 22:32:17
1140431991881515009	mateuspaiv_	Mano da pra comprar uns 30 mouse da razer	16/06/2019, 22:32:29
1140432412138266624	LucaGamer1998	Pringado	16/06/2019, 22:34:09
1140435718969397248	PedroRang3l	Consegui um fone da razer Poha	16/06/2019, 22:47:18
1140436399604273155	imnotcelo	Tu que tem fullset da razer	16/06/2019, 22:50:00
1140438744652296192	deneyhf	nunca de dinheiro para a razer esta merda envelhece mt mal 	16/06/2019, 22:59:19
1140442820903395328	luisamlmelo	Não sei o que acontece com os fios aqui em casa. Antes era a Lagertha que roía tudo. Inclusive ela destruiu meu razer kraken rosa pink, nunca esqueço.	16/06/2019, 23:15:31
1140448469569740803	fomynha	LIVE ON Jogando o Fino >> Sorteio Mousepad Razer &lt;&lt; 500 follows 	16/06/2019, 23:37:58
1140449022651637760	Maitre_Tallion	Nvidia 660	16/06/2019, 23:40:10
1140452898545065984	alanysmullichS	oex eh melhor q razer b noite	16/06/2019, 23:55:34
1140455151955787778	PlayysSupercell	Sorteio de um headset Razer Kraken pelo @williangordox, participa aí!	17/06/2019, 00:04:31
1140455898982338560	cupnoodlesspicy	razer é overrated e overpriced	17/06/2019, 00:07:29
1140462214614097921	Boron_kun_dao	Razer #BoxFresh_L4zy_boron #BoxFresh http://boxfresh.site/questions/jok1v77q-exxi-4j9c-s20g-qflke0ew3iuf	17/06/2019, 00:32:35
1140465672817979392	Batu_fR	Voodoo 2	17/06/2019, 00:46:19
1140469975297220609	SaYThem_	NVIDIA GT 740	17/06/2019, 01:03:25
1140481086289563650	Madmarlouf	Asus 8800 gts	17/06/2019, 01:47:34
1140483777421955072	Rin_tyuuuun	Razer	17/06/2019, 01:58:16
1140486914463735808	pablitoLGN7	fone da razer eo melhor que tem pqp	17/06/2019, 02:10:44
1140487003605278720	YoohRage	Nvidia gt320 :)	17/06/2019, 02:11:05
1140487058999468032	F0XEEK	Nvidia 820m	17/06/2019, 02:11:18
1140488001165955073	ThecRevann	Voodoo 3 2000	17/06/2019, 02:15:03
1140488289763430400	Onibaba01843299	Voodoo 2	17/06/2019, 02:16:12
1140488578939666432	Enaff31	#giveaway #RTXOn #nvidia #razer #E32019 Super Mario Bros 	17/06/2019, 02:17:21
1140488846410473472	Lars_Wool	Nvidia 4200 tu	17/06/2019, 02:18:24
1140496261843443712	LeBlackGeek	nvidia quadro nvs 160m	17/06/2019, 02:47:52
1140497036141387776	Iaiswitch	infelizmente meu fone da razer que eu comprei na Kabum não vai chegar então vou ter que comprar uma cadeira nova pq essa poltrona ta acabando com a minha coluna, jesus	17/06/2019, 02:50:57
1140498706724216832	laurentArt	Vodoo	17/06/2019, 02:57:35
1140499484113285120	gpagniez	NVIDIA Riva TNT 2 	17/06/2019, 03:00:41
1140500596358832128	Jerio45	NVIDIA Riva TNT	17/06/2019, 03:05:06
1140504577307004933	zSerbian7	Nvidia 6800GT 	17/06/2019, 03:20:55
1140504852969205760	JGilmant	NVIDIA riva TNT	17/06/2019, 03:22:01
1140512111044583424	edwinonair	Nvidia Riva TNT2 #rtxon #e32019	17/06/2019, 03:50:51
1140514131096813569	nuno_pm	Nvidia Riva TNT2	17/06/2019, 03:58:53
1140514155100700672	Sarah__Kerrigan	Nvidia GTS 8800	17/06/2019, 03:58:58
1140516422105337856	CCarpdim	NVIDIA Riva TNT 2 	17/06/2019, 04:07:59
1140524933409398787	realnas1m	Intel UHD 600	17/06/2019, 04:41:48
1140530345005191168	St3f44n	Nvidia 8600GT 	17/06/2019, 05:03:18
1140531114647445504	freshtyler12off	Nvidia 6800GT 	17/06/2019, 05:06:22
1140531791327039489	MontagneDeSel	Nvidia ion	17/06/2019, 05:09:03
1140532703412047872	PropheetTH	NVIDIA Riva TNT 2	17/06/2019, 05:12:41
1140535363565432832	AustrianNiceGuy	Vodoo 3 :)	17/06/2019, 05:23:15
1140537426148044801	arthenus3	NVIDIA 6800GT 	17/06/2019, 05:31:27
1140541503732965376	LBrtht	Nvidia 950M	17/06/2019, 05:47:39
1140544015588298752	ThiagoAlv3Ss	A Apple tá igual a razer,faz um produto bom mas a logo que colocam em seus produtos aumentam o seu preço apenas por ser de uma marca conhecida	17/06/2019, 05:57:38
1140548386833063936	nekotann0721	Razer？	17/06/2019, 06:15:00
1140556043564584966	JonathanClauss	NVidia Fx5600	17/06/2019, 06:45:25
1140556429973233665	Mendes67269564	EU TENHO UM HEADSET DA HYPERX GAMER, E JOGO FORTNITE E SOU GMAER. É O T3DYY NÃO É GAMER, MESMO ELE TENDO UM HEADSET DA RAZER	17/06/2019, 06:46:58
1140563620679639040	Kullweet	Idem que pas mal de participants : Nvidia riva Tnt 2... ca remonte...	17/06/2019, 07:15:32
1140564662293094400	Juan__1983	#RTXOn #E32019 nvidia 6600 gt amoreeee 	17/06/2019, 07:19:40
1140565035237949441	Mohamme99838514	Nvidia 610m 	17/06/2019, 07:21:09
1140565611271086081	BigOldJimmy	Matrox G200	17/06/2019, 07:23:27
1140571993718157312	ShirkeAadit	Intel UHD 630	17/06/2019, 07:48:48
1140573991037526016	sell_mone	Intel pentium graphique intégré xD	17/06/2019, 07:56:44
1140574357393235968	Fabian06249120	No e tenido :'v	17/06/2019, 07:58:12
1140574682552422400	disk_raw	Já penso se existisse borrachinha de aparelho da Razer, imagina que loko, o cara da um sorriso e as borrachinha tão mudando de cor kkk, também teria que pagar 90 conto a mais pra colocá-las. Mas ainda sim seria loko	17/06/2019, 07:59:29
1140575430812033031	xtechzor	"evita membrana e 'semi-mecanico' (é membrana mais caro, só usam um sistema pra dar ""feeling"" de mecânico); se for Razer só prestam os BlackWidows...depende mais do quanto tu pensa em gastar e do barulho e sensação que tu espera ter."	17/06/2019, 08:02:28
1140576367190401024	ThHug0	NVIDIA 660ti	17/06/2019, 08:06:11
1140579950183047168	anthonyTETU	Nvidia 9800 gt	17/06/2019, 08:20:25
1140580718910853120	BoUmBaKiD	La fameuse intel HD graphic ! Quel performance 	17/06/2019, 08:23:29
1140582367221993472	enxolindao	Se for da razer é foda	17/06/2019, 08:30:01
1140586285620502529	TheUltraByte	Nvidia GT 210	17/06/2019, 08:45:36
1140586675162222593	wyler33	Nvidia gt 720	17/06/2019, 08:47:09
1140588891197587461	WS_Rj	Matrox G400	17/06/2019, 08:55:57
1140588961699704837	Mario17bb8	#RTXOn #E32019 La GTS 250	17/06/2019, 08:56:14
1140589267447623680	JoaoPKenzo	Alguém me indica um fone bom pfv, meu Kraken quebrou, como sempre razer sendo razer	17/06/2019, 08:57:27
1140589354445750272	mikan_4214	razer 	17/06/2019, 08:57:47
1140591510213316608	mayconcxk9	Sorteio de um headset Razer Kraken pelo @williangordox, participa aí!	17/06/2019, 09:06:21
1140592875127955456	Makun13194434	Nvidia	17/06/2019, 09:11:47
1140593883589632000	MonkeyId	#RTXOn #E32019 Una 3dfx voodoo de segunda mano	17/06/2019, 09:15:47
1140595338232905728	Sheqzi	quadro fx 380lp	17/06/2019, 09:21:34
1140596746193494016	H_mikuo	Razer	17/06/2019, 09:27:10
1140598626940592128	_Arno_B_	Voodoo 2 :/	17/06/2019, 09:34:38
1140599532289429504	flavoroflife	É..tentaram me vender um da hyperX de membrana aqui kkkk mas n peguei nada ainda... razer eu nem quero mais pq peguei ódio com tanta dor de cabeça q me deu já. Eu tava pensando em pegar hyperX mesmo... sem ser o de 500 kkkk.. mas to vendo aqui ainda, pq n manjo mto bem	17/06/2019, 09:38:14
1140602464867160064	xtechzor	A Logitech tem uns switchs proprietarios e a Razer trabalha com Outemu e Cherry (meu blackwidow é cherry) . Aqueles 3 que te linkei todos já tive ou já usei por bom tempo e sei que são bons demais, fica ai no visual e cor do switch pra vc escolher.	17/06/2019, 09:49:53
1140602737337536514	ballosaure	nvidia geforce cuda	17/06/2019, 09:50:58
1140605194801229825	CharlotteTine	Nvidia 6800GT	17/06/2019, 10:00:44
1140605756405944321	AudrickTiTan	NVIDIA TNT 1	17/06/2019, 10:02:58
1140607695231365121	looveeSummer	#RTXOn #E32019 Nvidia 6600GT	17/06/2019, 10:10:40
1140607707776454656	ladygargal	#RTXOn #E32019 Nvidia 6600GT	17/06/2019, 10:10:43
1140607724113334272	LaYuligaga	#RTXOn #E32019 Nvidia 6600GT	17/06/2019, 10:10:47
1140607735408594949	LiaSevillana	#RTXOn #E32019 Nvidia 6600GT	17/06/2019, 10:10:50
1140607746573840384	luis23410	#RTXOn #E32019 Nvidia 6600GT	17/06/2019, 10:10:52
1140607757529337856	montero_71	#RTXOn #E32019 Nvidia 6600GT	17/06/2019, 10:10:55
1140607767348203520	montsegp72	#RTXOn #E32019 Nvidia 6600GT	17/06/2019, 10:10:57
1140608572700712961	_felipemelooo	Sorteio de um headset Razer Kraken pelo @williangordox, participa aí! https://wn.nr/2R24nx	17/06/2019, 10:14:09
1140609051279134720	gux360	Nvidia 7600Gt #E32019 #RTXON	17/06/2019, 10:16:03
1140609908120965120	quadrihax	Voodoo 2.	17/06/2019, 10:19:28
1140612210005348354	PCourault	nVidia Riva TNT... #E30219	17/06/2019, 10:28:37
1140616891255230465	merilogc	vou pode compra meu mause e headset da razer 	17/06/2019, 10:47:13
1140623710480556032	kaname_qqq	RAZER！！！	17/06/2019, 11:14:18
1140626880720187392	TheusVenturinii	RA re que trtttttt	17/06/2019, 11:26:54
1140627070281797634	caionvm	cara, o suporte da razer é muito bom	17/06/2019, 11:27:40
1140631729511833600	Victor_Roncero	Quadro 2000M	17/06/2019, 11:46:10
1140631932482535424	Smittastrophe	Nvidia 540	17/06/2019, 11:46:59
1140637065933152258	nseibro	eu nunca mais compro um Razer kraken, já é o segundo que eu tenho que dá defeito do nada	17/06/2019, 12:07:23
1140649777648013312	Iaiswitch	meu amigo me dando esporro pq quero comprar um fone da razer mas ele mandou eu comprar no aliexpress que sai muito mais barato e os fones são melhores mano eu n consigo esperar 7 dias pra receber uma encomenda quem dira 1/2 meses KKKKKKKKKKKKKK quer me matar aposto	17/06/2019, 12:57:53
1140655593088139265	Gl0ckN9ne	Razer*	17/06/2019, 13:21:00
1140655594547945472	Gsev7n	Nvidia 9600 GT!	17/06/2019, 13:21:00
1140660717055594496	ledruide59138	Nvidia gt710	17/06/2019, 13:41:22
1140661204156932096	Weslleyviini1	Sorteio de um headset Razer Kraken pelo @williangordox, participa aí! https://wn.nr/CR4Qcd	17/06/2019, 13:43:18
1140666240693940227	yangamer895	Sorteio de um headset Razer Kraken pelo @williangordox, participa aí! https://wn.nr/W8fX5V	17/06/2019, 14:03:18
1140668117615611904	_mohaXV	Intel pentium ptdr	17/06/2019, 14:10:46
1140669906066841605	vitmartinns	Sorteio de um headset Razer Kraken pelo @williangordox, participa aí!	17/06/2019, 14:17:52
1140670968987377665	GAMERxFREAK1001	Nvidia 1060	17/06/2019, 14:22:06
1140672287135469568	adc_gibs	Sorteio de um headset Razer Kraken pelo @williangordox, participa aí! https://wn.nr/rZ7B9M	17/06/2019, 14:27:20
1140673257525436422	EsterMenezes8	Só queria esse headset da Razer	17/06/2019, 14:31:11
1140676578470502402	Yann_SBH	Nvidia FX5900 	17/06/2019, 14:44:23
1140678268246548483	Karol_2107	#RTXOn #E32019 Nvidia 6600GT	17/06/2019, 14:51:06
1140678970544930817	JAGMA94	#RTXOn #E32019 Nvidia 6600GT 	17/06/2019, 14:53:54
1140679000282619904	Gamerhubs_Port	NVIDIA GT 610	17/06/2019, 14:54:01
1140679847989170181	Fefapqsim	Toda hora aparece anúncio das orelhas de gatinho da razer e eu tenho certeza eh o universo falando seja gamer	17/06/2019, 14:57:23
1140679895091224577	nordestebytes	Se o verde te apaixona... _____________________ @RazerBrazil . . Para mais @nordestebytes . . #gaming #pcgaming #pcmr #pcgaming101 #hardware #razer #razergaming #green #rgb #deskspace #gamingroom #setup https://www.instagram.com/p/By0fBVGhcSQ/?igshid=165gek2277m1v	17/06/2019, 14:57:34
1140681011036119042	FABINHOo_d	Sorteio de um headset Razer Kraken pelo @williangordox, participa aí! https://wn.nr/mFdLTq	17/06/2019, 15:02:00
1140690930019835907	_Gwen_T	NVIDIA Riva TNT 2 	17/06/2019, 15:41:25
1140692402820276230	julio_ambrosio3	Sorteio de um headset Razer Kraken pelo @williangordox, participa aí! https://wn.nr/RRZWLs	17/06/2019, 15:47:16
1140699625634050048	sansaodasilva2	Sorteio de um headset Razer Kraken pelo @williangordox, participa aí! https://wn.nr/XdyzXn	17/06/2019, 16:15:58
1140699709956399106	sansaodasilva2	a Sorteio de um headset Razer Kraken pelo @williangordox, participa aí! https://wn.nr/XdyzXn	17/06/2019, 16:16:18
1140699909471002624	GuiMorenoReal	Sorteio de um headset Razer Kraken pelo @williangordox, participa aí! https://wn.nr/T8y9FD	17/06/2019, 16:17:06
1140700190363529216	balauru99	Super Razer!	17/06/2019, 16:18:13
1140700874244841474	slugmausesurf	Sorteio de um headset Razer Kraken pelo @williangordox, participa aí! https://wn.nr/ZdEk3C	17/06/2019, 16:20:56
1140701341699977218	Joukyller	Sorteio de um headset Razer Kraken pelo @williangordox, participa aí! https://wn.nr/bdgn2F	17/06/2019, 16:22:47
1140704418859540487	lithilays	Sorteio de um headset Razer Kraken pelo @williangordox, participa aí! https://wn.nr/6R4mWj	17/06/2019, 16:35:01
1140704913464397826	Arthuuuuuvr	Razer nul	17/06/2019, 16:36:59
1140707873972002819	SpiritAfraid	NVIDIA Riva TNT 2	17/06/2019, 16:48:45
1140708539855454208	Warouny	Nvidia 8800GT =)	17/06/2019, 16:51:23
1140710818197266433	ZorbyGGT	Sorteio de um headset Razer Kraken pelo @williangordox, participa aí! https://wn.nr/F8WRVb	17/06/2019, 17:00:27
1140712066103283716	abiscoitadooo	a torradeira da razer faz barulho de teclado mecânico	17/06/2019, 17:05:24
1140712260945502212	RiickDixon	Conseguiu a torradeira da razer?	17/06/2019, 17:06:11
1140719743026061312	St3f44n	Nvidia 8600GT 	17/06/2019, 17:35:54
1140722953367089152	web_asn	Portfólio ASN Web . Criamos WebSites, Aplicativos Android, Portfólios, Trabalhos de Design, Programação e afins. Fale Conosco. . www . asnweb . com .br . @razer @nvidia @aorus_brasil @corsair @i9 @intel #web… https://www.instagram.com/p/By0yma1hWXb/?igshid=ywobyprudont	17/06/2019, 17:48:40
1140723025563848704	kofdadepressao	Hoje começa o campeonato de KOF 2002 na Razer Fighting League. Vou estar comentando juntamente do @LuizFGarden ! Logo mais posto o link pra vcs acompanharem a live, vai estar demais!!! @RazerBrazil	17/06/2019, 17:48:57
1140725807196721152	Gordox	FALTA 1 DIA: Sorteio de um fone Razer Kraken 7.1 V2 Chroma da linha Mercury. Não percam essa chance, guys: http://bit.ly/sORTEIOx2	17/06/2019, 18:00:00
1140725864566595584	venusvenon	Se ela não quiser, eu quero.. mas tem que me dá uns mimo da razer senão o cu não libero.	17/06/2019, 18:00:14
1140726784100569088	Romariojimy	Sorteio de um headset Razer Kraken pelo @williangordox, participa aí! https://wn.nr/YdAfXF	17/06/2019, 18:03:53
1140729001343881217	gfjtsgf	Uauuuuaas Sorteio de um headset Razer Kraken pelo @williangordox, participa aí! https://wn.nr/rZMmzr	17/06/2019, 18:12:42
1140729359176806404	otomefofinha	500 conto um mouse da Razer na promoção 	17/06/2019, 18:14:07
1140731713624129541	Churyka	Sorteio de um headset Razer Kraken pelo @williangordox, participa aí!	17/06/2019, 18:23:28
1140732048392556546	Johnvitor1313	Sorteio de um headset Razer Kraken pelo @williangordox, participa aí! https://wn.nr/6R2txq	17/06/2019, 18:24:48
1140732890919002112	jose_lucas_14	Sorteio de um headset Razer Kraken pelo @williangordox, participa aí! https://wn.nr/2RcPjM	17/06/2019, 18:28:09
1140733834650107904	jonntinha	Sorteio de um headset Razer Kraken pelo @williangordox, participa aí! https://wn.nr/tHKm3d	17/06/2019, 18:31:54
1140735727501795329	Carlosademi	Sorteio de um headset Razer Kraken pelo @williangordox, participa aí! https://wn.nr/CRpw2k	17/06/2019, 18:39:25
1140739968698060800	fn_luan	Sorteio de um headset Razer Kraken pelo @williangordox, participa aí! https://wn.nr/wHbbK3	17/06/2019, 18:56:17
1140740176630681600	NaiTomadin1	Si razer	17/06/2019, 18:57:06
1140740904417759233	RazerBrazil	AO VIVO NA @StreamCraftBR: qualificatórias da Razer Fighting League – The King of Fighters 2002. Narração e comentários por @KOFdaDepressao e @LuizFGarden! http://rzr.to/AoVivo	17/06/2019, 19:00:00
1140743516487868418	Drachenberg13	Sorteio de um headset Razer Kraken pelo @williangordox, participa aí! https://wn.nr/ScAK5g	17/06/2019, 19:10:22
1140746844999487490	Simentinho	Sorteio de um headset Razer Kraken pelo @williangordox, participa aí! https://wn.nr/gdNVj6	17/06/2019, 19:23:36
1140754318766891008	RegisonVieira	Sorteio de um headset Razer Kraken pelo @williangordox, participa aí! https://wn.nr/ndnjP3	17/06/2019, 19:53:18
1140754649282207744	elfamosomalaoui	NVIDIA Riva TNT 2	17/06/2019, 19:54:37
1140755480509390850	D1oRod	Bora assistir, galera! Dar aquela moral pro cenário de KoF e pra Razer que tá dando esse apoio! 	17/06/2019, 19:57:55
1140757003167522816	eli_myab	aproveitar que o mouse estragou para comprar um razer deathadder e um kraken fodase	17/06/2019, 20:03:58
1140757890564861952	willaraujo	Sorteio de um headset Razer Kraken pelo @williangordox, participa aí! https://wn.nr/pHPBDk	17/06/2019, 20:07:30
1140759550531973121	Mistudufy	Sorteio de um headset Razer Kraken pelo @williangordox, participa aí! https://wn.nr/LdApvR	17/06/2019, 20:14:05
1140760488583847936	vitorwillian013	Sorteio de um headset Razer Kraken pelo @williangordox, participa aí! https://wn.nr/F8pCq7	17/06/2019, 20:17:49
1140760519881756672	GivaniltonCosta	Sorteio de um headset Razer Kraken pelo @williangordox, participa aí! https://wn.nr/vyHSqj	17/06/2019, 20:17:56
1140764678093758467	Arthur09N	Sorteio de um headset Razer Kraken pelo @williangordox, participa aí!	17/06/2019, 20:34:28
1140770150196699136	narwkami	mutuals gamers, razer kraken essential é bom ou nem?	17/06/2019, 20:56:12
1140770926067441664	thespiegel1	"provavelmente nao, fuja de tudo que tem ""razer"" no nome."	17/06/2019, 20:59:17
