id	username	text	datetime
1126287613122568192	alibebasso	rico é outro nivel né bro, só ai saiu mais de 2k tudo...	08/05/2019, 21:47:47
1126340129273143298	JVFerrari__	Pesado demais hein	09/05/2019, 01:16:27
1126354688172019712	brendonca2015b	Eitaaaaaaa	09/05/2019, 02:14:18
1126442155751411712	h4wkzeera	Agora sim	09/05/2019, 08:01:52
1126453011713273856	minutotechbr	Para aquecer o coração nerd, @RazerBrazil lança linha de periféricos com visual inspirado em Star Wars https://buff.ly/2JzBxQJ	09/05/2019, 08:45:01
1126545108374106112	BabyyyOff	To me sentindo um nojo com esse fone ksksksks @RazerBrazil me patrocina \0/ 	09/05/2019, 14:50:58
1126551949996904448	RazerBrazil	Estamos ao vivo! Venha conhecer as novidades da 9ª temporada de Fortnite. Em seguida, LoLzinho e dicas de Riven. http://rzr.to/AoVivo	09/05/2019, 15:18:09
1126557024387510272	Gabrieltc0	cada TORRADA	09/05/2019, 15:38:19
1126559934815047680	Tzinho98	só nome kk	09/05/2019, 15:49:53
1126571946316062720	mathoelk	torradeira com sistema antiqueimadas seria perfeita para os leigos	09/05/2019, 16:37:37
1126591065488809984	RazerBrazil	Adapte-se a qualquer situação com controles personalizados na ponta dos dedos. Do gatilho multifunção aos botões Hyperesponse, esteja no comando com o Razer Basilisk Essential. Disponível na @kabumcombr: http://rzr.to/BasiliskE-kbm	09/05/2019, 17:53:35
1126593559501725696	Emy_Jota	deve ser alguma gíria	09/05/2019, 18:03:30
1126603572727242759	teethz	Sim! Kkk	09/05/2019, 18:43:17
1126603744794284034	teethz	Aquela expressão sobre não ter meio termo. Ou é 8 ou 80!	09/05/2019, 18:43:58
