id	username	text	datetime
1110694391667142657	dumboiluj	minha pior experiencia foi com a razer, serinho mesmo. Meu kraken 7.1 se DESMANTELOU o couro descascou (morando no rio quase todos descascam), a alça lateral dos DOIS LADOS quebrou e olha que eu trato com mt carinho. Meu deathadder ta com botão lateral emperrando....	26/03/2019, 21:05:53
1110695556765175808	dumboiluj	assim que meu mouse ou meu fone parar eu compro um logitech sem pensar 2x gosto demais e fora que o fone deles é LEVINHO o razer é um trambolho que aperta e pesa 1 tonelada	26/03/2019, 21:10:31
1110696955557105664	__laisbc__	Eu tô simplesmente APAIXONADA pela linha Quartz, fode mais Razer https://www.submarino.com.br/produto/46747365/mouse-gamer-razer-lancehead-tournament-quartz-edition?DCSext.recom=RR_item_page.rr1-ClickCP&amp;nm_origem=rec_item_page.rr1-ClickCP&amp;nm_ranking_rec=3 https://www.submarino.com.br/produto/35003161/razer-teclado-blackwidow-tournament-chroma-v2-quartz?DCSext.recom=RR_item_page.rr1-ClickCP&amp;nm_origem=rec_item_page.rr1-ClickCP&amp;nm_ranking_rec=2 https://www.submarino.com.br/produto/47199564/razer-kraken-pro-v2-quartz?pfm_carac=Headset%20%2F%20Fone%20de%20Ouvido%20Gamer&amp;pfm_index=10&amp;pfm_page=category&amp;pfm_pos=grid&amp;pfm_type=vit_product_grid&amp;sellerId	26/03/2019, 21:16:04
1110700464956428289	JustRazerBoi	Viral Razer	26/03/2019, 21:30:01
1110710237831593985	c_klebson	Eu usei essa beleza por mais de 5 anos, aí quando troquei por um teclado e Mouse da Razer, achei um MERDA. Eu jogava mil vezes melhor no teclado e mouse da micro do que da Razer que não consegui me adaptar. 	26/03/2019, 22:08:51
1110731797300690944	preechinf	Boa noite pessoal... #gamer #gaming #gamingcommunity #gamingsetup #gaminglife #watercooled #disney #nvidia #disneyworld #watercooling #gamingsetup #geforce #razer #pc #streamer… https://www.instagram.com/p/BvfsM5aJkfI/?utm_source=ig_twitter_share&amp;igshid=1b5caqsymgyxc	26/03/2019, 23:34:31
1110800752405106688	selusava	Nova estratégia da Razer envolve mais software e menos celulares gamers http://nzn.me/a139857 #tecmundo #TI	27/03/2019, 04:08:31
1110819270777163782	DaisukiANIME315	Razer	27/03/2019, 05:22:06
1110850309427847168	CURRSED	Razer	27/03/2019, 07:25:27
1110864830410285057	TechTudo	Review Razer Nari Ultimate: headset aposta em sistema de vibração https://glo.bo/2uvMD09	27/03/2019, 08:23:09
1110877369382944769	portalWASD	THX agora directamente nos vossos ouvidos. #Razer #Kraken #THX https://www.wasd.pt/hardware/analise-razer-kraken-tournament-edition-2019/	27/03/2019, 09:12:58
1110896387053506560	massimotrevisso	Razer https://chrome.google.com/webstore/detail/razer/nmmlcofonhhnblmfeigfbbpkbmdkgbdo?hl=it	27/03/2019, 10:28:32
1110897189985882112	EuSouOGoku	"CEO dá banho de água fria em fãs da linha Razer Phone reiterando ""futuro incerto"" "	27/03/2019, 10:31:44
1110901631753818114	PedroSanders98	Pq a razer faz tudo parecer mto apetitoso	27/03/2019, 10:49:23
1110917485551861760	LollyRLD	na mrl nunca mais compro nd da razer, o mouse tem pouco tempo ja ta dando double click, e o teclado ja ta com as leds td ruim	27/03/2019, 11:52:23
1110918288794509318	marciojmsilva	'Gaming mobile está limitado pelo software, não hardware' afirma Razer http://dlvr.it/R1fYnY	27/03/2019, 11:55:34
1110924442597773317	ShynxVoid	Los de razer 	27/03/2019, 12:20:01
1110927127447302144	kchanxfarron	Sobre esse novo efeito do chroma.... queria ter gravado o teclado em si, mas tá muito claro aqui, ficaria melhor no escuro... mas ao menos tem um preview no app da Razer pra ter uma noção Super amei 	27/03/2019, 12:30:41
1110927543689986048	kchanxfarron	Obrigada @Razer /@RazerBrazil , era isso que faltava no chroma studio	27/03/2019, 12:32:21
1110931377321578496	NACLOS_	Ajuda aí compartilha a venda @fastgreal @drxkoNz @BlackoutZG0D @whatnetherdid @FaahFPS @yt_virti : Mouse Razer Deathadder Chroma 10000dpi 4g https://produto.mercadolivre.com.br/MLB-1182612764-mouse-razer-deathadder-chroma-10000dpi-4g-_JM	27/03/2019, 12:47:35
1110931898228977664	jeanvanzo	Isso é importante. Tem um da razer (nao to ligado no modelo) que é bonitinho mas a qualidade é bem caquita. Tu manja o preço desse aí?	27/03/2019, 12:49:39
1110940482744520710	outravezgustavo	Virei fanboy da @LogitechG, falta muito pra Razer chegar aos pés dela	27/03/2019, 13:23:46
1110940856712941568	DuxAoV	Camisinha da razer	27/03/2019, 13:25:15
1110947868561555459	lucasrpss10	Se vc postar uma foto de uma setup gamer cm marca da razer entre outras ou postar uma foto cm camisa da Nike e e etc vc pode ser processado	27/03/2019, 13:53:06
1110948538077319170	EduZati_Ofc	Pq aqui é raiz e não precisa de razer para ganha dos babacas como o @DoutorBiscoito 2 beijos linda ...	27/03/2019, 13:55:46
1110951641849741314	mtjetprj8	kkkkk to vendendo um razer abyssus 3500 dpi por 100$nego ta maluco quer trocar ate	27/03/2019, 14:08:06
1110960059180154880	3oneofficial	⠀⠀Quem não gosta do @nzxt H700i? ⠀(Like and comments) ⠀ #gamer #gaming #geforce #razer #pc #gamingpc… https://www.instagram.com/p/BvhT9bKnZFv/?utm_source=ig_twitter_share&amp;igshid=u8na22m3jbt6	27/03/2019, 14:41:33
1110972297614102539	Daryrus	Razer 	27/03/2019, 15:30:11
1110976749075156993	kikis2_	poxa, cadastrava ele =/. Enfim passei algo parecido com a razer e msm nao tendo garantia global um gringo indicou uma pessoa aqui na razer Brasil e me cobraram 60,00 + frete para arrumarem meu mouse que tinha sido bem caro hahahahaha. De repente tu consegue algo do tipo.	27/03/2019, 15:47:52
1110993475816828930	1kit1nojo	cara só de pegar nesse mouse ja e melhor que meu deathadder meu deus como eu odeio razer	27/03/2019, 16:54:20
1110999576289427457	peduchini	22 bomb for Parallel #Parallel100kRC #fortnite #streamer #twitch #twitchstreamer #twitchaffiliate #gamer #fortnitebr #battlepass #battleroyale #fortnitebattleroyale #peduchini #pc #pcgaming #poker #razer #pcfortnite #xbox #ps4 #gaming #nextlevelstreamer #gamingsetup #snipers	27/03/2019, 17:18:35
1111005978785468422	RazerBrazil	Impressione-se com a Razer Nommo Pro, com total imersão de som para filmes, música e jogos. Certificação THX http://rzr.to/NommoProBR	27/03/2019, 17:44:01
1111010677475471360	EttoreFK	Razer?	27/03/2019, 18:02:41
1111028570233683970	1kit1nojo	tudo da razer é ruim é diferente	27/03/2019, 19:13:47
1111035276523175936	foxzAox	unico mousepad q qnd eu suo não fica grudando é o da razer, o gigantus	27/03/2019, 19:40:26
1111040593478778882	Nikkkkk17	Razer só é nome mesmo, pq os produtos são bem inferiores aos concorrentes	27/03/2019, 20:01:34
1111044784779599882	whatlyn	eu me sinto mt gamer toda vez q boto minha munhequeira da razer q pedi ao picoca KJFJDSHFDSJ	27/03/2019, 20:18:13
1111050858358366208	robertito98tp	Razer	27/03/2019, 20:42:21
1111052012068720640	ImIscoRod	Se parece al control pro de razer	27/03/2019, 20:46:56
