id	username	text	datetime
1122671359895711749	poxa_tannn	Ué, cadê a Galaxy nos agradecimentos? Encerrou o contrato?	28/04/2019, 22:18:05
1122692704998174720	_scotelaro	Koe razer, patrocina os clones do futuro? <3 @Luckas_Ftw seria uma, fala tu?	28/04/2019, 23:42:54
1122693055277092865	Cesao_ss	Coisa linda mano até eu quero um desse...	28/04/2019, 23:44:17
1122693447696224257	KidThePresident	@selenawicked n sei oq é meu sonho o teclado ou essas unhas	28/04/2019, 23:45:51
1122698136881958912	oguiskt1	cara, esse teclado tá muito foda	29/04/2019, 00:04:29
1122700204577308672	EuUsoMascara	Caralho, que teclado lindo	29/04/2019, 00:12:42
1122700211946774528	sennintrash	@RazerBrazil @Razer tais trollando	29/04/2019, 00:12:43
1122866088226824197	BaitersC	Famoso Balero Estilo	29/04/2019, 11:11:51
1122868069980942337	RazerBrazil	Você é sensacional e merecedor de tudo que vem conquistando 	29/04/2019, 11:19:44
1122905140808298496	Pdro_K7	Um pedacinho de cada loja do Br @RazerBrazil @kabumcombr @Terabyteshop @MercadoLivre @votogames sonho de menino coisa de adulto ,Tudo isso para fazer live na @NimoTV_Brasil	29/04/2019, 13:47:02
1122906428681981955	kabumcombr	Parabéns pelo canto, e obrigado por podermos fazer parte dele <3.	29/04/2019, 13:52:09
1122908403511308289	Pdro_K7	E uma honra kkk Kabum quem não curte ,queria a A Webcam de vcs Logitech que está na promoção mais tá osso a grana promoção tá imperdível	29/04/2019, 14:00:00
1122914693167841283	impaauloo	Já pode me patrocina nunca pedi nada @RazerBrazil 	29/04/2019, 14:25:00
1122918824880345092	Terabyteshop	Show de bola, Pedro! Ficamos felizes em fazer parte desta conquista =)	29/04/2019, 14:41:25
1122919478717710337	Pdro_K7	Valeu Terabyte acho que preciso de mais um monitor 1 de MS	29/04/2019, 14:44:01
1122922362364678146	firedroxking	Faço parte do time da @RazerBrazil agora, quero ver se com essa aquisição nova minhas lives melhoram, tô confiando em vocês @Razer 	29/04/2019, 14:55:28
1122941891224514561	RazerBrazil	Aí sim! Bora pra live 	29/04/2019, 16:13:04
1122943566156894213	Terabyteshop	Opa, se precisar já tem na mão: https://www.terabyteshop.com.br/busca?str=1ms =) Precisando é só chamar.	29/04/2019, 16:19:44
1122944018764189703	Pdro_K7	Valeu	29/04/2019, 16:21:32
1122958358460424192	wenedi7	bem que a @RazerBrazil poderia dar um mouse para um necessitado q ta sem mouse e sem dinheiro p comprar um q é no caso eu	29/04/2019, 17:18:30
1122962642958733312	BrasilGameShow	Sim, ela está de volta. Uma das marcas mais procuradas pelos gamers, a @RazerBrazil está confirmada na maior feira de games da América Latina. Mais um ano juntas! Respeita que é #RazerNaBGS! Ingressos à venda: http://www.brasilgameshow.com.br/ingressos/	29/04/2019, 17:35:32
1122962828955197441	Gabriel_Mannica	Queria ir na bgs, mas n arranjei nem emprego, imagina dinheiro	29/04/2019, 17:36:16
1122964757680664577	RazerBrazil	Estamos preparando mais uma experiência ÉPICA para nossos fãs, além de, claro, muito gameplay full Razer. Preparem-se, porque é #RazerNaBGS mais uma vez! 	29/04/2019, 17:43:56
1122966035768934400	sharkiando	Mais uma ano que a @RazerBrazil marcará presença na @BrasilGameShow ! #AquiSeJoga #RazerNaBGS	29/04/2019, 17:49:01
1122969578957627392	BrasilGameShow	Já posso ver vocês chegando na #BGS2019! Sempre juntas! 	29/04/2019, 18:03:06
1122971688449335297	Medina_Lucas24	@RazerBrazil na BGS :) #RazerNaBGS 	29/04/2019, 18:11:28
1122971725661130753	KillerStormZZ	Coração não ta aguentando a ansiedade	29/04/2019, 18:11:37
1122975307496075265	Lincoln_ams	quando é que vocês vão comercializar de forma oficial o Razer Blade?	29/04/2019, 18:25:51
1122975932732596224	KillerStormZZ	Ansiedade bateu	29/04/2019, 18:28:20
1122978488749830145	Dyfflen	@Razer @RazerBrazil Quando teremos a Brazil RazerStore? 	29/04/2019, 18:38:30
1122979877173460992	giuhenne	Fala a real se nao acertei na blusinha hauhauahau	29/04/2019, 18:44:01
1122980564892569602	wenedi7	da hora me da um mouse	29/04/2019, 18:46:45
1122982987891716096	itzeros	eu sei que n e ela	29/04/2019, 18:56:22
1122983552398823425	alouHarden	Reinstalei o Synapse e nem meu headset ele reconhece agora KKKKKKKKKKKKKKKKKKK @RazerBrazil @RazerSupport seus produtos só são caros... E o software ta complicado.	29/04/2019, 18:58:37
1122985299263545345	ROGERTHATfps	pqp, meu kraken acaba de morrer o lado direito =/ @RazerBrazil @KauePimposo tem conserto?	29/04/2019, 19:05:34
1123007530014334976	vitorjesuso	Aeeee vou poder comprar meu teclado lá 	29/04/2019, 20:33:54
