id	username	text	datetime
1136422849101598722	jhonywalkerdia2	Sorteio de um mouse Razer DeathAdder pelo @williangordox, participe também!	05/06/2019, 21:01:35
1136423425084469248	jgcamillo	Sorteio de um mouse Razer DeathAdder pelo @williangordox, participe também! https://wn.nr/hd2WYq	05/06/2019, 21:03:52
1136426313949073408	Rip_SkiIl	Sorteio de um mouse Razer DeathAdder pelo @williangordox, participe também! https://wn.nr/P8fPSB	05/06/2019, 21:15:21
1136426762609577984	defensoul	Sorteio de um mouse Razer DeathAdder pelo @williangordox, participe também! https://wn.nr/gdW25w	05/06/2019, 21:17:08
1136426876019363840	defensoul	Sorteio de um mouse Razer DeathAdder pelo @williangordox, participe também! https://wn.nr/gdW25w	05/06/2019, 21:17:35
1136427002959990795	CjgmJunio	Sorteio de um mouse Razer DeathAdder pelo @williangordox, participe também! https://wn.nr/J8zftp	05/06/2019, 21:18:05
1136428564927188992	JerryAlvo	Sorteio de um mouse Razer DeathAdder pelo @williangordox, participe também! https://wn.nr/qVQCsx	05/06/2019, 21:24:18
1136430803859193861	JotaRoquini	A CBF já anunciou que a próxima melhoria do VAR é um teclado razer RGB	05/06/2019, 21:33:12
1136431073364254721	bernardo_conc	Sorteio de um mouse Razer DeathAdder pelo @williangordox, participe também! https://wn.nr/pHtApz fala la	05/06/2019, 21:34:16
1136433074764439553	jvmila1	Mano na Kabum tinha promoção se vc comprasse um teclado d 500 conto vc ganhava uma toalha da razer	05/06/2019, 21:42:13
1136433109988184064	B4NighTT	2º Lugar na 1ª Edição da Razer Mobile League (@RazerBrazil ). Infelizmente não fizemos uma Final de PMCO boa, mas agora é levantar a cabeça treinar mais ainda e chegar com td no Segundo Split! #goRED.	05/06/2019, 21:42:21
1136435585286115331	stringuilherme	Sorteio de um mouse Razer DeathAdder pelo @williangordox, participe também! https://wn.nr/cdPHQQ	05/06/2019, 21:52:12
1136436858282491904	_Lev1_	1 Edição do camp da razer, por pouco não ficamos em primeiro e.e #GoRED	05/06/2019, 21:57:15
1136438157715677184	lesalame1	Sorteio de um mouse Razer DeathAdder pelo @williangordox, participe também! https://wn.nr/MbNyYj	05/06/2019, 22:02:25
1136438162065149952	DarkLight_PT	Nubia Red Magic 3 Xiaomi Blackshark 2 Razer Phone 2 Aaaaaaahhhh fds Mas qual? Cada um tem coisas que os outros não têm	05/06/2019, 22:02:26
1136439282196000768	Willian_Zy	Eu te vendi um razer top pra tu quebrar tudo ne vagabundo	05/06/2019, 22:06:53
1136441056315269121	LucasYoutuber00	Sorteio de um mouse Razer DeathAdder pelo @williangordox, participe também! https://wn.nr/kdPDzT	05/06/2019, 22:13:56
1136442595406766080	Hennnnnrique	Sorteio de um mouse Razer DeathAdder pelo @williangordox, participe também! https://wn.nr/K8myhf	05/06/2019, 22:20:03
1136443320337649664	eusouoCj	mds to comprando o pc e ganhando um fone da razer tscc	05/06/2019, 22:22:56
1136443959503466497	PEDROAUGUSTOANN	Sorteio de um mouse Razer DeathAdder pelo @williangordox, participe também! https://wn.nr/NSYnqP	05/06/2019, 22:25:28
1136447720321880064	Ericktrab500	Sorteio de um mouse Razer DeathAdder pelo @williangordox, participe também!	05/06/2019, 22:40:25
1136448148455469056	HeyCau0	pensando seriamente em migrar de corsair p razer, na moral.	05/06/2019, 22:42:07
1136450296668917761	GameLevel01	Sorteio de um mouse Razer DeathAdder pelo @williangordox, participe também! https://wn.nr/Q86AKz	05/06/2019, 22:50:39
1136452162911920128	dllemosmiranda	Sorteio de um mouse Razer DeathAdder pelo @williangordox, participe também! https://wn.nr/U8CApm	05/06/2019, 22:58:04
1136452564118061056	rgallea	Sorteio de um mouse Razer DeathAdder pelo @williangordox, participe também! https://wn.nr/fdHkVs	05/06/2019, 22:59:40
1136452809195433984	rxyssxx	inclusive eu amei usar o teclado chroma da razer q a isabella comprou pq ele muda de cor e eu achei lindo :)))	05/06/2019, 23:00:38
1136457350343266306	gilnhoto	Sorteio de um mouse Razer DeathAdder pelo @williangordox, participe também! https://wn.nr/sHQcVK	05/06/2019, 23:18:41
1136458310557851648	sales_welington	Sorteio de um mouse Razer DeathAdder pelo @williangordox, participe também! https://wn.nr/NSYWzt	05/06/2019, 23:22:30
1136458533636136960	joeywheelersam	Sorteio de um mouse Razer DeathAdder pelo @williangordox, participe também! https://wn.nr/4RHmHH	05/06/2019, 23:23:23
1136459269770022912	mato_eo	Sorteio de um mouse Razer DeathAdder pelo @williangordox, participe também! https://wn.nr/jdPcTV	05/06/2019, 23:26:18
1136459697203089408	eusouoCj	feito, comprei meu pc e peguei o kit razer	05/06/2019, 23:28:00
1136460230634725378	Tarciso89	Sorteio de um mouse Razer DeathAdder pelo @williangordox, participe também! https://wn.nr/z4Qc7L	05/06/2019, 23:30:08
1136463012011892736	RegisMinervino	Sorteio de um mouse Razer DeathAdder pelo @williangordox, participe também! https://wn.nr/4RHmhk	05/06/2019, 23:41:11
1136464017994735618	_skenko	Sorteio de um mouse Razer DeathAdder pelo @williangordox, participe também! https://wn.nr/5RGkKz	05/06/2019, 23:45:11
1136465463767109632	RazerBrazil	Eu: a Eles: RAZER ME DÁ UM MOUSE	05/06/2019, 23:50:55
1136465865388507136	brtanker	Razer me dá um Mousepad	05/06/2019, 23:52:31
1136466161741324288	JhonnatanDiaz6	Sorteio de um mouse Razer DeathAdder pelo @williangordox, participe também!	05/06/2019, 23:53:42
1136468127875764224	gbgabsx	razer me da a bunda	06/06/2019, 00:01:30
1136468383543832582	_lucasavila	Sorteio de um mouse Razer DeathAdder pelo @williangordox, participe também! https://wn.nr/YdCZE6	06/06/2019, 00:02:31
1136468429911863296	_lucasavila	Sorteio de um mouse Razer DeathAdder pelo @williangordox, participe também! https://wn.nr/YdCZE6 a	06/06/2019, 00:02:42
1136468450791108609	_lucasavila	Sorteio de um mouse Razer DeathAdder pelo @williangordox, participe também! https://wn.nr/YdCZE6 b	06/06/2019, 00:02:47
1136468467585048576	_lucasavila	Sorteio de um mouse Razer DeathAdder pelo @williangordox, participe também! https://wn.nr/YdCZE6 c	06/06/2019, 00:02:51
1136468483686961153	_lucasavila	Sorteio de um mouse Razer DeathAdder pelo @williangordox, participe também! https://wn.nr/YdCZE6 d	06/06/2019, 00:02:55
1136468527441940480	_lucasavila	Sorteio de um mouse Razer DeathAdder pelo @williangordox, participe também! https://wn.nr/YdCZE6 f	06/06/2019, 00:03:06
1136470086599028738	JooBuenofs	Pode ser um mouse antigo da razer nao precisa ser esses novos e caros kkk	06/06/2019, 00:09:17
1136470568939786242	DodoSousaa	RAZER me dá um teclado (Mecânico, nada de membrana)	06/06/2019, 00:11:12
1136473639015129088	Barcelona4_0	Sorteio de um mouse Razer DeathAdder pelo @williangordox, participe também! https://wn.nr/y4QNAp	06/06/2019, 00:23:24
1136478450204778497	lucascaidao1	Sorteio de um mouse Razer DeathAdder pelo @williangordox, participe também! https://wn.nr/G8JrZ5	06/06/2019, 00:42:31
1136479473451376642	Macari_Ale	Sorteio de um mouse Razer DeathAdder pelo @williangordox, participe também! https://wn.nr/y4QLks	06/06/2019, 00:46:35
1136481731815628800	Leontario2	RAZER ME DÁ UM MOUSE	06/06/2019, 00:55:34
1136482858405650432	JDProdutos1	Sorteio de um mouse Razer DeathAdder pelo @williangordox, participe também! https://wn.nr/NSYsUb	06/06/2019, 01:00:02
1136484643631521792	RenanzinMEC	Razer da um novo mouse o meu deathadder tá velho o coitado 	06/06/2019, 01:07:08
1136485205496279040	baddiebunnyy	Depois de comprar um mouse da c3 tech e ter que trocar fucking 6 vezes e MESMO ASSIM ELE ESTRAGOU Eu me humilho e digo ME DA UM MOUSE RAZER 	06/06/2019, 01:09:22
1136488001394135041	Mirislan3	Sorteio de um mouse Razer DeathAdder pelo @williangordox, participe também! https://wn.nr/3RHyYZ	06/06/2019, 01:20:29
1136489924130201600	igorr_ii	RAZER ME DA UM MOUSE	06/06/2019, 01:28:07
1136501780899082242	tuuxxoo	Sorteio de um mouse Razer DeathAdder pelo @williangordox, participe também! https://wn.nr/fdH3TP	06/06/2019, 02:15:14
1136504382630109185	Sou1mlkAlegre	Sorteio de um mouse Razer DeathAdder pelo @williangordox, participe também! https://wn.nr/gdWgZj	06/06/2019, 02:25:34
1136513638121037824	danilodma7	Razer me da um mouseeeee	06/06/2019, 03:02:21
1136514381796261888	GabrielGPdoTB1	Sorteio de um mouse Razer DeathAdder pelo @williangordox, participe também! https://wn.nr/sHQUHb	06/06/2019, 03:05:18
1136515545245859840	sm_maciel	Sorteio de um mouse Razer DeathAdder pelo @williangordox, participe também!	06/06/2019, 03:09:56
1136546835043115014	ikk111	Mouse me da um razer 	06/06/2019, 05:14:16
1136554376544378881	Bernardo5k	Sorteio de um mouse Razer DeathAdder pelo @williangordox, participe também! https://wn.nr/G8JPJn	06/06/2019, 05:44:14
1136555101219360769	wallgarcia1	Sorteio de um mouse Razer DeathAdder pelo @williangordox, participe também! https://wn.nr/rZQbSM	06/06/2019, 05:47:06
1136558554062753793	ArKaDaste	Sorteio de um mouse Razer DeathAdder pelo @williangordox, participe também! https://wn.nr/NSYJk5	06/06/2019, 06:00:50
1136562997462257665	MACYNT0SH	Razer me da um mouse	06/06/2019, 06:18:29
1136568253034225666	gohstlol	RAZER ME DA UMA TORRADEIRA GAMER JA VOU MANDANDO ATE MEU CEP AQ	06/06/2019, 06:39:22
1136568328045178880	alvaruuuu1	RAZER ME DA UM MOUSE	06/06/2019, 06:39:40
1136569558339395584	Generacionpixel	ANÁLISIS HARD-GAMING: Mando Razer Raiju Ultimate http://www.generacionpixel.com/2019/06/06/analisis-hard-gaming-mando-razer-raiju-ultimate/ @RazerES @Razer 	06/06/2019, 06:44:33
1136572362239946752	victor998959968	Sorteio de um mouse Razer DeathAdder pelo @williangordox, participe também! https://wn.nr/ZdZxft	06/06/2019, 06:55:42
1136573240367812610	Leutee	RAZER ME DA UM MOUSE	06/06/2019, 06:59:11
1136582601664282624	RogerSantos4321	Sorteio de um mouse Razer DeathAdder pelo @williangordox, participe também! https://wn.nr/F8973L	06/06/2019, 07:36:23
1136593412734558208	mathdarim	Aê @RazerBrazil @Razer , me ajuda a comprar um left hand edition do deathadder de 2013 aí, nunca pedi nada	06/06/2019, 08:19:21
1136593777630556160	Mawttz	Me da um fone razer	06/06/2019, 08:20:48
1136598104738848768	LukasdoPique	Sorteio de um mouse Razer DeathAdder pelo @williangordox, participe também! https://wn.nr/P8fbyx	06/06/2019, 08:37:59
1136599097652047872	nikolevi	Razer razer	06/06/2019, 08:41:56
1136600799679832065	AlandeMedeiros1	Sorteio de um mouse Razer DeathAdder pelo @williangordox, participe também! https://wn.nr/ZdZC9t	06/06/2019, 08:48:42
1136600985286205440	_crfdg	Sorteio de um mouse Razer DeathAdder pelo @williangordox, participe também! https://wn.nr/J8zjUp	06/06/2019, 08:49:26
1136601722065956864	zFlexOfficial	Bom dia @kabumcombr vocês têm um desconto pro teclado da razer aí?	06/06/2019, 08:52:22
1136603382339309569	RitaopCorreia	Fiquei sem uns fones da razer mas pelo menos tive melhor nota que o @Sushiii_15 no teste de inglês eheheheheh	06/06/2019, 08:58:58
1136603684115275777	Sushiii_15	Fiquei com pior nota que a rita mas ao menos ganhei uns fones da razer 	06/06/2019, 09:00:10
1136605022047879168	Nelson_Lothbrok	Sorteio de um mouse Razer DeathAdder pelo @williangordox, participe também!	06/06/2019, 09:05:29
1136605491952574464	JuanDeSouza116	Sorteio de um mouse Razer DeathAdder pelo @williangordox, participe também! https://wn.nr/7tBCWj	06/06/2019, 09:07:21
1136608757717327872	Filipeztx	Sorteio de um mouse Razer DeathAdder pelo @williangordox, participe também! https://wn.nr/wHQBFJ	06/06/2019, 09:20:19
1136609896135311360	mauricionex	Sorteio de um mouse Razer DeathAdder pelo @williangordox, participe também! https://wn.nr/ARyY9A	06/06/2019, 09:24:51
1136610649772085249	drccruz22	Sorteio de um mouse Razer DeathAdder pelo @williangordox, participe também! https://wn.nr/ScVFmn	06/06/2019, 09:27:50
1136614239374905344	a7x_jp	sORTEIOx de um mouse Razer DeathAdder https://wn.nr/K8mF9D	06/06/2019, 09:42:06
1136614623686406144	wallflowerlemon	mano eu ja comprei o fone da razer com orelinha oq mais eu tenho q fazer??	06/06/2019, 09:43:38
1136617119917977600	leomoralex_	meu sonho é ser patrocinado pela nike, razer e monster	06/06/2019, 09:53:33
1136617330153328640	5pekgaming	Estou aprendendo #live #gamers #streamer #5pek #fps #ninja #esports #overwatch #twitchstream #gamerguy #livestream #memes #instagram #fortnitebattleroyale #smallstreamer #pcgamer #instagaming #f #twitchgamer #r #corsair #razer #like @LurkforceTV	06/06/2019, 09:54:23
1136619566925320192	Gustavo_cruz7	Sorteio de um mouse Razer DeathAdder pelo @williangordox, participe também! https://wn.nr/fdHFnQ	06/06/2019, 10:03:16
1136619745871089664	Gustavo_cruz7	Sorteio de um mouse Razer DeathAdder pelo______ @williangordox, participe também! https://wn.nr/fdHFnQ	06/06/2019, 10:03:59
1136621201227489280	OrionGplays	Se n fosse os youtubers de hg eu nem saberia oq é razer 	06/06/2019, 10:09:46
1136623228963762179	Playhits2	Sorteio de um mouse Razer DeathAdder pelo @williangordox, participe também! https://wn.nr/2RHkUM	06/06/2019, 10:17:49
1136627658199109632	StrapDeCobrinha	Razer me da um pc nunca te pedi nd posto foto do pezinho com pantufa 	06/06/2019, 10:35:25
1136632704324296710	thiagomarcelo23	Sorteio de um mouse Razer DeathAdder pelo @williangordox, participe também! https://wn.nr/ARyrbn	06/06/2019, 10:55:28
1136639204539228165	str1fe__	Os cara colocam adesivo da razer num ps4 e ainda querem pedir 1k300	06/06/2019, 11:21:18
1136642551111401472	wallflowerlemon	sou bronze no overwatch tenho fone da razer tenho m7 de nam e lulu tenho 4 guardiãs estrelares uso saia jogo de mercy e dva primária sup e secundaria mid	06/06/2019, 11:34:36
1136646758241583104	Orlandoemc2	Sorteio de um mouse Razer DeathAdder pelo @williangordox, participe também! https://wn.nr/RRDVkx	06/06/2019, 11:51:19
1136654361352966145	Twingomit21Zoll	Razer	06/06/2019, 12:21:32
1136655290189979649	BcNN_1	Sorteio de um mouse Razer DeathAdder pelo @williangordox, participe também!	06/06/2019, 12:25:13
1136656288413343745	Nippy91511117	Sorteio de um mouse Razer DeathAdder pelo @williangordox, participe também! https://wn.nr/jdP6y3	06/06/2019, 12:29:11
1136658113145257984	Henrique_puc	Olar razer Me da um mouse aí 	06/06/2019, 12:36:26
1136659416265179136	DeasOliveira	Razer, eu tenho um mouse teu! 	06/06/2019, 12:41:37
1136662727726968832	wJan_gg	comprate una tostadora razer	06/06/2019, 12:54:47
1136668760121778177	WiirzTT	Razer ornata	06/06/2019, 13:18:45
1136669643651846146	MylonRx	Sorteio de um mouse Razer DeathAdder pelo @williangordox, participe também! https://wn.nr/CRFjmB	06/06/2019, 13:22:16
1136679137400303620	PedroDSouza11	Sorteio de um mouse Razer DeathAdder pelo @williangordox, participe também! https://wn.nr/qVQkwx	06/06/2019, 13:59:59
1136681825009577986	VictorRosivaldo	Sorteio de um mouse Razer DeathAdder pelo @williangordox, participe também!	06/06/2019, 14:10:40
1136684237766221824	renanventura89	Sorteio de um mouse Razer DeathAdder pelo @williangordox, participe também! https://wn.nr/2RHXUZ	06/06/2019, 14:20:15
1136684615022735360	itadakimazeu	Razer	06/06/2019, 14:21:45
1136686017828835329	RazerBrazil	Apresentamos o novo Razer Kraken X—conforto ultraleve para gameplay sem fim. Pesando apenas 250g, sua construção ergonômica é perfeita para jogar por horas. Além disso, o som 7.1 surround garante áudio posicional claro e preciso. Saiba mais: http://rzr.to/KrakenX-BR	06/06/2019, 14:27:19
1136686601050972161	luandelonge	Ai eu acabo de comprar um Kraken 7.1 Pro V2 e a Razer me lança outro... e eu achando que tava ca urtima moda =/	06/06/2019, 14:29:38
1136693391159373824	GR_strik3	vlh, pra mim os teclados da razer são os melhores sério, não estraga nunca, o meu tenho a quase 3 anos, (fones e mouse da marca já não posso dizer o mesmo..).	06/06/2019, 14:56:37
1136693466090655746	Silvedic	Razer me da um mousepad novo pq o q eu comprei de vcs ja ta ficando áspero	06/06/2019, 14:56:55
1136694868783378432	Rodrig_nv	2 anos com Razer BlackWindow X Chroma e até agr nunca me deu problema.	06/06/2019, 15:02:30
1136695254382514176	Iaiswitch	todo dia o Jon perguntando se eu estou de mic novo quando entro em call UHASHUHAUSHUSAHUSAUHHU que saco, espera só meu razer chegar u.u	06/06/2019, 15:04:02
1136695830319116288	Annerland	Em algum momento da vida qualquer mouse dá double click. Não sei se é sorte, mas o meu abyssus da razer nunca teve esse problema.	06/06/2019, 15:06:19
1136696549239603201	llgava	Apple pra mim é a msma coisa q a Razer Modinha	06/06/2019, 15:09:10
1136697558456242181	llgava	A única coisa válida q vc pode comprar da Razer e q nem saiu é a torradeira	06/06/2019, 15:13:11
1136697866808889345	patrickguspi	Tinho um blackwidow x da Razer faz uns 3 anos e ta perfeito	06/06/2019, 15:14:24
1136700723348086789	AresAlmeida	RAZER ME DA QUALQUER COISA 	06/06/2019, 15:25:45
1136701173757595650	SABO_Q8	Razer	06/06/2019, 15:27:33
1136703231437037568	kccwhtmhl	@zzztakl compra pra gente	06/06/2019, 15:35:43
1136705428992208897	Kait0sXD	Olha, por mais que critiquem pra kct a Razer, o meu Blackwidow 2014 ta vivo até hoje. Comprei no lançamento e ta suave ainda. O problema é o preço. Mas também tem os da Logitech que usam o Switch Cherry e não esse especial deles que ta dando problema pra tu.	06/06/2019, 15:44:27
1136710125312495616	ktzsrj	me dá de presente :p	06/06/2019, 16:03:07
1136713132263596038	athaydeartes	Sorteio de um mouse Razer DeathAdder pelo @williangordox, participe também! https://wn.nr/3RHhht	06/06/2019, 16:15:04
1136718175242989569	MrDerpina	Sorteio de um mouse Razer DeathAdder pelo @williangordox, participe também! https://wn.nr/T8CENc	06/06/2019, 16:35:06
1136724282191568896	joao_moncaio	tomara que seja bom e nao so bonito como os da razer	06/06/2019, 16:59:22
1136726722265657344	slythzmember	"@GhostUEP, cujo sempre fora intitulado como ""mininu Full razer"""	06/06/2019, 17:09:04
1136729348369784837	toninhoevc	Periclão mandando um som no stand da Razer seria meu sonho?	06/06/2019, 17:19:30
1136737789503053832	juiarthur	Par contre pk t’as un clavier razer autour de ta pp bg?	06/06/2019, 17:53:03
1136738504522838016	g4brielgcardoso	Esse Hs da Razer vem junto com a vida de morar sozinho?	06/06/2019, 17:55:53
1136739343509467136	h2m_ventas	[VENDO] RAZER DEATHADDER ELITE *Precintado* Barato http://bit.ly/2QQMpv7	06/06/2019, 17:59:13
1136753373569593346	EnzoM3lo	Sorteio de um mouse Razer DeathAdder pelo @williangordox, participe também! https://wn.nr/pHthBm	06/06/2019, 18:54:58
1136754639016157184	RazerBrazil	MÊS DE ANIVERSÁRIO RAZER A cada R$100 em produtos Razer no site do @kabumcombr, você ganha um cupom para concorrer a um setup gamer completo! http://kb1.me/RazerBirthday (Válido entre os dias 01 e 30/06)	06/06/2019, 19:00:00
1136755558789390336	vitorsantsx	só quero q meu razer chega logo	06/06/2019, 19:03:39
1136757054658482177	Bielncosta	Sorteio de um mouse Razer DeathAdder pelo @williangordox, participe também! https://wn.nr/T8GS5c	06/06/2019, 19:09:36
1136757879371943936	Neemias_Neis	Sorteio de um mouse Razer DeathAdder pelo @williangordox, participe também! https://wn.nr/H82n7Q	06/06/2019, 19:12:53
1136758252719550464	NicolaOlt	Sorteio de um mouse Razer DeathAdder pelo @williangordox, participe também! https://wn.nr/vyEShX	06/06/2019, 19:14:22
1136758464179519488	danielramos_82	Sorteio de um mouse Razer DeathAdder pelo @williangordox, participe também! https://gleam.io/8Mg9E-1AXrePdz5E	06/06/2019, 19:15:12
1136758483007746049	ChuckGamers12	Sorteio de um mouse Razer DeathAdder pelo @williangordox, participe também!	06/06/2019, 19:15:16
1136759867811782656	biadixon_	Me sentindo muito fofa #razerquartz #razer #gamergirl #leagueoflegends #lol #leagueofgirls em Novo Hamburgo https://www.instagram.com/p/ByYoZfanKhl/?igshid=15yz162gyq5jp	06/06/2019, 19:20:47
1136760051824254977	melanylolee	comprei na razer mesmo e pedi para que me trouxessem de fora 	06/06/2019, 19:21:30
1136760172305682435	109_arthur	Sorteio de um mouse Razer DeathAdder pelo @williangordox, participe também! https://wn.nr/F82CqM	06/06/2019, 19:21:59
1136761308500713475	ArhurYury	Sorteio de um mouse Razer DeathAdder pelo @williangordox, participe também! https://wn.nr/kdQS4H	06/06/2019, 19:26:30
1136761898031026176	Caio91271660	Sorteio de um mouse Razer DeathAdder pelo @williangordox, participe também! https://wn.nr/6RsqCv	06/06/2019, 19:28:51
1136762909437124608	WCafezeiro	Sorteio de um mouse Razer DeathAdder pelo @williangordox, participe também! https://wn.nr/P8ZH8B	06/06/2019, 19:32:52
1136763941495955459	pedrohasswag	Sorteio de um mouse Razer DeathAdder pelo @williangordox, participe também! https://wn.nr/z49S8U	06/06/2019, 19:36:58
1136764167715790853	endrinhoxd	razer me da um pc	06/06/2019, 19:37:52
1136764482099798016	brunotachisales	Sorteio de um mouse Razer DeathAdder pelo @williangordox, participe também! https://wn.nr/pHEGNc	06/06/2019, 19:39:07
1136764811524677632	KauehZin	Sorteio de um mouse Razer DeathAdder pelo @williangordox, participe também! https://wn.nr/P8ZHt3	06/06/2019, 19:40:25
1136765063904337920	BarbMadd0x	Sorteio de um mouse Razer DeathAdder pelo @williangordox, participe também! https://wn.nr/V8GYqd	06/06/2019, 19:41:25
1136765586657206272	IgorLima1525	Sorteio de um mouse Razer DeathAdder pelo @williangordox, participe também! https://wn.nr/rZEPVF	06/06/2019, 19:43:30
1136765653648662528	Ryat0	Sorteio de um mouse Razer DeathAdder pelo @williangordox, participe também! https://wn.nr/2RZ6Kw	06/06/2019, 19:43:46
1136767591647776768	Vinisouzaa07	Sorteio de um mouse Razer DeathAdder pelo @williangordox, participe também! https://wn.nr/CR2WTB	06/06/2019, 19:51:28
1136768159518810113	joaomaths	fone da razer eh horrível acho q dos perifericos dela fone são os piores anjo	06/06/2019, 19:53:44
1136768796193173508	L_E_O_N_A_RDO	Sorteio de um mouse Razer DeathAdder pelo @williangordox, participe também! https://wn.nr/y4E2Pp	06/06/2019, 19:56:15
1136769145431683072	GomesWaldhelm	Sorteio de um mouse Razer DeathAdder pelo @williangordox, participe também! https://wn.nr/qVEG9t	06/06/2019, 19:57:39
1136769450139693058	DIutaka	Sorteio de um mouse Razer DeathAdder pelo @williangordox, participe também! https://wn.nr/mFECnx	06/06/2019, 19:58:51
1136769574727311363	Bernardo_Mrtns	Sorteio de um mouse Razer DeathAdder pelo @williangordox, participe também! https://wn.nr/qVEPKv	06/06/2019, 19:59:21
1136769678175551493	FelipePeaky	Sorteio de um mouse Razer DeathAdder pelo @williangordox, participe também!	06/06/2019, 19:59:46
1136771605424721921	iguinho3856	Sorteio de um mouse Razer DeathAdder pelo @williangordox, participe também! https://wn.nr/wHE4PG	06/06/2019, 20:07:25
1136771672609120256	crf_aleff	Sorteio de um mouse Razer DeathAdder pelo @williangordox, participe também! https://wn.nr/rZEdAt	06/06/2019, 20:07:41
1136771694851448832	felipeafsa	Sorteio de um mouse Razer DeathAdder pelo @williangordox, participe também! https://wn.nr/gdjDYE	06/06/2019, 20:07:46
1136772127993057280	Jaaumn1	Sorteio de um mouse Razer DeathAdder pelo @williangordox, participe também! https://wn.nr/F82DfX	06/06/2019, 20:09:30
1136773787729502210	CharbelTaker96	Sorteio de um mouse Razer DeathAdder pelo @williangordox, participe também! https://wn.nr/T8GcES	06/06/2019, 20:16:05
1136774444083531777	Danilo018	Sorteio de um mouse Razer DeathAdder pelo @williangordox, participe também! https://wn.nr/mFEDKq	06/06/2019, 20:18:42
1136775421238730754	sephkjh	eu: :( razer: 	06/06/2019, 20:22:35
1136776443906723841	DaniloAF27	Sorteio de um mouse Razer DeathAdder pelo @williangordox, participe também! https://wn.nr/hdZsfn	06/06/2019, 20:26:39
1136777410148478978	DaniloAF27	sORTEIOx de um mouse Razer DeathAdder https://wn.nr/hdZsfn	06/06/2019, 20:30:29
1136779369941229569	Marcelo48010951	Sorteio de um mouse Razer DeathAdder pelo @williangordox, participe também! https://wn.nr/G82EgY	06/06/2019, 20:38:16
1136780453770407936	nevescosta20044	Sorteio de um mouse Razer DeathAdder pelo @williangordox, participe também! https://wn.nr/pHE2Zm	06/06/2019, 20:42:35
1136780534229716992	nevescosta20044	Sorteio de um mouse Razer DeathAdder pelo @williangordox, participe também! https://wn.nr/pHE2Zm Ignorem	06/06/2019, 20:42:54
1136780603049893888	nevescosta20044	Sorteio de um mouse Razer DeathAdder pelo @williangordox, participe também! https://wn.nr/pHE2Z mais uma vez ignorem	06/06/2019, 20:43:10
1136780705801940993	nevescosta20044	Sorteio de um mouse Razer DeathAdder pelo @williangordox, participe também! https://wn.nr/pHE2Zm é porque diz pra compartilhar com amigos mas nao tenho	06/06/2019, 20:43:35
1136780769932828672	nevescosta20044	Sorteio de um mouse Razer DeathAdder pelo @williangordox, participe também! https://wn.nr/pHE2Zm : D	06/06/2019, 20:43:50
1136780810391052289	nevescosta20044	Sorteio de um mouse Razer DeathAdder pelo @williangordox, participe também! https://wn.nr/pHE2Zm XD	06/06/2019, 20:44:00
1136780942603894784	thiagodj20	Sorteio de um mouse Razer DeathAdder pelo @williangordox, participe também! https://wn.nr/wHEgdt	06/06/2019, 20:44:31
1136780950204014593	Thiimes	Sorteio de um mouse Razer DeathAdder pelo @williangordox, participe também!	06/06/2019, 20:44:33
1136782338942091265	joao_aguiar8	Esse mouse da razer é bom de mais	06/06/2019, 20:50:04
1136783316739403776	zHermann_DVE	Sorteio de um mouse Razer DeathAdder pelo @williangordox, participe também! https://wn.nr/sHE25b	06/06/2019, 20:53:57
