id	username	text	datetime
1114317867158257664	_hell_o_world_	mas tem fio @Razer @RazerBrazil 	05/04/2019, 21:04:17
1114318331966836736	HelioJu79108469	Tmj Netenho	05/04/2019, 21:06:08
1114326870466678784	fuba28	Parabéns mano por mas está parceria	05/04/2019, 21:40:03
1114344471502774272	Francis49005176	parabéns cara muito sucesso!!!!!!	05/04/2019, 22:50:00
1114345764753477632	Tat_GSchitini	O dia em que eu tiver um setup assim eu também não irei sair de casa @RazerBrazil 	05/04/2019, 22:55:08
1114355604867493888	margabriel_	Que setup dahora mano, parabéns!	05/04/2019, 23:34:14
1114367043967569923	AlexDebussy	O dia em que a @RazerBrazil tomar vergonha na cara e consertar meu headset eu volto a fazer propaganda de melhor marca. Porque todos os outros periféricos funcionam perfeitamente. Após uma atualização do próprio programa da Razer meu headset nunca + funcionou	06/04/2019, 00:19:41
1114372915305250821	assz_guides	Tenho o V1 até hj mt bom	06/04/2019, 00:43:01
1114381046571728896	RickRKX	Tô mto titi alguém poderia me dar... UM PC GAMER COM A CONFIGURAÇÃO MAIS AVANÇADA DO MERCADO ATUAL JUNTAMENTE EQUIPADO COM UM KIT DE PERIFÉRICOS COMPLETO DA @Razer @RazerBrazil ????	06/04/2019, 01:15:20
1114381993154838528	lucasntb00	obrigado mano	06/04/2019, 01:19:06
1114389118493036544	amandaamt2	Uma coisa de cada vez kkkk 	06/04/2019, 01:47:24
1114529980556378118	dumarquesg	@RazerBrazil me da um mouse novo	06/04/2019, 11:07:08
1114535368999698432	DayvisonCasal	Um amor @RazerBrazil 	06/04/2019, 11:28:33
1114573878808989698	marcelotoledo23	Alo @RazerBrazil vi um headset interessante no filme do @ShazamMovie haha	06/04/2019, 14:01:35
1114584393916534785	nmindz	Só se for RGB. Menos que isso, nem quero. 	06/04/2019, 14:43:22
1114590943896842241	RazerBrazil	Mais alguém reparou? Tem mais que um headset... 	06/04/2019, 15:09:23
1114591135056506880	arddhu	"Sera que se eu botar ""SHAZAM"" no meu netbook, ele vira um Razer Blade? ._."	06/04/2019, 15:10:09
1114595471786500098	RazerBrazil	Não custa tentar, vamos torcer aqui 	06/04/2019, 15:27:23
1114615197350731781	gabriel_fds	Kkkkkkkkk mas ai... O filme é meio sessão da tarde hein	06/04/2019, 16:45:46
1114623143455395840	Guilherme_Chesc	@RazerBrazil Tenho um problema com o meu Razer Nari Ultimate que não está saindo som do lado esquerdo. Faz duas semanas que tenho ele é já está com este problema. Poderiam me dizer o que está acontecendo se possível? Obrigado	06/04/2019, 17:17:20
1114623786169569282	TGamerInsideBR	Saiu mais um vídeo de vagas para atuar no mercado de games! Dessa vez trouxemos vagas de Customer Care Analyst na @RazerBrazil, Product Manager na @gazeusgames, Analista de Produto no @WebediaBR e muito mais! ( ) https://youtu.be/JPaa35yd9PM Vídeo em parceria com o @vaggasbr! 	06/04/2019, 17:19:53
1114657884095373319	Clone_hastad	Não to fazendo stream porque meu headset da @RazerBrazil ta dando problema de mal contato, não consigo usar ele. é isto @TwitchBR me perdoa	06/04/2019, 19:35:23
