id	username	text	datetime
1168323100267753472	Chasplocolo	Man E meu amigo que foi pedir um teclado e mouse da Razer para o pai e ele deu um da marca Haze	01/09/2019, 21:41:48
1168334074240540672	luccas_cpt	vou lançar um razer tiamat 7.1 v2 quero ver quebrar agora capeta dos inferno	01/09/2019, 22:25:24
1168345502909390854	smoowky	pega um da bluedio mais em conta, razer é meh	01/09/2019, 23:10:49
1168348611148681217	aso__brab	Da para fazer muita coisa e eu n sei o que razer	01/09/2019, 23:23:10
1168354032227966983	ErickAz333	Sei qual q é,me falaram q é muito bom,mas desde q o meu razer quebrou eu n compro mais nenhum outro do tipo, prefiro comprar uns de Cincão mesmo , é só sabe comprar eles direito e usar um bom equalizador q o som fica uma delícia	01/09/2019, 23:44:42
1168363995641737216	Sady_CT	Aquele verde razer	02/09/2019, 00:24:18
1168370683878895616	bendzhy	Razer	02/09/2019, 00:50:52
1168371202542489600	mariskylar	meu teclado Razer voltou a funcionar misteriosamente depois que eu disse que precisava comprar outro pra parar de jogar pelo teclado do note	02/09/2019, 00:52:56
1168376981135745024	gizlogic	Razer Customs, carcasas personalizadas para “gamers” - https://www.gizlogic.com/razer-customs-carcasas-gamer/	02/09/2019, 01:15:54
1168383176562991105	FpWqCG0TeHqz36k	RAZER Viper #RAZER #razer 	02/09/2019, 01:40:31
1168407932901478400	gbenro	Get a Razer Blade Pro. MacBook nyaju	02/09/2019, 03:18:53
1168432358443429889	moradorpep	Razer Customs, las carcasas para gamers de Razer https://go.squidapp.co/n/EovP6Oc via @SquidAppES	02/09/2019, 04:55:57
1168444860094767104	spl_yumeno	Razer	02/09/2019, 05:45:37
1168446437958590464	DidsRainfall	Está a más de 60€ Razer no es precisamente barato :(	02/09/2019, 05:51:54
1168471679665881088	PC_Guia	Serviço Razer Customs já está disponível - https://www.pcguia.pt/2019/09/razer-servico-capas-smartphones/	02/09/2019, 07:32:12
1168476602952323077	Borurin_	Razer 	02/09/2019, 07:51:46
1168488932406960129	TEZzmz	Se for bom avisa por favor quero trocar o meu da razer	02/09/2019, 08:40:45
1168508788938334208	moafoda	Eu optei por deixar meu pc funcionando pra sempre pra eu poder voltar sempre que eu quiser pro meu quarto Razer-Samsung. Essa é minha defesa, se eu tivesse insistido em continuar te ajudando meu pc de 230 dias trabalhados teria parado de funcionar...	02/09/2019, 09:59:39
1168510311852335104	flavitorg	Razer pode apresentar o notebook gamer mais fino do mundo na IFA 2019 - http://Tudocelular.com -	02/09/2019, 10:05:42
1168518939783192576	kadusafadao2142	Hahahahaahh vamos jogar todos os play station 3, 0s Xbox one X, todos os periféricos da razer, logitech e hyperx no triturador de lixo.. Me engana que NOIS GOSTA.. HAHAHAHAAHH 	02/09/2019, 10:39:59
1168535744178196480	Butterfly_Cute8	razer	02/09/2019, 11:46:46
1168542100696309761	PromobitOficial	#promoção #oferta [Cartão Submarino] Mousepad Razer Goliathus Large Control Fissure - R$116,99 #informatica	02/09/2019, 12:12:01
1168543609462939653	PromobitOficial	#promoção #oferta [Cartão Submarino] Combo Abyssus Lite + Cynosa Lite - Razer - R$312,49 #informatica	02/09/2019, 12:18:01
1168554359896072194	Azodox_	Une souris Razer ou un casque Razer ou un truc Razer	02/09/2019, 13:00:44
1168555812983365632	pedru123	já fizeram merda continuam fazendo propaganda, por que eles tem números, quando a gabi falou que homem é tudo lixo, ela so perdeu o contrato pq ela não tinha números o suficiente pra bancar os retardados que foram pedir pra razer cancelar ela, no final oque importa é numero	02/09/2019, 13:06:31
1168564159132446726	PoxaPIF	Tas no lucro primo, ayla pegou meu fone da Razer kkkkkkkk	02/09/2019, 13:39:41
1168567950355390464	AyrtonCbastian	Razer Electra V2 	02/09/2019, 13:54:44
1168579222295781381	stehcunhaa	"A gabi catuzzo disse q homem era lixo, perdeu patrocínio da razer no mesmo dia carlinhos maia literalmente disse ""se mata logo"" p um suicida e continua com todos os patrocínios Ok"	02/09/2019, 14:39:32
1168580735961317378	AntonioAbreu22	Agr só falta meu fone chegar pra eu fechar meu kit razer	02/09/2019, 14:45:33
1168584921977446400	hard_zone	Razer Basilisk Mercury White, review: ratón gaming para FPS en color blanco https://hardzone.es/reviews/ratones/razer-basilisk-mercury-white/	02/09/2019, 15:02:11
1168589850997641218	mmdsfc	Mas não foi exatamente isso que fizeram com a streamer que perdeu contrato com a Razer? 	02/09/2019, 15:21:46
1168593034092711937	Orbitalmx	https://www.facebook.com/orbital.mx/photos/a.281377565254888/2580114948714460/?type=3 Galeria de Hardware por #Razer Presentada por http://orbital.mx ¡Visitanos!	02/09/2019, 15:34:25
1168595331250032640	jaoguit	como q eu vou ser incel sem usar razer	02/09/2019, 15:43:33
1168601226155630593	_andrejacob	É só a razer lançar um chuveiro que tomam até banho	02/09/2019, 16:06:58
1168602241462341632	gonzela_	Só quero meu mouse e o fone da razer logo	02/09/2019, 16:11:00
1168603912552796160	KevinSjoberg	2TB SATA, not 1.	02/09/2019, 16:17:39
1168609337285185538	Maycao_Mkd	tenho q arrumar meu mouse da razer, mas n sei onde, e nem tenho dinheiro kakakakaka	02/09/2019, 16:39:12
1168612792116666369	tiagoaraujo96	crl adoro tanto este rato da Razer	02/09/2019, 16:52:56
1168625049282236417	rsmelo	Compatível com razer black widow chroma?	02/09/2019, 17:41:38
1168625084984176640	wzuia	Tô meio titi hoje Vamo sorteio na live pra animar? Ainda tem uns 20 pins Razer Gold pra vcs	02/09/2019, 17:41:46
1168626101826007041	wzuia	Disseram que podia sortear como quisesse bfkdbdkd eu sorteei 30 na sexta, sobraram 20 No dia acho q vão sortear produto Razer!	02/09/2019, 17:45:49
1168633534963171331	ital0juan	Alguém tem fone da razer aí?	02/09/2019, 18:15:21
1168637100704567296	xhyom	jaja esquecem ela vende uns packs e vira garota propaganda da razer	02/09/2019, 18:29:31
1168643924409376769	babyseokr	Eu: vou economizar e n vou comprar mais nada Me aparece o fone de gatinho da razer bom um preço bom Eu tbm: 	02/09/2019, 18:56:38
1168644543773888512	ySnowaay	Achar que o final mouse é o melhor mouse do mercado é tipo o povo em 2014 falando que razer era a melhor marca em td. O mouse em si é bom, mas caro demais para o que oferece, quase um tiro no pé.	02/09/2019, 18:59:06
1168645001875730432	babyseokr	Razer**	02/09/2019, 19:00:55
1168650595407974402	666SSJ	razer viper &amp; g305	02/09/2019, 19:23:09
1168658330799222784	Versalyt	A que ponto eu cheguei? Implorando um headset gaymer rosa da Razer para minha irmã 	02/09/2019, 19:53:53
1168662981904912385	smndream_	Qualquer outra marca > razer ueuhehueuhuhe	02/09/2019, 20:12:22
1168663452904284160	rafsadn	segunda eu tenho aula com a galera de games e eles ficam olhando pra gnt como se a gnt fosse uns otakus aliens e a gnt olha pra eles como lolzeiros macheetos razer	02/09/2019, 20:14:14
1168665901325004801	PietroGumz	pra mim ainda tem a Origin e a Razer Synapse, 2 anos 	02/09/2019, 20:23:58
1168671642236723200	duilio41340941	adianta de que vc demitir o Felipão que o time não ta rendendo e razer o Mano Menezes... o time vai continuar sem render... VÁ SE FUDER MATTOS @Palmeiras	02/09/2019, 20:46:47
