id	username	text	datetime
1153457945948184576	FeLinnSun	Nascar Rumble	22/07/2019, 21:12:59
1153498895856676869	Major_Kalu	Quando eu for rico.	22/07/2019, 23:55:42
1153518987814297600	r0nger	homem é lixo @RazerBrazil ??????	23/07/2019, 01:15:32
1153528459106377730	Kashi43488750	Bomberman	23/07/2019, 01:53:10
1153533648202809347	_feltrim_	Tenho um Deathadder Chroma desde 2016 e posso falar, esse mouse é top mano, não te abandona pra nada	23/07/2019, 02:13:48
1153591708522897408	lucca_161	5 operadores q tentam resgatar um refém de outros 5 operadores mas são interrompidos pelos servidores bugados e pelos bugs	23/07/2019, 06:04:30
1153652719070134273	CansadoGameplay	Carros fazendo acrobacias achando que são os táxis maluco do circo enquanto tentam bater na bola com o seu aerofólio.	23/07/2019, 10:06:56
1153664459443003393	devszzz	IRL hoje arrumando o SETUP deu bom @dt3sports @flaesports @RazerBrazil @HyperXBrasil amo todas vocês	23/07/2019, 10:53:35
1153696987830771712	rita13ca	Mas ela não pediu desculpas ?! 	23/07/2019, 13:02:51
1153699934232862720	RuyGTR	Fã da @RazerBrazil e um dia normal de jogatina. #razernuncamais #razer	23/07/2019, 13:14:33
1153710923242192904	flaesports	Cadeira braba, hein!!!	23/07/2019, 13:58:13
1153711778884390918	devszzz	Do maior do mundo zzz 	23/07/2019, 14:01:37
1153714833977729030	LucaM008	Me arruma uma cadeira dessa ae, @flaesports. Se arrumar é humilde.	23/07/2019, 14:13:46
1153718496435605509	blondboyyy	n posso ter mesa de vidro eu vivo socando dando rage ia quebrar em 2 dias	23/07/2019, 14:28:19
1153724592554479616	daviluizcaldas1	Se um cara falasse isso e dps pedisse desculpa continuariam caindo encima dele...	23/07/2019, 14:52:32
1153760365316116481	web_asn	Portfólio ASN Web Ilumination . www . asnweb . com .br . @RazerBrazil @PlayStation @sonyelectronics @nvidia @aorus_brasil @corsair @i9 @intel #web #design #prog #portfolio #asn #sites #apk #android #apple… https://www.instagram.com/p/B0RbU2nhamx/?igshid=j3tpl000hsgm	23/07/2019, 17:14:41
1153787038446960641	shisuangel	@RazerBrazil ola razer, venho fazer uma proposta pra vcs, se eu falar razer 200.000 vezes, vcs me dão um teclado?	23/07/2019, 19:00:40
