id	username	text	datetime
1142221707832414209	web_asn	Portfólio ASN Web . Criamos WebSites, Aplicativos Android, Portfólios, Trabalhos de Design, Programação e afins. Fale Conosco. . www . asnweb . com .br . @RazerBrazil @nvidia @aorus_brasil @corsair @i9… https://www.instagram.com/p/By_cKA1hRwU/?igshid=t4krg55p34xc	21/06/2019, 21:04:11
1142235756468903937	RazerBrazil	AMANHÃ TEM RAZER DAY + SORTEIO! Não perca a stream do @giganterichard a partir das 19h e concorra a dois headsets Razer Kraken. Siga-o para saber quando a live começa: http://fb.gg/GiganteRichard	21/06/2019, 22:00:00
1142236991419031552	plancton_007	não sabia que vc tinha parceria com a @RazerBrazil parabéns @RespawnBR1	21/06/2019, 22:04:55
1142241173697900544	eae_spoow1	Esse mouse vai custar meu rim	21/06/2019, 22:21:32
1142261580039634944	RY51293456	Decepcionada @RazerBrazil! Meu headset não chegou 	21/06/2019, 23:42:37
1142300188134035456	gamersegames	Razer lança bebida que ajuda no desempenho dos gamers durante as partidas: http://encurtador.com.br/qDITZ @RazerBrazil #respawngameon #GamerseGames	22/06/2019, 02:16:02
1142304058482536449	guilfodase	provavelmente os 2	22/06/2019, 02:31:25
1142344292490518528	Gabridias1	A vontade de ganhar e enorme, mais o azar e mais ainda	22/06/2019, 05:11:17
1142477346290536448	RazerBrazil	O toque final para o seu setup. Novo wallpaper Razer Mercury já disponível para download: http://rzr.to/Mercury	22/06/2019, 14:00:00
1142479964421459968	GamesJooj	Meu setup fazer tá quase pronto, só falta um mousepad kkkk	22/06/2019, 14:10:24
1142487633517522951	RespawnBR1	Estou esperando receber meu kit aqui @RazerBrazil &lt;3	22/06/2019, 14:40:52
1142487813126074369	RespawnBR1	Estou esperando o meu Kit chegar @plancton_007 , pode mandar ta @RazerBrazil ! &lt;3	22/06/2019, 14:41:35
1142488771545436163	gamersegames	Razer lança bebida que ajuda no desempenho dos gamers durante as partidas: http://encurtador.com.br/qDITZ @RazerBrazil #respawngameon #GamerseGames	22/06/2019, 14:45:24
1142515585890304000	eae_spoow1	acho que minha casa tbm	22/06/2019, 16:31:57
1142530282316271619	ayubrazil	Aê @RazerBrazil a sua EMBAIXADORA despejando ódio gratuito contra seu público alvo. Ou os homens não são os MAIORES consumidores do seu produto? Muito interessante a forma como vocês escolhem essas representantes da sua marca.	22/06/2019, 17:30:21
1142530469281619972	alter_SJW	@RazerBrazil Intão razer como é que fica?	22/06/2019, 17:31:05
1142530933939232770	jeferlirar_lira	"@RazerBrazil compro os seus produtos e fui ofendido pela sua ""embaixadora"""	22/06/2019, 17:32:56
1142531589311737856	Splinzado	"Queria ver um streamer (homem) direcionar esse odio todo contra mulheres, no dia seguinte ja teria perdido todos os patrocinadores e seria expulso da plataforma, com discurso de sexismo, mas engraçado que pras ""girl gamers feminist"" isso não vale"	22/06/2019, 17:35:32
1142531632575987714	MaxbotOfc	Coé @RazerBrazil? Tava afim de comprar um Blackwidow mas acho que não rola né.	22/06/2019, 17:35:43
1142531711407939584	ayubrazil	Aê @RazerBrazil a sua EMBAIXADORA despejando ódio gratuito contra seu público alvo. Ou os homens não são os MAIORES consumidores do seu produto? Muito interessante a forma como vocês escolhem essas representantes da sua marca. 	22/06/2019, 17:36:01
1142531968439062528	Rogermenali	Nossa que hipocrisia da @RazerBrazil	22/06/2019, 17:37:03
1142532077713317888	RafahShynoa	@RazerBrazil Parabéns hein	22/06/2019, 17:37:29
1142532470673477632	DouglasNr	Desculpa por ser homem.	22/06/2019, 17:39:02
1142532649774399488	alter_SJW	Quer que a pessoa direcione odio gratuito e não tenha consequencias é? Qual o problema de mostrarem pra marca algo que ela mesma fala publicamente?	22/06/2019, 17:39:45
1142532771107278848	cremosu	Oloco bicho, pegando uma treta ao vivasso	22/06/2019, 17:40:14
1142533001869500416	Todoroki_SFC	"Essa é a mesma que diz em ""não ser de esquerda"" mas dá RT em tweet do Boulos... kkkkkk"	22/06/2019, 17:41:09
1142533208950693894	gdxbr38	"Eu vivo vendo reclamações contra a @RazerBrazil então não me admira a escolha de uma embaixadora da mesma ""qualidade"". Mas se ela representa a marca, os homens que tem algum respeito por si mesmos deveriam boicotá-la."	22/06/2019, 17:41:58
1142533300541698050	G0n4ever	@RazerBrazil Aguardando posicionamento sobre o caso. Na hora de vender seus produtos, vcs aceitam dinheiro de macho escroto né???	22/06/2019, 17:42:20
1142533418225405953	vraullisson	Isso ai razer continua patrocinando esse tipo de pessoa	22/06/2019, 17:42:48
1142533509631885313	WillRangelLopes	Você marcou a pessoa errada. ;)	22/06/2019, 17:43:10
1142533848544288768	Strapos	verdade. @RazerBrazil vergonha	22/06/2019, 17:44:31
1142533979305910273	CFuzila	Mas que bosta hein @RazerBrazil A gente não pode chamar elas de gostosas, mas elas podem fetichizar homem o tanto que quiserem	22/06/2019, 17:45:02
1142533989795848199	zorakbr	De fato e gado mas tem que pelo menos fingir que não	22/06/2019, 17:45:05
1142534101204983808	ometalgean	@ladybotan vc que queria ver treta	22/06/2019, 17:45:31
1142534230049722368	LeoFernandes878	A @RazerBrazil já provou que apoia a marginalização dos homens justamente pq patrocina essa menina pra que ela continue exercendo sua influência pra despejar seu ódio e preconceito	22/06/2019, 17:46:02
1142534376133189632	Wendellutero	Que absurdo @RazerBrazil	22/06/2019, 17:46:37
1142534404511870978	Strapos	se fosse homem despejando esse ódio sobre as mulheres, a @RazerBrazil fazer na teria feito algo, vergonha nasional	22/06/2019, 17:46:43
1142534774529155074	ramonventer13	Vamos se ligar @RazerBrazil . Tenho produtos e amo a marca, não deixem pessoas assim queimarem sua marca.	22/06/2019, 17:48:12
1142534834277048320	Mastered_Ryan	Exato.	22/06/2019, 17:48:26
1142534860130701317	xandaodas9inha	@RazerBrazil já gastei muito com produtos da razer e gostaria de saber quais as medidas que vão tomar a respeito disso.	22/06/2019, 17:48:32
1142535101085093889	edlstronda	Discurpa por ser homi	22/06/2019, 17:49:30
1142535163504668672	ChungBoladu	O @RazerBrazil não vou comprar seus produtos com a @gabicattuzzo como a embaixadora de vocês.	22/06/2019, 17:49:44
1142535191866609670	oc0nserva	Que porra de embaixadora é aquela chamando os homens de lixo?	22/06/2019, 17:49:51
1142535577537056769	ayubrazil	"Não viu nada ofensivo em ""É por isso que Homem é lixo""? Bom, então certamente você está cego por essa ideologia. Homem não é lixo."	22/06/2019, 17:51:23
1142535739651121153	sossolote21	Todo homem é lixo? @RazerBrazil Vocês patrocinam uma coisa dessa mesmo? Triste!	22/06/2019, 17:52:02
1142535866449039360	idmnathanzin	@RazerBrazil puts vou até cancelar o pedido do meu Blackwidow agora	22/06/2019, 17:52:32
1142535893963726849	Mastered_Ryan	Os otários que nunca viram uma mulher na vida e ficam endeusando menina bonita pediram isso...	22/06/2019, 17:52:39
1142535928373809153	ayubrazil	Não existe femista, apenas feministas.	22/06/2019, 17:52:47
1142535946598002688	Splinzado	Só mais um escravoceta kkkk nada de novo por aqui	22/06/2019, 17:52:51
1142535984061517824	oc0nserva	Floodem o perfil dessa razer	22/06/2019, 17:53:00
1142536058137174022	Doc_Seward	@RazerBrazil curioso pra saber	22/06/2019, 17:53:18
1142536080715145218	ookin_f	Essa daí tá estragando a imagem da marca vamo ver isso aí razer	22/06/2019, 17:53:23
1142536148750876672	Jaime_Apdo	Já não tenho nada da razer. Agora não compro nada mesmo!	22/06/2019, 17:53:39
1142536158347481088	Splinzado	"Queria ver um streamer (homem) direcionar esse odio todo contra mulheres, no dia seguinte ja teria perdido todos os patrocinadores e seria expulso da plataforma, com discurso de sexismo, mas engraçado que pras ""girl gamers feminist"" isso não vale"	22/06/2019, 17:53:42
1142536177171537920	jc_r96	A embaixadora de vcs é uma vergonha pra empresa	22/06/2019, 17:53:46
1142536222331625472	ayubrazil	Existe pessoas com atitudes escrotas em todos os lugares. Isso não dá o direito de sair incitando ódio contra os outros.	22/06/2019, 17:53:57
1142536314660802561	Jaime_Apdo	Homem é lixo pra vocês?	22/06/2019, 17:54:19
1142536319987593216	jungjungjowoo	wtf quem é essa guria escrota que eu nunca vi?	22/06/2019, 17:54:20
1142536373360111618	CarlosBlack277	E essa ea EMBAIXADORA da @RazerBrazil ótimo exemplo que eles tem como representante olha ótimo exemplo	22/06/2019, 17:54:33
1142536402883756033	Jaime_Apdo	Essa porcaria não quero nem de graça!	22/06/2019, 17:54:40
1142536456885415936	PegaLadraoOFC	@RazerBrazil vamo tomar uma atitude? Eu como consumidor exijo uma retratação e uma atitude tomada pela Razer.	22/06/2019, 17:54:53
1142536758518833153	z1r0w	@RazerBrazil Vocês por acaso estão de acordo com esse comportamento misandrico e doentio da sua embaixadora ?!?!?!	22/06/2019, 17:56:05
1142536883685208065	Splinzado	Toda humilhação e castigo pra escravoceta é pouco, se esse tipo de mulher existe é simplesmente por que eles passam pano pra ela, mesmo ela tendo o público com 90% de homens ela se sente livre pra disparar discurso misandrico. Morte aos manginas	22/06/2019, 17:56:35
1142536984507965441	WesleyNery	alo @RazerBrazil vocês endorsam pessoas que chamam boa parte do seu publico de lixo? Bom saber	22/06/2019, 17:56:59
1142536990828695554	CFuzila	O que mais me ofendeu, é que ela é gostosa. Mas com essa chatice, é imbetável 	22/06/2019, 17:57:00
1142537057430118402	caiqueebrun	Era bom se só mulher usasse os produtos da @RazerBrazil.	22/06/2019, 17:57:16
1142537242512150528	WesleyNery	Bom saber. Espero que os homens não sejam a maioria dos consumidores da @RazerBrazil	22/06/2019, 17:58:00
1142537347894038529	TricolorRenova	Nada ofensivo te chamar de lixo	22/06/2019, 17:58:25
1142537442106511361	100lataria	Leitadas herói prós gamers assim como o Loen é pro ocidente	22/06/2019, 17:58:48
1142537513657085953	ErickBalu	@LogitechG São muito melhores.	22/06/2019, 17:59:05
1142537535614324736	dragondutch	Não atoa que a Corsair anda ganhando espaço com uns mlk humilde na Twitch tipo o @TheDarknessPGDM . A Razer só vem decaindo de patrocínio.	22/06/2019, 17:59:10
1142537717852594177	DouglasNr	Todas lindas.	22/06/2019, 17:59:53
1142537737268027393	h1federici	Embaixadora da Razer? Na minha casa mais nenhum produto Razer entra!	22/06/2019, 17:59:58
1142537780385538048	faalafiote	É por isso que meu teclado da razer é um lixo, no mínimo é feito por homens tóxicos machistas	22/06/2019, 18:00:08
1142538042172985345	Eneasli	O que é isso @RazerBrazil e @Razer vão aceitar essa postura? Ou vamos ter que boicotar os produtos?	22/06/2019, 18:01:11
1142538144841195521	Ssegato	Engraçado é ela dizer que sempre vai ter macho escroto pra sexualizar, quando foi ela quem sexualizou e não aguentou a brincadeira no mesmo nível. Não aguentou sequer 2 segundos “montada no chat”. 	22/06/2019, 18:01:35
1142538245009477633	obarbosamatt	Olha ae @RazerBrazil	22/06/2019, 18:01:59
1142538347967131649	GrottkerJean	É só deixa de comprar os produtos deles. Aí eles vão sentir no bolso	22/06/2019, 18:02:24
1142538355932106752	alonsomaxwelfk	Talvez ele seja um lixo e pensa que qualquer um que seja homem é igual a ele.	22/06/2019, 18:02:26
1142538461985067013	mupy91	@RazerBrazil não compro mais nada da razer.	22/06/2019, 18:02:51
1142538547813130240	MattheuusBr	@RazerBrazil então vocês aprovam isso???	22/06/2019, 18:03:11
1142538688787898370	LucasPower10	"Irracional, é achar que este discurso de ódio propagado por ela, se limita aos ""homens dos chats""."	22/06/2019, 18:03:45
1142538707498668033	DhiegoVerona	A mina tem influencia, ela deve saber q vai ter de tudo nos comentários, fracassada mesmo!	22/06/2019, 18:03:49
1142538742160351232	alonsomaxwelfk	"mulher chama homem de lixo e vai ""homem"" defender, o cara automaticamente se assume como lixo."	22/06/2019, 18:03:58
1142539046591315968	CFuzila	Não seja gado…	22/06/2019, 18:05:10
1142539080812683266	geesecaos	Boa noite. Gostaria de saber da Razer se vocês apoiam sua embaixadora em suas postagens ofensivas aos homens. Espero que esse tipo de atitude desrespeitosa não seja aceitável por parte da empresa. https://twitter.com/gabicattuzzo/status/1142154796016852992?s=19	22/06/2019, 18:05:18
1142539189055033347	theus_P3	ae @RazerBrazil bom saber que vocês apoiam uma pessoa com esse pensamento totalmente desconexo da realidade, e tão repleto de ódio, e pensar que já fui cliente de vocês	22/06/2019, 18:05:44
1142539269350862848	PegaLadraoOFC	Alô @RazerBrazil que história é essa? É assim que vocês tratam seus consumidores HOMENS? Os chamando de lixos, escrotos? Cadê algum posicionamento, queremos explicações.	22/06/2019, 18:06:03
1142539636138487808	conservaloukos	@RazerBrazil então quer dizer que o gordinho que compra os produtos da Razer é um lixo pra Razer, pois o embaixador da marca representa a marca e expõe o que a marca acha do seu publico!!	22/06/2019, 18:07:31
1142539665054097408	_L_12_L_	meu próximo alvo pra tentar me bloquear...	22/06/2019, 18:07:38
1142539788412760065	xand3assis	A mocinha perdeu a linha	22/06/2019, 18:08:07
1142539795031367681	ThiagoBRXx	E aí @RazerBrazil não vai fazer nada quanto a isso não? Vai pisar mesmo na cara do consumidor? Bom que não compro mais nada dessa merda	22/06/2019, 18:08:09
1142539895979859969	azihdeia	"@RazerBrazil a sua embaixadora está chamando de ""lixo"" os principais consumidores dos seus produtos. Particularmente eu recomendo a todos os homens a comprar da @steelseries, os mouses são deles são muito melhores."	22/06/2019, 18:08:33
1142540178277490691	_uVictor	Vcs dão periféricos e todo apoio à uma pessoa que nas redes sociais detona tudo o que ela acha ruim, até mesmo em live stream, põe a opinião sobre política, gênero e de forma ofensiva na maioria das vezes, patrocina quem realmente merece, por favor.	22/06/2019, 18:09:40
1142540548340932608	ThiagoBRXx	E aí @RazerBrazil não vai fazer nada? Vai deixar esse tipo de comportamento representar a marca? Se ela é embaixadora da marca então ela representa vocês, se eu sou lixo então não conte com meu dinheiro	22/06/2019, 18:11:08
1142540786627751936	EduhMonteiro	@RazerBrazil ?????????????????????????????????????????????????????????????????????? Eu sou lixo para a Razer?	22/06/2019, 18:12:05
1142540859797323777	Splinzado	Se você se sente um lixo, parabéns pra vc gado ta no caminho certo, não e pq vc é um lixo que todos nos homens somos	22/06/2019, 18:12:23
1142540926306443265	AndreuwsSantos	"Belo exemplo da ""Embaixadora"" da @RazerBrazil"	22/06/2019, 18:12:38
1142540949064732672	pato_psiquico	@RazerBrazil dando dinheiro pra misândrica?O negócio é comprar zowie ou logitech agr	22/06/2019, 18:12:44
1142541293362536450	AndreuwsSantos	O engraçado é que ela precisou de um macho fodido pra nascer.	22/06/2019, 18:14:06
1142541503220342784	arcanjosna	Já vou tratar de parar de seguir essa nojentinha.	22/06/2019, 18:14:56
1142541651988164609	ColossalSergio	Pois é. Queria saber o que a @RazerBrazil acha disso...	22/06/2019, 18:15:31
1142541714231631872	Derso_LuiS	Gastei mais de R$2000,00 em preodutos da @RazerBrazil então quer dizer que sou lixo é sério isso msm Razer? Legal hein. #Razernuncamais	22/06/2019, 18:15:46
1142541868447805446	Baldur673	@RazerBrazil Menos um cliente. Não me vinculo a empresas que promovem misandria. Lembram do menino Rhuan? Se não, eu me lembro. Abs.	22/06/2019, 18:16:23
1142541976652439552	samuca_2017	@RazerBrazil o que acham dessa misandria de uma representante?	22/06/2019, 18:16:49
1142541998643195904	naiskys	Me senti ofendido @RazerBrazil é disso que gostam, de quem dissemina o odio?	22/06/2019, 18:16:54
1142542239056498688	cleitonwesley	@LogitechG rules... Lá não vi ninguém chamando homem ou mulher de lixo...	22/06/2019, 18:17:51
1142542242189627393	CarlosBlack277	@RazerBrazil sua EMBAIXADORA espalhando ódio Gratuito contra a maioria dos seus consumidores	22/06/2019, 18:17:52
1142542264805330945	xCachorraum	Pra jogar simulador de lavar louça 	22/06/2019, 18:17:57
1142542287194509312	lmaciel1995	Se pa eles pegam qualquer uma pra ser representante...o famoso marketing invertido...	22/06/2019, 18:18:03
1142542462495461376	fanboydotakeshi	créu	22/06/2019, 18:18:45
1142542513397538816	FAvteixeira	que falta de respeito dessa doida ... Razer Lixo	22/06/2019, 18:18:57
1142542767542996993	peedrocec	nunca mais compro nada dessa marca	22/06/2019, 18:19:57
1142542860606222338	_otaldozeda	Legal pra caralho saber que uma representante e embaixadora de vocês, considera um cliente como eu de lixo... E o pior, a empresa não faz nada em relação a isso, perderam um admirador e um cliente, vou procurar alguém que valorize seus consumidores.	22/06/2019, 18:20:20
1142542892868788229	GadoElvims	Quem é essa?	22/06/2019, 18:20:27
1142542944160931840	Doc190406	Lixo esquerdista feminazi	22/06/2019, 18:20:39
1142542987458727941	Cosmicwalker144	Descobri seu canal há pouco tempo, justamente com o vídeo sobre mgtow. Sua visão é muito parecida com a minha. Maneiro ver isso de uma mina q influencia mtas pessoas. 	22/06/2019, 18:20:50
1142543035886178304	mochila_a	eu tava me preparando pra comprar um mamba elite mas acho que que não vai ser dessa vez @RazerBrazil :( vamo de predatorzada msm	22/06/2019, 18:21:01
1142543070451392512	muxilero_42	Olha com carinho pra produto Logitech sempre velho. Melhor serviço de garantia e suporte que já vi.	22/06/2019, 18:21:10
1142543147655933952	hdclima	Ei @RazerBrazil essa é a represante de vocês mesmo?	22/06/2019, 18:21:28
1142543168094855169	CryptoPaul68	E o Trivago? O anúncio onde o pai da família é um cuzão tão sem bolas que até o cachorro manda nele?	22/06/2019, 18:21:33
1142543176277921793	infosantos2018	Se for pra financiar “elenão” eu compro headset da Multilaser mas não compra da @RazerBrazil	22/06/2019, 18:21:35
1142543347355127808	mrsana257	Quando não se tem argumentos e se apela para generalidades ...	22/06/2019, 18:22:16
1142543349418725382	muxilero_42	Ainda bem que a maioria dos consumidores da @RazerBrazil não são homens! Ufa!	22/06/2019, 18:22:16
1142543350794526720	xCachorraum	Ei @RazerBrazil é isso q vocês patrocinam ?? Eu já não comprava seus produtos agora então 	22/06/2019, 18:22:16
1142543423389483008	d4nz1n_x	Paguei quase R$500,00 reais na porra de um headset , pra agora vir uma lacradorazinha me chamar de escroto ou algo do tipo. Eh foda , viu!	22/06/2019, 18:22:34
1142543508018016256	cledielmo	@RazerBrazil graças a sua embaixadora passarei longe da marca ,	22/06/2019, 18:22:54
1142543589681041408	Goriyuu1	não imaginaria uma coisa lamentável dessas	22/06/2019, 18:23:13
1142543640662855682	xCachorraum	Como deixam essa mulher fazer piada falando de homem escroto e não sei oq, mal sabe q Piada mata 	22/06/2019, 18:23:26
1142543643963789312	Vitorgonc	O cara pode ter acordado se sentindo uma cadeira e foi gentil com ela.	22/06/2019, 18:23:26
1142543738339844102	LiloVLOG	Eaí @RazerBrazil , quer dizer que homens são lixo? 	22/06/2019, 18:23:49
1142543763576897537	RobsonGuedes_	@Razer @RazerBrazil são empresa altamente preconceituosas e ainda chamam esse povo de mente escrota!	22/06/2019, 18:23:55
1142543766064193536	GadoElvims	Essa corsair ta fazendo muita coisa boa irmão, e sem lacração	22/06/2019, 18:23:55
1142543844149485568	deb_dejavu	Provavelmente eles adoraram a lacrada da moça.	22/06/2019, 18:24:14
1142543874784710663	capitalismo28	Aê @RazerBrazil a sua EMBAIXADORA despejando ódio gratuito contra seu público alvo, ou os homens não são os MAIORES consumidores do seu produto? Muito interessante a forma como vocês escolhem essas representantes da sua marca não é mesmo? 	22/06/2019, 18:24:21
1142544084734795776	Fernandzlol	@RazerBrazil vlw ate nunca, pelomenos eu não vou ajudar essa merdinha ae não	22/06/2019, 18:25:11
1142544122445742085	Vitorgonc	Cê vai sentar é na cabeçsssss	22/06/2019, 18:25:20
1142544203525832704	BatmanConservad	@RazerBrazil Então é esse tipo de gente que vocês patrocinam? Lembrarei disso ao comprar um novo Headset ou um mouse. A concorrência agradece	22/06/2019, 18:25:40
1142544212719804417	ShiroiRaito	"ayu vou te fazer um favor para depois ninguem falar ""ai voce nao marcou"" @gabicattuzzo pronto todos envolvidos marcados @ayubrazil @RazerBrazil @Razer . Agora só pegar a pipoca e ver no que vai dar,porem,minha opiniao: a gabi dessa vez ta correta,respondeu escroto com escrotice"	22/06/2019, 18:25:42
1142544273205846017	RobsonGuedes_	@Razer @RazerBrazil #RazerPreconceituosa Com toda razão!	22/06/2019, 18:25:56
1142544373860773890	divineoraculo	Eu até tava pensando em comprar um BlackWidow RGB Chroma, mas, agora vou de hyperX, menos lacração e mais opressão! O que é aquele Alloy Elite Chroma, tesão de teclado? @RazerBrazil	22/06/2019, 18:26:20
1142544449291112450	LDBretas	Eu devolvi meu Headset da @RazerBrazil e comprei um @Logitech	22/06/2019, 18:26:38
1142544469729927170	MaisaSo31779346	"Essa é a ""galerinha do bem""... bando de hipócritas!"	22/06/2019, 18:26:43
1142544490344984578	3650n	Headset Kraken é só propaganda enganosa eu tenho um desse vei, 7.1 fake, aquela merda só tem imersão.	22/06/2019, 18:26:48
1142544530819952640	aluiz5323	A mina chama os homens de lixo, mas ela tá sendo uma imagem para eles, além de os donos/acionistas da razer são homens	22/06/2019, 18:26:58
1142544539254689792	limao_ceronte	Tem homens na diretoria da @RazerBrazil ? E tudo bem serem chamados de lixo?	22/06/2019, 18:27:00
1142544599367462913	LeonLulz	homem é tudo lixo, mas na hora de ganhar donation dos macho escroto na live ela não recusa né?	22/06/2019, 18:27:14
1142544631659421696	Direitaconserv7	@RazerBrazil vcs apóiam esse tipo?	22/06/2019, 18:27:22
1142544643495813120	DNV_Chopper	a embaixadora de vcs chama os homens de lixo, sendo que os homens são 90% do cliente de vcs kakakakaka	22/06/2019, 18:27:25
1142544652937105413	tdbng	Imagina se o povo começa uma campanha de boicote a marca? MUAHAHAHAHA	22/06/2019, 18:27:27
1142544787305897984	alessandrotadeu	Que droga, hein. Talvez homens lixo não devam comprar Razer.	22/06/2019, 18:27:59
1142544825591484416	blazinshoryuken	aquele razer pantera foi pro espaço. acho q vou de hori mesmo. abraço pra @RazerBrazil e sua embaixadora.	22/06/2019, 18:28:08
1142544999189553157	ThomasLaw_br	Bicho é incrível como no Universo Gamer feminazi e esquerdistas tem todo o tipo de espaço, e oportunidade, pra falar bosta e sair impune. Por isso acabei de afastando dessa área há tempos, infelizmente. Se você é de direita: é boicote e sempre tem canalha tentando te derrubar.	22/06/2019, 18:28:49
1142545042940280832	LiloVLOG	Tenho um Mad Catz, recomendo	22/06/2019, 18:29:00
1142545089006362625	EstelaEuMesmaSC	Ora ora a pessoa faz a brincadeira e depois não aguenta? Que linguajar terrível! Moça sem educação! @RazerBrazil até eu que sou mulher passei vergonha. 	22/06/2019, 18:29:11
1142545128147574784	Iamandu_	Nosss, que preconceituosa mano. A mina está tão cega ideologicamente que manda uma dessas... Vc é DOENTE. Essa é a embaixadora da marca de vcs @Razer @RazerBrazil? Ela ataca com o preconceito dela o público masculino. Se isso representa a marca só digo uma coisa... DECEPÇÃO	22/06/2019, 18:29:20
1142545147034558464	mcastrinho	Bela embaixadora em @RazerBrazil, não acredito que vcs patrocinam esse tipo de pessoa, tanto streamer bom sem visibilidade e vcs não dão oportunidade	22/06/2019, 18:29:25
1142545194304376832	de_lima_felipe	Ter uma embaixadora que ofende quem compra grande parte dos produtos da marca que ela deveria divulgar.	22/06/2019, 18:29:36
1142545225153470464	thsfar	Que decepção @RazerBrazil	22/06/2019, 18:29:43
1142545319978262528	Sancho_bdn	Marca exclusiva para mulheres, pq segundo a embaixadora, homem é lixo.	22/06/2019, 18:30:06
1142545433580965889	AlvAdemir	Mais uma marca para vocês boicotarem : @RazerBrazil 	22/06/2019, 18:30:33
1142545536186122240	Bronson_X	@RazerBrazil vcs tem uma pessoa que odeia homens, promove odio contra os homens...e por acaso esses seres inferiores pelas palavras dela sao o seu maior público consumidor. Essa é a política da empresa?	22/06/2019, 18:30:57
1142545550832734209	B3LLINI	Porra. @RazerBrazil Depois de tomar um laço para achar e comprar na web o Kraken. FODA-SE. contra ordem e devolução	22/06/2019, 18:31:01
1142545578921996289	WesleyNery	pau no cu da razer	22/06/2019, 18:31:08
1142545596336812033	MALIIGNUS	Detalhe que 95% dos que compram as merdas que a @Razer vende são homens, a gente deve ser um lixo sim por ficar comprando essas bostas que dão defeito em 6 meses que são os produtos da @RazerBrazil	22/06/2019, 18:31:12
1142545604427624450	divineoraculo	Você fala teclados mecânicos? Se for, eles são melhores do que os teclados de membrana. Você tem um tempo de resposta melhor nos jogos, principalmente nos jogos de FPS.	22/06/2019, 18:31:14
1142545682919768069	alineolses	Que antemarketing da pohh@... Ofender o público alvo. Vão vender para as feminazis?	22/06/2019, 18:31:32
1142545723575144449	gabriel_terra	https://twitter.com/gabicattuzzo/status/1142154796016852992 É isto que vocês chamam de 'embaixadora da marca'? Um lixo de ser humano destes é a 'embaixadora da marda' de vocês?	22/06/2019, 18:31:42
1142545926403305472	IgordeVasconce6	@Razer só Logitech agora :)	22/06/2019, 18:32:30
1142545994204229633	mcastrinho	A embaixadora da maior marca de periférico gamer, destilando ódio de onde vem a maior parte da venda deles, grande escolha kkkkkkkkkkkkk	22/06/2019, 18:32:47
1142546128220688384	julianmorais	a embaixadora de vcs chamou 90% do publico alvo da marca de LIXO	22/06/2019, 18:33:19
1142546145794805760	wmt_ajoke	Top essa embaixadora @RazerBrazil	22/06/2019, 18:33:23
1142546228716212227	SorosJorge	nem boto a mão no fogo por essas empresas gamer etc... mais, maioria se vendeu pro politicamente correto	22/06/2019, 18:33:43
1142546234391093248	wmt_ajoke	Embaixadora top de vcs em	22/06/2019, 18:33:44
1142546234542108677	santosmarazul	@RazerBrazil vcs endossam as ofensas da @gabicattuzzo ?	22/06/2019, 18:33:44
1142546240602804224	andrecoelho78	Nunca comprei essas porcarias caras que só fazem sucesso no Brasil	22/06/2019, 18:33:45
1142546254666375170	ToSamHungry	O foda é que quem segue ela são feministos, então não se importam de ser rebaixados por ela	22/06/2019, 18:33:49
1142546262916513792	agentereaca	Parece que para a @RazerBrazil todo homem é lixo. Acho que a empresa não vai querer nosso dinheiro, que fique só com o mercado das feminazis tatuadas.	22/06/2019, 18:33:51
1142546334278402048	SeagullKid	@XboxMilGrau_ episódio Crossover ? Até o Lilo viu isso daí kkkkkkkkkkkkkkkkkk	22/06/2019, 18:34:08
1142546404788887552	Sigma_X13	gostosa	22/06/2019, 18:34:25
1142546449915404288	marcoscurci	Pela qualiade da tatuagens deve ter dado pra um tatuador bem boqueta,mas não vamos generalizar.	22/06/2019, 18:34:35
1142546500553203712	van_haach	Nem dá moral pra essas putas aí...	22/06/2019, 18:34:47
1142546511831719939	R4T3L	Essas garotas ficam famosas na net por causa das fotinhos sensuais, e depois vêm reclamar dos ''machos fodidos'' que dão fama pra elas.	22/06/2019, 18:34:50
1142546519570165760	AbnerAlvesFranc	Se acha o último biscoito da terra	22/06/2019, 18:34:52
1142546631151292418	clubedosfamosos	Porra é essa, RAZER???	22/06/2019, 18:35:19
1142546639363743744	Bronson_X	Sabe oq é foda...é que uma mina dessas xinga o maior nicho de consumo da @RazerBrazil - não é o momento da galera fazer um boicote e lembrar &gt; qm lacra não lucra.	22/06/2019, 18:35:20
1142546717432328192	xCachorraum	Legal mas eu sou um macho escroto então vou comprar de outra empresa superior 	22/06/2019, 18:35:39
1142546787867271169	divineoraculo	Eu usei uma vez e vale o investimento... Esses que eu citei ai no tweet, são caros, o da raze chega a 1000R$o da hyperX que falei ai é 500R$em dia de promoção na kabum. Tem os da redragon que são mais acessíveis 200 reais, mecânico também.	22/06/2019, 18:35:56
1142546865226964993	AlleNovak	Tenho até medo dessa doença!!	22/06/2019, 18:36:14
1142546866996940801	mathjmp_	essa bicha é chata pra crl, o auge dela é quanto ela faz tweet militando/chorando	22/06/2019, 18:36:15
1142546912895221760	shadycrvg	Oque tem a dizer sobre isso @RazerBrazil é isso que a empresa pensa dos seus consumidores homens?	22/06/2019, 18:36:26
1142546960215359495	elmirjsantos	A maioria dos consumidores de games são homens kkkkk vai dar ruim pra moca	22/06/2019, 18:36:37
1142546964447412225	um_mujique	Parabéns, @RazerBrazil. Perderam um cliente.	22/06/2019, 18:36:38
1142547045003251713	Leonardohhh	Nunca comprei nada de vocês mas sempre cogito @RazerBrazil agora não vou comprar nunca mesmo!	22/06/2019, 18:36:57
1142547049319149568	deb_dejavu	"Pois é... o famoso ""pára mas continua"""	22/06/2019, 18:36:58
1142547149978251264	GabrielSPinho	Aí @RazerBrazil , sua embaixadora fazendo discurso de ódio.	22/06/2019, 18:37:22
1142547290248372224	Sahharadcc	"@RazerBrazil tem uma ""embaixadoras"" que pqp. A mina tenta zoar e foi zoada, não aguentou e partiu pro vitimismo/femismo"	22/06/2019, 18:37:56
1142547319134609409	Pupot3	@RazerBrazil que porra e essa Razer concorda com isso?	22/06/2019, 18:38:03
1142547386620923911	xCachorraum	Homens morrem todo dia e ela fica falando de homem é lixo?? Mal sabe q Piada mata 	22/06/2019, 18:38:19
1142547400457895943	diguerro_	Foda-se ela e a Razer.. (sendo macho escroto kkk)	22/06/2019, 18:38:22
1142547474009247745	Kikidragon_	E o mousepad que mais curti foi esse @RazerBrazil Goliathus Speed Extended Overwatch Edition adquirido na livraria @Saraiva . Com certeza vou utilizá-lo nas gameplay! 	22/06/2019, 18:38:39
1142547575951806464	LapisLaz777	"Na hora de ganhar dinheiro nas lives:""Olha como to gostosa amigos"" Depois de ganhar dinheiro e mimos : ""odeio o machismo e a sexualização e objetificação das mulheres "" Toda feminista é uma traidora da sociedade."	22/06/2019, 18:39:04
1142547603453878275	felipegomesti	Esperando a resposta da @RazerBrazil ... 	22/06/2019, 18:39:10
1142547650203590657	tdbng	A empresa de vocês é conivente com pessoas intolerantes? Essa é a imagem que a marca de vocês quer passar para os seus clientes? Deveriam repensar os seus parceiros.	22/06/2019, 18:39:21
1142547873348935684	diguerro_	Vamos ver se a marca se sustenta só com o público feminino kkk	22/06/2019, 18:40:15
1142547928122372097	tiaguito_mt	Cliente macho escroto, que embaixadora sensata! 	22/06/2019, 18:40:28
1142547952797462534	avreuls	Quando a cabeça não pensa, o corpo padece... Me sinto muito ofendido pela empresa endossar uma declaração dessas.	22/06/2019, 18:40:34
1142547995512193025	2588Fernandoo	"Vou comprar mais porra nenhuma de vocês enquanto não cancelarem o contrato com aquela ""embaixadora"". Homem lixo é o cu dela !"	22/06/2019, 18:40:44
1142548032615043077	blazinshoryuken	mad catz é bom também mas faliu e é dificil de achar pra vender.	22/06/2019, 18:40:53
1142548225028710406	supostologin	Nunca mais compro nada da @RazerBrazil Perderam mais um cliente	22/06/2019, 18:41:39
1142548351763791873	FramonDead	Me diga pq sua embaixadora odeia seus principais público alvos? Parabéns pelo marketing tá indo bem demais	22/06/2019, 18:42:09
1142548444193730561	Pupot3	tbm fico de cara com isso a falta de respeito dessa menina ai.	22/06/2019, 18:42:31
1142548498883186689	_Tubara	Foi mal aí, mas segundo a @gabicattuzzo eu sou macho fodido, vou comprar produtos da @HyperX msm	22/06/2019, 18:42:44
1142548538200678400	diegodossanto77	Cada dia o mundo moderno tá enchendo de jovens que foram formados num hospício	22/06/2019, 18:42:53
1142548679791972353	Jonathan8104	HiperX é melhor 	22/06/2019, 18:43:27
1142548688176320517	proffelipegomes	felipegomesti says: Esperando a resposta da RazerBrazil ... 	22/06/2019, 18:43:29
1142548842744700929	jessicabrau1	@RazerBrazil é desse jeito mesmo? perdeu o cliente .	22/06/2019, 18:44:06
1142548866094571521	FramonDead	@RazerBrazil vocês me acham um escroto que tem que morrer ? Pq sua embaixadora pensa assim	22/06/2019, 18:44:11
1142548896406822912	andredanielsz	Você já parou pra pensar que vc ofendeu todos os maiores consumidores da empresa que vc representa ? Generalizar não é a melhor forma de combater os erros cometidos por poucos. Agora @RazerBrazil , por favor, sugira que a sua funcionária peça desculpas pelo ocorrido.	22/06/2019, 18:44:19
1142548899904798726	Bruto_e_Inculto	A maioria do público que consome seus produtos,@RazerBrazil , é composta por homens. Chamá-los de lixo faz parte da politica da empresa?	22/06/2019, 18:44:19
1142549456405110786	drew_42	@RazerBrazil Como consumidor da marca, não tolero esse tipo de atitude.	22/06/2019, 18:46:32
1142549490995474433	isabelhuee	@RazerBrazil a @gabicattuzzo além de promover violência contra animais, ainda é sexista e racista. Por que essa menina tem o patrocínio de vocês? Como uma menina gamer, me sinto ofendida.	22/06/2019, 18:46:40
1142549525749534720	jrdl__	E aí @RazerBrazil, qual o posicionamento da empresa quanto a isso?	22/06/2019, 18:46:49
1142549556292403200	JuL1Xxx	@LogitechG é o sucesso! 	22/06/2019, 18:46:56
1142549696575148032	jansensiewertw	Mais uma da famosa isentosfera que puxa pra esquerda e diz que é de centro. Ela quer acabar com a Lava Jato tbm.	22/06/2019, 18:47:29
1142549752887828481	lia_logarsan	Ela tá nervosa pq? Tem algum trauma de infância ou só repete discurso feminista? Já ouvi tanta merda de uns caras só por estar: andando na rua/ esperando ônibus/ sentada conversando com alguma amiga... E não tenho raiva de homens. Apenas acho quem faz isso um tremendo babaca.	22/06/2019, 18:47:43
1142549762861928452	jcmastrocola	@RazerBrazil representa mesmo? 	22/06/2019, 18:47:45
1142549805983522822	Direitaconserv7	Se essa empresa @RazerBrazil apóia esse tipo de coisa,é mais uma pra minha lista de marcas para não comprar.	22/06/2019, 18:47:55
1142549878301700097	CarlosCavalie10	Quem é essa ai lilo?	22/06/2019, 18:48:13
1142549956965875713	Denilsonx14	@RazerBrazil essa é a sua embaixadora parabéns e desculpa ai por tee nascido lixo ops homem.	22/06/2019, 18:48:31
1142550003635896320	MirianAires1	Eu fico pensando nos homens da família dela lendo isso...q mulher nojenta	22/06/2019, 18:48:43
1142550010220990464	super_sappo	Nunca mais verão o meu dinheiro, @RazerBrazil, @Razer. Empresa que ofende os seus consumidores não merece qualquer respeito.	22/06/2019, 18:48:44
1142550201258905607	aleski_CWB	Como podem ver sou um grande fan da marca Razer, mas depois da embaixadora @gabicattuzzo falar tudo isso @RazerBrazil , irei virar consumidor da Logitec e SteelSeries, a minha grana a @RazerBrazil não terão mais!!! 	22/06/2019, 18:49:30
1142550387423141893	MaverickMoraes	Que feio @RazerBrazil !	22/06/2019, 18:50:14
1142550557418315778	jcmastrocola	 péssima representante heim!	22/06/2019, 18:50:55
1142550724284473344	_icxc_nika_	Que absurdo é esse aqui? Que tipo de tratamento os clientes merecem?	22/06/2019, 18:51:34
1142550826088620032	AbnerAlvesFranc	Esse biscoito seco da porra	22/06/2019, 18:51:59
1142551020284928001	raphaelmro	Logitech e HyperX vão abraçar muitos gamers depois dessa	22/06/2019, 18:52:45
1142551060269150210	Al_Manatee	Sempre tem um Zé merda pra dar razão a uma militonta	22/06/2019, 18:52:54
1142551294948851718	mysteriumgamer	@RazerBrazil eu ja não gosto dessa Gabi e eu nem sabia q ela era embaixadora da razer odiei essa porra	22/06/2019, 18:53:50
1142551311394758656	Elite_guile	Será q @HyperXBrasil está assim? Pois preciso de um fone novo, e se razer tem embaixadores assim to fora.	22/06/2019, 18:53:54
1142551585555243010	RazerBrazil	A live Razer Day do @giganterichard começa em instantes. Não perca a (dupla) oportunidade de ganhar um headset Razer Kraken! http://fb.gg/GiganteRichard	22/06/2019, 18:55:00
1142551602512957442	Lordsaiko23	O desafio é achar as streamers que não são assim	22/06/2019, 18:55:04
1142551863075778560	LamarckDouglas	Vlw, mas eu vou ficar com a @HyperX mesmo. Porque por lá eu não sou considerado um lixo.	22/06/2019, 18:56:06
1142551884093370369	isabelhuee	Cortem o patrocínio da @gabicattuzzo ou nunca mais compro nada de vocês. Ela é sexista e racista.	22/06/2019, 18:56:11
1142552028562042881	EternoSEP	Aguardando posicionamento da @RazerBrazil or even @Razer	22/06/2019, 18:56:45
1142552088980926464	FelipeAM92	Pelo jeito a diretoria toda da Razer pode se vestir de lixo para o próximo carnaval...	22/06/2019, 18:57:00
1142552132463353856	Rafinha528	UHDASUDHASUHASDASUHAS. Você só pode ta brincando né só pode Alo @RazerBrazil @Razer this is conduct in someone person work in your company ? Ambassador has that conduct is correct ?	22/06/2019, 18:57:10
1142552249249533952	MrSullDL	Xingando outras mulheres que feminista em	22/06/2019, 18:57:38
1142552416950333440	SandroSub_zero	Espero que não sejam todos os funcionários da Razer trata os homens assim (ja que são os homens os maiores compradores) porque infelizmente existem poucas mulheres gamers.	22/06/2019, 18:58:18
1142552462253002752	MirianAires1	"Com toda razão... segundo ela ""homem é lixo"" Se vira com outro emprego... onde não tenha homem"	22/06/2019, 18:58:29
1142552527856123904	torrespy1	Deixa ela descobrir que o CEO da razer é homem kkkk	22/06/2019, 18:58:44
1142552611842940928	Sonlok1	É, enquanto essas atitudes forem vistas como normais, apareceram cada vez mais tragédias como do Rhuan	22/06/2019, 18:59:04
1142552742843572225	Pupot3	@RazerBrazil Homem é lixo não posso compra.	22/06/2019, 18:59:36
1142552789731749888	Elite_guile	Cara uso razer desde 14, já estao ficando bem desgastados esse ano vou troca mouse, fone. E ia de razer, mas vou ver, corsair vem sendo bem falada mesmo.	22/06/2019, 18:59:47
1142552810438955008	AbreuCarioca	Essa é a embaixadora da marca no Brasil... Tirem suas conclusões.	22/06/2019, 18:59:52
1142552838742183936	_MatheusBenetti	 Eis entao @RazerBrazil, a embaixadora de vocês é mesmo uma garota que propaga ódio e generalização gratuita contra nós homens? 	22/06/2019, 18:59:59
1142553116832927749	IgorWittTV	@l3itadasl0en @lilovlog @ayubrazil Ela reclama de ser escrota com mina e faz isso kkkk, olha a hipocrisia	22/06/2019, 19:01:05
1142553168456404992	Ziullz	Fêmea escrota 	22/06/2019, 19:01:17
1142553355899854848	danieltimelog	Não sei quem é essa lixo	22/06/2019, 19:02:02
1142553360454881280	JhonSuliv	Quando é que vcs vão chutar o traseiro daquela feminazi?	22/06/2019, 19:02:03
1142553361172094976	NetoPiimenta	E aí @RazerBrazil esse pensamento representa a marca ? Acho que não vai mais tem razer Naga aqui em casa no final do ano	22/06/2019, 19:02:03
1142553422622797824	rodrigodecares	A @RazerBrazil já se pronunciou?	22/06/2019, 19:02:18
1142553458530234368	magik_zaaz	Homem é lixo não posso ganhar	22/06/2019, 19:02:26
1142553581884755969	VictorSoaresF	"Uma imbecil dessa vive numa bolha mesmo pra não pensar que mulheres sexualizam, objetificam também. O Padre Fábio em seu ""boom de sucesso"" é uma prova disso (só pra exemplificar), na época do Facebook via mulherada teclando altas putarias sobre ele e nos 'posts' do próprio."	22/06/2019, 19:02:56
1142553740249055232	CapitalistThor	Alô @RazerBrazil o que vocês tem a dizer sobre essa embaixadora de vcs que acha que homem é merda ? Adoraria saber tbm a opinião do diretor da razer sobre isso. 	22/06/2019, 19:03:33
1142553802425417728	VictorSoaresF	SJW teen que sabe de tudo da vida e sobre todos, inclusive os homens.	22/06/2019, 19:03:48
1142554205296746496	IndiaCapitalist	Embaixadora da RAZER? @RazerBrazil, sexismo faz parte da politica da empresa? Eu como mulher, mãe de um rapaz que compra seus produtos estou me perguntando se é essa a visão desta empresa uma postura tão tóxica quanto essa.	22/06/2019, 19:05:24
1142554262045712384	__PogChamp	NA Razer	22/06/2019, 19:05:38
1142554368337752064	DimitriVODKA3	@RazerBrazil chamando de lixo seus consumidores, exigo q retirem o patrocínio já, isso é um desrespeito	22/06/2019, 19:06:03
1142554415892705280	EspecialistaWb	Resposta da @RazerBrazil: sim!	22/06/2019, 19:06:15
1142554450000789505	AmandaH17221878	Ainda bem que nunca comprei nada vindo deles.	22/06/2019, 19:06:23
1142554481349058560	FernandoBrPA	@xcapim360 . Olha aí capim. Streamer de qualidade	22/06/2019, 19:06:30
1142554626945953792	EspecialistaWb	Resposta da @RazerBrazil: sim.	22/06/2019, 19:07:05
1142554776351268864	EspecialistaWb	Muito melhor.	22/06/2019, 19:07:40
1142554828821999617	Pedrinho_Hope	Até pq quando se fala de qualidade kkkkk, Razer tá bem atrás	22/06/2019, 19:07:53
1142554859943673856	YuriFFC7	Pode isso @RazerBrazil	22/06/2019, 19:08:00
1142554882592911361	Dani205L	"assim,como uma pessoa imparcial eu digo: apesar dela ter uma certa razão,já que ALGUNS homens são assim,nem todos são e como embaixadora da razer,ela n deveria falar isso diretamente,se desse a opnião dela sem falar ""por isso q os homens são uns lixo"""	22/06/2019, 19:08:06
1142554964159606790	pauloUSA2016	Moro nos EUA... acabei de jogar todos os produtos Razer do meu filho no container de lixo! Se vcs tem uma embaixadora como essa @gabicattuzzo então nós não servimos como clientes.	22/06/2019, 19:08:25
1142555009722310656	rovilsu	Vai ver que só querem vender pra feminazis.	22/06/2019, 19:08:36
1142555161749012486	CapitalistThor	@RazerBrazil acho que vcs deviam ser mais cautelosos ao escolher seus representantes, o que essa menina tá fazendo ai é discurso de ódio gratuito contra homens.	22/06/2019, 19:09:12
1142555249707823104	Viking25Andre	Poxa... agora q eu tinha decidido comprar o headset... 	22/06/2019, 19:09:33
1142555366007459843	ElaineDCastro	Que tiro no pé hein @RazerBrazil ? Convido aos homens que não comprem produtos que tentam lacrar. Quem lacra não lucra.	22/06/2019, 19:10:01
1142555480528707584	FehzinLima	Sinceramente era muito fãnboy razer, mas devido a atitude de uma certa pessoa que a empresa apóia. Vou mudar de equips.	22/06/2019, 19:10:28
1142555719549562880	EspecialistaWb	Hoje em dia, sem medo de errar, a postura da esmagadora maioria das empresas de tecnologia é lacração, feminazis e LulaLivre. E o pior é que os clientes, muitos deles conservadores, nem percebem isso. É como criticar o tráfico de drogas e todo dia sobe o morro para dar um $trafi	22/06/2019, 19:11:25
1142555733822713863	aleski_CWB	"Esse é o meu Setup Razer @RazerBrazil, mas depois da @gabicattuzzo ""Embaixadora Razer Brasil"" me chamar de lixo, acho que vocês não precisam mais da minha grana, perderam um grande fan da marca! Logitech, SteelSeries, Hyper X que me aguardem!!!!"	22/06/2019, 19:11:29
1142555740231675904	LDBretas	O headset que eu devolvi..	22/06/2019, 19:11:30
1142555836721577984	Marco76Siqueira	Acabei de comprar mouse e teclado da Logitech e um headset Astro A40, parabéns, obrigado por fazerem que eu nunca compre nada da @RazerBrazil .	22/06/2019, 19:11:53
1142555960646471681	LDBretas	O headset que eu comprei.	22/06/2019, 19:12:23
1142555974278029312	geesecaos	Gostaria de saber da Razer se ela pretende apoiar a posição de sua embaixadora, que considera todos os homens como lixo?	22/06/2019, 19:12:26
1142555985791344640	PINSER_AMOGO	Oi Razer desculpa por ser homem	22/06/2019, 19:12:29
1142556147632812032	robertbrito	Não compro mais nada da Razer, esse povo acha que é blindado, condenam tudo mas desrespeitam todos.	22/06/2019, 19:13:07
1142556363802980353	LDBretas	Muito confortável, muito bom, eu uso óculos e n me machuca... recomendo!	22/06/2019, 19:13:59
1142556377933631493	tomiasi	Não entendo, a mina cheio de comentário contra homens e nos posts os caras defendendo o argumento dela, o q aconteceu com a nossa geração cara, toda degenerada, não sabe mais onde fica na sociedade	22/06/2019, 19:14:02
1142556467918245891	_BrPZ1	"É, já nao curto os equips da razer por falta de acessibilidade nos preços,com uma pessoa assim sendo o ""rostinho"" deles, ai que eu não compro mesmo, sou mais a Logitech"	22/06/2019, 19:14:24
1142556650924052480	yuyu_Koenma	Bá até queria ser cliente de vcs, mas segundo a embaixadora de vcs eu sou macho escroto como todos os homens, então acredito que a marca não nos queira como cliente pela embaixadora que possui.	22/06/2019, 19:15:07
1142556765151780870	NetoPiimenta	Apagou e vai tentar fingir que ninguém viu pra criar uma narrativa. @RazerBrazil nunca mais, aqui só entra Logitech agora 	22/06/2019, 19:15:35
1142556825985912832	SmbodyLoveMe	Você nem ao menos sabe o pq ela falou isso	22/06/2019, 19:15:49
1142556878679007232	MCPSILVEIRA	Apagou o tuite	22/06/2019, 19:16:02
1142557154639044609	Malphiteeu	Eu não entendi nada	22/06/2019, 19:17:08
1142557405114523649	JamesJoplin12	Não gasto mais um centavo com vocês, peçam para aquela rapariga arrombada pagar vcs!	22/06/2019, 19:18:07
1142557435284066304	FabioRo99423377	Quer dizer q a embaixadora chama os homens de lixo e a @RazerBrazil concorda...Ta certo então...continuem assim...Ctz vão longe com este conceito..	22/06/2019, 19:18:14
1142557455026667521	PauloRLopes	Foi rápido. Já excluiu...	22/06/2019, 19:18:19
1142557519816118273	_BrPZ1	e aí loen, corsair < logitech ? Ou maior pra vc? Tenho um g402 q peguei em promo e achei o melhr mouse q usei, ja usei um deathadder, n curti, um harpoon rgb, n curti, prefiro até o g100s antigo da logitech do q esses mouses, mais o g402 e o fone da logitech mds são os mlhrs	22/06/2019, 19:18:35
1142557521875537921	VANESSAGLIMA	Vai generalizar mulher pra ver o que acontece	22/06/2019, 19:18:35
1142557523381227520	Lucaselioo	Parabéns @RazerBrazil puta comprimetimento em? Vergonha...	22/06/2019, 19:18:35
1142557586765635585	EddieRock1_	@razerbrazil apoia esse tipo de comportamento?	22/06/2019, 19:18:51
1142557591631011840	lopes_leo99	Tá ligado que o sorteio tá com duração de 30 dias né?	22/06/2019, 19:18:52
1142557598111227906	_BrPZ1	Teclado eu uso semi mecanico ou mecanico mais baratin	22/06/2019, 19:18:53
1142557759084347403	AdrianoDrio1	Um absurdo que vocês contratem pessoas como a @gabicattuzzo que acham que eu sou um lixo.	22/06/2019, 19:19:32
1142557805112692736	SenRaposo	Vocês deveriam escolher melhor quem vai divulgar a marca de vocês. A tal embaixadora presta um desserviço.	22/06/2019, 19:19:43
1142557936247627776	PauloRLopes	A Corsair SEMPRE fez produtos bons. E sem lacrar...	22/06/2019, 19:20:14
1142558194780246017	_le0b	as vezes os donos/acionistas nem sabem dessas presepadas	22/06/2019, 19:21:15
1142558386229272578	Herbert_Buriti	"Mas ""lixo"" serial os maiores consumidores de periféricos de alta tecnologia? eis a questão, sustentada pelos ""lixo"""	22/06/2019, 19:22:01
1142558407783829504	SorosJorge	@Juliano_Lotress sentiu KKKKKKKKKKKKKKKK	22/06/2019, 19:22:06
1142558453187129345	jennimarochi	pelo amor de deus o sua sonsa burra, vc ignorou o assédio dele você é muito retardada	22/06/2019, 19:22:17
1142558478982160387	AllanXTeta	Quem usa Razer hoje em dia	22/06/2019, 19:22:23
1142558601023754241	kkKelvim	Aloooo @RazerBrazil , semana passada comprei um kit teclado e mouse de vcs e me arrependo profundamente , se eu tivesse visto esse tweet antes eu nem tinha comprado 	22/06/2019, 19:22:52
1142558616056213505	SenRaposo	Homem pode participar ou segundo sua embaixadora somos todos merda?	22/06/2019, 19:22:56
1142558628748124160	_BrPZ1	Sim, water cooler da corsair é top, acho q periferico da corsair só o teclado, esqueci o nome, o resto logitech, e os hardwares da corsair sao muito bons em qualidade, normalmente entregam oque prometem	22/06/2019, 19:22:59
1142558634196570112	Vinicius305677	Bora boicotar a @RazerBrazil	22/06/2019, 19:23:00
1142558644212576258	NetoPiimenta	Issae REAJA ARROMBADO	22/06/2019, 19:23:03
1142558755923603456	Herbert_Buriti	"Como assim um ""lixo"" estampado no twitter da empresa "	22/06/2019, 19:23:29
1142558896135057409	Herbert_Buriti	"Outro ""lixo"" quanta opressão"	22/06/2019, 19:24:03
1142558992415297536	Vinicius305677	@RazerBrazil nunca mais! Chamando de lixo os maiores consumidores dos seus produtos, qual sua ética @RazerBrazil?	22/06/2019, 19:24:26
1142559074392903680	enzornasif	Tabém queria saber	22/06/2019, 19:24:45
1142559117007044608	schmosby01	Piada que pode né	22/06/2019, 19:24:55
1142559127891263494	tortacinza	gostosa kk 	22/06/2019, 19:24:58
1142559210393276421	SorosJorge	empresa de games contratar menina que na primeira já chama TODOS OS homens de lixo, é a mesma coisa o UFC colocar de embaixador o valentão da escola que batia nos menores das series menores. sera q antes de games ser modinha ela n via todo nerd com desprezo?	22/06/2019, 19:25:18
1142559225106915329	dante_ynt	Boa @RazerBrazil Já não entrava produto dessa marca aqui em casa, agora mesmo que não entra. Apoia essa vagabunda msm seus puto do caralho 	22/06/2019, 19:25:21
1142559253942734850	itsyalch	? ce ta falando serio ? kkkkkkkkkkkkk	22/06/2019, 19:25:28
1142559258862653440	cris_da_depre	Porra cara, tem horas que vcs parecem a esquerda de tão mimizentos!	22/06/2019, 19:25:29
1142559304228245504	Herbert_Buriti	"Como assim ? Os ""lixos"" dão presentes "	22/06/2019, 19:25:40
1142559536303288320	HiCoouto	Nossa que cheirinho de inveja em	22/06/2019, 19:26:35
1142559583711444992	Cleide_Canada	pra falar assim dos homens só pode ser filha de chocadeira a esquerdinha.	22/06/2019, 19:26:47
1142559677601001482	Herbert_Buriti	"Mas ""lixo"" pode concorrer Sra?"	22/06/2019, 19:27:09
1142559686115364865	Ero_Neko	Pó de pirlinpinpin é trapaça, Respawn	22/06/2019, 19:27:11
1142559687684055040	theOneRenan	Que lixo hein @RazerBrazil ? Devo me desfazer dos produtos de vcs e partir para outras marcas? Pq não vou mais dar dinheiro pra quem apoia esse tipo de comentário. 	22/06/2019, 19:27:11
1142559719929896961	888Domenico	Genial.... A concorrência agradece.. adeus @Razer @RazerBrazil	22/06/2019, 19:27:19
1142559752326701058	AudisioFernand1	E vc precisou de um homem para ser gerada e vir ao mundo.	22/06/2019, 19:27:27
1142559757288579077	Daviage	"Qualquer br que valorize seu dinheiro não compra produtos da Razer. Sobre esse seu tuíte, nos dias de hoje o pré requisito para a publicidade é aderir ao progressismo e às pautas das ""minorias""."	22/06/2019, 19:27:28
1142559768550227976	rbassomartins	mais um motivo pra trocar essa merda cara por um @LogitechG	22/06/2019, 19:27:31
1142559860912984065	SpideyTM2	@RazerBrazil faz alguma coisa ae	22/06/2019, 19:27:53
1142559872011112449	Madrugaa90	Vamo lá, queria saber se a @RazerBrazil vai bater palma pra isso aqui, porque a menininha patrocinada fala o que quer, depois apaga e se faz de vítima. Homem é lixo, mas será que só tem mulher trabalhando na Razer pra ela aceitar o contratinho? 	22/06/2019, 19:27:55
1142559959617540096	dextroroya_01	"Enquanto essa daí for uma de suas ""embaixadoras""... eu tô fora!!!!!"	22/06/2019, 19:28:16
1142560356054839296	kohzito	Boa @Razer @RazerBrazil . Continuem contratando esse tipo de gente que ataca seu maior consumidor, vai dar muito certo sim	22/06/2019, 19:29:51
1142560507808886784	alecamargo	@RazerBrazil que lacra não lucra 	22/06/2019, 19:30:27
1142560591703355392	a_bigmess	Só os corno se doendo LKKKKKKKKKKKKKKKKKKKKKKKKKKKK AIOOOOOOOO CORNADA	22/06/2019, 19:30:47
1142560673332944896	WesleyNery	pior é essa misoginia do caralho apoiada pela @RazerBrazil	22/06/2019, 19:31:06
1142560695063592960	Daviage	"Chat de streamer feminina é cheio de ""escravoceta"", se a mina mostrar o decote, por menor que seja, os espectadores já vão à loucura. A falta de interação na vida real torna esse tipo de pessoa tão dependente de ""streamer"" que acaba se tornando um vício."	22/06/2019, 19:31:12
1142560746234097664	fms_carvalho	Tá bem de embaixadora em @RazerBrazil .	22/06/2019, 19:31:24
1142560756329844738	adilton_virgens	Ela só pode estar dentro de um lixão, entranhada nele, ao ponto de só enxergar lixo.	22/06/2019, 19:31:26
1142560821534437377	depresso_l	Fique calada e mande uma foto desnuda para recreação	22/06/2019, 19:31:42
1142560923359567872	juliasocrates	Você querendo tira o trampo da mina é bem normal né? Não seria você a versão pior de uma ant feminista? Ou apenas uma menina que procura sempre alvos que possam te dá visibilidade? Te amo miga, mas pega leve, você tá parecendo uma louca no Twitter, não perdi meu amor por ti.	22/06/2019, 19:32:06
1142560938375155712	DiegoBZ07	A feinha conseguiu manchar a imagem da Razer haha	22/06/2019, 19:32:10
1142561132126842880	_BrPZ1	É que cada equip tem seu forte,eu uso memoria hyperx, fonte e water cooler da corsair eu prefiro, o teclado mecanico ou semi mecanico que tenha boa avaliação mouse logitech e fone auricular, mousepad pode ser hyperx ou steel series, Tem uma marca Redragon, custo beneficio bom tbm	22/06/2019, 19:32:56
1142561199403536384	dante_ynt	Valeu @RazerBrazil pela embaixadora de merda Aproveitando, estou aceitando recomendações de mouse, de preferência que seja @Logitech	22/06/2019, 19:33:12
1142561385655820289	LucianCrispim	Como eu sou um lixo por ser homem, não vou mais comprar produtos da marca e faço questão de não indicar a ninguém.	22/06/2019, 19:33:56
1142561583509512193	bruno_platini	Cara, não compro mais produtos da @RazerBrazil enquanto essa cidadã representar vocês. 	22/06/2019, 19:34:43
1142561591503806464	AdrianoDeedee	"Deixe-me v se entendi: essa ""embaixadora"" tá dizendo q a MAIORIA DE SEUS CLIENTES são lixos, né?"	22/06/2019, 19:34:45
1142561608889184256	reformedRain	eai @RazerBrazil sua embaixadora ai 	22/06/2019, 19:34:49
1142561745673818113	Duck77676794	Não vai dar para comprar mais nada de vocês pois sou um macho escroto segundo sua embaixadora. Alô @HyperXBrasil	22/06/2019, 19:35:22
1142561776745287680	WalterNeder	E ai @Razer @RazerBrazil, cade o posicionamento de vocês? Se a “embaixadora” da marca emite esse tipo de “opinião” e vocês não se pronunciam, significa que vocês estão coniventes com isso. Creio que os homens são a grande maioria da base de consumidores da marca, somos “lixos”? 	22/06/2019, 19:35:30
1142561869707784192	Gabriel__72	Parece que isso merece uma explicação.	22/06/2019, 19:35:52
1142561930613334016	pick_leonardo	Sim, daqui a pouco ela vai block em geral por mostrar a verdade	22/06/2019, 19:36:06
1142562300328665088	gfbarcellos	Abre o olho Razer...tem embaixadora de voces com discurso de odio. Nao sou cliente, mas acho sacanagem golpe baixo como o dessa embaixadora. Se a marca consente, então, boa sorte pra voces, pois vão precisar.	22/06/2019, 19:37:34
1142562349720772608	sorayapassos	A melhor resposta é o boicote.	22/06/2019, 19:37:46
1142562356582658053	albaexpider	O pai dela deve ser um cara feliz.	22/06/2019, 19:37:48
1142562384885755905	rdxbrito	Por isso sempre comprei @LogitechG .	22/06/2019, 19:37:54
1142562412425547777	brotherdojorel	Mano, vocês são ridículos demais mesmo, pqp!!!! 	22/06/2019, 19:38:01
1142562531548041220	sucodepapelao	Sim, tipo você bostejando quando nem envolvida no negócio tá.	22/06/2019, 19:38:29
1142562555241607168	RolicoMaya	Mas nem adianta participar se vc for homem, pois na opinião da Gabi todos os homens são MERDAS.	22/06/2019, 19:38:35
1142562616155545601	azihdeia	Corsair é topperson sim. Recomendo fortemente.	22/06/2019, 19:38:50
1142562626347700225	SenjuTobinaro	@RazerBrazil bela embaixadora em. 	22/06/2019, 19:38:52
1142562706697936903	OlavistaJunior	@RazerBrazil jamais comprarei algo de uma empresa cuja “ Embaixadora “ está pela internet descendo a lenha nos homens!! Adios!!	22/06/2019, 19:39:11
1142562731855360000	Americadanado	"Se é buzz negativo não é ""profissional"" aeuheaueauhaeueaueaheahea Mano é por isso que eu não compro mais Razer, só compro @LogitechG pq não tem essas palhaçadas."	22/06/2019, 19:39:17
1142562814122442753	LiloVLOG	Curti o setup, o meu é da Corsair	22/06/2019, 19:39:37
1142562950659661829	WesleyNery	eu realmente nao entendo. O publico da marca é X e os nego escolhe Z pra encher o cu de $$ao invés de X.	22/06/2019, 19:40:09
1142562967080321025	VittinhoGaspar	Irmão, a guerra deixou de ser completamente assimétrica	22/06/2019, 19:40:13
1142563196873728001	Cuei404	Nunca mais compro nada nada da razer	22/06/2019, 19:41:08
1142563203584528386	igor_judeu	É macho escroto até colocar meta na Live pros macho escroto doar dinheiro pra ela.	22/06/2019, 19:41:10
1142563280810061824	EleOElliot	Profissional é a cabeça do meu pau	22/06/2019, 19:41:28
1142563412444155904	WesleyNery	quem compra o bagulho é gordo tetudo. os kras escolhem vagabunda misogina pra divulgar a marca 	22/06/2019, 19:41:59
1142563426478284800	Colunistasincer	Pode confiar os periféricos são ótimos Troquei e não me arrependo.	22/06/2019, 19:42:03
1142563439849738240	d_ainowsky	Acho que alguém vai levar comida de rabo da @RazerBrazil 	22/06/2019, 19:42:06
1142563527674212352	GeneralOpressor	@Razer que interessante... Seu público é mais masculino ou feminino? Homem é lixo mesmo?	22/06/2019, 19:42:27
1142563599715639298	AragornTropical	Mais fácil a @Razer vir lacrar e atacar os homens igual a @Gillette fez	22/06/2019, 19:42:44
1142563631055474688	oReiTargaryen	Até compraria , mas sou lixo	22/06/2019, 19:42:52
1142563633500696577	RichSouzan	E aí @RazerBrazil é a esse tipo de pessoa que vocês querem se vincular? Não trabalham homens aí? 	22/06/2019, 19:42:52
1142563694758572032	GeneralOpressor	@LiloVLOG você imagina o que falariam se fosse um alto cargo macho da RAZR falando isso de mulher?	22/06/2019, 19:43:07
1142563726144495617	Matheus38104592	Porra, embaixadora de vcs falaram q eu e meu pai, avô, tio, etc. São uns lixos, vou pra @HyperXBrasil que é melhor, lá n tem homemfobia kkkkkk	22/06/2019, 19:43:14
1142563769958244355	_BrPZ1	É boa, vai tranquilo, se afoba não kkkkk	22/06/2019, 19:43:25
1142563779634503680	SorosJorge	desculpe por ser homem razer, sou um lixo, n sou digno da empresa, vou comprar Hyper X	22/06/2019, 19:43:27
1142563818079490048	ManicmioPoltic1	Qse roubou minha frase kkkk O pai dela com certeza é uma merda tbm	22/06/2019, 19:43:36
1142563840896512000	LeiDantas	Hey @RazerBrazil, sério isso? Incluindo sua diretoria, outros embaixadores e tudo mais? Que decepção..... 	22/06/2019, 19:43:42
1142563874165657600	harrison_lima	Tava pensando em comprar um controle da @RazerBrazil , mas depois dessa!? Para patrocinar esse tipo de gente!? Corta!	22/06/2019, 19:43:50
1142563912434507776	byfabii_oficial	Esta aqui é a empresa a qual sua embaixadora considera todos os homens lixo????	22/06/2019, 19:43:59
1142564070291333125	estevaoarauj	@RazerBrazil só me confirma uma coisa: o produto de vcs é só para os homens ou é pra quem joga videogame?	22/06/2019, 19:44:36
1142564084744884225	344152	Multilaser >>> Razer.	22/06/2019, 19:44:40
1142564112750252032	Carlossilvagb	Não compro mais nada da Razer enquanto aquela moça for embaixadora.	22/06/2019, 19:44:46
1142564149924368386	_BrPZ1	Ano que vem,se o meu bolso deixar, renovo o pc em julho, só amd hyperx e corsair de hardware se Deus quiser, e o meu bolso e o bolso abaixar os impostos kkkk	22/06/2019, 19:44:55
1142564159659360267	kenizinea	Desculpe mas marcar a razer aqui só vai fazer eles lerem o tanto de comentário tóxico e machista ofendendo ela. Vocês são ignorantes mesmo	22/06/2019, 19:44:58
1142564257323716609	NelsonCidral	Lixo é vc ser mulher, uma vergonha para as mulheres de verdade	22/06/2019, 19:45:21
1142564259890700288	SinistralSpark8	"Poxa @RazerBrazil , achei um desrespeito de sua parte não emitir nenhuma nota de esclarecimento em respeito a frase de sua embaixadora. Provavelmente os ""homens lixos"" são a maioria que compram seus produtos e é assim que uma porta voz sua diga isso. Lamentável."	22/06/2019, 19:45:22
1142564410533265409	leoohollow	Logitech é nice também	22/06/2019, 19:45:57
1142564456163106816	LiosBrett	E aí @RazerBrazil , vocês compactuam com a opinião da sua embaixadora? Isso é misandria.	22/06/2019, 19:46:08
1142564879339065345	AlvAdemir	"Já que a @RazerBrazil não se pronuncia sobre a tal ""embaixadora"" chamar seus consumidores de lixos e filhos da puta, podemos chegarem a conclusão de que a marca endossa esse tipo de atitude, não é mesmo?"	22/06/2019, 19:47:49
1142564909525417994	lucas_pires16	E eu que já estava vendo pra montar o setup... interessante hen @RazerBrazil	22/06/2019, 19:47:56
1142564989045235712	Rennex77	Sou um homem lixo.. na empresa de vocês não aceitam né..	22/06/2019, 19:48:15
1142565058624598016	manojon72	@RazerBrazil isso é o que a Razer pensa dos homens? 	22/06/2019, 19:48:32
1142565068422488064	JocitanRezend	"Ja pode soltar o ""Fêmea Escrota"" ou ainda é cedo?"	22/06/2019, 19:48:34
1142565111690944513	lucelia2009	Não sei quem é essa feminista extremista, seu pai contribui juntamente com a sua mãe para vc esta aqui hj falando essas besteiras, cresça pq sem os homens não nasceriam pessoas no mundo. Deus fez o homem e a mulher, só os dois juntos geram outra vida, talkey!? 	22/06/2019, 19:48:45
1142565164518170624	Sotiagomesmo	a @RazerBrazil paga essa porra? meu deus rsrsrsr q desperdício, acharam na sarjeta?	22/06/2019, 19:48:57
1142565363760209921	Requiem0502	@RazerBrazil olha aí o nivel dos comentários que a gente tem que aguentar da sua patrocinada. Enquanto essa histérica carregar sua marca, não compro nada de vocês mais. Abs 	22/06/2019, 19:49:45
1142565493317996544	Huudys	Hmm, triste né, sempre vai ter um macho pra falar merda né hmmm, talvez ela fala isso porque os que aparece na vida dela a maioria não quer nada com nada na vida, explicar que alguém é um merda de boa é individual, mas agora fazer outras pessoas pagarem pelos erros, decepcionante	22/06/2019, 19:50:16
1142565667520094208	monteir0123	Não da pra ser consumidor de uma marca que tem como representante uma pessoa com esse tipo de pensamento. Coisa mais bizarra.	22/06/2019, 19:50:57
1142565716278894592	SexyCoruja	Menina escrota! kkkkkkkk	22/06/2019, 19:51:09
1142566025591963648	WalterNeder	A única pessoa que tem vínculo com a @RazerBrazil é ela, e não os “machistas tóxicos” comentando o tweet. Como “embaixadora” da marca, parte-se do pressuposto de que ela está alinhada com os valores da empresa, e eu gostaria de saber se a @Razer realmente tem esses valores.	22/06/2019, 19:52:23
1142566076674387969	bavi033	@RazerBrazil Ta sabendo dessa ja?	22/06/2019, 19:52:35
1142566141879115782	MarconeMendes	Vagabunda, pronto!!!	22/06/2019, 19:52:50
1142566220622893057	C4mp0r3Z	Como diz o mestre Loen, as areas de marketing das empresas esta cheia de gorda esquerdista de cabelo roxo, entao vem tudo essas merda que nao condiz com a marca .	22/06/2019, 19:53:09
1142566246338236416	Gilberto_XZ	Dá uma olhada nos produtos da @Logitech além de excelentes a garantia dos caras é sem igual.	22/06/2019, 19:53:15
1142566331096731648	SrMonarca	#BoicoteRazer , desde adolescente comprando os produtos da @RazerBrazil (posso provar com os produtos) e vem alguém que provavelmente sempre ganhou o produto chamar TODOS os homens de lixo por causa de 1 , no mínimo um pedido de desculpas da marca ou Razer nunca mais! Escrota 	22/06/2019, 19:53:35
1142566387413671939	kenizinea	Ah então pq ela representa a Razer ela tem que aceitar todo mundo ofendendo ela? É um comentário como “monta em mim”? Se um cara fala isso pra tua mãe/irmã oq vc espera q elas respondam? Se toca	22/06/2019, 19:53:49
1142566408234123264	AndreuwsSantos	Pelo que ela falou sim, eu não aconpanho ela, nem conheço ela, só vir conhecer por causa disso e pq a ayu falou sobre. Qualquer homem que se preze ficaria ofendido.	22/06/2019, 19:53:54
1142566409471516672	movedchaff30	Dps dessa o pai foi comprar cigarro	22/06/2019, 19:53:54
1142566453310304257	Gilberto_XZ	Ela apagou?	22/06/2019, 19:54:04
1142566615734784000	animes_my	@RazerBrazil Sério razer que tem gente desse tipo na empresa? ? Homem é lixo agora? Blz!	22/06/2019, 19:54:43
1142566721926172672	jps_faria	Logitech muito melhor kkk	22/06/2019, 19:55:09
1142566731984117761	Malphiteeu	Eu não entendi a treta em geral	22/06/2019, 19:55:11
1142566787575402497	Derikoso	Já que sou um homem lixo vou pegar meu rico dinheirinho e comprar em outro lugar. @RazerBrazil aconselho que escolham melhor a equipe de vocês. 	22/06/2019, 19:55:24
1142566800695185409	rafael_the83	sim, queremos!!!! dois pesos, duas medidas!!!	22/06/2019, 19:55:27
1142566831036805120	aleski_CWB	Vlw Lilo, Grande marca Coisar, o meu gabinete é um Corsair Crystal lindo gabinete, sei que os periféricos da Corsair também são de excelentíssima qualidade!	22/06/2019, 19:55:35
1142566875546705920	rdxbrito	Segundo a sua embaixadora eu sou lixo então vocês não merecem minha grana. Sempre soube que @LogitechG era melhor	22/06/2019, 19:55:45
1142567073580769281	SrMonarca	Antes que venha falar bosta , eu comprei o Tarantula com a Battle Light desde quando a Razer Brasil era nada.	22/06/2019, 19:56:32
1142567120498307078	LLeo_Andreis	Puta merda olha os gados indo atrás dela no perfil kkkk	22/06/2019, 19:56:44
1142567215541235712	tomazini31	Eu ia concordar com você mas aí seria duas pessoas falando merda	22/06/2019, 19:57:06
1142567242548305921	Malphiteeu	Acho que vc deveria resumir a treta pra mim	22/06/2019, 19:57:13
1142567595499040768	Marco76Siqueira	Fui de Astro e Logitech aqui, pois precisava atualizar meu setup de PC e Xbox, valeu @RazerBrazil , assim vcs vão longe !!! 	22/06/2019, 19:58:37
1142567646627606528	ssa_daniel	Viram isso?	22/06/2019, 19:58:49
1142567668765069312	Sanflecy	Engraçado é que ela fez uma piada, e o cara respondeu com outra. E ela começa a destilar ódio aos homens, e que se foda. Kk Que feminilidade frágil, né n?	22/06/2019, 19:58:54
1142567723895066624	PegaLadraoOFC	A @RazerBrazil tá muito calada, cadê o posicionamento? Contra ou a favor? É assim que são tratados os clientes homens que SÃO MAIORIA e que pagam CARO pra ter os periféricos e ser chamado de lixo e escroto pela embaixadora? É assim Razer?	22/06/2019, 19:59:07
1142567994662563841	LeonLulz	Parabens @RazerBrazil acabou de perder um cliente pra @CorsairGamingBR 	22/06/2019, 20:00:12
1142568074073268224	raphaelmro	verdade	22/06/2019, 20:00:31
1142568107652898817	gordocheiroso	Será que os “homens que são todos lixo” segundo a embaixadora de vocês vão continuar consumindo seus produtos?	22/06/2019, 20:00:39
1142568232206983168	ssa_daniel	Misandria da agenda feminista vai cansando a todos e mostrando o que querem.	22/06/2019, 20:01:09
1142568243279872000	reformedRain	Grande embaixadora de vcs ai, por isso prefiro a hyper x	22/06/2019, 20:01:11
1142568261286055936	Marcelo_Jr16	É esse tipo de pessoa que voces patriocinam racista e sexista?? Nunca mais comprarei produtos de voces.	22/06/2019, 20:01:16
1142568273860542471	eldonvortex	Puxei block não suporto esses lixos de gente	22/06/2019, 20:01:19
1142568293439627264	hectorhenke	Razer ñ quer vender mais para todos. Este tipo de coisa é uma característica bem Brasileira. Pessoal do marketing e agências de publicidade chafurdando na tosqueira da esquerda, do dividir as pessoas. Será que os acionistas destas em empresas sabem disso?	22/06/2019, 20:01:23
1142568394438467584	dyegors	Fez zueira e não aguentou, depois xingou quem zuou, apagou o tweet e ficou fingindo não ter feito nada e agora diz que é perseguição kkkkkkkkk e é embaixadora de marca ainda, meu caneco os cara de marketing ultimamente só chamam de uma laia que pqp	22/06/2019, 20:01:47
1142568418715099136	ViniRedDevil	lamentável @RazerBrazil	22/06/2019, 20:01:53
1142568440642887680	felipealmeida30	Sou um lixo .	22/06/2019, 20:01:58
1142568459013939200	kenizinea	A piada dela não foi ofensiva ou desrespeitosa. A dele, foi. Esta é a diferença :)	22/06/2019, 20:02:03
1142568476164415489	WalterNeder	Não ue, ela pode falar o que quiser, o perfil é dela. Mas a partir do momento que ela coloca no perfil que ela representa uma marca, tudo que ela publicar poderá ser vinculado a empresa.	22/06/2019, 20:02:07
1142568631462715392	FinkRj	Pois é, acredito que pelo menos 90% do público consumidor da marca é homem.	22/06/2019, 20:02:44
1142568643051622400	Asaguiarhotmai1	Acho que esse puta nunca pegou um homem de verdade na cama.	22/06/2019, 20:02:47
1142568755484143616	uCavalcante7	Que merda é essa @RazerBrazil? Até quando vcs vão apoiar este comportamento tóxico na comunidade gamer?	22/06/2019, 20:03:13
1142568778699542530	PegaLadraoOFC	"A @RazerBrazil @Razer compactua com os ideais da embaixadora? É assim que são tratados os clientes homens? Chamando-os de ""lixo"" ""escrotos""? Pagamos caro pelos periféricos da Razer e é assim que somos recebidos? Nenhuma nota? Nenhuma atitude? Cadê retratação?"	22/06/2019, 20:03:19
1142568833405857792	carlosolavo8	Este tipo de feminismo e de extrema burrice com notoria ignorância e violência em seus atos e palavras. Tudo isso me faz acreditar que estas mulheres são homens inrustidos que não tem a coragem de assumir isso. Que doideira. Queremos paz.	22/06/2019, 20:03:32
1142568916293697536	Elrockha	Isso ai é EMBAIXADORA da @RazerBrazil ? É gente desse tipo que vcs contratam?	22/06/2019, 20:03:52
1142568921003937792	pedrocks15	Homem lixo escroto tóxico embuste Chernobyl	22/06/2019, 20:03:53
1142569097210802176	fwmaihach	Então @RazerBrazil quer dizer que a maioria dos seus clientes é lixo? Isso mesmo?	22/06/2019, 20:04:35
1142569102470524928	Sanflecy	"Ué, o cara só falou ""monta em mim então"", isso foi ofensivo? Já que, ela estava ""montando no chat"", o cara apenas sugeriu. e.e"	22/06/2019, 20:04:36
1142569147634786305	RogerIscruton	Não comprarei. O menino Rhuan morreu de forma completamente violenta por pessoas que faziam o mesmo discurso que sua embaixadora!	22/06/2019, 20:04:47
1142569231160086528	uCavalcante7	@l3itadasl0en pq vcs não levam a @XboxMilGrau_ para o pod Ninguém se importa para falar da censura da mídia jornalística gamer?	22/06/2019, 20:05:07
1142569297761509376	PegaLadraoOFC	@RazerBrazil Que comportamento digno de ser embaixadora em Razer?	22/06/2019, 20:05:23
1142569317843775490	pedrocks15	Homem lixo tóxico embuste Chernobyl escroto	22/06/2019, 20:05:27
1142569395191013378	PegaLadraoOFC	Padrões de etiqueta, muito educada!	22/06/2019, 20:05:46
1142569466569646082	pedrocks15	Tem fone para homem lixo?	22/06/2019, 20:06:03
1142569743553089537	CarneShark	"Queremos um posicionamento @RazerBrazil sobre a fala de uma embaixadora chamando homens de ""lixo"", estamos aguardando....."	22/06/2019, 20:07:09
1142569753342615553	RogerIscruton	Que falta de tato de vocês. O Brasil recém recuperando de um crime sem precedentes por causa de discurso de ódio e vocês contratando gente torpe assim... Esperava mais	22/06/2019, 20:07:11
1142569898331254784	eu20noel	@RazerBrazil paguei quase um 1k em periféricos para ser chamado de merda por sua embaixadora. Não contém mais com meu dinheiro.	22/06/2019, 20:07:46
1142569991293853696	jntFinger	Se tu ainda tiver grana comprando equipamento da razer kkkkkk	22/06/2019, 20:08:08
1142570044108546054	Malphiteeu	Resume mais sla	22/06/2019, 20:08:21
1142570167655981056	z1r0w	E aí @RazerBrazil ? Vai continuar financiando uma intolerante misandrica como ela ?	22/06/2019, 20:08:50
1142570167890784257	Malphiteeu	Ata entendi Se ela quiser montar em mim eu aceito também	22/06/2019, 20:08:50
1142570443938914304	R4T3L	Eu ia até comprar um mouse da @RazerBrazil que custa metade do valor da minha casa, mas agora vou economizar uma grana e comprar uma corda pra me enforcar, já que descobri que sou um lixo por ser homem. 	22/06/2019, 20:09:56
1142570480601313280	LUKS_HALO	E quem te chamou, há é msm né ninguém,se chama liberdade de expressão, assim como você pode vir aqui falar merda, ela tbm pode falar o que quiser	22/06/2019, 20:10:05
1142570564000845831	Andarilho_JDH	"Próximo passo é usar a ""Manobra Najilla"" muito usada nessas últimas semanas: vai alegar que foi ""ameaçada"" e se colocar como vítima."	22/06/2019, 20:10:25
1142570587396759552	faalafiote	sou trouxa demais, paguei 400 pila no teclado mais lixo da minha vida. Direto as teclas saem fora	22/06/2019, 20:10:30
1142570618854023168	TimeSantosFC	Sua embaixadora me ofendeu, Razer.	22/06/2019, 20:10:38
1142570640962183168	DropMarcos	Vai sofrer demais na vida coitada	22/06/2019, 20:10:43
1142570645886296066	Marcelo_Jr16	Voces tambem pregam preconceito?	22/06/2019, 20:10:44
1142570660423786496	GodOfZaga	Essa mina é um lixo, cresceu na Twitch por causa dos escravocetas	22/06/2019, 20:10:48
1142570750597054475	Pri_really	Ela não parece ter perfil pra trabalhar onde trabalha.	22/06/2019, 20:11:09
1142570835888287744	gillmota1	Eu tenho vários componentes da @RazerBrazil aqui em casa, faço live às vezes na 9nono com Free fire, mas de hoje em diante, não compro mais um parafuso da marca! Se homem é tudo merda, vendam só para as mulheres!	22/06/2019, 20:11:29
1142570889663459329	FlavioVicCosta	Sou H fdp! Todas gostam de vagabundos!	22/06/2019, 20:11:42
1142570953622335488	MatheusFMBl	@GABRIELHMB agora tu decide... compra o corsair	22/06/2019, 20:11:57
1142571133490929664	lilasehlindo	n entendi a ofensa ai	22/06/2019, 20:12:40
1142571274398556160	vlbruiz	Ta queimando o filme da @RazerBrazil	22/06/2019, 20:13:14
1142571285785927680	PierreAlvarez20	Q merda de menina é essa sua embaixadora	22/06/2019, 20:13:17
1142571321336971264	ThiagoS50802927	Estão mal de embaixadora hein! Ridículo!!!	22/06/2019, 20:13:25
1142571543991660544	h1federici	Não compro produto de empresa que tem embaixadora feminista e misandrica. @RazerBrazil	22/06/2019, 20:14:18
1142571629144420355	faalafiote	Sim, a máquina de datilografia do meu vô é bem melhor	22/06/2019, 20:14:38
1142571635255496704	cdonbr	Já que homens não são bem vindos, nunca mais compro nada da @RazerBrazil @Razer	22/06/2019, 20:14:40
1142571725009367042	Lawrence11x	Sim, é exatamente isso que queremos, pois é isso que eles sempre fazem.	22/06/2019, 20:15:01
1142572093982302208	Lawrence11x	Alô, @RazerBrazil, é esse tipo de pessoa que vocês patrocinam? Seu maior público é masculino, e essa garota está esculhambando a maior parte de seus consumidores.	22/06/2019, 20:16:29
1142572247707770880	jorgesarmentojr	@Razer @RazerBrazil isso aqui pode ? Eu como cliente a anos estou aguardando uma resposta o mais rápido possível. Estou orçando uma nova máquina mês que vem. 	22/06/2019, 20:17:06
1142572496115441664	_ogush	Po @RazerBrazil, sua embaixadora vou te contar em...	22/06/2019, 20:18:05
1142572514922631168	edilsonm69	Espero que vcs tomem uma providência sobre a embaixadora retardada de vcs	22/06/2019, 20:18:10
1142572540960935951	ivanpin55208376	Será que nasceu de um homem e mulher ou foi feita de merda de cavalo?	22/06/2019, 20:18:16
1142572630559666176	SinistralSpark8	Aparentemente pra Razer Brasil sim, seus consumidores são lixos e escrotos...	22/06/2019, 20:18:37
1142572691087646721	LiloConservador	Já que nós homens somos escrotos, então não compraremos mais poha nenhuma de vocês.	22/06/2019, 20:18:52
1142573139269996544	PegaLadraoOFC	Partiu mudar pra @LogitechG então.	22/06/2019, 20:20:39
1142573174242074626	leleuhms	o ayu ta querendo um headset da razer? passa teu cep ai vo manda 3	22/06/2019, 20:20:47
1142573178218274816	Zannix	Mas que menina mais idiota. Não passa de mais uma idiotinha!	22/06/2019, 20:20:48
1142573208702509056	Luuuczz	A razer patrocina ela?	22/06/2019, 20:20:55
1142573359923892225	oReiTargaryen	@RazerBrazil algum pronunciamento ??	22/06/2019, 20:21:31
1142573455252103168	AahoJogos	@RazerBrazil pior que comprava produtos de vcs, mas como uma representante de vcs afirmam que homens são um lixo, vou procurar outra empresa que respeite seus clientes. 	22/06/2019, 20:21:54
1142573599540334593	sucodepapelao	Chegou a boiada	22/06/2019, 20:22:28
1142573665386676232	Marcelo_Jr16	Respondeu educadamente ne. @RazerBrazil 	22/06/2019, 20:22:44
1142573726480969733	gdxbr38	"Tem que expor msm essa raça que se acha no direito de espalhar discurso de ódio travestido de ""pensamento oposto"". E eu fico curioso de saber o que a dona @RazerBrazil acha da sua embaixadora tendo esse tipo de atitude."	22/06/2019, 20:22:59
1142573730691997701	Alencrssouza1	Vc deve ter nascido por intercessão do espírito santo , só pode , com a imaculada sua mãe , pois pobre do camarada que leva o título do desgosto de ser seu pai ....!	22/06/2019, 20:23:00
1142573780910391297	MateusRegsi	Se você ta mo twitter da Ayu na teoria você ta se chamando de maluco	22/06/2019, 20:23:12
1142573917510557696	BenjaminArola14	Q assedio mano ela q flw q tava montando no chat e o cr zuou junto LKKLKKKKKK femea fragil	22/06/2019, 20:23:44
1142573984053170176	CarlosAdler8	Olá Razer, desculpa por ser homem !	22/06/2019, 20:24:00
1142574261934182400	raigorodski	Ia adotar a Razer mas depois dessa frase ridícula da embaixadora da marca, apelo até para Multilaser	22/06/2019, 20:25:06
1142574263943254016	dawkys	Nunca comprei nada da @RazerBrazil e agora que não compro mesmo.	22/06/2019, 20:25:07
1142574469006921729	_ToiM22	Que isso, @RazerBrazil? É esse tipo de pessoa que representa vocês? Decepcionado.... 	22/06/2019, 20:25:56
1142574690675888128	CarlosBlack277	Aqui em casa só entra hyper X e Logitech	22/06/2019, 20:26:48
1142574705905459201	marques_noberto	Perfeito	22/06/2019, 20:26:52
1142574805192990720	AntonioFilho_Xb	@RazerBrazil é esse tipo de atitude que vocês é sua empresa apoiam Se fosse uma piada, poderia passar, mas ela falou SERIO! Oque vocês tem a dizer sobre esse assunto? É isso que vocês também acham? 	22/06/2019, 20:27:16
1142574941671477250	Basiliusss	Será que se for homem o dono da @RazerBrazil é um lixo? Os diretores homens na empresa são lixos?	22/06/2019, 20:27:48
1142574947044339717	Stberseker	Antes corno que maconheiro distribuidor de cu.	22/06/2019, 20:27:50
1142575413568446469	joaonininhoOF	@RazerBrazil boa razer Ótima embaixadora 	22/06/2019, 20:29:41
1142575667520970753	marques_noberto	Seu pai , idem.	22/06/2019, 20:30:41
1142575724525694976	CarlosAdler8	"""homem que não é MERDA é exceção, não maioria..."" O que vocês acham dessa afirmação hein @RazerBrazil ?"	22/06/2019, 20:30:55
1142575840670212107	paodealho_	Se @RazerBrazil a Ayu adora aparecer em cima dos outros. Todos que conhecem a Gabi sabem que ela é sensacional. Essa garota aí só quer aparecer. Segue o baile.	22/06/2019, 20:31:23
1142576011214819328	joaograuncke	@RazerBrazil E essa merda ai? Tão mal representado pra kct	22/06/2019, 20:32:03
1142576189820887045	Luuuczz	Vou usar um mouse da multilaser agora	22/06/2019, 20:32:46
1142576352664707074	ManteigaDerreti	Caralho @RazerBrazil lindo o comportamento	22/06/2019, 20:33:25
1142576520801783809	d4nz1n_x	Já pensou se fosse o contrário? Teria filas pra nós queimarem vivo! Alô , @RazerBrazil	22/06/2019, 20:34:05
1142576538577227776	LucXou	Mana olha os comentários desse tweet, isso por si só já da razão para oque a gabi falou	22/06/2019, 20:34:09
1142576647520030721	juli_so	Generalizar todo mundo por causa das atitudes de alguns não é nada saudável. Devia ter pensado nisso antes de sair publicando merda no tw. Espero que a @RazerBrazil se pronuncie sobre isso, por que é inadmissível uma postura dessas.	22/06/2019, 20:34:35
1142576649642397699	Alissonguerra	nao compro fone nunca mais se a razer nao fazer nada	22/06/2019, 20:34:35
1142576867477790720	Doc190406	E aí @RazerBrazil ? Blz hein	22/06/2019, 20:35:27
1142576911543132161	GrandisoliPaulo	Boa pergunta @RazerBrazil nós homens somos lixo?	22/06/2019, 20:35:38
1142577233636352000	BragMatt	Só imagino se fosse ao contrário	22/06/2019, 20:36:55
1142577339689308161	ManteigaDerreti	"E detalhe Isso tudo no perfil ""profissional"" Boa @RazerBrazil"	22/06/2019, 20:37:20
1142577437462683648	gblpzmec	Eae @RazerBrazil são essas sequeladas mentais q vc patrocina?	22/06/2019, 20:37:43
1142577475622449159	oni543nanog	Esse sorteio vai estar disponível para homens também?	22/06/2019, 20:37:52
1142577586683437056	Zeymar_O	"Ae @RazerBrazil vai colhendo o que plantou com esses ""lixo"" de embaixador. Perdeu outro cliente aqui, faz a conta só os q reclamaram aqui e vai somando o prejuízo!"	22/06/2019, 20:38:19
1142577976380469249	lognHugrr	Ta meio apagada?. Querendo um pouco de atenção xd	22/06/2019, 20:39:52
1142578042822373379	malzonewild	Feliz pq foi comprar cigarros e nunca mais voltou.	22/06/2019, 20:40:08
1142578270434725889	DomesticShadows	Opa, @RazerBrazil. Tudo certo? 	22/06/2019, 20:41:02
1142578512416710662	creaturefea_r	KKKKKKKKKKKKKKKKKKKKKKKKKKKKKKKKKKKKKKKKKKKKKKKKKKKKKKKKKKKKKKKKKKKKKKKKKKKKKKKKKKKKKKKKKKKKKKKKKKKKKKKKKKKKKKKKKKKKKKKKKKKKKKKKKKKKKKKKKKKKKKKK vai toma no cu	22/06/2019, 20:42:00
1142578514140508160	spectredie	Deveria ter feito isso faz tempo kkkkkk	22/06/2019, 20:42:00
1142578920388222979	nuken0	@RazerBrazil estão bem representados por essa tal @gabicattuzzo. A partir de agora, só compro @Logitech. Faço questão de compartilhar.	22/06/2019, 20:43:37
1142578944560062464	joaograuncke	Yep, já vou dando oi pra @HyperXBrasil , A @RazerBrazil Apoiando esse tipo de merda só reforça que quem lacra não lucra	22/06/2019, 20:43:43
1142579073702662147	spectredie	A Gabi sempre foi assim, acho que ela não aprende que não adianta reclamar kk	22/06/2019, 20:44:13
1142579330092081152	sepvictor_	@RazerBrazil esse é o tipo de comportamento que vcs espelham na empresa?	22/06/2019, 20:45:15
1142579428259770368	jplastina	Não, as pessoas estão reclamando de vc ter chamado homens de lixo (sim, todos). Se fosse o contrario ia ter feminista histérica rasgando o sutiã. Alô, @RazerBrazil, a maioria dos seus clientes, HOMENS, se sentiu ofendido. Por isso, não compro mais seus produtos. Parabéns, mocinha	22/06/2019, 20:45:38
1142579461424123904	ThomasLaw_br	Já que a embaixadora de vocês diz que sou um lixo, por ser homem... Acabo de me desfazer do meu Kraken, e adquirir um Hyper X Cloud Revolver S. Excelente investimento.	22/06/2019, 20:45:46
1142579595885068288	EspartanoWest	O cara tem quer ser muito broxa mesmo, possuir uma autoestima no level subzero para da moral para essas meninas. Ou ser muito feio. Isso justifica.	22/06/2019, 20:46:18
1142579658535383043	Nakaanjos	Se montar em mim, saí barriguda e sem um centavo! Chata do ...	22/06/2019, 20:46:33
1142579717805154307	ThomasLaw_br	Detalhe; investimento de 700 reais num Headset de uma empresa que não me considera um lixo, por ser homem.	22/06/2019, 20:46:47
1142579824642408448	ajotinhagarcia	Velho, você falou que tava montada no chat, o chat só falou, monta em mim, wtf, louca demais, @RazerBrazil tá precisando de alguém que tenha lucidez pelo menos.	22/06/2019, 20:47:12
1142579858830237697	eduardo_pilos	Figuras públicas não podem usar redes sociais como anônimos aleatórios, muito menos fazer discursos de ódio e bullshitar desse jeito. Quando foi que pessoas profissionais de verdade fizeram isso? Isso enfraquece o apoio de grandes marcas aos influencers gamers	22/06/2019, 20:47:21
1142579971539517440	aleski_CWB	Tu ficou ''bravinha'' com oque o cara falou, resolveu lacrar, tacou merda no ventilador falando aquele monte de caca, e respingou merda na @RazerBrazil, minha posição continua sendo a mesma, Razer Never more! 	22/06/2019, 20:47:47
1142580219640995840	AllAlongCross	São os white knights. Acham que vão agradar alguma menina por se mostrarem defensores delas e aumentar suas chances de relacionamento/sexo. Ou seja, são trouxas nos quais não se pode confiar	22/06/2019, 20:48:47
1142580723590803456	AllAlongCross	Não se preocupem em dar importância a opinião de uma garota como essa. Em alguns anos ela estará sozinha, morando com gatos, e continuará reclamando do mundo.	22/06/2019, 20:50:47
1142580757405360128	ManoHecho	Nunca ouvi falar da moça, mas pelos escornos, zero surpreso com o comentário. Esperava o quê? Algo inteligente?	22/06/2019, 20:50:55
1142580894227714049	rubemminozzo	Alô alô @RazerBrazil ! Excelente postura dessa colaboradora de vocês, hein?! 	22/06/2019, 20:51:27
1142580915702550529	mandaloficial	Até iria comprar mas a embaixadora da empresa disse que sou lixo.	22/06/2019, 20:51:33
1142581050402643968	AlvAdemir	Não compro produto de empresa que endossa discurso de ódio.	22/06/2019, 20:52:05
1142581324039020544	schirleytavares	 Não entendi nada da existência humana!!!Que Deus abençoe os homens de bem!Essa moça tem que resetar o cérebro 	22/06/2019, 20:53:10
1142581468771835905	mazzaro_gustavo	Isso aqui é embaixadora de vocês ?	22/06/2019, 20:53:44
1142581472194379776	Willian10371572	Oxi... O Pai dela tá no pacote também? O Avô? O destino é engraçado ... Um dia, no momento em que ela mais precisar, aquele ser que ela mais desdenha irá lhe estender a mão!	22/06/2019, 20:53:45
1142581581615382528	alefreitas75	Queimando o filme da Razer, pqp! 	22/06/2019, 20:54:11
1142581599764189184	eduardocrb1982	Nao gosto de ser tratado como lixo, @RazerBrazil 	22/06/2019, 20:54:16
1142581765464371200	_Duk3	@RazerBrazil que interessante agora voltar as vendas so para o publico feminino e menosprezar o publico masculino. Politica de vendas interessante vamos ver o que acontece	22/06/2019, 20:54:55
1142581860134006785	sombriodark1	Quando você pensa em comprar um mouse da @RazerBrazil mas lembra que por ser homem,você é um lixo e um merda de tirar o fôlego.	22/06/2019, 20:55:18
1142582101428068354	edukern4	Deixa eu ver se entendi, você é uma mulher que é contra o feminismo? (Não tem relação com o posto só li o seu Nick)	22/06/2019, 20:56:15
1142582103328141314	BigsmokePVP	Gente para de botar o trabalho da @gabicattuzzo no meio ela reconheceu o erro e a @RazerBrazil não teu nada a ver com essa discussão porra	22/06/2019, 20:56:16
1142582123095908352	FernandoALF2	mim discuper por ser homem ok 	22/06/2019, 20:56:20
1142582269288361984	KlabundeEdson	Comprei 2.500 reais em produtos razer faz menos de 15 dias. Confesso que se tivesse lido isso antes teria comprado algo lixo pra usar até meu teclado roccat Vulcan, e mouses chegarem, a questão é que quem consome razer (90%) somos nós os escrotos....	22/06/2019, 20:56:55
1142582316331655168	edumauu	bem bonitinha mas bem ordinariazinha	22/06/2019, 20:57:07
1142582480333156352	rafael1pr	Nunca nem vi essa mina kkkkk	22/06/2019, 20:57:46
1142582518320902144	KlabundeEdson	Mas a colou a feminista ai tentando lacrar conosco, os machos escrotos, mas deveriam ter levantado a capivara dela com mais cuidado.	22/06/2019, 20:57:55
1142582613405851648	edumauu	eai @RazerBrazil também compartilha da mesma opinião dos seus parceiros?	22/06/2019, 20:58:17
1142582724814876673	P0rraJason	mano, só se ofende em quem a carapuça serve, ela n te conhece pessoalmente e nem chegou a citar nomes, entao pq se sentir ofendido que algo que nem foi pra vc ? alias, vc acha que vc é um homem lixo ?	22/06/2019, 20:58:44
1142582755928264704	LuMAH24	Tentando lacrar, coitadinha... Tenho pena de gente assim...	22/06/2019, 20:58:51
1142582949705080834	mazzaro_gustavo	Eu tava dando uma olhada nos produtos da Logitech também depois que eu fiquei sabendo dessa tal embaixadora que fica fazendo discurso de ódio na internet. Já que a empresa não se pronuncia provavelmente apoia o que ela diz. Então estarei trocando headset/mouse pois sou um lixo:)	22/06/2019, 20:59:38
1142582960895463424	BigsmokePVP	Fora que chamam a Gabi de hipócrita sendo que essas pessoas estão sendo hipócritas	22/06/2019, 20:59:40
1142583009369055237	rafaelmiada	Mostra o quanto possuem baixa autoestima as que rezam esses absurdos.	22/06/2019, 20:59:52
