id	username	text	datetime
1105324137390718976	iWesley36	Dinheiro, muito dinheiro	12/03/2019, 01:26:24
1105339259932692480	Ronaldoneri18	Só queria que @RazerBrazil @Razer colocassem o DeathAdder Chroma compatível com o Synapse 3	12/03/2019, 02:26:30
1105344910352367618	rafelzito_11	So pra perguntar, tu n comprou o fone tbm ne ?	12/03/2019, 02:48:57
1105448601658908679	RazerBrazil	Oi Guilherme! O ManO'War Tournament é sim compatível com o PS4, pois usa um conector 3,5mm.	12/03/2019, 09:40:59
1105448968643858438	RazerBrazil	Seja bem-vindo ao Culto da Razer! 	12/03/2019, 09:42:27
1105453042734956544	HANOFF	Muito obrigado! Comprei o meu ontem, espero que funcione bem! Bom dia!	12/03/2019, 09:58:38
1105453940794187776	ZeCoveir0	Alguém me indica um mouse ambidestro para eu comprar. Jogamos na maioria das vezes FPS. Lá em casa somos 3 canhotos e não encontro em lojas físicas. @RazerBrazil , @CorsairGamingBR , @HyperXBrasil , @LogitechG. Pode ser de outras marcas também.	12/03/2019, 10:02:12
1105462127991709696	RazerBrazil	Razer Lancehead Tournament Edition um dos sensores ópticos mais avançados do mercado, pegada confortável e ambidestra, switches Omron para até 50 milhões de cliques e, claro, Chroma. Tem na http://www.houseofgamers.com.br.	12/03/2019, 10:34:44
1105493158178312198	Marlindo__	Fez uma merda grande cara	12/03/2019, 12:38:02
1105512422834667521	PepexTorrews	Porra tecladao lindo	12/03/2019, 13:54:35
1105517381189857282	kiyarin	me da um desse...	12/03/2019, 14:14:17
1105528888795385856	RazerBrazil	Os seres assustadores estão chegando. 14 de Março — Save the date.	12/03/2019, 15:00:01
1105530147451609090	FabioAlexandrr	Algo com preço inacessível está a caminho	12/03/2019, 15:05:01
1105536881532518404	Riyuuka_	Essa foto da uma boa foto de divulgação da @RazerBrazil @paiNGamingBR 	12/03/2019, 15:31:47
1105542498791968770	paiNGamingBR	Analisei aqui por alguns minutos e: nenhum defeito nessa foto	12/03/2019, 15:54:06
1105542710348386304	CampanharoSaulo	essa foto só tem um defeito: ser perfeita demais	12/03/2019, 15:54:56
1105551213641240576	jotaaa10_	meu aniversario .-.	12/03/2019, 16:28:44
1105566496523198464	PerdigaDeeJhay	Foi isso que falaram quando descobriram que iria nascer dia 14 de março kkkkkk	12/03/2019, 17:29:27
1105566572226187266	PerdigaDeeJhay	Nosso aniversário :v	12/03/2019, 17:29:45
1105573688303325184	F0rsakenViking	Só me falta os fones pra fechar o set completo @RazerBrazil #mepatrocina	12/03/2019, 17:58:02
1105574911727357953	ironicrafael	O.o que ces tão aprontando?	12/03/2019, 18:02:54
1105575292167438343	n1shrekfollower	Bangalore, bloodhound e lifeline. Triste é que meu amigo de bloodhound não sabe aproveitar a suprema 	12/03/2019, 18:04:24
1105577959447019520	RazerBrazil	Essa foto tá SENSACIONAL 	12/03/2019, 18:15:00
1105579439797211138	n1shrekfollower	"""periféricos que sumirão do nada e aparecerão na minha casa."""	12/03/2019, 18:20:53
1105579566985342977	guizaghisey	Mano única coisa que me impede de ter um setup full Razer são os preços aqui no Brasil, Pq de qualidade não tenho nada a reclamar!	12/03/2019, 18:21:24
1105582399583211521	RazerBrazil	FELIZ ANIVERSÁRIO para a nossa streamer e estudante de Astrofísica preferida! Tudo de bom hoje e sempre e seja bem-vinda à São Paulo, @gabicattuzzo aquele abraço da sua amiga de longa data — Razer	12/03/2019, 18:32:39
1105583166566420483	guizaghisey	Que xuxuzinho, parabéns moça 	12/03/2019, 18:35:42
1105584175002857476	jotaaa10_	E ala	12/03/2019, 18:39:42
1105586872556892160	PugODonut	Que fofos	12/03/2019, 18:50:25
1105602360372531201	cjcnch	O daora é que meu aniver é hj e ao mesmo tempo eu vou querer ser um astrofisico k k	12/03/2019, 19:51:58
