id	username	text	datetime
1116491119615987716	RazerBrazil	NESTA SEXTA tem #RazerDay na live da @GabiCattuzzo! Concorra a um headset e um mouse Razer no sorteio da stream. Já deixa o like para não perder: http://fb.gg/GabiCattuzzo 	11/04/2019, 21:00:00
1116492981853356032	Ulises2516	Excelente	11/04/2019, 21:07:24
1116500188993064960	Jaimealex10	Participar	11/04/2019, 21:36:03
1116500562659434496	William92483992	Participando :)	11/04/2019, 21:37:32
1116502528416468993	Igaum_da_firma	@mariadorosario te vendo um Kraken Pro V2 da razer, o audio sai uma maravilha, pra senhora faço por 300 conto.	11/04/2019, 21:45:21
1116504347305578496	CoxinhaNerd	VIDEO GAMES | Razer lança placa de captura que grava transmite em 4k! http://dlvr.it/R2fGmR	11/04/2019, 21:52:34
1116505858752548864	ERICGAMER666	Participo	11/04/2019, 21:58:35
1116508028512231425	kccfolks	E outra, meu teclado estragou. Detesto ter que usar teclado do notebook, estou tendo que usar o meu da Razer. Pior ainda que o teclado do notebook, pois ele não é PT-BR e toda hora esqueço.	11/04/2019, 22:07:12
1116508280657010688	HeyArthuur	">to duo com a @idmJuuRubinho >to sem microfone graças ao meu super headset da Razer que estragou &gt;ela fala ""quem não falar no voice do game tá me devendo uma skin"" ........ "	11/04/2019, 22:08:12
1116519844537614341	oceanica_art	Comprei um fone da razer, eh isto	11/04/2019, 22:54:09
1116521356810649600	MTITECNOLOGIARS	Razer lança placa de captura que grava e transmite em full HD enquanto usuário joga em 4K http://www.mtitecnologia.com.br/razer-lanca-placa-de-captura-que-grava-e-transmite-em-full-hd-enquanto-usuario-joga-em-4k/ #mtitecnologia #acessorios #hardware @RazerBrazil	11/04/2019, 23:00:10
1116521798227636230	fehcostelinha	mano, não faz nem 1 ano que eu comprei meu Deathadder da Razer e ele já está com duplo click... Jesuis )=	11/04/2019, 23:01:55
1116522186825773056	GeekRaposa	Razer: Ripsaw HD Placa de captura que grava e transmite em full HD em quanto usuário joga em 4k Link: https://geekraposa.blogspot.com/2019/04/razer-placa-de-captura-que-grava-e.html #Razer #streaming #streamer #tech #Tecnologia #FullHD #4k #gamers #twitch #XSplit #mixerstreamer #YouTube #YouTuber	11/04/2019, 23:03:27
1116526463686205445	keerogt	dia relax! casi 600 seguidores https://www.twitch.tv/keerogt #razer #razerfam #twitch #streamer	11/04/2019, 23:20:27
1116529440975138816	passjuuh	eu gasto facil com a linha quartz da razer	11/04/2019, 23:32:17
1116530382915145729	passjuuh	meu setup fora o pc, é um lixo, agr q consegui um emprego to conseguindo dar up nele, e n me arrependo nem um pouco de comprar razer	11/04/2019, 23:36:02
1116530563622539266	jafethfelix18	Excelente	11/04/2019, 23:36:45
1116533927915806720	MARCELOAL2008	Razer lança placa de captura que grava e transmite em full HD enquanto usuário joga em 4K http://www.mtitecnologia.com.br/razer-lanca-placa-de-captura-que-grava-e-transmite-em-full-hd-enquanto-usuario-joga-em-4k/ #mtitecnologia #acessorios #hardware @RazerBrazil	11/04/2019, 23:50:07
1116535030220591105	hgsantos_	to com um abyssus da razer e um pad da reddragon, vou voltar um Deus pro cs	11/04/2019, 23:54:30
1116538974456176641	thiagobarone	RIP kraken, é oficial, N U N C A MAIS COMPRO RAZER	12/04/2019, 00:10:10
1116543205502328832	Leonard60428044	EL GATO te da um Razer Headset! https://m.nimo.tv/live/6250089174 #NimoTv	12/04/2019, 00:26:59
1116543332874764288	Welling60128652	EL GATO te da um Razer Headset! https://m.nimo.tv/live/6250089174 #NimoTv #ELGATOBR	12/04/2019, 00:27:29
1116543491637538816	riannass_	EL GATO te da um Razer Headset! https://m.nimo.tv/live/6250089174 #NimoTv	12/04/2019, 00:28:07
1116543686006005760	MaykonThallys	EL GATO te da um Razer Headset! https://m.nimo.tv/live/6250089174 #NimoTv	12/04/2019, 00:28:53
1116543738749292544	Jc574Jose	EL GATO te da um Razer Headset! https://m.nimo.tv/live/6250089174 #NimoTv	12/04/2019, 00:29:06
1116543862116319233	anos123matos	EL GATO te da um Razer Headset! https://m.nimo.tv/live/6250089174 #NimoTv	12/04/2019, 00:29:35
1116543949173186560	Mello_Nay17	EL GATO te da um Razer Headset! https://m.nimo.tv/live/6250089174 #NimoTv	12/04/2019, 00:29:56
1116556618219520000	NkK09_	Nem precisava ser da Razer	12/04/2019, 01:20:17
1116580122692182016	FunkyOfficiel	Razer?	12/04/2019, 02:53:40
1116580443028017152	adhysuryadiii	Razer Cortex 9.3.13.965 https://www.freewaresofts.com/2019/04/razer-cortex-9313965.html	12/04/2019, 02:54:57
1116588588496343045	ubi_marcos	já existe uma placa assim da Avermedia, Razer é só preço alto	12/04/2019, 03:27:19
1116627235081863168	PCMGames	[Análisis – Review] Razer Seiren X for PS4 https://www.pcmgames.com/analisis-review-razer-seiren-x-for-ps4/	12/04/2019, 06:00:53
1116630083307859971	steamgameryt	Razer	12/04/2019, 06:12:12
1116640173117325312	Matheusote	Razer é famoso por dar problema nisso, tanto em mouse quanto teclado Não sou fã da marca por causa disso: Muito caro por pouca coisa Mas o microfone de mesa deles é bom pakas	12/04/2019, 06:52:18
1116642356235624449	Aetriti1	Razer	12/04/2019, 07:00:58
1116647532854116352	harry0liver	Razer	12/04/2019, 07:21:32
1116657020638322696	Noryahr	agr só faltaria um mousepad da razer, mas um pano com luzinha de 400 pila pode esperar &lt;3 KKKKKKK 	12/04/2019, 07:59:14
1116680020917915649	kabumcombr	Mouse Gamer Razer Basilisk Chroma. O que há de melhor em mouse para FPS, com uma oferta ninja. Se liga http://kabum.com.br/link/40/93904	12/04/2019, 09:30:38
1116681911949242368	mbrtleonardo	Olha se vcs tem acesso a pessoas no exterior eu recomendo SUPER a linha da razer O stealth 13 se n precisam de mta placa de vídeo, o blade 15 se precisam N é barato mas foi a melhor compra da minha vida	12/04/2019, 09:38:09
1116682582257803277	ferbisc8	noss tinha desistido de razer pq 20 mil a para ne agr pensando em doraris fica otimo se para p pensar q ele é bom kkkkkk	12/04/2019, 09:40:49
1116684650104143872	PromobitOficial	#promoção #oferta Teclado Mecânico Gamer Razer Blackwidow Lite - R$499,90 #informatica https://www.promobit.com.br/oferta/teclado-mecanico-gamer-razer-blackwidow-lite-383947?utm_source=twitter&amp;utm_medium=twitter&amp;utm_campaign=twitter	12/04/2019, 09:49:02
1116686393667772416	SedoArcilla	Razer 	12/04/2019, 09:55:57
1116687977802027015	xdAtmosphere	Razer	12/04/2019, 10:02:15
1116696027346685953	PC_Guia	Razer tem novo hardware para streaming - https://www.pcguia.pt/2019/04/novidades-razer-streamers/	12/04/2019, 10:34:14
1116698388853067786	fefuxribeiro	Mouse: Logitech G403 (Comprado aí) Teclado: OEX Blade sei lá o que (não comprei aí) Headset: Razer Krakon Pro V2 (Comprado aí) Mousepad: Oex Sei lá o que veio com o mouse que eu tinha antes de ter o logitech (tb não é daí)	12/04/2019, 10:43:37
1116699057668395008	AlemdoClickTech	Nova placa de captura Razer lança grava e transmite em full HD enquanto usuário joga em 4K http://alemdoclicktech.com.br/nova-placa-de-captura-razer-lanca-grava-e-transmite-em-full-hd-enquanto-usuario-joga-em-4k/	12/04/2019, 10:46:17
1116702474281324546	Amedyr	Mouse Microsoft comfort 4500 Lochness Gray (AMEI o nome dessa cor) Webcam Microsoft LifeCam HD-3000 Headset Razer Kraken 7.1 Mesa gráfica Huion Inspiroy H1060P Aliás, a Kabum podia vender Huion, muito mais barata que Wacom e tem funcionado muito bem pra mim!	12/04/2019, 10:59:51
1116706296634306562	leakpt	Razer Ripsaw HD: Uma placa de captura de imagem a um preço razoável http://dlvr.it/R2hBVr	12/04/2019, 11:15:03
1116706513521971203	Rafaael_dc	Nego vem me oferecer razer HAIAHSHAUSAJ, razer só se for de Graça pra vender e comprar de outra marca, falou	12/04/2019, 11:15:54
1116707091354406912	MemesdosPROS	"kd falar da toxicidade do wave mas todo mundo ja fala disso ent n é nem mais polemica ne pai ""fer humilha o fallen por usar razer"" vou upar aqui no youtube e postar no tt"	12/04/2019, 11:18:12
1116707763772698625	thiagobarone	cara, o microfone morreu, um lado tava chiando, tava se despedaçando o fio e as espumas já tinha trocado começou a soltar de novo... eu não quero mais saber de razer, sem falar do meu hammerhead que estorou um lado também e não volta nem que faça macumba	12/04/2019, 11:20:52
1116708884645916673	marciovin04	Quase tudo comprado aí com vocês.. Só o mouse razer e o headset steelseries artic 7 que eu comprei fora por que vocês não tinham aí.. até a base dos dois headsets (corsair rgb) eu comprei na kabum.	12/04/2019, 11:25:20
1116711218297880578	SkarLeike	Mouse: Razer Deathadder Elite 16000dpi (comprei ontem na kabum); Teclado: Razer Black window 2012 Mouse Ped: Razer simplão (comprei na kabum); HedSet: Razer electra 2 tbm pela kabum :P	12/04/2019, 11:34:36
1116713864245207040	zupponeCSGO	Alto razer 	12/04/2019, 11:45:07
1116716566043930624	yunged666	razer surround eh bom mesmo, recomendo	12/04/2019, 11:55:51
1116716930621218818	escondidow	monitor 29 samsung death hadder 1800dpi razer teclado multilaser gaming (pq tem led) volante driving force gt logitech mesa de papelao cadeira de varanda	12/04/2019, 11:57:18
1116717004348645376	arthurflor23	Tô no razer x-x o jbl é pra fora de casa xD	12/04/2019, 11:57:36
1116719219012403202	kabumcombr	Headset Gamer Razer Kraken Essential. Qualidade e conforto para longas horas de gameplay. Se liga http://kabum.com.br/link/40/76488	12/04/2019, 12:06:24
1116735180230856705	5Hannibal	Trabalhar pra comprar meus produto da razer	12/04/2019, 13:09:49
1116744153273073669	fakeugene	olhando as promoções de 60% da razer na Kabum e chorando que eu não consigo comprar nada rs	12/04/2019, 13:45:28
1116746184612306945	HenriqueLima84	Mouse buzzard da @c3technology headset carcharias @Razer e mousepad tb, teclado sei lá o q de membrana hauaahau	12/04/2019, 13:53:33
1116749633710063616	mandavitaque	Comprar esse moletom e o headset da http://d.va da razer	12/04/2019, 14:07:15
1116749977450164224	leunus23	caraca mano, tenho o combo mais básico da razer faz 3 anos, nunca de 1 b.o	12/04/2019, 14:08:37
1116756341190565888	oJoaoxD	o double click é inevitável, parece até que é da razer	12/04/2019, 14:33:54
1116757665785483264	RazerBrazil	A promoção Razer Loots continua na @kabumcombr! Headset Razer Kraken Essential com 20% OFF por tempo limitado Não perca tempo http://kb1.me/RazerOfertas	12/04/2019, 14:39:10
1116763810256359425	Loniiii9	Razer	12/04/2019, 15:03:35
1116770328833875970	matuefanboy	MANO TU FEZ ASHE DE STORM RAZER LÁ VEI ESQUECI O NOME EM PORTUGUES	12/04/2019, 15:29:29
1116788010337615879	GanhandoXP	Razer Ripsaw HD: Conheça a nova placa de captura externa da @RazerBrazil acessando o Ganhando XP! http://ganhandoxp.com.br (link na bio) #nerd #geek #gamer #games #player #jogo #jogos #jogador… https://www.instagram.com/p/BwKuP7kAIZT/?utm_source=ig_twitter_share&amp;igshid=ktr75tjgi5z7	12/04/2019, 16:39:45
1116791552108457985	matheusmapcosta	te consigo o teclado kkkk pq o mouse eu uso no notebook (e é da razer, pensa no ciumes que tenho dele)	12/04/2019, 16:53:49
1116801962073382912	fallenstorebr	Os Headsets Razer Kraken, são confortáveis e com alta qualidade de som! Ouça de onde o inimigo está vindo para atacar com precisão Acesse e garanta o seu: ► http://bit.ly/2Kxy1bE #SomosTodosJogadores #Razer 	12/04/2019, 17:35:11
1116804591931265024	kikoabreu1979	Com todo respeito , sou mais o morcego . Perdi o respeito pela razer , enfim . Vou de morcego de olhos fechado 	12/04/2019, 17:45:38
1116808535520755718	LanhouseP	Bate aquela dor no coração mas a gente ainda mostra M7 kkk! #lol #dota2 #csgo #leagueoflegendsfunnyvideos #leagueoflegendsclips #gamer #gaming #geforce #razer #pc #gamingpc #pcsetup… https://www.instagram.com/p/BwK3lXPArxj/?utm_source=ig_twitter_share&amp;igshid=1xgjwo5efm57t	12/04/2019, 18:01:18
1116809157720641536	LanhouseP	Bate aquela bad mas a gente mostra M7 e tá tudo bem kkk! #lol #leagueoflegendsfunnyvideos #csgo #apex #apexlegends #gamer #gaming #geforce #razer #pc #gamingpc #pcsetup… https://www.instagram.com/p/BwK33ZcgtIq/?utm_source=ig_twitter_share&amp;igshid=1ei1v0twqdbgc	12/04/2019, 18:03:47
1116813724411625473	88milhas	Razer Ripsaw HD é a nova placa de captura da Razer http://www.88milhas.com.br/razer-ripsaw-hd-e-a-nova-placa-de-captura-da-razer	12/04/2019, 18:21:55
1116816916990038016	MahAnselmo	O fone da razer e o quadro do dexter la no fundo pqp meu sonho	12/04/2019, 18:34:37
1116826493332619266	MatiasSandes	creditos a @Razer	12/04/2019, 19:12:40
1116828848145031170	angiewwr	Mim dê papai Razer Actually Made A Pink Laptop... https://youtu.be/Bo__5rz_fyo via @YouTube	12/04/2019, 19:22:01
1116831646161022976	modaafoca	PT: Hoje o Razer Seiren X Quartz batalha contra o Zoom H5 num teste para voiceover EN: Today Razer Seiren X Quartz will battle against Zoom H5, testing for voiceover #razer #zoom… https://www.instagram.com/p/BwLCF2uBZDz/?utm_source=ig_twitter_share&amp;igshid=2cj47n0392l2	12/04/2019, 19:33:08
1116831647041716226	DennysZimoogi	mt foda o razer chroma	12/04/2019, 19:33:09
1116835259230883840	Tawnaa_	Até 60% Off de Razer no @kabumcombr Link: http://kb1.me/9aUIqe	12/04/2019, 19:47:30
1116838500832370688	fxldxns	chegando em casa e n vendo um pc quase full razer (no máximo um cloud II da hyperx) 	12/04/2019, 20:00:23
1116838629836566530	rhavickTV	Aqui é tudo razer em ! Quando ganho o patrocínio !? Kkkkkkk 	12/04/2019, 20:00:53
1116840384041312256	ricardojostt	blackouts: a nsei oq razer e um lixo não dura blackouts no seu story: mouse razer, mic razer ...	12/04/2019, 20:07:52
1116848024221900801	FolksEdu	Razer é mais bonito kkk	12/04/2019, 20:38:13
1116849994596802561	web_asn	Portfólio ASN Web BF5 4K 60FPS . Criamos WebSites, Aplicativos Android, Portfólios, Trabalhos de Design, Programação e afins. Fale Conosco. . www . asnweb . com .br . @razer… https://www.instagram.com/p/BwLKb6CAv0f/?utm_source=ig_twitter_share&amp;igshid=1auak9r3s9sa8	12/04/2019, 20:46:03
1116850378887376897	felipee_idk	@Razer alo razer, me da um mousepad aí 	12/04/2019, 20:47:35
1116851991051997185	web_asn	Portfólio ASN Web grootfrommarvel . Criamos WebSites, Aplicativos Android, Portfólios, Trabalhos de Design, Programação e afins. Fale Conosco. . www . asnweb . com .br . @razer… https://www.instagram.com/p/BwLLWDsgYrh/?utm_source=ig_twitter_share&amp;igshid=1elyc492mczdu	12/04/2019, 20:53:59
