id	username	text	datetime
1134622518143324160	Krupeizakk	"Meu teclado queimou o led de 3 teclas, mandei e-mail pra Razer, eles mandaram um ""boleto"" pra postar o teclado e enviar direto pra eles, tudo isso de graça. As vezes vale a pena gastar uma grana a mais no bagulho e ter uma assistência MONSTRA dessas... Obrigado @RazerBrazil "	31/05/2019, 21:47:43
1134648278803460096	mathsouldias	"deveríamos usar mais vezes a palavra ''orgânico'' quando queremos nos referir ao design de algo ou atitude de alguém ""A nova linha mercury da @RazerBrazil é extremamente clean e organic"""	31/05/2019, 23:30:05
1134703828677382144	_PLGesports_	@RazerBrazil @fallenstorebr @Banzika Nos Patrocina que é sucesso! I love you! #GoEvil	01/06/2019, 03:10:49
1134710894653575168	JrGeilson	Minerva de sup foi uma negação, assim como venon saco de pancadas do mylon. Enfim, o pós cblol 2013 foi meio complicado,_,	01/06/2019, 03:38:53
1134802708949549057	Thatavandelli	Aiiiin vou comprar, procurei em vários lugares e não achei igual 	01/06/2019, 09:43:44
1134821480322277376	junniorpimenta1	ME AJUDA MINERVAAAAAAAAAA!	01/06/2019, 10:58:19
1134826573977333760	Vstectity	ALGUM player da @mibr mexendo no @Tinder procurando match e com produtos @RazerBrazil, tomando @MountainDew e apostando na @betwayesportsbr	01/06/2019, 11:18:33
1134872193714786312	leopardosurdo	aí a @Uppercutesports é patrocinada pela @GamdiasBR e no stage do cblol aparece um mousepad da @RazerBrazil? Valoriza msm patrocinador!	01/06/2019, 14:19:50
1134933478624169984	Douglas83173055	@RazerBrazil alô razer meu headset Kraken quebrou o fio onde encontro dele para substituir	01/06/2019, 18:23:22
1134965412330975233	RazerBrazil	É o Kraken Pro V2 da linha Quartz 	01/06/2019, 20:30:15
1134971543824601088	Thatavandelli	Amei, já vou deixar a foto espalhada pela casa pra meu marido me dá	01/06/2019, 20:54:37
