id	username	text	datetime
1177378207785521159	QC_edgar	@SNightwish compramelos 	26/09/2019, 21:23:34
1177380162435985408	LVNVXX	Demorou, queria um da razer pelo macro 	26/09/2019, 21:31:20
1177388045961707520	snoweking	o meu mouse da razer (que eu não comprei) é o maior motivo pelo qual eu vou passar o resto da minha vida fazendo propaganda negativa da razer puta mouse BOSTA	26/09/2019, 22:02:39
1177393185473073152	KoringaCrazy7	Fone perfeito de mais #razer 	26/09/2019, 22:23:04
1177416616495243266	GameReporter	Razer Gold, o crédito virtual unificado da Razer, já está disponível no Brasil https://gamereporter.uol.com.br/razer/	26/09/2019, 23:56:11
1177416646119632897	dolemes	Razer Gold, o crédito virtual unificado da Razer, já está disponível no Brasil https://gamereporter.uol.com.br/razer/	26/09/2019, 23:56:18
1177416655632252931	Luiz_Silva360	Razer Gold, o crédito virtual unificado da Razer, já está disponível no Brasil https://gamereporter.uol.com.br/razer/	26/09/2019, 23:56:20
1177416677367144449	minadosgames	Razer Gold, o crédito virtual unificado da Razer, já está disponível no Brasil https://gamereporter.uol.com.br/razer/	26/09/2019, 23:56:25
1177417126593929217	ocinemagamer	Razer Gold, o crédito virtual unificado da Razer, já está disponível no Brasil 	26/09/2019, 23:58:12
1177421431598174209	sarahsvatti	ameaça humanitária █ █ █ █ ＿ ruiva de razer fome peste ódio	27/09/2019, 00:15:19
1177424239290400770	ulissesjapp	Razer? Poderia conjugar esse verbo?	27/09/2019, 00:26:28
1177451465989709825	signaldreamss	meu deus como assim a menina tá usando as orelha de gatinho da razer no headset da hyperex kkkkkkkkpior q ficou bonzinho	27/09/2019, 02:14:40
1177477386570358784	ReflameSSJ	son de razer	27/09/2019, 03:57:40
1177483471247171585	MikeNuGu	Comprando el teclado razer	27/09/2019, 04:21:50
1177484337702244352	MikeNuGu	Es de razer	27/09/2019, 04:25:17
1177540142434869248	candadlol	Razer girl é um grande exemplo disso e eu acredito q vcs sejam amigas ( só dando minha opinião)	27/09/2019, 08:07:02
1177546049260597250	aquelaisaali	Hoje era pra ser a última stream do mês :( Infelizmente não vou conseguir fazer por conta das provas (nem sei se teria internet btw pq caiu) Enfim, os sorteios de Razer Gold e os negocios beneficentes ficam pro mês que vem!	27/09/2019, 08:30:30
1177546138452471809	WindowsClubBr	Razer anuncia o primeiro headset para jogos com tecnologia háptica para Xbox One https://www.windowsclub.com.br/razer-anuncia-o-primeiro-headset-para-jogos-com-tecnologia-haptica-para-xbox-one/	27/09/2019, 08:30:51
1177548346656993282	SouSplash	"Ignora ele mano o argumento dele é esse ""vc é pobre"" sendo q ele é sustentado pela mãe e vai na modinha dos youtubers kkk lançou um Deathader furado ctz q ele falou q era melhor q a razer toda."	27/09/2019, 08:39:38
1177550593834905601	swift260	Razer*	27/09/2019, 08:48:34
1177555902527922177	MowgliDuFive	Razer 	27/09/2019, 09:09:39
1177556579794718721	BrayG_	Razer	27/09/2019, 09:12:21
1177563433115496450	ProGaming_Store	MousePad Razer Goliathus Small Speed Terra Edition Especificações: Tecido texturizado para velocidade máxima com menos esforço. Movimentação e precisão de Pixel-a-pixel. Avenida Leôncio de Magalhães, 1190 (11) 2281-8641 	27/09/2019, 09:39:35
1177574536251940868	itzgguky	q odio eu nao sei razer aquela conta @BTS_twt @ITZYofficial	27/09/2019, 10:23:42
1177582452430127104	abarazer1996	RAZER	27/09/2019, 10:55:09
1177592734833463297	TheRay_Misc	Razer	27/09/2019, 11:36:01
1177593745568604161	PromobitOficial	#promoção #oferta Teclado Gamer Razer Cynosa Chroma Pro com Teclas retroiluminadas Preto - R$421,58 #informatica	27/09/2019, 11:40:02
1177603504900378624	ehnadaicarai	Muito doido pra streamer, pena que é razer 	27/09/2019, 12:18:49
1177604823090372609	GemDePao	Razer? que isso?	27/09/2019, 12:24:03
1177604887493976064	JessicaKpop_	A razer vai falir sozinha, de tão ruim 	27/09/2019, 12:24:18
1177606223480479744	HardwareMind	RAZER SEIREN EMOTE il microfono con le emoticon 	27/09/2019, 12:29:37
1177607327576465408	lorumerth	Me af	27/09/2019, 12:34:00
1177609710415036421	TemuYT	Razer	27/09/2019, 12:43:28
1177620036791554048	Benchmarkhw	Razer anuncia su microfono Razer Seiren Emote pensado para los streamers https://benchmarkhardware.com/2019/09/razer-seiren-emote-112922/	27/09/2019, 13:24:30
1177620714473611266	xBrasil	Headset Razer Nari Ultimate terá versão para a Xbox One 	27/09/2019, 13:27:12
1177621865705148417	madsonjunior_	Quem diria que eu compraria um produto da Razer... Só comprei pq tava na promo	27/09/2019, 13:31:46
1177621955094155264	petaoutlet	Razer anuncia su microfono Razer Seiren Emote pensado para los streamers #LoÚltimoEnHardware	27/09/2019, 13:32:07
1177622131603070976	RVHonorato	Virar um streamer famoso pra receber mimos da razer	27/09/2019, 13:32:49
1177622171084099589	Doglamir	vous etes pas sponso par razer chez vita ?	27/09/2019, 13:32:59
1177625552464863233	GreenSideForce	"""Headset Razer Nari Ultimate terá versão para a Xbox One - http://Eurogamer.pt"" https://twitter.com/BlueSideForce I https://twitter.com/RedSideForce #xbox #xboxBrasil #NotíciasXbox #XboxOne #Games #Jogos #Consoles"	27/09/2019, 13:46:25
1177625598652534784	FPSREPORTER	Razer presenta il microfono Seiren Emote https://gamelive.netsons.org/2019/09/27/razer-presenta-il-microfono-seiren-emote/	27/09/2019, 13:46:36
1177631067207020545	JunqueiraCassol	Tô em dúvida entre um Razer Electra V2 e um Logitech g430, qual acha melhor? Me vê um cupomzinho, o menor que seja já vale!	27/09/2019, 14:08:20
1177631679034400768	JunqueiraCassol	Pode ser o Razer, ele é melhor, andei vendo uns Review, se tudo der certo, até amanhã tá comprado, melhor loja de eletrônicos, vcs ganham muito com o atendimento. Obr	27/09/2019, 14:10:46
1177635022372630528	canalgamelandia	Headset Razer Nari Ultimate terá versão para a Xbox One http://dlvr.it/RF2Ddp | (@eurogamer)	27/09/2019, 14:24:03
1177636459140075520	JunqueiraCassol	Sabe quanto de garantia que tem? Vi que tem 1 ano com vocês, com a Razer tem algo a mais?	27/09/2019, 14:29:45
1177640573047582720	edjose__	Só quero esse teclado da corsair e o headset corsair carbono ou o razer kraken mercury white	27/09/2019, 14:46:06
1177641430585659393	Herololbr	eu comprei esse, achei ruim, comparado a outros razer, parece até pirata e realmente quebrou rápido. To usando o da hyperX que mandaram ai faz um mes, é bom e do mesmo preço.	27/09/2019, 14:49:31
1177641620843454464	losephus15	Nada como razer deathadder, a prox compra tem q ser os cloud flight, comprei agr e são top	27/09/2019, 14:50:16
1177644850595946499	gloomybread	Quero um carro da razer	27/09/2019, 15:03:06
1177656724171509760	RazerBrazil	O Razer Seiren Emote é o primeiro microfone com uma tela de emoticons, que interage com o seu público quando você ganha um novo seguidor, sub, doação e mais. Com mais de 100 designs, você terá um emote para cada ocasião. : http://bit.ly/SeirenEmote-BR	27/09/2019, 15:50:17
1177658127501729793	pianistabaka	Ta, a razer PERDEU a noção ja	27/09/2019, 15:55:52
1177660013176918022	romaninhoo67	MDS pq razer 	27/09/2019, 16:03:21
1177663100650233856	augusTocomsono	finalmente a razer fazendo algo decente	27/09/2019, 16:15:37
1177663642659164165	ytchoper	@iiniv159 toma mais um lançamento aí	27/09/2019, 16:17:46
1177664484334297095	pianistabaka	Ta Nao bastasse as orelhas normais AGORA TEM AS RGB	27/09/2019, 16:21:07
1177664661875023872	ytchoper	agora do lado além da logo rgb , uma parte dos furinhos tem rgb tbm	27/09/2019, 16:21:49
1177665337543839744	BernardoFlorees	pela lógica seria o Razer Viper que tem 69 gramas	27/09/2019, 16:24:31
1177673327214829568	AndrewGebbia	Razer***	27/09/2019, 16:56:15
1177678926199566336	Gamegratistm	Razer Mamba Tournament Edition - 16.000 Dpi 36% OFF &amp; Frete GRÁTIS. R$432,96 em até 10x sem juros Garanta o seu: https://amzn.to/2mf65xA Veja outras promoções rolando em: http://www.gamegratistm.com/	27/09/2019, 17:18:30
1177680747794227204	JoeyRafael99	Só queria um cachorro da razer ou da xiaomi	27/09/2019, 17:25:45
1177683965735505921	TheSoL__	Laura Razer foda-se	27/09/2019, 17:38:32
1177686707195535360	Whanbulance	Eu não curto Razer mas teria um desse fácil 	27/09/2019, 17:49:26
1177687181827170305	marcellafga_	que fofoooo	27/09/2019, 17:51:19
1177689104399634433	naoeohyago	Uai agora cê não gosta razer?	27/09/2019, 17:58:57
1177689685285621760	ehnadaicarai	Man, rolou uma treta da razer com uma mina que era patrocinada pela marca. Tinha uns cara babaca no chat da live dela na twitch e ela chamou o cara de escroto, se nao me engano. Ai, por causa disso, a razer cagou pra ela e exibiu uma nota sobre ela estar sendo removida da equipe	27/09/2019, 18:01:16
1177691293625044993	julian_almeida	@gustavopesce aproveita e diz que só dá, se ela começar a fazer stream Kappa....	27/09/2019, 18:07:39
1177691754633584647	iknowbia	@murizzzzz ki saco queria odiar a razer afff	27/09/2019, 18:09:29
1177692125200297989	marcecrds	razer tambem quero esse desafio tambem ein	27/09/2019, 18:10:57
1177692464997687296	ehnadaicarai	N foi desse jeito n. A parte de embaixadora é true, mas o resto, btfe que nem foi assim. E de qualquer forma, nao acho que justifica ce tirar o bang da razer dela por causa disso	27/09/2019, 18:12:18
1177692913523974144	wondermeii	Alguém sabe se consigo usar o kitty ears da razer em outro headset?	27/09/2019, 18:14:05
1177693184715104256	KauePimposo	Para	27/09/2019, 18:15:10
1177693476202434560	KauePimposo	Não odeia	27/09/2019, 18:16:19
1177694865620119552	julian_almeida	O @gustavopesce te ensina 	27/09/2019, 18:21:51
1177695017483296769	iknowbia	ela me fez odiá-la	27/09/2019, 18:22:27
1177703625709232128	Chefedoslink	Vamos fazer um acordo se eu pegar desafiante no lol ganho um pc razer completo 	27/09/2019, 18:56:39
1177706543837528064	LuMenino	Vc abre a Twitch e essa é a e-girl vendendo produtos Razer	27/09/2019, 19:08:15
1177707154452680707	FakexzZz	Se pegar 2 likes e 1 RT a Razer me dá um mouse novo Né @RazerBrazil ?	27/09/2019, 19:10:41
1177709449248739335	Popoquinhas	@alegaules ajuda ai kkkk	27/09/2019, 19:19:48
1177709486137630728	JungleSucks	Pode tentar o software gratuito da razer que ele fecha os processos inúteis da pra desfragmentar jogos e outras coisas o nome é razer cortex recomendo	27/09/2019, 19:19:56
1177710304458952704	lucasmarcilio01	razer é melhor	27/09/2019, 19:23:12
1177710450286436352	tdp_brunao	se tem uma coisa que não quebra fácil é bagulho da razer	27/09/2019, 19:23:46
1177710691505070080	guicgodoy	Bonitinho, pena que a Razer é um lixo de empresa 	27/09/2019, 19:24:44
1177711646598451200	aChaybressler	Eu estaria berrando Mas a Razer me fez o favor de matar esse amor	27/09/2019, 19:28:32
1177712026820497408	giuzok	olha razer vc vacilou mas esse ai ta lindo em quem quer me dar um 	27/09/2019, 19:30:02
1177716835313164288	LucasLinl	Eita, óia Razer dnv, ela acha que a gnt já esqueceu, ctz 	27/09/2019, 19:49:09
1177718225771073541	CafofoDoMozetas	Meus queridos, tudo certinho com vocês? Como estou parando com os canais por tempo indeterminado, venderei minha câmera Razer Kiyo e talvez meu mic BM-800 + braço articulado. Se alguém está iniciando o canal ou quer dar um pequeno upgrade, chama DM pra fazer um bem bolado.	27/09/2019, 19:54:40
1177719302830596097	guiprocha	e assim a comunidade esquece o caso de machismo da equipe da Razer :) 	27/09/2019, 19:58:57
1177719786907820034	Mako_Tomory	Razer sempre sendo incrível e se superando cada vez mais 	27/09/2019, 20:00:52
1177721464314908673	snoweking	velho vo pega esse mouse da razer e enfia no cu do dono dessa empresa	27/09/2019, 20:07:32
1177727116135124992	RazerBrazil	Absolutamente perfeitíneo. Apresentando os novos Razer Kitty Krakens powered by Razer Chroma—com orelhas de gatinho e conchas criadas para expressar sua personalidade da maneira mais colorida possível. Conheça o fator miau: http://bit.ly/KittyKrakens-BR	27/09/2019, 20:30:00
1177728462561402881	vanillahun_	Razer como você pode fazer isso comigo? Gastei todo meu dinheiro no Kraken+as orelhinhas	27/09/2019, 20:35:21
1177729167858769920	Lun4rzz	@MaasteerXD o mic que foi falado na tua live	27/09/2019, 20:38:09
1177734265808805888	Hijunin	Fé, guerreiro!	27/09/2019, 20:58:24
