id	username	text	datetime
1103260507933413376	yuraganlol	eu tenho um sobrando, bem vagabundo mas ta sobrando	06/03/2019, 08:46:17
1103286034396336128	RazerBrazil	Bom dia a todos 	06/03/2019, 10:27:43
1103286358834061314	EduGuedes19	Esse cachorro esta no paraiso gamer	06/03/2019, 10:29:00
1103287716505096192	KenjiKakuda	AAAAAAAAHHAHAHAHAHA Excelente	06/03/2019, 10:34:24
1103287896717619200	RMulekinn	qual nome deste filote de golde retribe?	06/03/2019, 10:35:07
1103288916516446208	RazerBrazil	A gente só chama de Dog, você pode nos ajudar a dar um nome pra ele, Mulekin?	06/03/2019, 10:39:10
1103290003474518017	Vitin_VK	O @RazerBrazil, me vende uma almofadinha dessas mano, até mochila eu tenho de vocês. Sem contar o Blackwidow Tournament V2, Mamba Tournament, Naga Tinity, Firefly Cloth e Orbweaver Elite. Falta a almofadinha, diz que não 	06/03/2019, 10:43:29
1103290461626777602	1ndie1_	que chique, achei conceitual	06/03/2019, 10:45:18
1103291332909563905	IsadoraBasile	Filhote? O bicho tem 3 metro de altura	06/03/2019, 10:48:46
1103291483610853377	RazerBrazil	E esse então?	06/03/2019, 10:49:22
1103291564686798849	IsadoraBasile	Okay esse pode....	06/03/2019, 10:49:41
1103291767141617664	kkinhuxd	ngm vai marcar o ibama n mulekinn, to de segurança na porta	06/03/2019, 10:50:30
1103292006888026112	RMulekinn	pq vcs nao bota cobra andando no teclado e tira foto ia fica loco sabia que tenho uma	06/03/2019, 10:51:27
1103292140573130753	IsadoraBasile	Acho q eles preferem manter os fotógrafos vivos	06/03/2019, 10:51:59
1103292188153262080	AssopraFita	que lindo <3	06/03/2019, 10:52:10
1103292698218377217	RMulekinn	ja tomei 3 picada e e de boa so fica as marca elas nao mata	06/03/2019, 10:54:12
1103292724256501766	kkinhuxd	se for brabo igual ao melekin, fica de boa pow	06/03/2019, 10:54:18
1103292739339337729	Felipiim_	Bom diaaaaaaaaaaaaaa	06/03/2019, 10:54:21
1103292832129921025	IsadoraBasile	Suave então	06/03/2019, 10:54:44
1103293239732436993	jp_calgaroto	Me dá o dog pf razer, o resto do setup eu corro atrás	06/03/2019, 10:56:21
1103293270912913408	RazerBrazil	Pede pro pessoal não marcar ninguém e manda foto da sua	06/03/2019, 10:56:28
1103293725747359745	fravineas	oq eh razer shower	06/03/2019, 10:58:17
1103293888255660032	AbraahamCruz	Uma nova raça descoberta: a Doggus gamerus	06/03/2019, 10:58:55
1103294345648705537	apenasumraul	Queria ser um cachorro ;-;	06/03/2019, 11:00:44
1103294415228030976	RMulekinn	mo linda a sua a minha tb e uma jiboia so que e a arco iris	06/03/2019, 11:01:01
1103294981383561216	Yamikittyy	"""Olá galera, aqui é G00D_BOI, obrigado por estarem na minha live"""	06/03/2019, 11:03:16
1103295283016990720	RazerBrazil	Atrás da tela, ninguém sabe que você é um dog 	06/03/2019, 11:04:28
1103295842272845824	Yamikittyy	Ahhh, mas ia fazer um sucesso esse doggo <3	06/03/2019, 11:06:41
1103296113589792769	RazerBrazil	Curiosidade: ele não é brasileiro e foi levado para o trabalho por um membro Razer no #BringYourDogToWorkDay 	06/03/2019, 11:07:46
1103298756462759938	Sukitaaas	Awww que lindo, AGORA ME DA UM TECLADO E UM HEADSET NOVO awww <3	06/03/2019, 11:18:16
1103301473658699777	j_everton	@RazerBrazil quais lojas compra o mouse bungee ?	06/03/2019, 11:29:04
1103302957695676416	OttoPqp	Cara até o dog tem setup gamer melhor que o meu ksksk	06/03/2019, 11:34:58
1103306137544376320	RazerBrazil	Passando por problemas? Contate-nos por e-mail para voltar ao jogo 	06/03/2019, 11:47:36
1103307178117599232	_toilet7	Hahahahah muitos problemas, só que nunca resolvem. Tô quase caçando os chefes no linkedin	06/03/2019, 11:51:44
1103311541082963970	FeelsPolado	O cachorro mais rico de todos os tempos	06/03/2019, 12:09:04
1103312555412541441	j_everton	Qual loja autorizada vendo o mouse bungee	06/03/2019, 12:13:06
1103313700985933825	RazerBrazil	Opa, John! Estamos sem estoque no momento, mas em breve devem chegar novos Bungees ;)	06/03/2019, 12:17:39
1103315178651832320	feelper	É piada esse tweet né?	06/03/2019, 12:23:31
1103315634606215169	matheus45412664	Que fofs	06/03/2019, 12:25:20
1103317658609598467	medina_ubt	Pfv @RazerBrazil me patrocina eu nunca te pedi nada :) 	06/03/2019, 12:33:23
1103318447067488256	Lone_Yagami	pq será q deu vontade de ser um cachorro agr???	06/03/2019, 12:36:31
1103320488326115331	AssopraFita	Segue eu lindos 	06/03/2019, 12:44:37
1103322967554117633	ismjackson	@RMulekinn o SAMORAI	06/03/2019, 12:54:28
1103327637529915392	BGGAKOOW	Até um cachorro tem um setup melhor q o meu ;-;	06/03/2019, 13:13:02
1103328678187094017	tamirespanage	AAAAAAAA NÃO 	06/03/2019, 13:17:10
1103331997865439237	SorakaAgressiva	Razer é #TimeCachorro no evento VS do lol, certeza	06/03/2019, 13:30:21
1103339096104157184	Rodrigomalhei7	100g de ração 400 reais	06/03/2019, 13:58:34
1103339666424717313	Eduardo777bro	Não to conseguindo comprar nada '-'	06/03/2019, 14:00:50
1103348660295864321	pivatto_05	@nicoly69367375 dog mais gamer q eu poxa	06/03/2019, 14:36:34
1103348999401209857	GoldenMAGamer	Bom diaaaa HAHAHHAHA	06/03/2019, 14:37:55
1103364314671534081	AndreRibickiSCI	Ficou mais engraçado na minha cabeça	06/03/2019, 15:38:46
1103366899788931073	filipetattoodo	@monsterenergy e @RazerBrazil = edição focada! em São Paulo, Brazil https://www.instagram.com/p/BurXCRMlI-d/?utm_source=ig_twitter_share&amp;igshid=15kvsdbbjzq5p	06/03/2019, 15:49:03
1103369853451292672	daluz_lv	Ora ora se não é um Golden Shower	06/03/2019, 16:00:47
1103370053196623872	Chestaum1337	Devolva à natureza	06/03/2019, 16:01:34
1103388238767706114	raissamoraesd	Gente, tô com uma dúvida Se eu comprar qualquer coisa da @RazerBrazil lá no exterior e trazer pra cá. Como funciona a garantia????	06/03/2019, 17:13:50
1103391038356537344	kamiolliveira	Se eu comprar os produtos, ele vem?	06/03/2019, 17:24:58
1103404085687054336	OtaviobSilva	@RazerBrazil Que falha....compro um produto e por o mesmo não estar mais na garantia eu não posso ter suporte mesmo pagando? Quer dizer que tenho que jogar o produto fora? Isso é proibido por lei!!! Que falta de consideração com os consumidores...	06/03/2019, 18:16:48
1103404580753338371	guszr_	Mlkin é um Deus	06/03/2019, 18:18:46
1103408849531400209	KauanNaVoz	tchugueras?	06/03/2019, 18:35:44
1103410238739398658	sadandharmo	Os produtos da @RazerBrazil estão muuuito além do que posso adquirir. Infelizmente. Mas que dá vontade dá	06/03/2019, 18:41:15
1103411926883856385	cebolaodadepre	@RedragonBR @GamdiasBR @LogitechG @RazerBrazil kkkk Ngm vai ver ent vou marcar aq msm	06/03/2019, 18:47:58
1103419041237078023	_karenhenrich	@fingeer_ único gamer que pode me ignorar enquanto joga	06/03/2019, 19:16:14
1103420325075791878	maironMsm	GANKA MID NASUS Q A GENTE GANHA O GAME	06/03/2019, 19:21:20
1103428588597141504	lucasrefe	"Decepcionado com o teclado da @RazerBrazil . Meu irmão pagou 500 reais em um teclado, tem menos de um ano, e a tecla ""A"" já parou de funcionar"	06/03/2019, 19:54:10
