id	username	text	datetime
1123394253139394560	joaogamesBRSH	Padrão razer né	30/04/2019, 22:10:36
1123579606823579648	hugmesandy	meu bb 	01/05/2019, 10:27:08
1123648278027857920	RazerBrazil	EM INSTANTES começamos nossa primeira transmissão na @StreamCraftBR! Hoje teremos gameplay de League of Legends com o convidado @KenHarusame e de Free Fire. Vem pra live http://rzr.to/aovivo	01/05/2019, 15:00:00
1123650601462697984	KenHarusame	VEM PRA LIVE! Que tamo eu e o @LuizFGarden fazendo aquele duozin no canal da @RazerBrazil https://streamcraft.com/user/RAZERBRASIL	01/05/2019, 15:09:14
1123657244061720576	stephanietrbl	sobre ganhar um headset da @RazerBrazil 	01/05/2019, 15:35:38
1123675400859725826	FabioBr01820822	Quanto custa um pc desses?	01/05/2019, 16:47:47
1123684479846047746	VertagearBR	Eu só faço a cadeira, rs!	01/05/2019, 17:23:51
1123702001404137473	cachineoz	nossa eu também	01/05/2019, 18:33:29
