id	username	text	datetime
1117228411246792707	BatatinhaTotosa	Olá caro trabalhador da razer, eu achei bem bacana este setup e gostaria de saber quantos rins são precisos para ter um igual? :)	13/04/2019, 21:49:44
1117238705830420482	nmiolo	Preciso de equipamentos novos, arô @RazerBrazil me dá um cupom de desconto para garantir minha felicidadi.	13/04/2019, 22:30:39
1117254065799483393	_toilet7	Manos, pq os perfis pra baixar do synapse/Chroma studio sumiram do site?	13/04/2019, 23:31:41
1117357170671214592	MytheusH	Entra na minha caaaasaa, entra na minha viiiida	14/04/2019, 06:21:23
1117377846291369985	HushiZue	Tem como vocês concordarem a ideia de fazer um Blackwidow v2 Mercury ?	14/04/2019, 07:43:33
1117405626051776512	paji_fps	Só quero ver a lives do casamento, com certeza @alegaules vai bater recorde de views, disseram que o que vestido da @lelorena vai ser verde partner by @RazerBrazil Felicidades verdadeiro, sucesso na nova vida, ah um conselho: Não é fácil viu? RSrsrsrsrs 	14/04/2019, 09:33:56
1117409724436230144	Allaneduuu	NO PRIMEIRO DA FOTO E O GUARDIAN ?? SE FOR, EU NEM SABIA Q ELE ERA CASADO	14/04/2019, 09:50:13
1117410785163128837	tsousa_lfc	Sim, é ele msm	14/04/2019, 09:54:26
1117411270733463553	Allaneduuu	HM VLW	14/04/2019, 09:56:22
1117414773002469376	krlawliet	O teclado mais caro do mundo @kabumcombr @RazerBrazil 	14/04/2019, 10:10:17
1117428665665585152	1GabrielDestro	Comprei um kit na house of gamers, os cara me cancela a compra, me cobra, e ainda não enviaram os produtos, ajuda ai @RazerBrazil	14/04/2019, 11:05:29
1117445688328060930	crobsss	Queria q a @RazerBrazil me enviasse alguns produtos pra eu testar.	14/04/2019, 12:13:07
1117502786843836418	RazerBrazil	Hoje começa o início do fim. #GameOfThrones #ForTheThrone	14/04/2019, 16:00:01
1117510532150583296	CrohsGmOficial	só queria um desse ai kkk	14/04/2019, 16:30:47
1117567555491762176	kethelyncrb	E eu só querendo um	14/04/2019, 20:17:23
