id	username	text	datetime
1115405682461814784	HeyArthuur	.@RazerBrazil espero, de verdade, que vcs pelo menos resolvam isso já que são 15 dias NO MINIMO que vou ficar sem meu fone. Um headset nesse preço sendo cuidado IGUAL FILHO (assim como faço com todos meus perifericos) não era pra estar dando problema em 5 meses de uso.	08/04/2019, 21:06:52
1115407539221553152	LegolasRPG10	Obrigado por ter entendido a piada. Cheguei a pensar que ninguém iria entender a referência. 	08/04/2019, 21:14:15
1115628888426729472	LipeSchramm	Sabe quando estará disponível no Brasil e o preço?	09/04/2019, 11:53:49
1115659437069471753	balerostyle	@RazerBrazil olha quem chegoouuu Só equipamento de qualidade 	09/04/2019, 13:55:12
1115667162927194112	oEduardoMoreira	Acho que estou testando da forma certa, @RazerBrazil hahaha... Review em breve no TargetHD! #razer #geek #gadgets #vidadeblogueiro https://www.instagram.com/p/BwCwjHNHjHr/?utm_source=ig_twitter_share&amp;igshid=1fgz0jve6i5vw	09/04/2019, 14:25:54
1115687965987147776	Luip254	Ei @RazerBrazil existe alguma forma de comprar o gabinete que vcs tem em parceria com a lian li aqui no Brasil??	09/04/2019, 15:48:34
1115691621306077184	RazerBrazil	Semana passada você conheceu a primeira parte do nosso lineup de streamers Razer. AMANHÃ recebemos dois novos integrantes! Reconhece alguém pela silhueta? 	09/04/2019, 16:03:05
1115692727834800128	Hesigsish	ja pensaram em receber um galo pacifista?	09/04/2019, 16:07:29
1115693639991201792	viniciushsr	Podia ser eu , mais você não me da um PC Gamer @RazerBrazil	09/04/2019, 16:11:07
1115694536582471680	CarlinhosTroll	Eu, lógico	09/04/2019, 16:14:40
1115694850786189314	Andre_Ertel	O de óculos é o Pai @HearthstoneNess do Kassinão Pepega	09/04/2019, 16:15:55
1115694861213208576	nelcigomesjr	vc é mais magro @CarlinhosTroll !	09/04/2019, 16:15:58
1115697128729452546	lenonquil	da esquerda é o @balerostyle pela franjinha	09/04/2019, 16:24:58
1115698342569418753	felipezinyy	esse cabelo e nariz não me engana @balerostyle 	09/04/2019, 16:29:48
1115698735781224450	balerostyle	será cria?	09/04/2019, 16:31:21
1115698766563217408	balerostyle	sei não hein	09/04/2019, 16:31:29
1115699074706092032	xjeeh_	Só queria ser um streamer da @RazerBrazil e patrocinado pela @RedBullBR, é pedir demais? :(	09/04/2019, 16:32:42
1115701920205873152	lenonquil	certamente mano, progresso chegando!	09/04/2019, 16:44:01
1115704663507132416	praieiroph	Um mito, quando crescer quero ser igual a você. Brabo d+	09/04/2019, 16:54:55
1115715138915655681	matheus84430661	O da direita me parece inchado, charlinho e tem traços de gado. Eu chuto que é o @HearthstoneNess	09/04/2019, 17:36:32
1115719758186463242	gamerwashingto	Boltz kk	09/04/2019, 17:54:54
1115722461612519424	balerostyle	vamoooooooooo	09/04/2019, 18:05:38
1115722492646252548	balerostyle	vlw irmaozin, mto obrigadooo	09/04/2019, 18:05:46
1115722533431652352	balerostyle	vc ta mto louco em dizer isso	09/04/2019, 18:05:55
1115723086815531009	mugrila1	O da esquerda balerao ctz mlq merece @balerostyle	09/04/2019, 18:08:07
1115743464023523328	calefano	Papai Ness inchado Pepega 	09/04/2019, 19:29:05
