id	username	text	datetime
1119430310582718464	tales_roder	Bora espalhar a palavra chat!	19/04/2019, 23:39:18
1119431839230373888	marceldias82	@kabumcombr , hoje fiz minha primeira compra da vida com vcs. Não me decepcione! Só vou pagar o boleto e aguardar ansiosamente meu monitor ultrawide da @LGdobrasil teclado/mouse de led @Multilaser_BR e meu headset da @RazerBrazil	19/04/2019, 23:45:23
1119448421952380928	erikebezerra90	@RazerBrazil boa noite, existe previsão de chegada do notebook Razer Blade 15 no Brasil?	20/04/2019, 00:51:16
1119594115572703233	RazerBrazil	Ahhhh, que lindos 	20/04/2019, 10:30:12
1119594425955516418	RazerBrazil	Ele dará as instruções hoje durante a live ;)	20/04/2019, 10:31:26
1119617293187723264	Thon_Player	Dá um orgulho , fala aí.... Dá até dó de usar kkkkkk	20/04/2019, 12:02:18
1119618942329290753	renankb_	Eu amo a @RazerBrazil pqp 	20/04/2019, 12:08:52
1119621466696364036	hmjuribeiro	lindo	20/04/2019, 12:18:53
1119656553920045056	RazerBrazil	Estamos na torcida #GOpaiN. Vem tranquilo, Team One!	20/04/2019, 14:38:19
1119663013748006914	cebolaodadepre	te amo @RazerBrazil	20/04/2019, 15:03:59
1119664621613395971	patrickallvs	E o fone do futuro ?	20/04/2019, 15:10:22
1119664653741756418	radigumm	Fitinha da NASA, ninjaa !	20/04/2019, 15:10:30
1119664764240711687	JulianoThredg	Cê tá doido	20/04/2019, 15:10:56
1119664861829652480	CesarBranco3	16 horas por dia ce tá doido	20/04/2019, 15:11:20
1119664959624024067	matheusdevdd	fofo 	20/04/2019, 15:11:43
1119665223416389632	cebolaodadepre	não tenho nenhum produto razer ainda mas em breve terei e vou te ajd bb 	20/04/2019, 15:12:46
1119667604753473538	HitaloAdriano	Abre a live seu macaco	20/04/2019, 15:22:14
1119667822064537600	HitaloAdriano	Razer Macaco 	20/04/2019, 15:23:05
1119667969318170625	_oneguria	Eu amo uma marca!	20/04/2019, 15:23:40
1119668874381807616	wellingtonFJr	É MT retardado 	20/04/2019, 15:27:16
1119670683959812096	CaioiacGOD	Obrigada	20/04/2019, 15:34:28
1119671316112642048	matheusdevdd	ISSO faz uma foto bonita pra eu te dar RT	20/04/2019, 15:36:58
1119671444823212033	cebolaodadepre	posso pegar a do amiguinho e falar q é meu? *só pra tirar foto*	20/04/2019, 15:37:29
1119672208090124288	wjuniorlolx	O zoológico tá deixando os macacos engordar pra caralho	20/04/2019, 15:40:31
1119674741680480256	HenriqueD1as	o fone vem ate com uma piroca com espuma na ponta	20/04/2019, 15:50:35
1119675159840022529	ppe_pedroFDR	Fone com maior custo-benefício das Américas, avaliado em 10.000 reais hahaha	20/04/2019, 15:52:15
1119676111355633664	RazerBrazil	“O CAMPEÃO VOLTOU!” Parabéns @paiNGamingBR! 	20/04/2019, 15:56:02
1119676369615642624	Mateusslater7	Voltou com tudo, volta com Kami também	20/04/2019, 15:57:03
1119676933942513672	mathcosentino	esse grito ai zica qualquer time viu	20/04/2019, 15:59:18
1119677199030935552	lava_toga_quand	roliço.	20/04/2019, 16:00:21
1119677594650185732	webputo	@webTrampy FAZENDAQUI UM AM BOXE	20/04/2019, 16:01:55
1119677977489563649	Vitormca2001	Eu só queria o @Kamizeon de volta não desmerecendo o @Tinowns que está jogando muito bem.	20/04/2019, 16:03:27
1119678325604192261	gave013	Que cena	20/04/2019, 16:04:50
1119678379073187840	dikson_	Ganhou da red pra isso LUL	20/04/2019, 16:05:02
1119683090555834369	FyukitiM	Setadoido	20/04/2019, 16:23:46
1119689080294522880	lfsobral	Salvador do SENARIO	20/04/2019, 16:47:34
1119692333337935872	matheusdevdd	COM CERTEZA	20/04/2019, 17:00:29
1119692490729246721	cebolaodadepre	aí sim hahaha	20/04/2019, 17:01:07
1119694068529946624	PrinceDoBailao	Modelo exclusivo	20/04/2019, 17:07:23
1119706637093175296	CWar999	Não SUPERA!	20/04/2019, 17:57:20
1119726669877661697	webTrampy	KKKKKKKKKKKKKKKK RAZER 2022	20/04/2019, 19:16:56
1119728504541777921	matheusseverich	patrocínio do VERDADEIRO team FÓLLEN RAZER @FalleNCS	20/04/2019, 19:24:13
1119729133615972353	igorcarneiroxd	KKKKKKKKKKK mano ele tá imitando aquele motoboy?	20/04/2019, 19:26:43
1119740405963161600	Rayuurdota	Ai é um unboxeador!	20/04/2019, 20:11:31
1119741113978503169	dontsmileatme0	Hahahhahahahhahahha quase lá crey	20/04/2019, 20:14:20
1119745626646941696	hugotavito12	Sim o motoboy 2k kk	20/04/2019, 20:32:15
