id	username	text	datetime
1127401313896140801	RedragonBR	Manda um oi pra nós que a gente te resolve isso ai =P	11/05/2019, 23:33:13
1127405013679128577	llucasv00	Se vocês soubessem a delicia que é curtir um som, nesse fone.... @RazerBrazil 	11/05/2019, 23:47:56
1127405278058696704	tiolinios	Recomendo demais xD	11/05/2019, 23:48:59
1127407636788465665	tiolinios	so falta um mousepad :3	11/05/2019, 23:58:21
1127413599788576768	aklstormrage	Confia!	12/05/2019, 00:22:03
1127425354946232320	justagreenbird	Qual o modelo desse teclado?	12/05/2019, 01:08:45
1127428491547488257	vazadomeuperfil	eu sou o team razer	12/05/2019, 01:21:13
1127431774009810944	cherryrar	até rupiei	12/05/2019, 01:34:16
1127436824224444418	vazadomeuperfil	"Gosto de ""rosa"" tb"	12/05/2019, 01:54:20
1127510079626973184	higuinhooow	O BRABO TEM NOME	12/05/2019, 06:45:25
1127510453050122240	cherry_fc1	Aposto q vc quer né dona xeury	12/05/2019, 06:46:54
1127545078485012481	alissonlazaro	Chamou na responsa @RedragonBR ajuda o menino aeee	12/05/2019, 09:04:30
1127547853016948737	FusshyGnar	Manda um cupom pra mim, @RazerBrazil hahaha	12/05/2019, 09:15:31
1127580865008156672	RazerBrazil	Hoje vale até pausar jogo online Feliz Dia das Mães!	12/05/2019, 11:26:42
1127581934673190912	RazerBrazil	chega manteiga derrete	12/05/2019, 11:30:57
1127591824401534976	edwillardy	Só falta ser barato aí eu compro...	12/05/2019, 12:10:15
1127600465468895232	BgWiller	respeito +50	12/05/2019, 12:44:35
1127603395194388481	PabloF_erreira	Vai que da bom dms Logo mais chega meu mousepad tbm! Só amores por essa marca @RedragonBR &gt;&gt;&gt;&gt; @RazerBrazil 	12/05/2019, 12:56:13
1127603462106157056	marcus12176609	Quantos rins vão ser dessa vez?	12/05/2019, 12:56:29
1127606455803228161	DzSama3	imagina isso só que roxo mmmm 	12/05/2019, 13:08:23
1127627430057922565	lfblopes	Reddragon é mais barato e de melhor qualidade	12/05/2019, 14:31:44
1127641547158315009	anderp1231	@RazerBrazil ai o se quiser patrocinar	12/05/2019, 15:27:50
1127708129599401984	cebolaodadepre	eu falo... @RazerBrazil #ad	12/05/2019, 19:52:24
1127708529752780801	vanillahun_	Onde eu compro essas orelhas da @RazerBrazil ? 	12/05/2019, 19:53:59
