id	username	text	datetime
1147294632235208704	jonatasmosti	Construção,aventura e blocos	05/07/2019, 21:02:10
1147295607456960513	Mr_AlbaFox	Tomar TK, Morrer com Spawnpeak, amigos roubando seu Ace e a que vai entregar: ser morto por uma marretada	05/07/2019, 21:06:03
1147295842816208896	jonatasmosti	Ops expliquei até que bem kkkkkkkkkkkkkkk	05/07/2019, 21:06:59
1147295914261958657	anadattebayo	De volta para o futuro só que lésbico	05/07/2019, 21:07:16
1147296246064930816	CrazyFoxBR7	Uma estudante e um novato se metendo em altas confusões contra os mortos vivos.	05/07/2019, 21:08:35
1147297459011555328	Gabriel90z	Um assasino q quer matar o papai e pra isso vai ter q ferrar com todo o universo	05/07/2019, 21:13:24
1147297662863122432	ffcgustavoo	mineirinho adventures	05/07/2019, 21:14:13
1147297774913957889	V1ctor_SL	Soldado que não mostra a cara e que mata deuses e alienígenas!	05/07/2019, 21:14:39
1147298184357699589	jlaugustin	Cartola de futebol com paciência de internet discada	05/07/2019, 21:16:17
1147298326343245824	ffcgustavoo	joga 1 partida e sai puto	05/07/2019, 21:16:51
1147299641614045184	xiaorym	acorda, anda anda AGROO AGROO escala escala, da espadada, cai, escala escala, dá espadada, morre, acorda AGROO AGROO e repete isso 16 vezes	05/07/2019, 21:22:05
1147300609416159232	_toilet7	Skibunda numa caixa de papelão	05/07/2019, 21:25:55
1147304064310480897	AlooPotter	Isso	05/07/2019, 21:39:39
1147304146623766529	julinhoCK	""" Eu não posso fazer isto "" , "" Minhas feridas se curaram "" . "" Sinta a ira de Ytar """	05/07/2019, 21:39:59
1147305072612823040	RaroAlan	#QUE LINDO	05/07/2019, 21:43:39
1147305746289373185	riancsouza9	Os últimos que saíram foi tudo um lixo, C4 pra todo lado e tryhader pra tudo que e canto	05/07/2019, 21:46:20
1147306064876113920	CauaSnS	Vence batendo em uma pedra gigante de cor azul ou vermelha.	05/07/2019, 21:47:36
1147306266416549893	Mac12622903	@RazerBrazil bem que vcs ai poderiam criar uns teclado e mouse aquecido né? Com esse frio absurdo ta osso de jogar	05/07/2019, 21:48:24
1147308928298115072	carolezzzzzz	Puts, olha o fake da criançada se ofendendo ai com minha opinião negativa sobre a Razer hahaha	05/07/2019, 21:58:59
1147310066669883392	WesleyO72290252	Morcegos assombram a cidade	05/07/2019, 22:03:30
1147312750072410113	lesantana	Aquele que uso esse controle	05/07/2019, 22:14:10
1147312924115030016	anonimodjesus	OOOOOO PIRUUUUUU, SAI DO NIP CARA, calmou calmou que fluyfluy é bem marotinho ele é bem marotinhi, NÃO TEM QUE ACHAR TEM QUE TER CERTEZA, RUSH B	05/07/2019, 22:14:51
1147313820337156098	Vinumars	"""passar bem"""	05/07/2019, 22:18:25
1147314063015325696	LUKS_HALO	Tava na escola aí vai no banheiro e vê uma garota levando um tiro foi como voltar no tempo	05/07/2019, 22:19:23
1147315944156467202	_gadoebotdobozo	Garotinha mimada xinga homens e perde patrocínio.	05/07/2019, 22:26:51
1147317173095940096	Filolicon	É o jogo de torre sabe? Aquele que tem um cristal e tu tem que dar cabeçada no teclado, aí tem uma DLC para estragar amizades, que se chama partida ranqueada.	05/07/2019, 22:31:44
1147317872940716037	Locodapraca	1 adolescente que tem a mãe que troca de marido toda hora e foi expulso de 3 escolas vai pra pior escola do país e é expulso	05/07/2019, 22:34:31
1147319003779686400	zdarkyoshi	A culpa e do jungler	05/07/2019, 22:39:01
1147319233933692928	Nowly011	É que nessa versão era contrato com o time e não com o jogador	05/07/2019, 22:39:56
1147320537162670081	DannDaker	Mid lixo não da mia	05/07/2019, 22:45:06
1147320602040160261	mateus02072002	E o da q volta no tempo mas tipo só 1 minuto kkk	05/07/2019, 22:45:22
1147321407442833408	Chesse28061628	100% atualizado é ruim de aturar... não dá chance ao concorrente.	05/07/2019, 22:48:34
1147324007622074369	B4NGTANGL0W	bug e nao escuta a comunidade	05/07/2019, 22:58:54
1147324264187662336	CWLISBOA	A crise econômica tava tão grande que você pega só trampo bucha, tá tendo problema com sua filha adotiva, e anda tomando uma remédio controlado. Ah seu professor da escola foi assassinado.	05/07/2019, 22:59:55
1147324341706743808	guin_afonso	cabe 10 elefantes no barco mas n cabe 11 arqueiros	05/07/2019, 23:00:13
1147325667488542723	CaiDutra	Explodiu uma bomba nos eua e tu toma refrigerante pra ganhar vida	05/07/2019, 23:05:30
1147325736849682437	WagnerChaves10	Seria só p/se distrair, relaxar c/barulho d água, canto d pássaros e a natureza! Mais não! É uma batalha! Uma guerra sendo disputada no cabo de aço! As Vz vc ganha outras perde! E o que sobra na maioria das Vz é só fica a sensação de dever cumprido!	05/07/2019, 23:05:46
1147326032653029377	Mathferreira2k	vou comer sua mãe	05/07/2019, 23:06:57
1147326040697647104	carolezzzzzz	Nossa, eu não to incomodada. Sério. Eu fiz um comentário e 10000 adolescentes vieram responder e eu só to respondendo de volta. Sorry.	05/07/2019, 23:06:59
1147326365487775744	Specialisty_	10 patetas separados em 2 times se enfrentando até a morte em uma batalha épica, com muitos rages e maldições. A e o cliente bugado. Mas adoro mesmo assim.	05/07/2019, 23:08:16
1147326372018315264	carolezzzzzz	Caralho, que stalker.	05/07/2019, 23:08:18
1147326803704516614	CabeludoLoL	É complicado e tem insetos, e é sombrio, e uma porcaria e é mt bom	05/07/2019, 23:10:00
1147326997137383427	villiansoares	rinha de galo sem galo	05/07/2019, 23:10:47
1147328073303543808	rainbowilusion	Comunidade mais tóxicas n tem.	05/07/2019, 23:15:03
1147328336240218113	WillyUonka_	Caiu no buraco, ou salva todo mundo ou mata todo mundo	05/07/2019, 23:16:06
1147330004260401152	Gilliar27002017	Esse mesmo!	05/07/2019, 23:22:44
1147332213530419200	joaopssil	Matar, upar, farmar equipes, dropar cartas...	05/07/2019, 23:31:30
1147332670537502720	Gilmari25520491	O cara q finge ser do bem mas é do mal mas dps ele virá do bem e matar zumbis e pessoas	05/07/2019, 23:33:19
1147333292443754496	yuri3988	Correto	05/07/2019, 23:35:47
1147334407528865793	B4NGTANGL0W	acertou na certa ksodoks	05/07/2019, 23:40:13
1147334528471621633	PablitoZ7	Matar um Olho gigante é emocionante e dificil	05/07/2019, 23:40:42
1147334829110890496	PablitoZ7	Então esse é aquele jogo que pessoas jogam mas ninguem LIGA	05/07/2019, 23:41:54
1147335245571723265	Edinho_Neves	O Desgraçado fica olhando o mapa e não sabe onde fica a direita do barco.	05/07/2019, 23:43:33
1147335712964009984	OBostejador	Já sei que jogo esse ! Jogo do gado!	05/07/2019, 23:45:25
1147336461433430018	andraddyy	Pegar arma atirar e morrer pra armadilha	05/07/2019, 23:48:23
1147337538450968576	VsfFaast	Muitos me zoam, mas é Minecraft, bom porquê Minecraft foi um jogo que eu até 2012 tive oportunidade de apenas assistir, e quando foi 2013 eu comecei a jogar num Intel Celeron q rodava a 10 FPS, porém isso já era o suficiente pra me fazer feliz, e hj em dia jogo com dificuldade...	05/07/2019, 23:52:40
1147337638111830017	VsfFaast	Porém sei que um dia terei um PC q rode de boias.	05/07/2019, 23:53:04
1147338492017565697	RY51293456	GADO	05/07/2019, 23:56:27
1147338849728770049	lucasbattur	cagaço no meio do mar	05/07/2019, 23:57:52
1147338952233377798	lucasbattur	pelo menos colocaram a pump de volta lol	05/07/2019, 23:58:17
1147339091484315649	Girozepelli	Bugado, taxado como cópia de outro jogo, free, 90% da glr que joga é retardado, flanco é suporte, suporte é tank, dano é flanco	05/07/2019, 23:58:50
1147339171977146373	aibaomocue	Inclusive já traiu o marido, mas isso deixa em off pq só homem que não presta neah @RazerBrazil ?	05/07/2019, 23:59:09
1147339186535587841	euruaaan	Depende do seu rank vai ter kid no VoIP atrapalhando sua partida ou você vai errar o tiro da ak e vai levar um HS nas costas 	05/07/2019, 23:59:13
1147339927283228674	the_secret_john	Kkk siim Tmj 	06/07/2019, 00:02:09
1147341764405157888	Maluyco	A culpa é do yasuo q feedou na minha partida	06/07/2019, 00:09:27
1147342104252821506	B4NGTANGL0W	pelo menos né	06/07/2019, 00:10:48
1147342173416960001	AmoSayuriMattar	Terraria?	06/07/2019, 00:11:05
1147342635817951232	OliveiraDn96	Deixou a menina até sem rumo haha	06/07/2019, 00:12:55
1147342822309289984	GabrielScalon	Humildes 686 horas sem contar o que joguei pirateado	06/07/2019, 00:13:40
1147342870858412032	LambdaHidden	Vc pode fazer qualquer m*rda que quiser, mas todo mundo insiste em jogar aquela b*sta chamada DarkRP e suas variações.	06/07/2019, 00:13:51
1147343145031688192	LucasVinciusMo6	É viciante	06/07/2019, 00:14:57
1147343818464944129	lucasbattur	pra falar a verdade eu to curtindo o jogo '-'	06/07/2019, 00:17:37
1147344126020661254	GabrielScalon	Com Tmodloader devo ter umas 100 horas	06/07/2019, 00:18:50
1147344911290834944	KcSeteMeiaCinco	Uma mulher em uma armadura matando amoebas meio aranha	06/07/2019, 00:21:58
1147345206288822272	nao_sou_vc	@RazerBrazil meu adoro vcs #teamranzer S2	06/07/2019, 00:23:08
1147345292175597569	EriqueElias	O cara tem que treinar 2h pra dar bala, aí mata 40 boneco e perde, fica puto com os argentinos q só te fodem, e ainda tem a @stefflertada lá em última que fica -1/29 Grande dia	06/07/2019, 00:23:28
1147347680865243137	_rafacortez	Jogo em 1d, antigo, ta virando pay-to-win, era de rpg mas hj em dia ta estranho, povo na escola falava q rodava em calculadora de tão feio os gráficos, mas antigamente muita gente jogava. Hj ja ta mais bonitinho, mas ainda em 1d	06/07/2019, 00:32:58
1147348313974484992	B4NGTANGL0W	eu to é pensando em vender minha contakkk	06/07/2019, 00:35:29
1147348831853535235	lucasbattur	huashusahusa, eu nunca venderia a minha	06/07/2019, 00:37:32
1147349797806006272	Kbiteg	Uns cara feio caçando umas peça loca de portal enquanto matam geral	06/07/2019, 00:41:23
1147349849827885056	B4NGTANGL0W	nao to jogando tanto	06/07/2019, 00:41:35
1147350016748638208	lucasbattur	eu tbm não, mano a shotgun nova é só ficar clicando ahusuhsahuas	06/07/2019, 00:42:15
1147351736614567936	Allyson_Macedo3	Um encanador que fala inglês com sutaque italiano e que gosta de uns cogumelos diferenciados	06/07/2019, 00:49:05
1147352574678511616	LuccasBozza	Jogar com o @Taskzito	06/07/2019, 00:52:25
1147352663534817280	Soft_Fire_	Um tiozin careca e putinho que quer matar uns cara que tem poder e manda em tudo	06/07/2019, 00:52:46
1147352713333739520	MinatoP3Lover	homem terrorista de dupla personalidade e amnésia descendo a espada em arma e parando cometa	06/07/2019, 00:52:58
1147353439703355392	dollenhoo	É de um carinha muito louco que cai num buraco aí ele começa a andar e encontra umas cabras uns esqueletos e um peixe aí ele pode ser brodi de geral ou cagar pra eles e até passar a peixeira em neles	06/07/2019, 00:55:51
1147359683390431232	Vbraz4	Simulador de namoro e mata demônios	06/07/2019, 01:20:40
1147362735283429376	PatrickGusmao	Aí Manito! Ah não boludo não! Vtnc!	06/07/2019, 01:32:47
1147363145528332288	TGM_Brazil	Eu só to bronze por causa de troll.	06/07/2019, 01:34:25
1147364943106367489	PlayZuca	É só um monte de seres de lugares diferentes que se reúnem em plataformas para tentar se derrubar	06/07/2019, 01:41:34
1147372228960509952	guizeferino	Vai embora não cara. Fica, vai ter bolo. Imbecil	06/07/2019, 02:10:31
1147373271287046144	AngeltheCosmic	Um cara azul com uma pá e ele bate a pá nos outros mano pra matar uma mina lá bruxosa	06/07/2019, 02:14:39
1147377261580038144	SooouuEu	Meu Sup não warda	06/07/2019, 02:30:31
1147378560170188801	du_depaula	Imortal	06/07/2019, 02:35:40
1147380327662477312	rodineismo	Senhor dos lobos é a cabeça da minha rola	06/07/2019, 02:42:42
1147391627020906496	Srpedran	pega arma anda atira morre entra em outra partida pega lhama corre o ze bazuquinha ali a morreu	06/07/2019, 03:27:36
1147397363570552832	santiunforthew1	Agachago na frente do inimigo = stealth Andando meio mundo de distância = em combate	06/07/2019, 03:50:23
1147399911564095488	ThorDuParaguai	2 times de 5 pessoas que suas armas são os microfones pra xingar os outros e pedir x1 literalmente do nada porque você existe	06/07/2019, 04:00:31
1147421599261478912	Nevesfn2	Ui.....magoou???	06/07/2019, 05:26:41
1147430063664762880	pcesar96	"Jogo ""pesquisa mais pra não passar vergonha""."	06/07/2019, 06:00:20
1147430310734442496	pcesar96	"""São só abelhas"""	06/07/2019, 06:01:18
1147430619623899139	pcesar96	Jogo do Zelda	06/07/2019, 06:02:32
1147449799198818305	Fellipe02332688	Qualquer jogo de time 	06/07/2019, 07:18:45
1147450850249519104	Fellipe02332688	Garoto é sequestrado e conectado a uma máquina pra reviver o passado e se jogar de lugares altos	06/07/2019, 07:22:55
1147454358646398977	ThamamLuz	O cara pegou minha espátula.	06/07/2019, 07:36:52
1147456971450331136	HenriqueCastig1	O jogo ET do atari?	06/07/2019, 07:47:15
1147457335822036993	HenriqueCastig1	Vc é um cara num collant vermelho que luta contra um polvo e explora a cidade	06/07/2019, 07:48:42
1147463033444286464	rick91765730	Um inseto q mata outros insetos infectados	06/07/2019, 08:11:20
1147468650833752064	Niji_de	Mas nessa versão o time não se envolveu numa polêmica que manchasse a imagem da razer...	06/07/2019, 08:33:39
1147471396659978242	Lucianrsrs	Tenho uma arma foda e não possa mata o alienígena com aparecia pepino mutante	06/07/2019, 08:44:34
1147474362943135744	GuiKNogueira	exato, se encaixa com quase todos que eu jogo	06/07/2019, 08:56:21
1147474860047777792	GuiKNogueira	só da para perceber o quanto a comunidade é tóxica, indiferente do game, seria engraçado se não fosse trágico!	06/07/2019, 08:58:20
1147474940406505472	YugibearCReal	O jogo que o cara acorda vai pro inferno e mata um dragão roxo no final	06/07/2019, 08:58:39
1147479246505500677	SIQUOOF	Uma parceria com um mundo quadrado * opa deu referências rsrs*	06/07/2019, 09:15:46
1147479857133162501	HenriqueCastig1	"N eh assassin's creed, usa um COLLANT vermelho e luta contra um ""polvo"""	06/07/2019, 09:18:11
1147480138512306178	Vitor_Farias_	""" seu merda vc deixou o Draven e o Zed 8/0 fider de m&rd@"	06/07/2019, 09:19:18
1147481369548902400	callMeNebular	você tem que puxar agulhas para salvar o mundo de pessoas porco	06/07/2019, 09:24:12
1147481599795171328	HenriqueCastig1	HOMEM ARANHA	06/07/2019, 09:25:07
1147482847290245120	Chapolim45	Tu acorda num metro e tem q derrubar um governo e matar zumbis que pulam na sua cabeça	06/07/2019, 09:30:04
1147483234818756608	portugalense1	ataque paises e capitalismo	06/07/2019, 09:31:37
1147484887273881601	PauloTeska	Terror e Tbag correria, morte e sangue. Dúvido acertar.	06/07/2019, 09:38:11
1147485083349262337	BrenoQuinze	Quadrado, Quadrado, Triângulo!	06/07/2019, 09:38:57
1147486874233180160	TCI_GO	Baixo,Quadrado,Quadrado,Quadrado,Quadrado,Quadrado... You Win!	06/07/2019, 09:46:04
1147488759690289152	Galen_The_Furry	Um jogo que você atira	06/07/2019, 09:53:34
1147488876455444482	yrrton	Um cara irritado mata todos os seus irmãos irmãs tios tias e pai e mãe	06/07/2019, 09:54:02
1147489398059098113	NoLollygangging	Rei do looter shooter em que a continuação terá +d 1 bilhão de armas	06/07/2019, 09:56:06
1147490911632449536	stefflertada	Kkkkkkkkkkk Não explana essa vergonha Erique	06/07/2019, 10:02:07
1147491123516104704	rafaelisolatio1	Caixas...	06/07/2019, 10:02:57
1147497845701976064	drajordana	Um jogo lá de uns mano de todo canto do mundo que fica um atirando no outro. Só que o interessante eh que eles lutam entre eles e de cada lado lutam pelo mesmo objetivo e com os mesmos caras. Eh estranho. Mas jogo a 3 anos e não canso de jogar. Quem sou eu? 	06/07/2019, 10:29:40
1147498072261505024	OsorioFranca	Um morto-vivo muito louco que acorda do nada e tem que matar uns mano extremamente forte pra acender uma churrasqueira	06/07/2019, 10:30:34
1147498309713637376	OsorioFranca	"""nossa, que feiura"""	06/07/2019, 10:31:31
1147501869125840896	SukinhuZ	Uma garota e um irmao morto tem q sobreviver no mundo	06/07/2019, 10:45:39
1147504282125656066	BrunowClly13	Cai, pega arma, atira mata 13 bot. E morre para o ultimo	06/07/2019, 10:55:15
1147507138593460225	Filosofia_guy2	Tu atira em viciados, solta fogo na mão, foge de mergulhadores e as vezes mata garotinhas para pegar uma gosma, tudo isso para sair de uma Fenda do biquíni dos anos 30.	06/07/2019, 11:06:36
1147507298220294145	vedeviniciuss	Chaveiro das galáxias	06/07/2019, 11:07:14
1147508082538352642	devdknk	Fortnoite	06/07/2019, 11:10:21
1147508163933024258	YonTeemo	Pokedex com Garbodor e sem Garchomp 	06/07/2019, 11:10:40
1147508272909471744	trashawper	"Os caras te ligam e falam vai matar os caras lá"" aí você vai matar os caras"	06/07/2019, 11:11:06
1147508682298667008	devdknk	Você tem 10 anos e sai pra viajar pelo mundo lutando contra pessoas e organizações criminosas usando animais que ficam presos em cárcere privado	06/07/2019, 11:12:44
1147508833494982656	GabrielVictorA8	Um jogo onde todo mundo cai de um avião sem paraquedas e só depois ele aparece do nada, em q o povo cai num mapa q tem uma barreira de electricidade que vai fechando e dando dano, e q todo mundo tem q se matar pra ser o ultimo sobrevivente, ai a barreira para de fechar e cabo ;-;	06/07/2019, 11:13:20
1147509369464066048	vinnii_	Acertou	06/07/2019, 11:15:28
1147510725772042241	_shockt	Cabeça quadrada batendo no animal quadrado pra fazer uma casa na montanha que é quadrada	06/07/2019, 11:20:51
1147511287552925697	Tiiboto	Um adolescente depressivo e arrogante que parece que morreu mas não morreu e se apaixonou por uma mina que gosta de rinha de cachorros e precisam matar uma feiticeira que não respeita os conceitos de viagem no tempo	06/07/2019, 11:23:05
1147512836664508421	carnefeccina	Mate pessoas x3 maiores que você na dificuldade INSANO	06/07/2019, 11:29:14
1147514099946987520	M4Ximizando	Malucão tribal catou uma serra e adaptou numa metranca pra matar os bicho tudo.	06/07/2019, 11:34:15
1147514123858698240	HigorPina	Nunca acaba! Mas isso é bom.	06/07/2019, 11:34:21
1147514170943954944	Silvedic	Largado de cueca num mundo pra salvar um princesa q nem lembra de vc	06/07/2019, 11:34:32
1147514504303063040	andrealcant	Maldito hunter que Agra tudo. #huntard	06/07/2019, 11:35:52
1147517167597969408	Srpedran	acerto a mizaravi	06/07/2019, 11:46:27
1147517969297227777	Ero_Neko	Um dragão destrui meu vilarejo, passaros me adotaram, fui trabalhar buscando uma agua viva gigante e a mãe da concorrencia tinha um cérebro gigante e explodiu o planeta.	06/07/2019, 11:49:38
1147518190119002114	otavioperkles	Eu lembro de ver um cara que vende teclados feitos por ele falando no perfil da @RazerBrazil quando deu aquele B.O la de homem lixo. Alguém lembra do cara? ou sabe a thread que ele tava ? #razernuncamais	06/07/2019, 11:50:31
1147518479731494913	DoditoKeys	Um cientista mudo foi fazer um experimento rotineiro e acaba abrindo um portal pra outro mundo, destruindo a terra em um ataque alienígena, enquanto ele tenta evitar matando tais criaturas com um pé de cabra	06/07/2019, 11:51:40
1147518657406427136	BarbiiAshe	“Vai tomar no cu ,vem x1 lixoooo”	06/07/2019, 11:52:22
1147518860335165447	yxttpriv	delta e foda mermaoo	06/07/2019, 11:53:10
1147518910662631425	Tt61066645	DETERMINAÇÃO	06/07/2019, 11:53:22
1147518923035881473	deltaowo	Valeu aaaaaaaa	06/07/2019, 11:53:25
1147519217153040385	andre_llima1	- rush b manito - vamo * flashbang - ah mano avisa qnd for bangar - b1 limpo, planta a boma - cadê a bomba? - ah mano ces n fizeram isso ‍ 	06/07/2019, 11:54:35
1147519282823290882	bruno_bf5	Triangulo	06/07/2019, 11:54:51
1147519606287929351	Rodolfolouza	Uma cidade inteira morre por causa de um vírus que ressuscita mortos, nesse jogo o que mata os vivos ressuscita os mortos e pior: desenvolvido por uma indústria farmacêutica!	06/07/2019, 11:56:08
1147519653331296256	OrigiCrakudo	Joga uma estátua gigante pra trás mas se borra pra abrir bau	06/07/2019, 11:56:19
1147519924027428864	zLuziafer	É aquele jogo que voce atira pra matar os outros 5 jogadores q tem do outro lado as vezes voce arma uma bomba outra vc desarma essa bomba ai twm umas coisa de kogar uma q faz fumaça outra q dexa tudo branco outra q queima o pé e ó dahora d+	06/07/2019, 11:57:24
1147520713579999232	allisontabalipa	Um veio andando de cavalo matando monstro	06/07/2019, 12:00:32
1147521521755271168	CalebEnvy	Moleque dando rolê por mundos com uma chave gigante com personagens da Disney	06/07/2019, 12:03:45
1147522487640645632	AresCo_	Você é um encanador que fica explorando planetas em busca de estrelas pra resgatar a princesa do drag	06/07/2019, 12:07:35
1147524028447580160	Elrockha	Vindo do Chief, certeza que é Fortinite. 	06/07/2019, 12:13:43
1147524180210044929	dinaldocj	Menina andando de boa num shopping é perseguida por um detetive e por um culto maluco de uma cidadezinha e descobre que ela é reencarnação do capeta e precisa resolver puzzles por todo lugar que vai, como metrô, hospital psiquiátrico, parque de diversões, etc	06/07/2019, 12:14:19
1147524424075288576	GohanEmidraw	PARA PA TA FICANDO APERTADO AAAAAAAAAAAAAAAAAAAAAAAAAAAAAAAAAAAAAAAAAAAAAAAAAAAAAAAAAAAAAAAAAAAAAAAAAAAAAAAAAAAAAAAAAA	06/07/2019, 12:15:17
1147525783671443456	JoannaKarenP	Somos milhões de mercenários que fazem qualquer (literalmente qualquer coisa, desde colher plantinhas até matar demônios centenários) por dinheiro e equipamentos legais, lutando por uma facção que quer dominação mundial	06/07/2019, 12:20:41
1147525970053795842	gabsjohto	enfiar a bola naquele lugar lá	06/07/2019, 12:21:25
1147527250893561856	FocoPalmeiras	Atira, atira, pula, pula, desvia, desvia, morre, morre, fica bravo, quebra o controle e começa de novo. This is Cuphead! 	06/07/2019, 12:26:31
1147527396238794753	zeraimundolee	menina exploradora apronta altas confusões atrás de relíquias antigas	06/07/2019, 12:27:05
1147528293069066240	SonixFans456	KKKKKKKKKKKK se for MEME eu Adorei KKKKKKKKKKKKKKKKK	06/07/2019, 12:30:39
1147528419577597952	Leonard96783015	Arminha de água	06/07/2019, 12:31:09
1147528706434502656	_cocaSB	alo @RazerBrazil bora criar um mouse com aquecimento? ou uma luva gamer?	06/07/2019, 12:32:18
1147528916069945344	jocelio_viana	Os humanos decidem sair da bagaça desse planeta moribundo e colonizar um planeta cheio de monstros, e vai ser a maior confusão!!!	06/07/2019, 12:33:08
1147529232895107073	pjoaosilvss	Pew, pow, lançando granada, o objetivo eco foi capturado, aaaaaah capturem esse maldito objetivo	06/07/2019, 12:34:23
1147529411983527936	sweatkld	A Ubi não arrumou o glitch da clash durante 1 season +-	06/07/2019, 12:35:06
1147531214372442114	fsm_miranda	Tenho de matar deus.	06/07/2019, 12:42:16
1147532464648269825	RickFel2012	Gears of war? Afinal tem cada skin coloridinha!	06/07/2019, 12:47:14
1147532540258992128	Mestre_MX	Eu sou uma mulher mal vestida no meio de um apocalipse correndo de um gigante que quer me pegar com seus tentáculos grandes e fazer um estrago.	06/07/2019, 12:47:32
1147532998977474562	Puritan11417944	Qualquer jogo da Ubisoft	06/07/2019, 12:49:21
1147533080187613185	Puritan11417944	Se não for lol mentiu	06/07/2019, 12:49:41
1147534833754787847	Breno75720509	VAI TEIA, SHAZAM, PARA O ALTO E AVANTE	06/07/2019, 12:56:39
1147537702084075520	IzidoroRaziel	Fãs do Rambo que adoram malhar e dar tiros em alienígenas tatus que invadem seu planeta, SERÁ?	06/07/2019, 13:08:03
1147537913191772161	jorey1304	Bem menos q uma season kkķkkk	06/07/2019, 13:08:53
1147538138513989632	MystAnorak	Os magos só tem uma skill	06/07/2019, 13:09:47
1147539477113520131	gabrielbellot	Construir atrações para agradar NPCs	06/07/2019, 13:15:06
1147539557409284096	karlos_malta	Eu era um aventureiro como você, até que levei uma flecha no joelho.	06/07/2019, 13:15:25
1147539617413025794	gabrielbellot	Ou dois psicopatas e um ladrão de carros roubam coisas	06/07/2019, 13:15:39
1147539813190578176	karlos_malta	Rush b inferno segundo round sem colete pq perdeu o primeiro. Clássico.	06/07/2019, 13:16:26
1147540329685553152	VagalGames	Virando nintendista agora?	06/07/2019, 13:18:29
1147541333868982278	Granky9	Pegar madeira , pegar pedra , pegar palha , fazer narcótico , derrubar dinossauro , domar dinossauro	06/07/2019, 13:22:28
1147541580695384066	GuiRibeiro434	Tibia	06/07/2019, 13:23:27
1147542446907285504	CelsoTe59725468	Vai teia	06/07/2019, 13:26:54
1147542494294532096	ThiagoBRXx	O personagem descobre que faz parte de um clubinho de assassinos da pesada e compra briga com uma galera poderosa do barulho, e a confusão é garantida na busca por um artefato	06/07/2019, 13:27:05
1147543236795387911	ThiagoBRXx	Esqueceu q são arminhas do Etevaldo do castelo ratimbum kkk	06/07/2019, 13:30:02
1147543514802266113	FerresMurilo	R6 certeza	06/07/2019, 13:31:08
1147543977702428672	HokiVictorio	Zumbi , uma menina e um homem tentam achar a cura , dublado em pt br , exclusivo do lado azul	06/07/2019, 13:32:59
1147544637353185280	THERONINHA	é considerado um dos melhores bugs de rpg das ultimas gerações.	06/07/2019, 13:35:36
1147544698178985984	StormJRGF	As armas são tiradas de outros jogos da mesma empresa também.	06/07/2019, 13:35:51
1147545770842841088	lzh28	Tema velho de 1914 a 1918, todo mundo só joga um modo	06/07/2019, 13:40:06
1147547029868109827	LucaLangendonck	Com bug eu vim com bug morrerei	06/07/2019, 13:45:06
1147547049673580549	Nemesiano_	Um mundo fudido onde sucata é ouro	06/07/2019, 13:45:11
1147547103213826049	matheus787tetel	Cheio de bugs e nada realístico, antes jogar de Alemanha era top, agora só tem Noob.	06/07/2019, 13:45:24
1147548244685348865	sevenmarcos	É aquele de espadinha que tem um cara de cabelo branco... que da super pulo e senta nas cedeiras... como se chama???...	06/07/2019, 13:49:56
1147548569332850689	sevenmarcos	*cadeiras	06/07/2019, 13:51:14
1147548671183085569	_fut0	80% dos jogos de tiro hoje em dia	06/07/2019, 13:51:38
1147550451056939016	JovemEoq	Fps:os cara fica de lado e atira tem que desarma a bomba enquanto vc fica de lado com personagem gordo e magro e com especialidade apelativa Historia: um deus que mata deuses q tem um garoto q é um deus tbm e que eles querem jogar a mãe e de cima do penhasco alto	06/07/2019, 13:58:42
1147553699012759552	2013FelipeJS	É 5x5, a cada atualização melhora 1 bug e traz +3, os que jogam bem caem no time adversário, e os que caem no meu esquecem de ligar o monitor ou não baixaram o mini-mapa, te xingam se você carrega e mais ainda se você feeda, funciona de oração, tem que rezar p/ conectar. Ta facil	06/07/2019, 14:11:37
1147554893063999488	BortolattoLucas	Balas que exalam raio X e mostram os órgãos.	06/07/2019, 14:16:21
1147554989931413504	NerdStardust	TODO MUNDO AMA A LÂMPADA	06/07/2019, 14:16:44
1147555406899818496	kobaneehh	vc acabou de sair do bar arrumou briga com uns cara e decidiu q iam sair na briga soq com corrida	06/07/2019, 14:18:24
1147555708256292864	LuizLyrioo	lkkkkkkkkkkk ficou fácil demais pprt	06/07/2019, 14:19:36
1147556155444596736	LDBretas	Embaitolados... É assim que o sonysta disse..	06/07/2019, 14:21:22
1147556453819060224	Wafflekkj	O nome tem robôs, mas vc luta contra aliens	06/07/2019, 14:22:33
1147557028585463811	ExploradorDa	Baseado em um filme muito famoso	06/07/2019, 14:24:50
1147557045199155202	deoclidesRD	voltei no tempo e fudi tudo	06/07/2019, 14:24:54
1147558574337470467	LordMigueludo12	Um jogo sobre um chupador de sangue que não é um vampiro e tem um parceiro que é um passarinho	06/07/2019, 14:30:59
1147559759337394177	gaby_nepu	Cartinha pode machucar pessoas	06/07/2019, 14:35:41
1147560306513719296	edilson_thomas	Um gado de chapéu verde e pontudo derrota um demônio e salva a princesa.	06/07/2019, 14:37:52
1147561374320664576	bloadd1	Você é um inseto,todo mundo é um inseto,vc tem que matar um inseto parecido com vc soque maior	06/07/2019, 14:42:06
1147561434613764102	gfbottene	clica nos círculo na batida da musica	06/07/2019, 14:42:21
1147561923975766016	ImQuore	Como é possível você num carro vencer uma corrida contra a POR*A DE UM JATO!?!?	06/07/2019, 14:44:18
1147561953767972869	MSimentoni	Eu tmb @RazerBrazil	06/07/2019, 14:44:25
1147563630445158400	AdolfNigg	Pra que comer frutas após destruir caixas interrogativas que não se sabe se é manga ou maçã nas suas sagas, se elas só te dá vida e nenhum poder ?	06/07/2019, 14:51:04
1147565878499848194	isabelhuee	Um cara que se arrasta no chão, come cobras e precisa matar um robô gigante	06/07/2019, 15:00:00
1147567303883669504	StephanSG212	Caralho man, nunca vi alguém descrever tão bem o wowzinho kkkkkk	06/07/2019, 15:05:40
1147567373228158976	SixYamato	Bolos, Robôs fdp e Tinta comestível pula-pula	06/07/2019, 15:05:57
1147567503335403521	jvbuzato	Jogo que tilta todo mundo e quanto mais você joga, mais vc fica tiltado e se torna uma pessoa tiltada	06/07/2019, 15:06:28
1147567577352364037	FalseFlear	é um rpg onde subir de nivel é proibido pela comunidade cancerígena do jogo.	06/07/2019, 15:06:45
1147569661975961601	reylindo21	é um jogo que precisa de uma maquina para funcionar alguns usa uma caixa de ferro cheia de luzinhas outros uma caixa de plastico com um P e um S e o terceiro tipo é uma caixa com um X, no jogo rola tiro e as vezes historia	06/07/2019, 15:15:02
1147570392019668993	BIGbana87946872	Jogo de gado pra mobile 	06/07/2019, 15:17:56
1147571463756689413	Gloomdwieller	Rainha de galo	06/07/2019, 15:22:12
1147572348247334913	GelatinaSemSabo	jogo de inseto	06/07/2019, 15:25:43
1147572731812220928	caiouk1	Pqp man, já é o 2 hs q esse cara me tanka essa partida, foda viu	06/07/2019, 15:27:14
1147574265165860867	PauloDiego22	Qro ser fotógrafa, tenho uns poderes muito doidos e não dou moral pro carinha que tá afim de mim.	06/07/2019, 15:33:20
1147574511249842177	_AlbertW3sk3r	Deve ser “Ralo”	06/07/2019, 15:34:19
1147575287451922433	oSimpletask	Nem é tão ruim, vai	06/07/2019, 15:37:24
1147576287302692864	camposdavidkkk	Um jogo todo bugado de um protagonista que vive gritando igual um maluco. Se bem que todo jogo da Bethesda é todo bugado. 	06/07/2019, 15:41:22
1147578860952838144	Wiir2005	Anão que vai pegar estrela no castelo pra salvar a mina lá	06/07/2019, 15:51:36
1147579838380871681	MoralJez	Aqui você passa raiva com peruano e com caras tóxicos kkkkkk.	06/07/2019, 15:55:29
1147580667418599424	Notless408	No futuro, após os humanos entrarem em guerra com robôs, um macaco cientista da lua convoca seu antigo grupo de amigos poderosos pra salvar a Terra de um Thanos africano que tem uma organização do mal. No meio tempo, a gente empurra uns carrinhos e brinca de pegue a bandeira.	06/07/2019, 15:58:46
1147581475447087111	Jayr9b96	É um jogo com uns burucutus da década de 80 que tem uma arma tosca com uma motoserra grudada.	06/07/2019, 16:01:59
1147582118010208257	pinto_zequinha	50 nego numa ilha,com armas e mantimentos,ganha o que ficar por último	06/07/2019, 16:04:32
1147582368624066560	bartmrb	Tipo assim um monte deles	06/07/2019, 16:05:32
1147587138415992832	sebogro	Kkkkkkkk undertale, jogo com gráfico lixo apesar de ter mérito em alguma coisa	06/07/2019, 16:24:29
1147588428487438336	lobiankk	Bomba nuclear, anos 50, muito azul e amarelo	06/07/2019, 16:29:37
1147588729646854149	cheetylerish	Uma bola de agua no espaço infectada com câncer e vc tem que curar	06/07/2019, 16:30:48
1147589846514446337	zeninguem27	Paguei uma fortuna e depois ele lançou uma versão lite de graça :(	06/07/2019, 16:35:15
1147593084152291328	baba_babyy	Uma rosa vermelha e outra azul e teu pai eh um psicopata	06/07/2019, 16:48:07
1147595329233141761	docinhodobatman	Vc entra careca no cabelereiro e sai com um black power	06/07/2019, 16:57:02
1147596894882975744	wiukii	Jogos online	06/07/2019, 17:03:15
1147602459025715200	M4Ximizando	Gears of war sim mas o tribal se chama Tai Kaliso. Ele inspirou a criação da Lancer.	06/07/2019, 17:25:22
1147606201938718721	atila_rufo	Um cara careca mata tudo o que vê	06/07/2019, 17:40:14
1147609994608762880	8ito2005	Morte sangrenta 1x1 Melhor musica TururururururuPowpowpowpowppwppw *cara grita nome do jogo* taramramramram	06/07/2019, 17:55:18
1147610137395417088	PressPrexx	A mãe de um menino e o irmão dele morrem respectivamente, e no final a ilha aonde habitam é destruido	06/07/2019, 17:55:52
1147612544665817088	MayLostCarrots	O vô do moço(a) morre e te da a fazenda dele C é um elfo e vc tem fadinhas brilhantes que te rodeiam	06/07/2019, 18:05:26
1147612602975039488	Amarelliinha	Jogo do demônio, viciante, Farm do capeta, mercenário pra caramba, cada DLC custa um rim. Pronto	06/07/2019, 18:05:40
1147613604130238465	KingZeity	Uma cobra pelada vai atraz de outra COBRA, um Felino, um Super Choque Masoquista, e O Poderoso Chefão	06/07/2019, 18:09:39
1147617250922369024	JordanBrincante	Aquela la que as pessoas conversam com óculos	06/07/2019, 18:24:08
1147621521332084737	Theyarehere6	Tu controla um país e tenta ficar foda suficiente pra virar uma potência	06/07/2019, 18:41:07
1147623057470701568	_ClaraAmaro_	Tinha uns bug maneiro, dava pra atavesar portões, milhos voavam, uns hack maneiro, uns zumbis bobão, umas conatruções muito louca, uns farm louco, umas armas bugadas, uns player folgados, umas skin que valia uma grana e que faliu!! #bestgameforever Duvido alguém saber!!!	06/07/2019, 18:47:13
1147623464427249664	_ClaraAmaro_	Bem cara do wow mesmo, principalmente as quests iniciais	06/07/2019, 18:48:50
1147626275944534016	RazerBrazil	Música como você nunca viu—agora, seus equipamentos Razer Chroma dançam conforme a música para uma experiência completamente imersiva graças ao efeito Audiômetro.	06/07/2019, 19:00:00
1147626847036989441	teodoro_aragao	Excelente equipamento e excelente loja	06/07/2019, 19:02:16
1147627595393097729	scheffervini	foda se	06/07/2019, 19:05:15
1147627742327971841	alter_SJW	Empresa EXCELENTE	06/07/2019, 19:05:50
1147631095141273600	_pabloponciano	MORREU	06/07/2019, 19:19:09
1147631610092761088	sakurauchi92	descansa em fogueira, bate em bicho, morre e reaparece na fogueira	06/07/2019, 19:21:12
1147631751252107264	BobStalonecuzao	Excelentes produtos. Amo essa empresa.	06/07/2019, 19:21:46
1147632858028290054	_wolfe_wilde_	Tu mata geral e tem quem lutar contra um esqueleto enquanto toca uma música foda	06/07/2019, 19:26:09
1147633220978130945	pessoa_retarda	Estudantes de colegio sendo obrigados a matar uns aos outros por um urso robótico	06/07/2019, 19:27:36
1147633369569779713	bellvaldezz	q treta toda é essa? concordo com vc Felipe, mas de onde saiu isso?	06/07/2019, 19:28:11
1147634390207537153	sktT1Cafetaao	@RazerBrazil Patrocina eu meu cs go roda a 40 fps ajuda nois	06/07/2019, 19:32:15
1147635631339819008	aikinhaplots	o menino perdeu a cara dps vai morar num apartamento assombrado pra acabar matando todo mundo e o melhor amigo dele é o gasparzinho	06/07/2019, 19:37:11
1147636519257235456	salekson	Tudo e todos querem me matar	06/07/2019, 19:40:42
1147639746958626818	fatalmb14	Zumbis que não são zumbis	06/07/2019, 19:53:32
1147640918293602310	LucasCruzplay	lagoa azul.. esse filme é exclusivo mesmo	06/07/2019, 19:58:11
1147641778411057153	sorgekin	Asserto	06/07/2019, 20:01:36
1147644315520385024	Nathanrocha130	Físico nuclear com um pé de cabra	06/07/2019, 20:11:41
1147644425130168326	zRuanGomes	Ainda To aguardando aqui	06/07/2019, 20:12:07
1147645691394764800	Mikayuuk1	Um jogo com personagens bem punk emo, com uma história envolvente que acontece coisas com deuses e espada kkk : Final fantasy 15	06/07/2019, 20:17:09
1147646592008294400	nemmeviuaqui	Fogo nos sexistas	06/07/2019, 20:20:44
1147650086312251392	Jonl3l	Persona mais especificamente o 5	06/07/2019, 20:34:37
1147651352639791104	_shzwi	Um cara loiro que ta numa casa com gente louca e tem que matar uns bicho que parece pulmão de fumante e resgatar a moça que foi sequestrada por uma velha fudida e louca	06/07/2019, 20:39:39
1147654016383557632	AristonFrancel1	Passador de carpeado	06/07/2019, 20:50:14
1147655816905969664	Jotapepromotor	um mlk com boné amarelo tem que escolher fazer rinha de uns bichos com poderes estranhos, pra isso ele precisa escolher entre um rato com fogo no cu, um bebe jacaré com retardo mental e uma bagaça que tem uma folha grande na cabeça.	06/07/2019, 20:57:23
