id	username	text	datetime
1145119986144489473	hwlfking	uma who que acha que a mina que disse que homens são lixo tava errada, que a razer tava certa em demitir ela, reproduz machismo e acha que existe racismo reverso	29/06/2019, 21:00:54
1145120416035475463	sorrisomariliar	Engraçado q a Gabi perdeu da razer e ela foi a primeira a meter o pau, nem uma semana depois ela perde pq mereceu. A volta q o mundo da é incrível.	29/06/2019, 21:02:37
1145121047353745414	dwntespfc	engraçado vc tirou o contexto do caso da Gabi e da Razer Pq n postou que ela tweetou aquilo pq estava sendo assediada? 	29/06/2019, 21:05:07
1145121114953310208	dwntespfc	engraçado vc tirou o contexto do caso da Gabi e da Razer Pq n postou que ela tweetou aquilo pq estava sendo assediada? covarde	29/06/2019, 21:05:23
1145121837061423105	refuse_resist	sim, a mina que fez a maior campanha pra fuder a outra mina do negócio da razer la	29/06/2019, 21:08:15
1145121993588654081	grovatsz	Aí vai de cada um , mas mesmo assim não foi certa essa atitude. Como eu disse , a razer não é uma ong ou um partido socialista p ficar protegendo isso , é uma empresa como outra qualquer que quer buscar lucro , logo irá demitir quem xingou seus clientes	29/06/2019, 21:08:53
1145123033864187904	ironangelu	Tenho o primeiro razer phone e esquenta pra crlh, mas é muito bom	29/06/2019, 21:13:01
1145123740554018816	ancap_hub	Vendo a recente publicação da ayu com 1000 curtidas sobre um mouse da razer e lendo sobre a oportunidade recente que ela perdeu, eu só consigo pensar o seguinte, pode ser coisa da minha cabeça, mas esse casamento não vinha muito bem? Vou lançar aqui, #ayunarazer	29/06/2019, 21:15:49
1145124828657197058	AgnoiaAiwass	Isso seria polêmico demais, a Razer provavelmente teria problemas com isso	29/06/2019, 21:20:09
1145124929194659841	MatheusViolino	Essa mina tava falando mal da mina da Razer, Essa aí fala que feminismo não presta e que branco sofre racismo entre outras coisas idiotas	29/06/2019, 21:20:33
1145125486886100993	xxwhss	"""OLHA SÓ A FEMEA RAZER, OLHA SÓ A FEMEA GENERALIZANDO OS MACHO"" kdpoaskdoak poxa, n fala assim...insulto cm os lixos recicláveis "	29/06/2019, 21:22:46
1145125799907004416	refuse_resist	"""ruiva de direita"" ela q levantou a galera pra perseguir a mina gamer do outro dia lá e fazer a Razer cancelar o contrato com ela"	29/06/2019, 21:24:00
1145126802425339904	Dgisaway	Teve atenção ate hoje? A maior parte das pessoas esquecerem em pouco tempo. O caso da Gabi desencadeou em varias outras discussões que estão até agora, e o pessoal forçou a Razer a falar algo, já o pessoal do muca não continuou até hoje tentando derrubar ele.	29/06/2019, 21:27:59
1145127205711822848	terrordoteuex	"perdesse o patrocínio da razer, e todo mundo ficou putasso, então começaram a """"""""""atacar"""""""" a ayu e então fizeram ela perder patrocínio também. ou seja puro karma"	29/06/2019, 21:29:35
1145127340730703881	isacomentei	pior que razer é ruim mesmo, meu teclado blackwindow foi pro saco junto com meu mouse 	29/06/2019, 21:30:08
1145127584449073152	terrordoteuex	aqui o link da carta que a razer fez pro público informando que a parceria com a Gabi acabou 	29/06/2019, 21:31:06
1145127843078320128	patonalaranja	Sem falar q achou justo a Razer cancelar contrato com a Gabi mesmo ela tendo sido ameaçada. Como dizia minha finada vizinha, a boca fala, o cu paga.	29/06/2019, 21:32:07
1145128242422132736	piogrim	ah o problema seria se usasse coisa da razer so jogar um the sims ta show	29/06/2019, 21:33:43
1145128426841477121	AwsOie	Cara, o Lucas (o jogador) ele é muito legal véi e Faz DOIS ANOS que teve aquele twitter, e além que foi uma piada aquilo. Essas pessoas que tão cobrando a Razer só são um bando de retardado que querem vingança sobre o caso da Gabi Eu pessoalmente desisti do twitter	29/06/2019, 21:34:27
1145129035326021634	Spheraes	entao pow, ela que falou merda msm, a da razer tava certissima	29/06/2019, 21:36:52
1145129304000516097	GabyTambellini	relaxa amiga, na razer vao te aceitar	29/06/2019, 21:37:56
1145129377266589696	zerenity	 e você podia fazer estágio na razer né	29/06/2019, 21:38:13
1145129499065032704	grovatsz	Pena é o que a sua família deve sentir de você , esses vídeos desses mongolóides cantando só mostra o quão criança vc é . Aonde que eu estou defendendo machista ? Só falei que a razer não tem nada haver com isso ( o que é verdade) e vc tá se doendo aí	29/06/2019, 21:38:42
1145130258951213056	Id0ntkY	Quer apoiar ela? Você vai mudar de ideia, mano a razer quer dinheiro não ficar defendendo feminazi 	29/06/2019, 21:41:43
1145130329570709505	vichd1	To be fair ela pessoalmente mandou tweet pra razer pedindo q a outra mulher lá perdesse o patrocínio. Não torna a prática certa, mas ela tá reclamando de algo q ela acabou de fazer	29/06/2019, 21:42:00
1145130895118151680	Piltover_Fist	Foi só por causa dela sim po, o povo floodando a razer não teve NADA a ver com isso	29/06/2019, 21:44:15
1145131033240752129	marigar_034	Sim, e na treta da Razer com a Gabi ela super se posicionou a favor dos incel retardado e fez piada com ela ter perdido o contrato	29/06/2019, 21:44:48
1145131451123404802	O97VIBES	Razer com R de Ridículo mesmo. 	29/06/2019, 21:46:28
1145131704895643648	Zerolisio	É isso que estou tentando descobrir, deve ter alguma coisa com ela apoiado a Razer naquela bagunça com a @gabicattuzzo	29/06/2019, 21:47:28
1145131719747624961	analuizakim	essa parada da Razer eu vi, espero que agora ela tome tipo e vire gente	29/06/2019, 21:47:32
1145132525385334785	Zion24374688	A @RazerBrazil sou grato pelo oque a razer fez pela gabi catuzzo mas também deveria punir esse cara	29/06/2019, 21:50:44
1145132785205686274	njsejska	Coitada nada. Ela fez exatamente a mesma coisa com a menina q perdeu o contrato c a razer. Além de q não importa em q contexto estava, ela estava sendo racista sim. Ela só fala bosta	29/06/2019, 21:51:46
1145133173954793472	MajorVYCanis	Já até imagino a pauta... incels, razer, gamer... kkkk	29/06/2019, 21:53:18
1145133839473434625	kirito_ggbs	Ela viu que ngm gostou de tirar a Gabi e começaram a contratar essas pessoas. Deixando a brincadeira de lado, você ao menos viu essa história antes de falar bosta? (Spoiler) n foi a razer que contratou	29/06/2019, 21:55:57
1145133919211311109	LucianeLazzarin	Eu Avisei: AYU Perde o Contrato de Sua VIDA pelo Caso RAZER - Uma Lição ... https://youtu.be/iL-PYqOhesg via @YouTube	29/06/2019, 21:56:16
1145134226809020416	the_eduardo	É uma das responsáveis pelo ataque contra a menina que perdeu o contrato com a Razer	29/06/2019, 21:57:29
1145134445135093762	SistemaDovisen	Ayu se dispôs a ir informar a Razer sobre o comportamento de Gabi Cattuzzo, fazendo ela perder o contrato com a Razer. Agora, é a própria Ayu que tem um contrato cancelado por algo que ela falou. Karma é real	29/06/2019, 21:58:21
1145134807548121088	NutellaSad	A razer não tem que se posicionar a favor de ninguém msm não, mas a Gabi não é a única com o patrocínio deles que falou umas besteira do tipo, a diferença foi a repercussão do caso A mesma que teve origem no tweet da ayu Karma is a bitch	29/06/2019, 21:59:48
1145135050041769987	leobragag	essa n foi a mina que crucificou a Gabi naquele lance da razer? no dos outro é sempre refresco né 	29/06/2019, 22:00:46
1145135918409551872	wake_me121	Mas o contexto deixaria o que você disse mais aceitavel? O contexto é que você defendendo sua opinião sobre racismo, mas nenhuma marca quer ter a sua opinião atrelada com elas, é basicamente isso. Da mesma forma que a Razer não queria a opinião da Gabi atrelada com ela ;)	29/06/2019, 22:04:13
1145136225268973569	reblgrrrl	amiga você viu que aquela gamer que foi expulsa da razer por chamar homem de lixo é gordofobica? — Não. https://curiouscat.me/reblgrrrl/post/915539413?t=1561856726	29/06/2019, 22:05:26
1145136667948457986	Arthemmes	Mas apoiar o razer por ter tirado o contrado da mina é ok né 	29/06/2019, 22:07:11
1145137583598575616	Coala_Molhado8	Marca genérica de Teclado: Este teclado tem 0.00001 por 100 reais Gamers: Nhe, não confio Razer: *lança Teclado com Luz de led preto a 1000 reais* Gamers: 	29/06/2019, 22:10:50
1145137739018514433	Doctor_vines	Macho escrito lixo razer	29/06/2019, 22:11:27
1145138304754638848	Juarezelone	A do caso da razer q ajudou a xingar a outra q reclamou do nerd q fez piada sexual fazendo ela perder patrocinio (ambas sao streamming gamers)	29/06/2019, 22:13:42
1145138333565239296	raydest	merda por ser razer mas..... quem me conhece sabe deu vontade 	29/06/2019, 22:13:49
1145138607923109889	dunkshat	tenho pena nao gays, ela fico toda feliz quando aquela outra menina perdeu contrato da razer	29/06/2019, 22:14:54
1145140084628434945	CasaDelFritz	Menina Yazidi sendo vendida como escrava sexual em um leilão para o Estado Islâmico. Mas lembre-se, oprimida é a streamer que perdeu contrato com a Razer por dizer que todos os homens são merda. 	29/06/2019, 22:20:46
1145140242783096832	Tweets_Do_Alan	mas vc que tá indo nas postagens da razer encher o saco parecendo uma criança que não aceita as decisões	29/06/2019, 22:21:24
1145140304867147776	S2caldodecana	"""RAZER DEFENDE EU "" Parece que sou reciclável "	29/06/2019, 22:21:39
1145140336202854400	duderavenclaw	poxa n foi ela que falou q a razer tava certa de se afastar da Gabi sem nem se pronunciar sobre todo o assédio sofrido? Forças	29/06/2019, 22:21:46
1145140822003900416	EuGabinho	ele ta descrevendo a treta da razer com a gabi ou a treta do fogaça? 	29/06/2019, 22:23:42
1145141312762630144	KellyCassiane2	@RazerBrazil ficou sem teclado que brilha? É só com mulher mesmo?	29/06/2019, 22:25:39
1145141735280062464	KellyCassiane2	@RazerBrazil E aí razer?	29/06/2019, 22:27:20
1145142354992648193	Sayajimus	Pede patrocínio p razer kkkkkkkkkkkkkkkkkkkkkk 	29/06/2019, 22:29:47
1145143614835744768	joestarfoda	os cara mamando a razer agorakkkkkkkk vtnc veio	29/06/2019, 22:34:48
1145143778354896898	luizainotti	APRENDE A FAZER MOUSEPAD RAZER 	29/06/2019, 22:35:27
1145143796453302272	LucianeLazzarin	EMBAIXADORA DA RAZER L4CR0U E SE DEU MAL https://youtu.be/rHjABK5vTSo via @YouTube	29/06/2019, 22:35:31
1145143802572738560	vichd1	A situação da Razer já foi discutida o suficiente aqui então n vou entrar no tópico. Não vi o vídeo em questão da Ayu então vou levar sua palavra de que foi fora de contexto como verdade. Mandar coisa pra empresa pra tirar emprego de alguém por algo falado é bem infantil sempre	29/06/2019, 22:35:32
1145144343889686528	Nixhogg	Eu curti assistir, ela se contrariou legal dizendo que é contra marcarem marcas, mas que acha justo marcarem e Razer kkkkk	29/06/2019, 22:37:41
1145144346666328064	FelipeLourenssu	Ultimamente tá impossível com essas treta da razer aí, mas só espera a poeira abaixar um pouco pra galera parar de se emocionar e defender argumento retardado na internet	29/06/2019, 22:37:42
1145144463532154880	bellshinigami	foi uma piada de mal gosto? sim foi . mas isso nao tem nada a ver com o caso da gabi, primeiro que oque ela fez , foi um discurso de odio segundo que ele nao era patrocinado pela razer nessa época.	29/06/2019, 22:38:10
1145144533472239623	Gustapool	Spoiler #FyterFest: Jon Moxley vai finalizar Joey Janela enfiando um teclado da Razer no cu dele e mostrando pra toda comunidade gamer a sua revolta e descontentamento com a marca	29/06/2019, 22:38:27
1145146575817269248	andradedanie_	putss ela quis ferrar aquela menina da razer olha ai its k a r m a	29/06/2019, 22:46:34
1145146731107180545	F0QU1S	"Kkkkkkk só vi isso agora,beleza ""mimimi clip de 1 ano atrás agora ela é uma pessoa diferente mimimi"" aí pro cara la que entro no time que a razer patrocina vão e pega clip de 2 anos atrás, e usam pra atacar,sendo que era só uma piada tá certo"	29/06/2019, 22:47:11
1145147370746916869	wake_me121	E sendo bem sincero o contexto do vídeo da Ayu não importa (na visão da empresa). A empresa não queria de que a opinião da Ayu, que é o que ela aborda no vídeo, fosse entrelaçada a marca, como ocorreu com a Gabi. Pra Razer não importava se a Gabi mudou ou não...	29/06/2019, 22:49:43
1145147817008254978	F0QU1S	"Razer tá mais que certa,se um homem vem e fala ""todas mulheres são um lixo"" vishhhhhhh aí não vai ter ninguém passando o pano,vão chover de lacradores,caindo matando em cima do cara e foda a hipocrisia dessas praga"	29/06/2019, 22:51:30
1145148183707889666	MestreCammy	"Acho, ta teclando a mesma tecla de ""ela foi assediada e por isso estourou"" sendo que o que está em questão é a toxidade para com o público dela que provavelmente consumia produtos da razer, como eu disse sou contra o assédio, se fosse apenas esse caso eu seria contra a razer +"	29/06/2019, 22:52:57
1145149084979867648	GUARDlAO	"aí que entra o contexto fox, ela falou isso pois ela estava sendo ""assediada"" por causa de comentários sexualizados nas fotos dela, óbvio que o xingamento ocorreu em um momento breve de raiva e de desestabilização emocional, por isso que eu acho que a razer deveria&gt;"	29/06/2019, 22:56:32
1145149576850132992	GUARDlAO	"deveria ter analisado mais o contexto, e ter dado mais uma chance pra gabi. mas a razer tomou a decisão certa pra continuar vendendo, porque nerd rabugento ""machista"" é parte de 80% dos compradores da razer, então é melhor perder uma minoria de compradores do que a maioria"	29/06/2019, 22:58:29
1145153076229283840	F0QU1S	"Não deveria ter analisado nada,não interessa se foi um ""breve momento de raiva""se for assim vo fazer um massacre na escola e dps falar que foi o ""calor do momento"" a tá mais que certo isso empresa tem que se afastar de tretas quem saiu fodido no final foi a Razer que merda em"	29/06/2019, 23:12:23
1145153557055844353	NanaSachi24	Vocês estão a festejar a perda de 1 projeto baseado numa mentira e em vídeos tirados do contexto p/ denegrir a imagem da Ayu? E estão a celebrar, fazer a moça que ofende o público alvo da Razer e tds os homens, incluindo o próprio pai e amigos homens, como vítima? É sério isso?	29/06/2019, 23:14:18
1145155323071782913	IsaYamsh	A Ayu não foi nem 1% da culpa da Gabi ter perdido o patrocínio Razer não ia escutar apenas uma pessoa, foram várias pessoas mostrando o que ela fazia (até as atitudes tóxicas em lives) para o contrato ser rompido	29/06/2019, 23:21:19
1145155894751059968	JuniorEnzuhNews	Eu Avisei: AYU Também Perde CONTRATO (o de sua VIDA) Após GABI Perder o Dela da RAZER http://dlvr.it/R7Wz4V	29/06/2019, 23:23:35
1145157610007617539	Raphel	pain perdeu de novo? bom, pelo menos eles vão poder continuar usando Razer marca de gamer macho com masculidade frágil lá no circuitão né. 	29/06/2019, 23:30:24
1145160021715628040	Lucas52250563	Brother a única responsável pela demissão da Gabi foi ela própria!! Ela sabia que isso podia acontecer e mesmo assim foi lá e xingou 95% do público da Razer que são homens!!!	29/06/2019, 23:39:59
1145162963642408965	wake_me121	Quem errou mais ou menos, não importa pra empresa. A Gabi tá mais errada por ter incitado ódio, a Ayu está errada em sua opinião (ao meu ver), mas pra marca não importa. A Razer e a marca que a Ayu está falando decidiram que era melhor acabar coma parceria.	29/06/2019, 23:51:41
1145163009427480577	baileyhug	mesmo caso da razer entao né? o karma	29/06/2019, 23:51:52
1145163641764962304	popotamasu	Ela comemorou o fato da Razer não renovar com a Gabi. Com ela foi pior, foi CANCELADO O CONTRATO KKKKKKKKKKKK A CHACOTA MEU PAI	29/06/2019, 23:54:22
1145164150311723008	victord_arte	Se você riu quando a garota da Razer teve o contrato quebrado e agora tá comprando briga dessa garota, saiba que você é um cuzão 	29/06/2019, 23:56:24
1145164406894006272	916mob	Os cara pensa que a Razer é troxa de manter parceria com uma mina envolvida em varias merdas... A Gabi pode ter se defendido uma vez, mas também já falou muita merda, já jogou muita bosta no ventilador.	29/06/2019, 23:57:25
1145168323203739649	JefinhoMenes	Não tá na hora da página apoiar causas sociais como a da Razer? — Hahaah curiosidade: a gente parou de apoiar causas depois de ajudarmos uma médica em uma operação e duas semanas depois ela ter ido passar férias na Europa com o ma… 	30/06/2019, 00:12:59
1145168896489676800	GoogieHyuka	ela falava os xingamentos xulos dela mas nada com conotação sexual só sendo escrota msm e por isso ela continuou não gostando dessa das brincadeiras sexuais então se ela não gostou não gostou não ia morrer não pq a louca da Ayu continuou mantendo o gogo acesso e cobrando a Razer	30/06/2019, 00:15:15
1145169741314691072	GoogieHyuka	"todo comentário dentro e fora das postagens da razer era só reclamações sobre ""homem lixo"" e usando os msm argumentos ridiculos como os seus "" ai pq não pode chamar mulher de lixo"", ""ai se fosse ao contrário"" e brabrabra eram poucss que realmente qu mandavam outros motivos"	30/06/2019, 00:18:37
1145171778324615168	MiaPricm	"Plmdd o cara fez publicações, ela tbm. Ela foi penalizada na hora, ele ganhou patrocínio sem a razer nem dar uma olhada no histórico dele? Ah vá, a empresa simplesmente passou pano pras merda que ele falou e disse ""toma aqui esse dinheiro"""	30/06/2019, 00:26:42
1145172882009526273	IsaYamsh	A gente ta dando ideia pra Razer arrancar mais rim nosso	30/06/2019, 00:31:06
1145173292158001152	biaxftt	eu super concordo com ela tem que xingar macho mesmo mas se a razer é contra isto então que seja com todos e não apenas com uma	30/06/2019, 00:32:43
1145173418045820928	lutzamaral	A Gabi vai conseguir o contrato com a Razer de volta mesmo... ah, não. Pera.	30/06/2019, 00:33:13
1145173706576187393	biaxftt	eu li razer brasil ali 	30/06/2019, 00:34:22
1145173971417149440	biaxftt	eu amo brigar com os gamer machistas da razer faz meu dia 	30/06/2019, 00:35:25
1145173976706113537	byAguena	Não é nem por serem boazinhas, ficou bem feio pra Razer fazer um negócio desse por causa de meia duzia de gamer barulhento.	30/06/2019, 00:35:27
1145173990765408257	lutzamaral	Gabi ainda não renovou o contrato com a razer: grande dia 	30/06/2019, 00:35:30
1145174787981021184	GuhhMaia34	Eu não concordo com tudo, não concordo por exemplo que ela tenha ido atrás da Razer por causa das merdas que ela falou.	30/06/2019, 00:38:40
1145175661440638978	Jhob33976891	"Mas me diz onde q tem um vídeo dele desde q entrou na razer falando mal da mãe de alguém e chamando ela de ""puta de quinta categoria"" kkkkkkk"	30/06/2019, 00:42:08
1145175865929674753	MatDCardoso	Mesma coisa ? Uma deu sua opinião e não desrespeitou ninguém, apenas cobrou o posicionamento da Razer já que a mesma dizia ser Embaixadora da Marca e se a mesma concordava com o pensamento de sua suposta embaixadora, a outra chamou todos homens de lixo e depois ainda reafirmou.	30/06/2019, 00:42:57
1145176052072943616	FernandesSolha	"""Qualidade boa"". Bom... vc deve tá falando de outra marca pq a Razer é conhecida por ter produtos beeeem frágeis e os fones com uma qualidade sonora duvidosa. Não sei hoje em dia, talvez isso tenha mudado (oq eu duvido um pouco)."	30/06/2019, 00:43:41
1145177290613166080	m_carpenedo	"Ayu perdeu o patrocínio por uma fala tirada de contexto, mais ou menos o que ela ajudou a fazer com a Gabi (Razer). A menina soltou ""homens são lixo"" retrucando um comentário escroto, um erro cometido de cabeça quente, contexto que a Ayu parece não ter ligado."	30/06/2019, 00:48:37
1145178281911771137	ornitopia	Caralho, esse caso da Gabi e da Razer fez o lado tóxico dos gamers aflorarem epicamente, da até vergonha de ver uns canais do YouTube querendo pagar de isentão, mas só despejando veneno na internet pros gado bater palmas, taqueopariu viu 	30/06/2019, 00:52:33
1145179047963582464	m_carpenedo	"Ayu perdeu o patrocínio por uma fala tirada de contexto, mais ou menos o que ela ajudou a fazer com a Gabi (Razer). A menina soltou ""homens são lixo"" retrucando um comentário escroto, um erro cometido de cabeça quente, contexto que a Ayu parece não ter ligado."	30/06/2019, 00:55:36
1145179952310104064	Franco_Ikari	Agora a frase irá mudar. A Gabi tá fora da Razer,Moro segue sendo Ministro,Bolsonaro presidente,Greenwald no mundo do Pinóquio e Lula na cadeia babaca!	30/06/2019, 00:59:11
1145180312525312000	san_megumin	Anão man kkkkkkk porra sério que ela tá chamando a @RazerBrazil de Hipócrita por causa que o Cara fez uma piada em 2017 e ainda pediu desculpa no mesmo ano sendo que ele não tinha envolvimento com o time nem com a Razer,WTF	30/06/2019, 01:00:37
1145181289873661952	Jhob33976891	Opa cidadão, pelo visto o senhor n conseguiu discenir piada de humor negro e discurso de ódio. Grande dia! (Além do mais em 2017 ele n tinha nada com razer e ainda esse ano o único vinculo dele com ela é pq ela patrocina o time q ele tá)	30/06/2019, 01:04:30
1145182094693470208	Maiiiiicon	RAZER JÁ CONTRATOU NOVO INFLUENCER!! https://youtu.be/rBkwAUaGqV4 via @YouTube	30/06/2019, 01:07:42
1145183786348482560	raleixoo_	vc contribui pra razer cancelar cm a gabi tbm, nn vem pagar de coitada nn	30/06/2019, 01:14:25
1145183993073229824	elisaromera_	gente a menina q falou “homem lixo” teve o contrato com a razer encerrado e ela ta falando q só gente de direita se fode. To falando q essa galera só acredita no que eles querem 	30/06/2019, 01:15:15
1145184322405769216	m_carpenedo	"Não é ""comemorar a desgraça dela por divergências políticas"". É que, recentemente, a Gabi perdeu a parceria com a Razer justamente por ter uma fala retirada de contexto, mas que, naquela situação, a Ayu atacou sem pensar duas vezes. Eu achei a ironia da coisa toda bem engraçada."	30/06/2019, 01:16:33
1145186692661436416	kanbanwaru	Ela fez aquele vídeo la dando pitico porque RACISMO CONTRA BRANCOS e ela q iniciou o negocio contra a gabi da razer la	30/06/2019, 01:25:58
1145187435254550528	Raxyz0	Eu nem sabia que ela foi uma das que incentivou toda aquela treta da Razer, o que também achei extremamente errado e até comentei isso, mas eu vi alguns comentários que foram tão radicais quanto contra a Gabi. Não estava me referindo ao seu comentário especificamente.	30/06/2019, 01:28:55
1145188651615293445	thyagurodrigues	A bonita riu do que a Razer fez, achou bonito, decidiu apoiar a Razer publicamente. Alguns dias depois... HAHAHAHAHAHAHAHAHA eu tô rindo muito disso 	30/06/2019, 01:33:45
1145189281981448192	xplodninja	#DomingoDetremuraSDV (*˘︶˘*) pra vc que é #GAMERGATE #GamersUnite #Gamer #Geek #AzumaNinja #Yoda #Ragnarok #Shippuden De upar level no #PC #Nintendo no #Arcade no #PS4 no #XBoxOne no #AcerPredator no #Razer no #AlienWare Eis que eu descolei para seu smartphone 	30/06/2019, 01:36:16
1145190544072675328	GUARDlAO	mano eu vi esses cara namoral KKKKKKKKKKKKKKKKKKKKKKKKKKKKKKKKKKKKKKKKKKKKKKKKKKKKKKKKKKKKKKKKKKKKKKKKK mas fox, tu não acha que se a razer tivesse ficado do lado da gabi não teria acontecido a mesma coisa só que com os outros tipos de fãs? porque eu acho, acho muito	30/06/2019, 01:41:16
1145190840752648192	GUARDlAO	e é por isso que a razer tomou essa decisão, não é porque eles acham a atitude da Gabi errada, é porque eles iam perder 80% dos compradores deles, estratégia de vendas é o nome	30/06/2019, 01:42:27
1145191126103707648	FUTUR3CULT	baixei o razer só pra assistir penny dreadful com o vini e ele disse que ia me esperar chegar pra gente maratonar junto e ele nem tá online, olha... ele me odeia...	30/06/2019, 01:43:35
1145192399188176907	matheuszanonii1	Essa q perdeu contrato da razer ?	30/06/2019, 01:48:39
1145192612116275200	annichts	E os cara aí com porra de Razer mano olha só isso	30/06/2019, 01:49:30
1145193122600804357	KayoZentiago	Edukof disse que pra se gamer tem que ter razer kdksksksks	30/06/2019, 01:51:31
1145193569684197376	GriloGouveia	razer nadinha a zowie FEZ UM MUNDIAL DE PUBG só pras mina	30/06/2019, 01:53:18
1145193715381788672	FelipeD59564015	Acho que tiraram a Gabi pois o criador da razer é homen	30/06/2019, 01:53:53
1145194079418048512	_heinri	vai lá pro colinho da mamãe razer vai querida	30/06/2019, 01:55:19
1145195534833082368	_dreamr_	Cara, eu só tô sem tempo pra treta na internet, eu n vou mudar a minha opinião e vc n vai mudar a sua, então n vou me desgastar pra vc dar uma desculpinha e eu falar q tá errado e vc responder, eu n me importo tanto assim com a Gabi, ou a razer e mt menos com vc, foda-se	30/06/2019, 02:01:06
1145198401774116865	scury45	n disse que a Gabi tem que se fuder, e eu até acho que a razer exagerou em fazer oq fez.	30/06/2019, 02:12:30
1145198529528422401	zaialuiz	??? vc ta falando da razer mesmo, amigo ? vc já teve alguma produto da razer ? kkkk dura dois anos dentro da caixa, meu mouse nem um ano e meu note a cada 2 meses assistência técnica, quando não tem que mandar pra fora do país...	30/06/2019, 02:13:00
1145201584646868992	tortadepapel	Que bom, amg. Fico absolutamente feliz N foi vc que adorou o q a Razer fez com a Gabi? Se fode aí com o karma kkkkk 	30/06/2019, 02:25:09
1145203131212599296	pominit	daí a razer cancelou o contrato da menina e tá sendo muito criticada e agora essa escrota perdeu o contrato dela tbm kkkk o karma	30/06/2019, 02:31:17
1145205710373961728	worshipoz	ANYWAYS vitoria das pessoas sensatas, alias nao era essa coitada que tava rindo e fazendo video cobrando posicionamento da razer quando o assunto era aquela gabi la? entao amada...nada mais justo 	30/06/2019, 02:41:32
1145206302953615360	GermanooLucas	Tá olhando oque ? RAZER?	30/06/2019, 02:43:54
1145206408574623744	ycarowo	Pede contrato com a Razer ent amore vcs combinam, dois toxicos	30/06/2019, 02:44:19
1145210701025292288	abbyfromhell	Essa mina é youtuber e fez video falando q branco sofre racismo e ate mais racismo q negros, ela tbm fala mal do feminismo e fez uma gamer q falou “homem é lixo” perder o contrato com a Razer pq ela foi preconceituosa com homem rs	30/06/2019, 03:01:22
1145211895709933569	adiostiarli	Ué Razer... Se decide ai minha querida	30/06/2019, 03:06:07
1145214891395035138	SaaaaaaaaaaMur	A @RazerBrazil nada mais nada menos fez do que se protejer... Brother, se tu fosse o dono da razer e qualquer integrante do seu time de streamers estivesse declarando ódio a um movimento, vc iria manter esse integrante no seu time ? vai sujar a imagem da empresa velho, é simples.	30/06/2019, 03:18:01
1145215708990726144	Matheus17062900	Os produtos da razer dói no bolso mas vale cada centavo	30/06/2019, 03:21:16
1145216760267923456	onubrsier	"Outros virão Ayu. Mas olha que interessante: ""Menina Yazidi sendo vendida como escrava sexual em um leilão para o Estado Islâmico. Mas lembre-se, oprimida é a streamer que perdeu contrato com a Razer por dizer que todos os homens são merda."" "	30/06/2019, 03:25:27
1145216844552450048	Matheus17062900	Tá certíssima, a razer digo mesmo é a melhor empresa do ramo, além de realmente pregar o respeito ela tem produtos incríveis, mas também é a melhor empresa pq mostrou que n é pq é mulher que pode sair falando bosta, eu ainda vou ter um setup completo dessa marca maravilhosa.	30/06/2019, 03:25:47
1145219524301602816	mappupi	Aprende razer 	30/06/2019, 03:36:26
1145221361691963392	hinsbins_	"Uma streamer gamer foi assediada (como todos os dias da vida dela) e explodiu e twittou que homem é lixo, daí essa outra aí postou e marcou a razer falando ""aaah é isso que sua marca acredita?"" E saiu um bando de marmanjo chorando reclamando que não ia mais comprar da Razer+"	30/06/2019, 03:43:44
1145221540210008067	hinsbins_	+xingando ela de mil coisas, até ameaçaram de morte, e a razer falou que não vai renovar o contrato dela	30/06/2019, 03:44:27
1145221752143958018	salsatheone	"QUE?! I support Razer over the whole ""men are trash""?! Ok, foda-se, a parada fez barulho internacional e nem assim a Razer conseguiu fazer o correto. "	30/06/2019, 03:45:17
1145224621974798337	Matheus17062900	Como eu compro uma casa quando existe uma razer para eu gastar minhas economias	30/06/2019, 03:56:41
1145225883453706240	Thais08353669	"dexa eu entender sua logica: vc acha certo que tenham tirado um video dela fora de contexto, postado, e acabado com anos de carreira porque ela tinha uma opnião diferente da sua? Ou porque ela ""dedurou"" pra razer q a gabi andava falando que homem era lixo? Tendeu ok,logica 100%"	30/06/2019, 04:01:42
1145226023908384769	WhenMusic_	Vendo os comentarios das publicações da Razer americana eu percebo o quanto o brasileiro é irresponsável. Os gringo tem mouse a 7 anos e os BR usa 3 meses e quebra	30/06/2019, 04:02:16
1145226067050979328	VJV_Bonplan	Enceintes Razer Nommo à 65 euros 	30/06/2019, 04:02:26
1145229932072722432	PlayZuca	Parabéns Razer	30/06/2019, 04:17:47
1145230427864653825	san_megumin	As minas acham mesmo que a Razer liga pro comentários dela são as coisas mais engraçadas kkkkkkk	30/06/2019, 04:19:46
1145231513312776192	llhaterll	Em 1° lugar A @RazerBrazil não tem nada a ver com essa merda toda Em 2° lugar A Razer não e empresa de advocacia pra defender ninguém Eu tenho certeza de que se você tivesse no uma empresa direcionada para vários públicos como a Razer e você não ficaria do lado de ninguém	30/06/2019, 04:24:04
1145233387160068096	llhaterll	Eu tenho certeza que a Gabi não iria pagar os dólares que a Razer iria perder por defender ela e nem você iria Se põe no lugar da administração da empresa em uma hora dessas E ensina as mulheres revolucionárias do seu grupo a serem mais educadas e menos hipócritas.	30/06/2019, 04:31:31
1145235151728906240	PlayZuca	Exemplo de pessoa tóxica e mal educada? Esse é exemplo que Razer deveria está apoiando? Afinal, parece até que vocês estão esquecendo que não é primeira vez que ela se comportar de uma forma babaca	30/06/2019, 04:38:32
1145235906296786945	jhomeok	racismo inverso? apoiando gente escrota sobre o contrato da gabi com razer ser cancelado? apoiar o fato e td mais?	30/06/2019, 04:41:32
1145235909698347009	jvnji4k	cês acham que brilham bosta mesmo igual razer	30/06/2019, 04:41:32
1145237877372215296	Whitakxr	E a questão é que eles tão cobrando a Razer que n tem nada com isso , só patrocina o time q ele joga	30/06/2019, 04:49:22
1145245564713480192	PaulAntoni	#OperaGx ajuda nois setup tá fraquin	30/06/2019, 05:19:54
1145245965051473920	botalinux	Gamer é insuportável demais. Vi por cima uns tweets de uma Youtuber reaça e um Youtuber gamer e puta que pariu como podem falar tanta merda? Ficaram fazendo propaganda pra razer dizendo que eles que respeitam a todos. Vão se foder, na moral.	30/06/2019, 05:21:30
1145249129360179201	SaotomeFabiana	As vezes, porem é mais em tematicas especificas, tipo política e afins. E teve o caso recente da Streamer que era Influencer da Razer, que tinha comportamento tóxico pra caramba, aí ela fez uma declaração misandrica dizendo: Todo Homem é merda. Aí o povo caiu de pau em cima dela	30/06/2019, 05:34:04
1145250869568557056	lusca669	Sobre a decisão da Razer 	30/06/2019, 05:40:59
1145252854669697025	jeversonalvessa	EMBAIXADORA DA RAZER L4CR0U E SE DEU MAL 	30/06/2019, 05:48:52
1145253151487995904	madoz2010	razer trash 	30/06/2019, 05:50:03
1145254964148748289	ed_brr	Segundo, se o contrato da Razer é com o TIME eles não se responsabilizam com os atos de alguém dentro do time, diferente de quando eles patrocinam um INDIVIDUO	30/06/2019, 05:57:15
1145255231346941957	ed_brr	"Se alguém tem que se cobrado por algo que ele falou(em 2017) esse alguém é o TIME então se querem ""justiça"" falem com o TIME DELE, não com a Razer que não tem nada haver com ele"	30/06/2019, 05:58:19
1145260000631304192	ed_brr	caralhoooooooooooooo, acho que até fim do ano a razer vai falir cara, imagina velho, ela ta perdendo todo teu dinheiro puts	30/06/2019, 06:17:16
1145260111860043776	lukdetshit	só comprar razer daqui pra frente	30/06/2019, 06:17:43
1145260656435826688	mop587	Dei uma corrida na timeline dela do Tweeter, e ela tá elogiando periféricos da Razer. Eu acho, SÓ ACHO, que ela quer ser a nova embaixadora da Razer...	30/06/2019, 06:19:53
1145262014316630016	milk_lillyum	É só você ver que depois que a merda que a Razer fez no brasil chega nas cutomers de lá de fora, o tanto de bot spammando de ama razer nas ultimas 24h... Eles não ganham pouco com 20 milhões de mouse vendidos e né... silenciar é fácil quando você é uma empresa massiva	30/06/2019, 06:25:16
1145263180828086272	KnightFPS_	eu sei ste eu não concordo com a atitude da razer, mais tbm não concordo com a toxidade dela	30/06/2019, 06:29:54
1145265121738002432	ed_brr	"a partir de que alguém tem o contrato com uma empresa e coloca no perfil ""embaixadora da razer"" TUDO oque ela fala de bom ou mal vai se refletir na empresa, isso é fato, então quando ela fala merda como ela falou ali generalizando uns 70% dos consumidores da razer (1/2)"	30/06/2019, 06:37:37
1145274794025332737	FloresMaxime3	Razer	30/06/2019, 07:16:03
1145276315966328832	HeyPiix	Nem um, nem outro. Gabi está errada, ponto. Razer está errada também, ponto. Bom dia!	30/06/2019, 07:22:06
1145276443972308992	dz7ivan	O mais engraçado é ver as pessoas achando que a razer vai realmente sofrer algum boicote por causa da Gabi Cês são hilario #SeFudeu	30/06/2019, 07:22:37
1145276853495771136	dz7ivan	Na minha casa só entra Razer!	30/06/2019, 07:24:14
1145277176926875649	dz7ivan	Minha mulher me deu um Razer Craken, agora eu digo pra vocês meus queridos / queridas O femiMiMismo não vai vencer kkk	30/06/2019, 07:25:31
1145278724234973184	LJoga	Não gosto da Ayu nem um pouco, mas aplaudir isso que aconteceu com ela, é dar crédito pra Razer e mostrar que ela estava certa. Mesmo a Ayu sendo tudo o que ela é, ela ter perdido contrato/parceria por algo tirado de contexto, é ridículo. O karma veio, mas continua sendo errado 	30/06/2019, 07:31:40
1145279182903160832	ZunaBst	Razer marque sur 	30/06/2019, 07:33:30
1145280816060215298	brunablince	Ai amiga, eu acho é pouco desculpa. Uma coisa é a Razer tirar o contrato da garota por ela responder a um assédio e dizer ( que as msg que ela recebe de homens são assédio ) e que poucos não fazem isso, é bem diferente de bostejar sobre movimentos LGBTs, Negro, feminismo etc	30/06/2019, 07:39:59
1145287480511533056	hartzguy	Fiquei meia hora tentando abrir o parafuso dele pra ve oque era, e nenhum daq de casa funcionou, acho que razer precisa de parafuso gamer pra abrir também	30/06/2019, 08:06:28
1145291868239998976	philcbennet	quem perdeu contrato por conta de mentira foi a mina da razer mo vc perdeu pq é babaca 	30/06/2019, 08:23:54
1145292447372722176	RaffaelCsar	Primeiramente bom dia, 'segundamente' foi olhar o preço dos notebooks razer. Velho $2.999 (claro, existe mais barato, com configuração mais modesta) Tbm o bixão vem com uma RTX2060, tela 4k OLED e i7 9ºGer. Claro q nunca daria 10k num notebook, mas tela Oled em um notebook é foda	30/06/2019, 08:26:12
1145292562497974277	Gabi_Camelo	Vi pela razer que vc ta enriquecendo.	30/06/2019, 08:26:40
1145292785353969664	valdinei__	Sabe aquela treta da Gabi que chamou os homens de lixo e tals e os que se ofenderam ficaram marcando a Razer (empresa que a Gabi era embaixadora, ou algo do tipo)? Então essa daí foi uma das (poucas) influentes que expuseram a Gabi +	30/06/2019, 08:27:33
1145292917352927232	valdinei__	+ fazendo com que a Razer não renovada e o contrato com ela	30/06/2019, 08:28:04
1145295581943881728	danicoico	Vc foi a favor da Razer, se olhe no espelho, menina. Enquanto milhões de mulheres se fodem todo dia, vc aí passando pano pra homem escroto!!! Se enxerga!!!	30/06/2019, 08:38:39
1145297144099823616	Piltover_Fist	Eu n falei nada em questão da gabi man, ela tava se defendendo só, mas o povo começou a spammar a razer e ela n vai renovar o contrato	30/06/2019, 08:44:52
1145299303847493632	BBY01_AGRS	Razer #peing #質問箱 https://peing.net/ja/qs/267773596	30/06/2019, 08:53:27
1145300541016354816	DimasDark	O problema não foi nem a frase, mas sim que a mina é uma escrota tóxica que fica xingando seus seguidores (escravocetas por sinal) por nada. E vocês achando que a Razer tirou o patrocínio dela só pela frase. 	30/06/2019, 08:58:22
1145309195983568899	AlexHimura	Eu não sabia quem era até ouvir ela falando sobre a polêmica da outra moça com a Razer, essa aí é daquelas que diz que feminismo é lixo pra ganhar biscoito de homem e afirma que racismo reverso é uma realidade inegável.	30/06/2019, 09:32:45
1145309396345470976	_deusgrego	Entenda, se uma pessoa trabalha em uma empresa que trabalha de forma digital ela tem que ter no mínimo uma postura. Gabi de fato é (ou era) uma pessoa tóxica, cada um planta oque colhe.	30/06/2019, 09:33:33
1145310346397310976	_deusgrego	Razer é uma das marcas mais famosas de criação de produtos para gamers (teclado, mouse...) Gabi Gattuso... Bom, não faço ideia	30/06/2019, 09:37:20
1145311243701555200	LusquitoM	Lembra de quando deu a treta da Gabi e da Razer? Ela foi uma das primeiras a reclamar dela, falando que ela tinha ofendido o público alvo da empresa. Agora, tem um vídeo dela que virou meme que fala que negro tá sofrendo menos racismo e o branco sofre mais racismo, atualmente.	30/06/2019, 09:40:54
1145312582703702017	veronicanbr	n foi essa moça q postou os prints da gabi e marcou a razer? kskajsjkaaj o mundo da voltas filha 	30/06/2019, 09:46:13
1145321068028190728	shzumn	Essa é a moça escrota que ajudou no linchamento da menina da Razer, ela é daquelas YouTuber conserva que vive às custas de macho escroto, agora ela perdeu um patrocínio por ser escrota	30/06/2019, 10:19:56
1145321103373422592	Fake_Masks	Ela podia ter metido a facada no cara q a razer n teria o direito de cortar o patrocínio, mas se você insulta todo um gênero, independente de qual seja, e ainda insiste que a generalização ta certa, você está pondo em risco sim o patrocínio, especialmente com o maior publico da	30/06/2019, 10:20:04
1145322617223729152	mrevivalsg	Assim como a Gabi perdeu o contrato sem a Razer levar em conta: o assédio q ela sofreu e sofre diariamente, e o pedido de desculpas da mesma. Você contribuiu com todo o linchamento virtual que a Gabi sofreu O karma chegou rápido 	30/06/2019, 10:26:05
1145322762149535745	malumnzs	essa foi uma das pessoas q mais falou da gabi no caso da razer, mas pelas replies q eu vi, foi algum caso de racismo q fez o contrato ser cancelado	30/06/2019, 10:26:40
1145323274827706368	luquitadagal	e a história com a razer? aquilo é não é liberdade de expressão? ela falou algo de esquerda e perdeu o patrocinio né? interessante, no cu dos outro é refresco	30/06/2019, 10:28:42
1145323391882354690	elmadan	E por que esse troço não pega o nome após a transferência, como todos os outros fazem? Parece que quem fez esse app nunca usou um app de banco. Pega o app do Bradesco, bota esse skin da razer e pronto.	30/06/2019, 10:29:10
1145325320570134528	dudaaramos_	Vendo outro headset pra comprar já que a @Razer se revelou e me broxou totalmente	30/06/2019, 10:36:50
1145325437054267394	DIAS_RDS	Parabéns @RazerBrazil pelo posicionamento. Empresas n devem ter gênero, partido político ou ficar se envolvendo em militância. Muito menos d malucos d Internet q n sabem o q é ser um profissional d vdd.@Logitech ou Razer, só importa o gosto pessoal d cada um, n a opinião d outros 	30/06/2019, 10:37:17
1145325893788819457	Reckcast	Nem sei, deve ter sido algo relacionado à bronca da mina lá com a razer	30/06/2019, 10:39:06
1145326848353734656	agaezii	a melhor parte é ela reclamar de perda de contrato por falta de contexto depois de apoiar a decisão escrota no caso Razer	30/06/2019, 10:42:54
1145327572940664839	Henrifnbr	Razer naga	30/06/2019, 10:45:47
1145329223319642113	RafaOkami	assim como ir atras da razer pra tirar o patrocinio da gabi foi uma sacanagem pq tinha nego postando onde ela morava,os pais dela,amigos,lugares que ela frequentava e dizendo que adorariam encontrar com ela pra dar umas facadas nela......so pra assustar	30/06/2019, 10:52:20
1145331057551691778	IMesmoElon	Diferenças Um tem PIADAS antigas (mesmo q as piadas sejam escrotas) Outro tem discurso de ódio recente	30/06/2019, 10:59:37
1145331118000005123	errado_isso	A razer n tava parabenizando ninguem ela como uma empresa tava numa saia justa pq eles q acabariam por se fuder independente do q acontece se ele só tentaram tirar los da reta mas afinal acabou sobrando para eles	30/06/2019, 10:59:52
1145331462994038785	rafaeelmm	Engraçado que esse papinho não faz sentido nenhum depois do caso Razer, que você tanto gosta	30/06/2019, 11:01:14
1145332175119822849	vitemanu	@louiseguima vai ganhar essa #OperaGX	30/06/2019, 11:04:04
1145332273224531968	ley_rocha	Gabi se fudeo muito merecidamente, sou fã da razer	30/06/2019, 11:04:27
1145332978303684610	louiseguima	@elch4p0 vai ganhar #OperaGX	30/06/2019, 11:07:15
1145333003805167616	TargetHD	Razer Ripsaw HD promete streaming 4K durante os seus jogos sem perda de desempenho 	30/06/2019, 11:07:22
1145334471861899264	HihiAntiacida	Ela era patrocinada pela Razer, aí os caras começaram a cobrar da Razer sobre isso, aí a Razer fez uma nota, resumidamente, falando que ela discriminou homem e o contrato dela acabou. Chegaram a ameaçar a menina e a família de morte.	30/06/2019, 11:13:12
1145334588002242565	Wtfmareana_	Vai pedir patrocínio pra Razer, escrota do caralho	30/06/2019, 11:13:39
1145335491325304832	thiagopj	Tava vendo aqui. Vi lá que ela fez campanha pra outra guria perder o patrocínio da Razer. Essas tretas de internet...	30/06/2019, 11:17:15
1145337444742705152	leocura_	O que ela disse de racista que eu perdi? Parei de assistir no episódio em que ela chama uns incel de lixo e a razer tirou o patrocínio	30/06/2019, 11:25:00
1145338395721424897	gatinho_oculos	MENINA VC TÁ FALANDO COMO SE VC TIVESSE MORRIDO CARALHO ERA A PORRA DE UM CONTRATO SE VC É TAO FODONA ASSIM VC CONSEGUE OUTRO, QUE NEM A MINA QUE PERDEU A RAZER E TINHA MAIS 5 EMPRESAS PROCURANDO ELA DEPOIS DA TRETA PARA SE CHORAR AQUI É VAI TRABALHAR.	30/06/2019, 11:28:47
1145339038360100869	MeninoPacheco	mano, essa guria simplesmente ajudou a acabar com contrato da streamer com a Razer e agora tá nisso??? com os outros é vitória, com ela é covardia ?????? 	30/06/2019, 11:31:20
1145342320965013504	bckhm_david	Sim, estaria, mas no caso dele nenhuma de vcs estaria defendendo. Os ataques contra ele seriam bem piores, e não teria nenhuma de vcs tentando defender. Razer não teria renovado o contrato do mesmo jeito, mas estaria sendo bem mais aplaudida+	30/06/2019, 11:44:23
1145342625186275329	bckhm_david	A Razer teria lutado contra a misoginia, né? Da msm forma que ela se posicionou contra a misândria nesse caso.	30/06/2019, 11:45:35
1145343979816398848	keadzin	da razer?	30/06/2019, 11:50:58
1145344169566711808	teachervah	Deixa eu ver se entendi: A Ayu, mina que jogou a outra lá na fogueira por falar que todo homem é lixo no twitter e fez a mina perder contrato com a Razer por causa disso, acabou de perder um contrato com uma empresa porque gravou um vídeo falando que branco também sofre racismo?	30/06/2019, 11:51:44
1145344247060717569	xboxnintendo221	Se está contra a panela que monopoliza o meio eu estou a favor. Estão atacando ela só porque ela concordou com a atitude da Razer. Cadê os paladinos? Os advogados? Estão atacando ela nesse momento. Parabéns pelo vídeo. Espero que você tenha muito sucesso. Ele virá! 	30/06/2019, 11:52:02
1145344377780428800	emo_comrade	"minha coisa favorita nesse domingo é definitivamente a transição da Auy de ""VAMOS COMPRAR RAZER kakakaka"" pra ""perdi meu patrocínio e vocês tão RINDO!!!! seus INSENSÍVEIS!!!!"""	30/06/2019, 11:52:33
1145344731330818049	_lindnr	O lance da razer eu tava sabendo, não sabia era a treta com essa outra menina	30/06/2019, 11:53:58
1145344810838102016	vantxseok	vc ta fazendo tudo isso pq quer patrocinio da razer? meu deus	30/06/2019, 11:54:17
1145346193523904514	virgui_1_	@gabicattuzzo ela falou com a opinião dela @RazerBrazil @Razer cada tem sua opinião	30/06/2019, 11:59:46
1145346334997671937	gamerviewbr	#SemanaGamerview Semana de polêmica com o vacilo da Razer e você entende tudo aqui: https://www.gamerview.com.br/colunas/o-cliente-sempre-tem-razao	30/06/2019, 12:00:20
1145346786359427072	jemcarstairsw	machista do caralho fala que racismo com branco existe e apoiou a razer pena kkk	30/06/2019, 12:02:08
1145347136076288006	_dicklaurent	"ela que tava comemorando que a outra lá perdeu patrocínio da razer pq se autoentitula a diferentona ""antifeminista"""	30/06/2019, 12:03:31
1145347195664834561	jacquelinearq	Ela foi uma das que incitou a Razer contra a Gabi Catuzzo, diz ela que perdeu um contrato pois depois dessa treta da Catuzzo viralizou um vídeo dela falando de racismo reverso.	30/06/2019, 12:03:45
1145347435084091392	anemiaas_	Essa menina foi uma das influencers q detonou aquela outra da treta com a Razer. Ela tem um vídeo falando q branco sofre racismo	30/06/2019, 12:04:42
1145347606488539136	vsf_axie	entre a gabi conseguir novas propostas depois de ser largada pela razer e a horrorosa ayub*az*l perder contrato pelas merdas que falou, fica clara a verdadeira máxima da internet: QUEM MITA NÃO LUCRA quem lacra geralmente lucra sim bjs	30/06/2019, 12:05:23
1145347754396442631	vinnybrandt	uma moça que fez seu público gamer criticando o feminismo. Tripudiou em cima da moça que teve treta com a Razer e agora ela teria perdido um contratinho por causa de boatos	30/06/2019, 12:05:58
1145348624953597953	Drianinha19	Mimimi q bate-bate Mimimi q já bateu Ela quis dar uma lacrada E com a Razer se fu...	30/06/2019, 12:09:26
1145351332188119041	yurikayser	E também desceu a lenha na menina da Razer semana passada. Olho por olho...	30/06/2019, 12:20:11
1145352550872506368	bckhm_david	A questão é: se fosse alguém relevante na mídia dizendo isso publicamente. Se o seu amigo tivesse o mesmo nível da fama da Gabi, e estivesse representando a razer, assim como a Gabi, eles estaria sendo atacado de todos os lados agr+	30/06/2019, 12:25:02
1145352640995438592	Desenhista1984	e pra terminar, a razer tem todo o direito de ter encerrado com a gabi, pois ela como todo empresa, ela visa lucro, e quem visa lucro, visa em vender para todos os publicos, e visa tbm em viver longe de problemas, ou seja a gabi se tornou um problema	30/06/2019, 12:25:23
1145352837347663873	Tiago_exe	Meu o que vc ta falando ? Olha o caso do Neymar e do cocielo , e não perdeu um e foram contratos milionarios não foram apenas contratos pra receber mimos de empresas como o da razer , para com essa nóia , que fala e faz merda uma hora tem que arcar seja mulher ou homem .	30/06/2019, 12:26:10
1145353706193350658	moka0806_miaro	Razer	30/06/2019, 12:29:37
1145353726460407809	Id0ntkY	Falei de lgbt? Falei que a razer não quer se intrometer em treta, fica feio pra razer	30/06/2019, 12:29:42
1145353838142066688	OficinadaNet	Entenda a treta entre Gabi Cattuzzo, a Razer e o machismo dos gamers -&gt; https://www.oficinadanet.com.br/games/26294-entenda-a-treta-entre-gabi-cattuzzo-a-razer-e-o-machismo-dos-gamers?utm_source=twitter&amp;utm_medium=twitter&amp;utm_campaign=RedesSociais #games #razer 	30/06/2019, 12:30:09
1145354434148544512	tracotracoponto	Karma, é só ver o que fizeram no caso da Razer. Não dá pra sentir pena dessa galera.	30/06/2019, 12:32:31
1145354774549794817	vlcoelho	Não era essa que tava toda toda em defesa da Razer?	30/06/2019, 12:33:52
1145355592132943877	cha_teado	"""Não fiquem quietas"" exceto quando os macho de merda nos pressionarem. Ai a gente faz questao de fazer notinha de beijo na testa pra masculinidade frágil. Tem que ser muito lixo mesmo viu dona Razer"	30/06/2019, 12:37:07
1145355680037179392	Leonard58793932	Sorteio de um teclado Razer Chroma pelo @williangordox, participa aí!	30/06/2019, 12:37:28
1145355950104162304	_isaa_	"Essa não é a que tava esculhambando a Gabi da treta da razer? Atacou a menina, um monte de seguidor foi e atacou a Gabi tambem... Aí agora a aguardar perdeu o patrocínio pq foi ""mal interpretada"" e tá chorando pitanga"	30/06/2019, 12:38:32
1145356318116593665	PotatoMight	Ah sim, com certeza a razer nem é internacional mas não é uma empresa grande e milionária de verdade	30/06/2019, 12:40:00
1145356837845381120	sakuraibr_txt	Razer não e possível. Isso não faz muito sentido.	30/06/2019, 12:42:04
1145356986382462978	jojji__	Razer é top 	30/06/2019, 12:42:39
1145357055445876738	mdsmillena	@HyperXBrasil melhor q razer eu amo voces	30/06/2019, 12:42:56
1145357490197954561	MikaelDeLima4	Errado é você destruir a vida de uma pessoa por ela ter uma opinião diferente. Não fui a favor da Gabi Catuzzo perder o patrocínio da Razer, e também não vou ser a favor da Ayu perder alguma oportunidade ou patrocínio por conta de gente mimada que não sabe lidar com opiniões.	30/06/2019, 12:44:40
1145359335096233984	Raiseofthewitch	A mina faz vídeo falando que existe racismo reverso, tripudiando em cima de feminista e ai fica putinha que perdeu vaga de emprego? POIS BEM FEITO. O mesmo tipo de pessoas que ta do lado dela, indignados com o contrato cancelado foi quem pediu o cancelamento da menina da Razer 	30/06/2019, 12:51:59
1145359417648566272	TsukeeW	O pior que a empresa viu a verdade porém, não pode se envolver com ela neste momento que isso irá prejudicar a empresa. Assim como a razer, as empresas devem estar sempre o mais longe possível. 	30/06/2019, 12:52:19
1145359718107504641	GustavQueiroZ	"É simplesmente por ser burra. Há dias atrás, ela tava ironizando a parada da Gabi por fazer ""propaganda"" da Razer e elogiando a marca. Agora acontece isso com ela, rs Uma pessoa ruim não seria tão boçal."	30/06/2019, 12:53:31
1145360006038138881	igorjrd	meu mouse tá falhando o tempo todo, dando clique duplo ou soltando missclick e isso tá me deixando puto, mas ainda é melhor do que se fosse um razer	30/06/2019, 12:54:39
1145360056910852096	CesarBHzz	RAZER JÁ CONTRATOU NOVO INFLUENCER!! https://youtu.be/rBkwAUaGqV4 via @YouTube	30/06/2019, 12:54:51
1145361739803975681	AndreMassari63	A senhora marcou a Razer com o único intuito de prejudicar financeiramente uma menina que foi escrota com o público dela. Não reclame se outras pessoas copiaram a sua idéia. Tenha maturidade. A senhora não é mais uma garotinha inocente.	30/06/2019, 13:01:33
1145363048129028096	fodahday	Mana, a treta da Razer	30/06/2019, 13:06:45
1145363710342569984	Zukitaaah	Fala pra Razer te contratar, não é ela que dá liberdade real de expressão pras pessoas? Bjins 	30/06/2019, 13:09:23
1145364016040153090	Frash81388627	"Tudo Feministas que pensam que a ""Embaixadora da Razer Brasil"" ao Difamar ódio contra um Classe social estava certa , Pelo amor vá porucrar oque fazer"	30/06/2019, 13:10:35
1145364710541463556	TKG_DumbO	Sorteio de um teclado Razer Chroma pelo @williangordox, participa aí!	30/06/2019, 13:13:21
1145366593440030720	biruelagrito	e eh a menina q botou lenha na fogueira pra outra perder o contrato com a razer...... amo?	30/06/2019, 13:20:50
1145366820712566786	rapmoonstarr	Essa garota é aquela que ficou defendendo homem na treta da Razer. Ela fez uns videos sendo racista e perdeu patrocinio...basicamente ela é um agrotoxico	30/06/2019, 13:21:44
1145366831059931136	carlostutorshd	Entenda a treta entre Gabi Cattuzzo, a Razer e o machismo dos gamers https://carlostutoriais.com.br/noticias/entenda-a-treta-entre-gabi-cattuzzo-a-razer-e-o-machismo-dos-gamers/	30/06/2019, 13:21:47
1145367484222115841	barbaragbueno	É engraçado que quando a menina perdeu o contrato com a razer ela tava achando ótimo... O pensamento opressor do Brasil funciona assim: Você não pode perder oportunidades. Mas se for mulher, preto, pobre, viado, deficiente ou gordo pode. 	30/06/2019, 13:24:22
1145368273774620672	Tntgames_master	"""justiça"" né? ela tem uma atitude Femista e a Razer tirar patrocínio, ela que foi injustiçada né?"	30/06/2019, 13:27:31
1145369456224415746	LittleVulpis	A razer fez a coisa certa a se fazer pra não causar poblema com a marca, a gabi catuzzo fez errado generalizando tudo, A ayu fez certo em defender os direitos das pessoas... o que eu não entendo e por que a ameaçaram a ayu e a gabi??	30/06/2019, 13:32:12
1145370038452535297	nekro94	Eu me preocupei mais quando vi um compilado dela sendo tóxica de graça nas streams, ficou bem claro que ela nunca mereceu ter patrocínio de uma marca grande como a Razer. Querem ter uma profissão sem agir de modo profissional, aí dá nisso.	30/06/2019, 13:34:31
1145371656837353473	jjonkies	A ayu citou a razer pedindo um posicionamento da marca pq a Gabi chamou homem de lixo. Hoje ela perdeu contrato de um marca pelas opiniões distorcidas dela e tá no Twitter espumando HAHAHAHAHAHAHAHAHAHAHAHAGGAGAGAGAGAGAGAYWBWUBWJSWNKEMEKSNEUWBWHEKJ	30/06/2019, 13:40:57
1145372006281596929	dellingrals	aquele negocio da razer que fez a menina perder o contrato essa daí que explanou tudo e depois ficou mamando a razer pra tentar ''ocupar o lugar'' se fudeu bonito	30/06/2019, 13:42:20
1145372604087316483	janaviscardi	"Eu sendo chamada de ""vadia velha"" pelo vídeo que tinha feito sobre o lance da Razer. "	30/06/2019, 13:44:43
1145372899345346560	jac_mathias	eu to de saco cheio dessa merda, aquela guria embaixadora da razer tava certíssima, toda vez que um macho vier tentar fazer eu aceitar 1 décimo de tratamento indigno tem que tratar como se fosse animal com raiva	30/06/2019, 13:45:53
1145374050451111937	Mulirokkjk	Eu não quero defender a Razer mas eu entendo o que ela fez sabe foi uma decisão profissional É claro que a maior parte do público alvo deles é masculino (sla uns 70% pelo menos) então lógico que eles não iam apoiar uma mulher que diz que homens são lixo porque eles perdem grana	30/06/2019, 13:50:28
1145374102028505088	antunessanaa	E falou isso. Aí essa moça marcou a Razer, a Gabi tinha contrato com a Razer, falando que ela não podia falar essas coisas e tipo ela fala MUITA MERDA também. Então a Razer tirou o patrocínio da Gabi e tal. Foi resumidamente isso	30/06/2019, 13:50:40
1145374463585849346	Joao500000	Mas o que estou perguntando se um homem por ser misógino tem hoje em dia seu status acabado por que uma streamer que foi misógina não deveria perder seu patrocínio e seu falso posto de embaixadora da razer?	30/06/2019, 13:52:06
1145374465104273410	Apaea2	Exatamente, geralmente são tratados dois pesos e duas medidas, e não a suposta igualdade que é pregada. A razer simplesmente decidiu pular pra fora do barco para não perder compradores, exatamente da mesma forma que aconteceu com o Cocielo.	30/06/2019, 13:52:07
1145374594838253568	MateusRiosR	Eis que você tem um setup full RAZER. 	30/06/2019, 13:52:38
1145374751730339841	outropedropaulo	Chegou o fã da Razer.	30/06/2019, 13:53:15
1145375388354437121	neomoonstar	eh aquela das tretas da razer n?	30/06/2019, 13:55:47
1145375427550167040	skiesmyers	ue mo kk e pq todo mundo comemorou qnd a gabi perdeu o contrato da razer? 	30/06/2019, 13:55:56
1145376866825625601	james_zineo	Importante lembrar q tu ajudou a foder a Mina no caso da Razer apoiando machismo... Aliás tu mesma sugeriu q a Razer chutasse a Gabi. Que triste que a tua repugnância foi posta fora de contexto. Vai ver não é questão de contexto...	30/06/2019, 14:01:39
1145377098263093248	juaumcreycrey	N ignoro o fato de q o homem(geralmente, então n tira meu patrocinio, Razer) é lixo e é pior doq a mulher na maioria dos casos, mas vamos saber diferenciar as coisas	30/06/2019, 14:02:34
1145377556855689216	todagatagarota	Vc tá ligado que temos uma sociedade machista? Tá ligado pq temos uma Lei Maria da Penha? Tá ligado pq temos que registrar a violência como Feminicidio? Tá ligado que mimimi de macho escroto uma Razer defende? Obg. Vou te dizer algo: homem não opinião qd o lugar de fala é dela!	30/06/2019, 14:04:24
1145378069953183744	Madrugaa90	Fogaça tinha que tomar no cu, por ser gratuito na imbecilidade, assim como a minazinha da Razer, quem acha que é pelo sexo da pessoa, é porque realmente tem a cabeça muito fudida. 	30/06/2019, 14:06:26
1145378245371670528	Neemias_Neis	Sorteio de um teclado Razer Chroma pelo @williangordox, participa aí! https://wn.nr/ZdRYLt	30/06/2019, 14:07:08
1145378467363663872	zoreio	Ah sim... A Ayu e a treta da Razer tô por dentro. Inclusive rolou uma verborragia aqui no tt pesada. Masconte + da sua percepção ao vivo!	30/06/2019, 14:08:01
1145378487248838656	acbene	Gente, essa água de salsicha conseguiu se meter na treta da Razer E no video do racismo em uma semana? E ainda tá reclamando que perdeu contrato? Hahahhahahahahahahahahaha Que delícia!	30/06/2019, 14:08:06
1145378513106735104	anotherbia	Reclamando? Aljdaodk o que eu mais vi foi homem apoiando a razer e até ameacando a Gabi. Plmdds né. Achei escrota somente a atitude da razer, mas fzer oq.. eles n queriam perder o apoio de quem compra maior % de produtos.. Agr essa guria aí?	30/06/2019, 14:08:12
1145380780031533056	ragemadame	Meu mouse tá morrendo, em 2 anos o querido já tá falecendo, razer é delicia demais ^^	30/06/2019, 14:17:12
1145381103865409538	stwphaniezs	"""Somos contra qualquer forma de Discriminação “ Razer parabenizou a entrada deste ser, mais conhecido como LUCAS1 á família, com todos esses tweets machistas e descriminadores. homem = aberração "	30/06/2019, 14:18:29
1145381359902449664	Imbanana15	Sorteio de um teclado Razer Chroma pelo @williangordox, participa aí!	30/06/2019, 14:19:31
1145381692242300928	RafaelHPeS	Ue, mas ela não tava atacando a Razer pra tirar o patrocinio da Gabi Cattuzzo? E duvido que os mesmos que atacaram a Gabi vão atacar ela tbem. Pelo contrario. Alias, já estão fazendo...	30/06/2019, 14:20:50
1145382835278221313	MatheusLynar	23:59 A Razer, assim como qualquer empresa decente, não quer se associar com gente inconveniente, é melhor avisarmos eles disso!!!! 00:00 Como assim tem empresas que não querem se associar comigo?	30/06/2019, 14:25:22
1145384367944011776	amandabrbz	"era essa mina tb fez a aquela gamer da semana passada ""perder"" o patrocinio da razer"	30/06/2019, 14:31:28
1145384708626440192	VictorDuro_	Manda pra Razer. Grande Dia	30/06/2019, 14:32:49
1145385136294440961	lucas_tacla	não foi essa aí que apoiou a recisão da razer contra a gabi?	30/06/2019, 14:34:31
1145385658665578496	hyunjinjiwoo	A gente não deixa de atacar um, mas quem fala merda na internet toma e sabe que toma ué, ela perdeu contrato porque o projeto não queria ter seu nome ligado à alguém que pensa como ela, acontece, bem vindo ao capitalismo. Ela pode pedir pra cantar música pra Razer	30/06/2019, 14:36:35
1145386599632506883	marquinhex	detalhe, essa é a gatinha que postou o vídeo da Gabi e gerou o hate que a Gabi sofreu e também a perca do contrato da Gabi com a Razer...karma que fala né?!	30/06/2019, 14:40:20
1145387543438987265	PedroHe03315872	Sorteio de um teclado Razer Chroma pelo @williangordox, participa aí! https://wn.nr/T8Rvfx	30/06/2019, 14:44:05
1145388173893296129	shawgamesbr	@Gabi Catuzzo Muito menos critiquem a @Razer ela é uma EMPRESA se ela esta no meio de uma treta a primeira coisa que ela vai tentar fazer é sair porque ela n é contra qualquer discriminação a unica coisa que elas se preocupam é com os seus produtos apenas isso cara.	30/06/2019, 14:46:35
1145388914322149376	luizmaiafiguer1	Sorteio de um teclado Razer Chroma pelo @williangordox, participa aí! https://wn.nr/YdjRXs	30/06/2019, 14:49:32
1145390079034236929	spiderGAMESyuri	e a razer tá certa( de um certo ponto de vista pelo menos ) ela é uma empresa, empresas são neutras, ou seja não podem se envolver em polemicas idiotas como essa, então elá ta certa de um certo ponto de vista, o que a razer fez foi sair do fogo crusado e evitando se envolver.	30/06/2019, 14:54:09
1145390237255946241	miyeondreams	PaiN mereceu perder por causa da razer fé	30/06/2019, 14:54:47
1145390304520019968	toqueacobrar	n sei o nome, foi defender os machos naquela treta da Razer. É uma doente mental completa, cita Hitler no twitter	30/06/2019, 14:55:03
1145391493072470017	DanielDias1974	Sorteio de um teclado Razer Chroma pelo @williangordox, participa aí! https://wn.nr/W8jcJH	30/06/2019, 14:59:46
1145391586706112512	M62103548	Falar q os otros é uma decepção é fácil, difícil é razer oq ele já fez e continua fazendo	30/06/2019, 15:00:09
1145393473148919809	CaioMor35906078	1. Gabi Cattuzzo usou sua liberdade de expressão para chamar homem de lixo, revelando-se uma doente mental que sofre de misantropia contra grande parte do público-alvo da Razer e apresentando sérios riscos comerciais à empresa;	30/06/2019, 15:07:39
1145393605634416640	CaioMor35906078	2. a Razer, por sua vez, chamou a perturbada influencer pra uma palavrinha no RH e escolheu se dissassociar da maluca (ok, nem a Gabi nem a Razer violaram o direito natural de ninguém aqui, joinha, Hope e Rothbarth podem descansar em paz);	30/06/2019, 15:08:10
1145393693869903873	CaioMor35906078	3. antes de Gabi ir pro olho da rua, Ayu havia usado sua liberdade de expressão para reclamar à Razer sobre as histerias comprovadas da Gabi na internet;	30/06/2019, 15:08:31
1145393911659147265	Vivi_coisafofa	Ninguém comemorou, seria bem melhor se a treta não tivesse acontecido, ela fez BABAQUICE e se fudeu, a maioria dos públicos da Razer são homens gamers e tentar boicota a empresa não vai rolar não	30/06/2019, 15:09:23
1145394111958138883	Bolochoca	Sorteio de um teclado Razer Chroma pelo @williangordox, participa aí! https://wn.nr/3RrEkH	30/06/2019, 15:10:11
1145394215318360066	Waazyy_	Razer	30/06/2019, 15:10:35
1145394224344551425	arcticritics	treta da razer aí	30/06/2019, 15:10:38
1145394647600177152	Wellington_MM	Sorteio de um teclado Razer Chroma pelo @williangordox, participa aí! https://wn.nr/NSdGCb	30/06/2019, 15:12:19
1145396276604952577	EduardoRT06	Hahahaha depois que perdeu o patrocinio e o contrato com a razer quer pedir desculpa	30/06/2019, 15:18:47
1145396551478587392	twiceside	pau no cu deles vc n tava errada, tava certíssima, pau no cu da razer	30/06/2019, 15:19:52
1145396577030365186	SKRAALIN	Razer	30/06/2019, 15:19:59
1145397115767676929	W3sl3y_Paulo	Sorteio de um teclado Razer Chroma pelo @williangordox, participa aí!	30/06/2019, 15:22:07
1145397313822744578	chritian1298	EMBAIXADORA DA RAZER L4CR0U E SE DEU MAL https://youtu.be/rHjABK5vTSo via @YouTube	30/06/2019, 15:22:54
1145398727944933377	grlica_	Fodase oq ela ja falou em live. Se isso fosse pertinente ao caso a razer ja teria cortado contrato dela mto antes	30/06/2019, 15:28:31
1145398828415225865	contrariado_	ué não era ela que tava descendo a lenha na menina lá que perdeu patrocínio da razer falando que os argumentos dos vídeos da menina da razer em que falavam que tava fora de contexto era algo mimimi kkkkkk	30/06/2019, 15:28:55
1145398969863983104	kaiomatheuscs	Aee Gaby, o bom é sempre retirar o o melhor dessas brigas, você admitir o erro é exemplo disso. Sempre haverão pessoas que estarão do seu lado para combater o machismo, só foi chato que Razer tirou teu patrocínio nem era pra tanto, essa briga toda nem era pra tanto	30/06/2019, 15:29:29
1145399019822354432	IgorRosasSilva	EMBAIXADORA DA RAZER L4CR0U E SE DEU MAL 	30/06/2019, 15:29:41
1145399164165120006	kotocosplay	Como que ela não tentou fazer assassinato de reputação? Ela mesma marcou a Razer pra fazer ela perder o patrocínio Ela perder o dela não foi nada além do karma agindo	30/06/2019, 15:30:15
1145399696770371584	_dicklaurent	pior que a quantidade de moral que ela recebeu nesses últimos dias na treta da razer não tá no gibi mesmo	30/06/2019, 15:32:22
1145399805818146816	skiesmyers	ela ta sim sendo hipocrita. A Gabi pode ter errado, mas falar que a Razer nao fez merda e nao passou pena eh o cumulo da idiotice.	30/06/2019, 15:32:48
1145400895280164865	lusgaraio	N errou em xingar o cara, tinha que xingar mesmo, errou em generalizar, Razer foi longe dms e isso é inegável, no mais, sucesso pra vc	30/06/2019, 15:37:08
1145401062620368897	Vivi_coisafofa	https://youtu.be/jkfQUj-oZ-s , veja quem é a Gabi de verdade, a Razer tá mais que certa	30/06/2019, 15:37:48
1145401700800446464	gigzu99	a ok, então se eu disser que mulheres são um bando de puta, que so serve pra transar e que são inuteis, eu vou estar certo? não, eu vou ser linchado como ela, o que ela sofreu não foi justo, más perder o contrato com a razer, foi bem justo.	30/06/2019, 15:40:20
1145402204553207809	geraldopapa14	Mas existe uma diferença gritante nos casos. Ela marcou a Razer mostrando todo o contexto da situação. Não que fosse da conta dela, mas ok. Mas o que estão fazendo é criar uma mentira e espalhar como se fosse verdade. Vc acha isso válido? Para mim, há uma grave desproporção	30/06/2019, 15:42:20
1145402652102148096	VicCossack	e fica bem claro que qualquer comportamento escroto da parte dela era é um bônus pra Razer né kk considerando que eles acham a opressão dos gamers mais importante que o sexismo real.	30/06/2019, 15:44:07
1145402846646607872	skiesmyers	como eu disse, a razer so se pronunciou quando as vadiazinhas dela choraram	30/06/2019, 15:44:53
1145402911285030912	GoodGameNiko	Já disse meu posicionamento pessoal do caso. Na minha coluna no Lei em Campo procurei fazer uma análise imparcial do impacto publicitário da decisão da Razer de anunciar que não renovaria o contrato com a influenciadora Gabi Cattuzzo. 	30/06/2019, 15:45:09
1145403268769681409	Baldur673	Toda piada deve ser respeitada e permitida. Toda empresa pode fazer o que quiser Ainda bem que o autor trabalha na Razer. Abs.	30/06/2019, 15:46:34
1145403445010161668	skiesmyers	garotakk entao vc mesma ta falando q oq a razer fez foi proporcional a uma puniçao de vazamento de nude, sendo q a gabi so rebateu um ASSEDIO q ela sofreu, se fosse eu teria falado mt pior q ela k	30/06/2019, 15:47:16
1145404796070977537	xhyom	sim galera ela nao MARCOU A RAZER pedindo pra tirar o patrocinio é loucura da minha cabeça kkk voces tao certos	30/06/2019, 15:52:38
1145404797669007361	skiesmyers	n sou gado negah, so acho q foi injusto por parte da razer por mim parece q vc q ta sendo gado e n vendo pelo lado da garota, me chamando de infantil enquanto nao tem o minimo de empatia, sofro	30/06/2019, 15:52:39
1145404906129543169	ayeayehongjoong	mas quando a razer chutou a gabi por nada foi a primeira a comemorar, hipócrita	30/06/2019, 15:53:04
1145405365439406082	hypnottzed	me ve 1 tecladinho fone razer orelha de gatinho =^-^=	30/06/2019, 15:54:54
1145405978038480897	Vivi_coisafofa	"Você chamou as seguidoras da Ayu de vadiazinhas,super educado e legal, isso não é coisa de pessoas maduras e intelectualmente inteligente. A Razer não gostou dos seu comentários e de seus vídeos(que nem adiantou mostrar pq sempre vai proteger a garota) e mandou ela ""pastar""simple"	30/06/2019, 15:57:20
1145406042249056256	Lucio0liveira98	"""ela fez a galera atacar"" não, pare. Ela denunciou à Razer pela conduta, foda-se oq os seguidores dela e outros fizeram em seguida. Ela é responsável pelos atos dela, não de outrem. Denunciou com razão a misoginia, o contrário da onda de ataques à ela com trecho cortado de video"	30/06/2019, 15:57:35
1145406582165049345	ArthurGS539	Eu acredito, que ambos erraram: Ela, o cara que assediou ( esse é o principal ) e a Razer: Ela: O maior erro dela, foi ter generalizado. Isso que ofendeu muitos '' homens '' . Se ela tivesse citado apenas ele, não sei se daria tanta repercussão. O cara : Nem preciso dizer ( + )	30/06/2019, 15:59:44
1145406963272028165	Vivi_coisafofa	"""A Razer se pronunciou quando as vadiazinhas dela choraram"" nossa, pura falta de interpretação minha, eu me pronunciei contra a Gabi e isso me põem em seu comentário."	30/06/2019, 16:01:15
1145406966992396288	_PretoNerd_	eu não conheço nada dela na vdd mas como ela tava atacando aquela menina gamer da razer achei que fosse tambem kkk	30/06/2019, 16:01:16
1145407025750450176	ArthurGS539	Ele assediou a Gabi, e muitos o defenderam. Mas como ele era um simples random , não sofreu consequencias. Razer: Poderia ter apoiado seus influenciadores, mas preferiu rejeita-los. O que gerou um grande incomodo aos que apoiavam a gabi.	30/06/2019, 16:01:30
1145408362043052032	skiesmyers	chamei os machos garota, vc eh cega porra? fica se bancando de intelectual e maduríssima enquanto nao pensa q a gabi sofreu essa perda de contato SÓ por ter chamado os homens de lixo (certíssima kkkk), e nunca foi por causa dos outros comentarios, pq ate entao a razer tava nem ai	30/06/2019, 16:06:48
1145408401498877952	xhyom	a sim ela marcou a razer pra lembrar a razer quem é a embaixadora deles vai que esquece ne	30/06/2019, 16:06:58
1145408743347236864	AQFuMa	Le falta un Razer	30/06/2019, 16:08:19
1145409225465716742	skiesmyers	negos vcs tao cegos? eu tava falando dos machinhos q sao as cadelas da razer	30/06/2019, 16:10:14
1145409441929539584	skiesmyers	e outra, n sei se vc sabe mas razer eh substantivo feminino interpretaçao eh tudooo 	30/06/2019, 16:11:06
1145409680048611328	skiesmyers	garota, Razer eh um substantivo feminino, nao me pronunciei sobre a ayu, e sim sobre a Razer.	30/06/2019, 16:12:03
1145409850047905793	Joo11108880	pera...tu ta pedindo pra hatear o cara que recentemente entrou pra uma equipe que a razer por causa de uma piada de 2 anos atras, que bosta hein	30/06/2019, 16:12:43
1145410592989220864	Lucas52250563	Eu não li isso!!! Puta que me pariu!!!! A mulher xingou 95% do público da Razer!!!!!! Tá errada porra!!! Larga de ser gado	30/06/2019, 16:15:40
1145410757036785664	Desenhista1984	PUTA QUE PARIU, tu ta fazendo força pra ser burra minha querida? nos EUA as palavras não tem genero como aqui no Brasil, ou seja lá não é nem O razer e nem A razer, lembrando que razer é uma palavra em ingles	30/06/2019, 16:16:19
1145410932958486530	yellow4ng	viemos para o parâmetro da Gabbi e da treta da Razer? posso falar com toda a convicção do mundo: tá errada não	30/06/2019, 16:17:01
1145411355362701312	skiesmyers	"""vadiazinhas DELA"" eu tava me referindo a RAZER pqp ta foda vcs hein"	30/06/2019, 16:18:42
1145411778836357125	gabitchen	são exceção - FATO), ela fez a maior pressão pra razer demitir a gabi - elas já tinham rixa anterior - além de perseguir varias meninas desse meio, fazer comentários racistas, machistas, preconceituosos e etc	30/06/2019, 16:20:23
1145412471588622336	skiesmyers	"entao desenhista1984, a partir do momento q a palavra ""vadiozinhos"" nao existe, eh plausível q eu use o pronome feminino me referindo à razer, nao teria concordância se fosse ""os vadiazinhas"" sai daq metido a intelectual"	30/06/2019, 16:23:08
1145412621513953281	skiesmyers	razer no brasil eh interpretada como palavra feminina enois	30/06/2019, 16:23:44
1145414653297799170	OutrymBR	Sorteio de um teclado Razer Chroma pelo @williangordox, participa aí! https://wn.nr/ndYYA7	30/06/2019, 16:31:48
1145414953114853376	OuLuikkkezM	Ainda acho vc babaca você foi idiota e estava errada SIM! mas vc assumiu seu erro ao meu ver vc não pediu desculpas apóio a titude da razer mas vc assumiu seu erro vida que segue Muito Sucesso Gabi	30/06/2019, 16:33:00
1145415384679538688	SirPugLyon	Chegamos num ponto em comum e fico feliz em ver que reconhece que ela falou merda demais. Ameaças são coisas de extremistas e não devem ser toleradas. Razer errou com a Gabi assim como erraram com a Ayu. Ao citar Hitler ela simplesmente cavou a própria cova.	30/06/2019, 16:34:43
1145415603353772040	niick_wendeel	Sorteio de um teclado Razer Chroma pelo @williangordox, participa aí! https://wn.nr/xHMM8t	30/06/2019, 16:35:35
1145415609083191302	brunoebert1	Sorteio de um teclado Razer Chroma pelo @williangordox, participa aí! https://wn.nr/H8jjfV	30/06/2019, 16:35:36
1145416601866571776	sushiebao	"Não acredito q a Razer errou, ela fez muita coisa ruim dizendo coisas horríveis sobre homens q se fosse ao contrário teria dado tanto problema quanto. O negócio é, ela está melhorando e vejo um futuro brilhante pra Gabi, ela não tem q amar homem, mas é só usar ""alguns"" na proxima"	30/06/2019, 16:39:33
1145417925614067712	Supercraft_a	Sorteio de um teclado Razer Chroma pelo @williangordox, participa aí!	30/06/2019, 16:44:48
1145418176404107264	0utzider	Razer &gt; 	30/06/2019, 16:45:48
1145418874965450752	naituita	galera tá boicotando a razer até na frança, amo	30/06/2019, 16:48:35
1145419161977458688	Enzo41135215	Ela está errada no momento em que ela generaliza e produz um discurso de ódio contra um gênero inteiro, caso ela estivesse respondido apenas o comentário da pessoa ela estaria certa, a forma em que a razer se manifestou retirando o contrato dela foi a forma correta de agir	30/06/2019, 16:49:43
1145419197998088194	san_megumin	"Deixa eu entender, você está puto ainda com a Razer por causa da Gabi perder o contrato por uma coisa errada que ela fez?!pqp, aí vem ""aí ela já foi assediada e sexualizadas por homens"" Não sabia que Todos os Homens do Mundo Inteiro chamaram ela de gostosa e Etc.. kkkkkkkkkkk :D"	30/06/2019, 16:49:52
1145419680519266304	Enzo41135215	Já que a Impresa não pode se meter em uma confusão que trás uma visão negativa para o seu público e agora a razer tem que se resolver com o público feminista tóxico que está atacando a ayu por tentar defender os direitos iguais, então antes de vc defender a Gaby veja o lado...	30/06/2019, 16:51:47
1145419935583297541	Enzo41135215	Da razer que está perdendo um bom público por causa dessa treta toda e poderia perder bem mais se ela mantesse o contrato já que o maior público da razer e homens	30/06/2019, 16:52:48
1145422695846285312	pqp_mreis	Eu só vi que ela tinha dito isso depois que a Razer se pronunciou, antes disso eu nem conhecia o trabalho dela, certeza que metade dos ofendidos não conheciam também mas quiseram causar e deu no que deu, infelizmente.	30/06/2019, 17:03:46
1145422730394853376	skiesmyers	ai esses sururu defensores de racismo reverso e da razer sao uma desgraça msm ne so n apago o tweet pq ta dando view pra rose https://twitter.com/record211/status/1120229926928388096/video/1	30/06/2019, 17:03:54
1145423153461678086	loboriseup	O erro não foi seu. O erro foi o da Razer! Eu pensava em comprar equipamentos da Razer por exemplo. Agora não mais! Empresa escrota tem que se ferrar, não fizeram uma análise minimamente madura. No Brasil escroto que vivemos, a inversão de valores tem se tornado frequente.	30/06/2019, 17:05:35
1145423285959712769	Omega_TheTC	Gabi foi brincar com o chat, quando retrucaram a brincadeira, ela xingou o cara e disse que homem que não é lixo é excessão, além de ter xingado a mãe de um inscrito de gorda e p*t* de 5° categoria A razer só fez o óbvio, e tirou a Gabi, já a Ayu, tiraram um vídeo dela de+	30/06/2019, 17:06:06
1145423451248910336	poisonedperfume	ah tudo ne, o twitter dela todinho é um grande poço de merda, e ela tava falando mais depois do caso gabi e razer, porém a maior parte do tempo ela ta falando de racismo branco	30/06/2019, 17:06:46
1145424547765772288	garotaharvey	a mina da razer ou ela tá se culpando pq o consciente dela realmente acredita que ela errou, ou ela ta se culpando pra não perder os contratos futuros	30/06/2019, 17:11:07
1145425147718975490	lawsofvalor	Claro que minha onda de sorte nunca é alta o bastante, mas quem sabe.	30/06/2019, 17:13:30
1145425178719072256	PatoCorporation	"Ela é uma youtuber ""liberal"", anti feminista e contra movimentos antiracistas, fala em racismo reverso etc. Postou essa ""citação"" a Hitler após dizer q perdeu um contrato por criticar um episódio d machismo da Razer (logo ela?). Preferi apagar o post p não dar mais palco."	30/06/2019, 17:13:38
1145425188739256321	bluewanniie	A hipocrisia dessa mina mano, ela não pensou na mina da razer, se ela ia perder o patrocínio,. Amor tudo o que vai volta espero que você entenda isso 	30/06/2019, 17:13:40
1145425472093859840	PatoCorporation	"Ela é uma youtuber ""liberal"", anti feminista e contra movimentos antiracistas, fala em racismo reverso etc. Postou essa ""citação"" a Hitler após dizer q perdeu um contrato por criticar um episódio d machismo da Razer (logo ela?). Preferi apagar o post p não dar mais palco."	30/06/2019, 17:14:48
1145425980598706176	Jorgesi48598552	Cara espero que não esteja fazendo referência ao caso da razer, porque seria lamentável.	30/06/2019, 17:16:49
1145426322648436736	nickxdr1987	Basicamente, tem uma streamer q era patrocinada ou algo assim pela Razer. Mas pq um cara retardado falou merda pra ela, ela disse que homem é lixo. Até aí, de boa, porque doa á quem doer, dá pra entender que tipo de homem ela falou que era lixo.	30/06/2019, 17:18:10
1145426374557089792	tinhwh	vcs ainda n superaram essa porra da razer ein vão toma no cu	30/06/2019, 17:18:23
1145426821435088897	nickxdr1987	Mas aí, os incels, redpills, ancaps e todos esses retardados começaram á atacar ela, e fizeram que a Razer acabasse contrato com ela, com toda aquela alienação de sempre tentar colocar o sexo feminino pra baixo e sem exposição na mídia.	30/06/2019, 17:20:09
1145427056743866368	jefeschreiner	hsahshas o mais legal da galera falando do Lucas e da Razer, é o fato que chamam ele de Youtuber	30/06/2019, 17:21:05
1145427741371785216	peterjordan100	Razer tem meu total apoio.	30/06/2019, 17:23:49
1145427793590796290	PauloGu63500916	Sorteio de um teclado Razer Chroma pelo @williangordox, participa aí! https://wn.nr/H8jF7Y	30/06/2019, 17:24:01
1145428604349816834	Teuzinsoad	Sorteio de um teclado Razer Chroma pelo @williangordox, participa aí! https://wn.nr/gdJFCt	30/06/2019, 17:27:14
1145430080723869702	constepillation	"ela ficou aí gravando vídeo falando que racismo reverso existe e aparentemente defendeu a razer quando ela tirou patrocínio de uma mina e agora ela que perdeu patrocínio (n sei exatamente se o ""qual foi a dela"" foi pedindo explicação mas se foi tá aí)"	30/06/2019, 17:33:06
1145431441280503808	KayoZentiago	Não, tem que ser doente ksksksk pra compra razer e uma merda @HyperXBrasil e melhor meu bom recomendo	30/06/2019, 17:38:31
1145431582787952640	lusgaraio	Eu nunca disse que a Razer tava errada, até pq nesse caso o certo e o errado são opiniões, se eu fosse dono da empresa faria o mesmo, qlqr um que quer lucrar quer ter seu nome longe de polêmicas, eu estava esperando uma carta de repúdio, cortar patrocínio foi mais que eu esperava	30/06/2019, 17:39:05
1145431886698811395	mygghost	capricho certissima pau no cu da razer 	30/06/2019, 17:40:17
1145432226378788864	HawkingCarolina	Tu não apoiou a mina lá ter perdido contrato com a razer???!!! Ta de mimimi pq????	30/06/2019, 17:41:38
1145432725085741056	Ethozera	vendi meu teclado antigo por um nintendo dsi mais 200 reais valeu a pena sera ? era um razer razer blackwidow ultimate stealh 2016	30/06/2019, 17:43:37
1145436803647909889	MattyBTW	Razer	30/06/2019, 17:59:49
1145436858584842241	LuccaXD20	Sorteio de um teclado Razer Chroma pelo @williangordox, participa aí!	30/06/2019, 18:00:02
1145437598636224512	paccamicio	Gatão!	30/06/2019, 18:02:59
1145437626641592321	mthrssprm	kkkkkkk. 2006 a razer prestava, agora é só ladeira abaixo. Comprei 1 deathadder q com 1 ano de uso já apresentava problemas, isso em 2014. De qualquer forma, boa sorte aí com seu periférico lixo. Tenho o kit todo da logitech e não poderia ser mais feliz. Empresa lixo para lixos.	30/06/2019, 18:03:06
1145438882948952064	renatocamargo	Quer dizer que a menina que comemorou que a gamer do caso Razer perdeu o contrato, está chorando porque também perdeu um com aquele vídeo racista e sem noção? Sabe o que eu acho? Pouco. Sofre aí seu racismo reverso.	30/06/2019, 18:08:05
1145439211392311296	Krasilra1	"Falou me**a não. Um garoto entrou na live e perguntou qual equipamento ela usa. A resposta dela: ""Seu p*u. Eu dobro ele em formato de 8 e enfio no seu c*."" Na outra foto: "" Tô montada na live"" (em cima de um touro mecânico) Traduzindo: ""vcs são tudo GADO"" Garota gente fina, né"	30/06/2019, 18:09:23
1145440075431501826	Krasilra1	"Tem razão. Essa menina é tão mentalmente estável e controlada e gente boa. O tipo de pessoa que qualquer empresa quer como representante. Tipo nesse vídeo em que um fã pergunta qual equipamento ela usa e ela responde: ""Seu p*u. Dobro ele em forma de 8 e enfio no seu c*)."""	30/06/2019, 18:12:49
1145440293698920448	Jorgesi48598552	Achei que quando vc criou essa conta já sabia que que tipo de terreno estava pisando. Falando assim só dá ânimo a eles. Sei que não é fácil, não quero ser insensível. Não conhecia seu trabalho no YouTube antes do ocorrido da razer. Torço por vc e mande os haters tomarem no colo.	30/06/2019, 18:13:41
1145440410917048322	JotaMatielloCRF	@felipeneto tinha que assistir isso... quando eu digo que a razer fez certo e ainda demorou ... Como não ser um lixo com GabiCattuzzo Tretas #3 https://youtu.be/ysc76CoAhvo via @YouTube	30/06/2019, 18:14:09
1145441091245752320	Krasilra1	Não sei se a Razer viu esse vídeo, mas aposto que se vire voltam atrás!	30/06/2019, 18:16:52
1145441154567168000	jonastrol	Empoderamento é um cu. Mesma coisa aconteceu com a Menina que é contra a incitação ao ódio sobre os gêneros e etnia, a menina perdeu o patrocínio e ninguém faz nada. Mas a outra menina que xingou praticamente 90% dos games e perdeu o patrocínio da Razer, todo mundo a favor dela.	30/06/2019, 18:17:07
1145442125514989569	Krasilra1	Verdade. Olha o público machista dela maltratando ela numa live.	30/06/2019, 18:20:58
1145443077944991744	outropedropaulo	Ué, mas você não é fã da Razer?	30/06/2019, 18:24:45
1145444028965621765	YukinePvp	Sorteio de um teclado Razer Chroma pelo @williangordox, participa aí!	30/06/2019, 18:28:32
1145444327704989696	Piltover_Fist	Se a razer faz torradeira pq a apple n pode fzr ralador?	30/06/2019, 18:29:43
1145446083021201412	AllysonLps	É tipo eu entendo tlg , o maior público alvo e clientes diretos da razer se sentiram ofendidos e vindo de uma parceira da empresta é explicado	30/06/2019, 18:36:42
1145447091541544960	joaovcoast	Cavalo Gamer da Razer	30/06/2019, 18:40:42
1145447812446007297	myres_thamy98	Foi essa mina que fez mó alarde pra outra mina perder o contrato com a Razer por que falou que os homens são lixo depois de ser assediada. Karma is a bitch	30/06/2019, 18:43:34
1145448767002464257	GabBarao51	"Nunca postei algum tweet próprio sobre algum assunto importante, pois uso (na maior parte do tempo) para receber notícias de Hardware e/ou jogos. Mas, recentemente ocorreu o ""Razer x Cattuzzo"". https://youtu.be/LdUQXTdFZsc Este vídeo esclarece muita coisa. (1/2)"	30/06/2019, 18:47:22
1145449202237005830	matvinix	Pq a razer e como a maioria das empresas vizam o lucro e o homem tem infelizmente a maior porcentagem de compra no mundo gamer, e ficaram irritados com a menina(gabi) so falando QUE DE FATO ACONTECE :), diferente da ayu aí que tem vários motivos de ser processada	30/06/2019, 18:49:05
1145450360515043328	Chefedoslink	Muito bom daqui um tempo meu setup gamer vai chegar quase todo da razer 	30/06/2019, 18:53:42
1145450571245203458	AkariDreemurr	Quem precisa da Razer? 	30/06/2019, 18:54:32
1145450659195609089	Desenhista1984	vamos lá, a direita apenas questionou a razer, se eles apoiavam ou não a misandria, a gabi perdeu patrocinio por causa do ódio que ela pregava contra os inscritos dela (toxicidade)	30/06/2019, 18:54:53
1145451109630300162	PlayZuca	Razer é mulher empresa em periféricos e tudo mundo sabe disso	30/06/2019, 18:56:40
1145452165865119744	PlayZuca	Eu tive periféricos de várias marcas e digo com propriedade que os da Razer são ótimos. GARANTA O SEU TECLADO MECÂNICO	30/06/2019, 19:00:52
1145452656149913602	pietraando	Vamos olhar proporcionalmente o quanto as mulheres são detonadas com comentários sexistas? Ou vamos só pegar uma frase fora de contexto da mina numa live sei lá de quando e dizer que não existe machismo, porque ela falou palavrão?	30/06/2019, 19:02:49
1145452918793019394	BryanRa58959989	Sorteio de um teclado Razer Chroma pelo @williangordox, participa aí! https://wn.nr/sHqAGv	30/06/2019, 19:03:51
1145453617417269248	deadmushi	ela é do meio gamer, tava protegendo os macho naquela treta da razer	30/06/2019, 19:06:38
1145453887979237376	atumc_batata	"Ela se denunciou falando tanta bosta. Excelente exemplo pra demonstrar como as pessoas falam merda e depois acham injusta a respectiva consequência. Agora ela que assuma. Da mesma forma como ela se achava paladina ao ""denunciar"" a menina razer lá. ""Que satisfação, aspira!"" "	30/06/2019, 19:07:43
1145457375928901633	jaiIIbreak	pois é, se ela não aguenta as consequências das palavras dela, ela que não fale... e outra coisa: ela tava apoiando a razer ter acabado o contrato com a gabi e agora tá reclamando???? oi??	30/06/2019, 19:21:34
1145458147093602304	JooVict35378139	Dps q a Razer removeu o Contrato, percebeu q n valia a pena :3	30/06/2019, 19:24:38
1145458512807497728	edjisk	n entendi pq o envolvimento com a Razer é uma forma de recompensar o assédio e porque quem os homens que responderam a isso fazem parte do grupo que assidiam ela? (@cellbit relaxa q não foi só homem não que reclamou blz?)	30/06/2019, 19:26:05
1145458896015937536	edjisk	além do mais a revolta dos homens n tem nada a ver com assédio nem a resposta da Razer o motivo real é a generalização q ela fez	30/06/2019, 19:27:37
1145461749556158465	KeonnyK	Tiw eu tilto mais por pessoas acharem a razer errada em ter encerrado o contrato	30/06/2019, 19:38:57
1145462009183506434	KeonnyK	O errado é acharem q a razer ta errada tiw	30/06/2019, 19:39:59
1145462218571616257	edjisk	e ta ai o motivo do ela poder generalizar? (e além do mais pq a Razer fazendo isso é uma forma de recompensar o assédio???????????? @cellbit ???????	30/06/2019, 19:40:49
1145462240490995712	l_mbettanin	Nao gosto de razer ta bom Logitech é nois 	30/06/2019, 19:40:54
1145463586627760129	CarlosAndrey125	Sorteio de um teclado Razer Chroma pelo @williangordox, participa aí!	30/06/2019, 19:46:15
1145464081631055872	espumadomar_	"""Fala da minha razer cara"	30/06/2019, 19:48:13
1145465213392736256	AnekiBakk	Ela perder o patrocinio da Razer, na minha visão,é severo dms. O fato é ela DEVERIA se retratar de maneira correta,assumindo o discurso de odio propagado e pedir desculpas. OBS:É MTT comum hj em dia hj em passar pano pra discurso de odio.	30/06/2019, 19:52:43
1145465505790210055	telles_ebooks	Eu ainda to ponderando se faço p3 duma materia que a Razer BR….	30/06/2019, 19:53:52
1145465796707135489	eusousinistrorj	Uma mina disse que homem era merda, ai ela ficou bolada e saiu em defesa dos homens e incitou seu publico de incel a atacar essa mina, ai essa mina perdeu o contrato com a razer e ela comemorou como se fosse natal, ai viralizou um video dels falando que branco sofre racismo+	30/06/2019, 19:55:02
1145466178862747648	KeonnyK	A razer? Pq se acha man?	30/06/2019, 19:56:33
1145467735213785088	ElvisOLinhares	A Razer tomou um lado, e foi do rapaz que assédiou ela. A razer nunca se posicionou sobre as centenas de assédios que a menina sofria nas fotos. Nunca fez algo parecido com outros streamers homens. Daí a garota se defende do hater e perde o contrato. Tá certo?	30/06/2019, 20:02:44
1145467915921186816	Joaoped34840365	Infernizou?, ela só mostrou pra Razer a bosta que a Gabi disse	30/06/2019, 20:03:27
1145470440455987202	ThiagoMosaicz	#OperaGX me dá um	30/06/2019, 20:13:29
1145470558160769025	Tauane39227074	Sorteio de um teclado Razer Chroma pelo @williangordox, participa aí! https://wn.nr/3RrMyU	30/06/2019, 20:13:57
1145470945655762944	jonathanolobo	Sorteio de um teclado Razer Chroma pelo @williangordox, participa aí! https://wn.nr/sHqwbV	30/06/2019, 20:15:29
1145471300686798855	ogabrielreis35	cara, preciso trampar pra comprar meu controle novo do xbox da razer, se alguém tiver uns serviços aí, to dentro	30/06/2019, 20:16:54
1145471962887704576	darkstyle944	Sorteio de um teclado Razer Chroma pelo @williangordox, participa aí!	30/06/2019, 20:19:32
1145473457452400641	DiegoShethGames	Pra quem sabe o que aconteceu com a @gabicattuzzo esse foi o causador de tudo. Assistam o video e deixem suas conclusões. https://www.youtube.com/watch?v=Ypi1ENhdzHo #Razer #gabicatuzzo #patrocinio	30/06/2019, 20:25:28
1145473852870406144	jao_gp	sim pf nada de razer	30/06/2019, 20:27:03
1145475623323918337	yurigmaaia	Razer 	30/06/2019, 20:34:05
1145476430630981634	EpicViniciusHue	Ué, a razer não foi contra e fechou o patrocínio? Aliás, a gabi nunca foi embaixadora da Razer, a própria razer desmentiu isso	30/06/2019, 20:37:17
1145476563963715585	DeVolaniuk	RAZER X DISCURSO DE ÓDIO DISCURSO GANHA	30/06/2019, 20:37:49
1145476736630566913	19kokaina	razer	30/06/2019, 20:38:30
1145477168153206785	Cybesuke	homem aranha da razer fodase 	30/06/2019, 20:40:13
1145478604127703040	Milkcaketop	"Sim, pois é como se a razer desconsiderasse que ela sofreu um tipo de assédio e reagiu daquela forma para se defender. As pessoas apenas estão cobrando um comportamento condizente com o que é pregado pela empresa, que diz ser ""inclusiva""."	30/06/2019, 20:45:55
1145479908677869573	EpicViniciusHue	Cara, esse barulho machuca sim, já pensou se a razer apoiasse a gabi? Todo o hate que ela ta recebendo a razer tb estaria recebendo, provavelmente iriam promover um boicote contra a empresa e ela ia ficar pra sempre com fama de lacradora ou algo assim	30/06/2019, 20:51:06
1145480037896019968	krakengami	tem uma youtuber aí otakinha que foi uma das que endossou a perseguição a aquela outra treta de outra youtuber lá a Gabi sei que lá com a razer, que é anti esquerda e que fez postagem com frase do Hitler e que teve contrato cancelado e tá dizendo que tá sendo perseguida kkkkk	30/06/2019, 20:51:37
1145480471284989953	sushiebao	É, porque seria problema se um porta voz da Razer falasse que toda mulher é lixo	30/06/2019, 20:53:21
1145481157427023873	juniorfeitt	Ai a razer tem que fazer algo a respeito, e a twitch tbm saca	30/06/2019, 20:56:04
1145481248615403520	EpicViniciusHue	E se tu acha que não, olhe esses prints dos comentários do post anterior a esse antes da carta da razer: 	30/06/2019, 20:56:26
