id	username	text	datetime
1132436208200626176	breno_almirante	Um emprego na razer.	25/05/2019, 21:00:06
1132445341217894408	davidtodobomm	e dps faziam com vários para atrair vários públicos através do algoritmo do youtube,,, faziam com uns Razer kraken para os gamers, uns audio technica para pessoal que trabalha com áudio, airpods para o público geral, etc.	25/05/2019, 21:36:23
1132446743700869121	llNobodyz_	comprei um h7 da razer, tava precisando ja dessa merda	25/05/2019, 21:41:58
1132471606452862976	Rubiara22	Nao, fui pegar dinheiro.	25/05/2019, 23:20:45
1132497436776251392	takinhaaa	fodase eu amo a razer 	26/05/2019, 01:03:24
1132501699619414016	CapitaoForever	@netenho1 Se poder me ajude. Notei que você agora usa um fone da Razer, e você ja teve um Cloud Revolver, sei que ambos são excelentes, mas qual deles você gostou mais? E qual é o modelo do seu fone razer?	26/05/2019, 01:20:20
1132507041652588545	skxroot	Razer 	26/05/2019, 01:41:34
1132512615970873344	betimdadepre	depois das orelhinhas de gato na razer, por que não asinhas no morcego? um cabo mais peludo pro lobo? mais idéias de produtos, tratar inbox HUAHUAUHUAH	26/05/2019, 02:03:43
1132521044948840451	UnboxingSpecial	Razer P*rn! #huntsmanelite #huntsman #optomechanical @Pallíni, Greece https://www.instagram.com/p/Bx6gy8NosOC/?igshid=4jz6m2tkva9y	26/05/2019, 02:37:12
1132523006620839938	GamersBasement1	Razer Mamba Elite for 121$! http://tiny.cc/jd696y	26/05/2019, 02:45:00
1132528436835053573	wuurple	RaZeR	26/05/2019, 03:06:35
1132541438393110529	Galleon_FFXIV	Razer♡	26/05/2019, 03:58:15
1132543385313730560	Yacehh	Razer?	26/05/2019, 04:05:59
1132610270793093120	suzuryo_1125	Razer！	26/05/2019, 08:31:46
1132615334341619712	KalchevAri	Razer	26/05/2019, 08:51:53
1132624071433211904	ChaitanyaRushi	LEVINHO AND SEVOU	26/05/2019, 09:26:36
1132629146813837313	Brabudao	Não da pra escolher um só @giganterichard (que me fez gostar do http://fb.gg) @TheDarknessPGDM @FunkyBlackCat @RenatoEstranho @alanzoka	26/05/2019, 09:46:46
1132649979799937030	marciojmsilva	Razer anuncia fim do suporte ao OUYA e Forge TV http://dlvr.it/R5S1KV	26/05/2019, 11:09:33
1132650839011729408	LarihMage	Obrigada 	26/05/2019, 11:12:58
1132655718958546945	mandssis	só queria um headset da razer	26/05/2019, 11:32:21
1132657728214720512	gfeedk	Razer anuncia fim do suporte ao OUYA e Forge TV #tecnologia #tech http://bit.ly/2EzrK9T	26/05/2019, 11:40:20
1132658004791193600	IDCSummitBR	Os dias de vida do OUYA e da Forge TV estão chegando ao fim. A Razer anunciou na semana passada que está encerrando o suporte a esses dois hardwares, fechando as lojas de aplicativos e jogos que servem aos dispositivos no dia 25 de junho e não mais liberando atualizações e n… 	26/05/2019, 11:41:26
1132658168021037058	JackS2Fernandes	Razer anuncia fim do suporte ao OUYA e Forge TV 	26/05/2019, 11:42:05
1132659420943605760	GooglandoPlus	http://bit.ly/LotoFacilBR: Razer anuncia fim do suporte ao OUYA e Forge TV http://j.mp/2HCuZPN #GooglandoPlus #Tecnologia #Notícias	26/05/2019, 11:47:04
1132661508536721408	nicaaaao	Caraio razer 	26/05/2019, 11:55:22
1132664045872537600	ClutchZyveon	RAZER 	26/05/2019, 12:05:27
1132664315419475969	vpinheiro_	E para terminar o fim de semana nada mmelhor do que vos razer as minhas 5 musicas do momento. Bom resto de Domingo. 5 Musicas do momento | O Mundo da Vânia https://youtu.be/2TU_sYQdJRo via @YouTube	26/05/2019, 12:06:31
1132666196204163072	hbumaze	razer?	26/05/2019, 12:13:59
1132672133572812801	AshHousewares_	No problem, man 	26/05/2019, 12:37:35
1132672163335593984	LynnTV_	Obrigada meuamô 	26/05/2019, 12:37:42
1132672867034902528	maniezi_sr	@Mythuosz razer gastou nossa nação ahshshshsshahsh	26/05/2019, 12:40:30
1132678119415066624	HenryBrenden	Chaos #game #gamer #gaming #siftware #code #unreal #ue4 #nvidia #razer #amd #radeon #ryzen #losangeles #newyork #pittsburgh #xbox #pcgaming #gamedev #ps4 #pc #developer #pcgamer #upcominggame #xboxone #steam	26/05/2019, 13:01:22
1132679770972418048	indrazhai	razer pc https://www.facebook.com/zainiindrafahmi/posts/2429963613700789	26/05/2019, 13:07:56
1132689137876774915	SuperChampzLive	Como fazer o meu dia. TMJ	26/05/2019, 13:45:09
1132692658000932867	_joaogustavok	se tem algo que a razer faz mt bem e o software pqp	26/05/2019, 13:59:08
1132696233720635392	NStefanovicz	Peguei o mouse da razer da fernanda pra jogar the sims NINGUEM ME SEGURA HOJE	26/05/2019, 14:13:21
1132697157495066627	guszera	vai tatuar o logo da Razer no cóccix?	26/05/2019, 14:17:01
1132703953232306177	Kryqtex	Razer ornata	26/05/2019, 14:44:01
1132704030285815808	RandomRobotWars	Razer vs Victor	26/05/2019, 14:44:20
1132704398143119365	joaoreis2512	Aquele momento em que compro fones da razer supostamente para jogar, mas acabo por ir ouvir malha ehehe	26/05/2019, 14:45:47
1132709213023682560	JonniML	@pablorets21 @CalvinJota @BryOliveiira não da para escolher só 1	26/05/2019, 15:04:55
1132711862334832645	EL1T3_SC0UT	Razer.	26/05/2019, 15:15:27
1132715134802104320	ryoranfgc	Muitíssimo obrigado pela confiança! Fico extremamente feliz que gosta do meu ttrbaalho sério mesmo! Vou trabalhar mais duro ainda depois desse reconhecimento! 	26/05/2019, 15:28:27
1132718842788995072	Keoma89	Fico feliz de saber que curte, valeu pelo apoio =D	26/05/2019, 15:43:11
1132719229009047553	ThuskaTW	@kabumcombr eu tô precisando de um par novo de almofadas pro meu razer kraken 7.1 chroma v1	26/05/2019, 15:44:43
1132728121466114048	Infohousepd	Razer anuncia fim do suporte ao OUYA e Forge TV http://dlvr.it/R5Sf6d	26/05/2019, 16:20:03
1132729823892299776	portugassis	"Chega até ao ponto onde ele compreende sua razão de viver e com a Shana aceitando sua nova ""missão"" como Flame Razer, a de proteger o seu novo parceiro. Em resumo, termina com a derrota de Friagne e de seus planos para realizar um novo ""Banquete Urbano"", para os íntimos do anime."	26/05/2019, 16:26:49
1132733216354439168	diogotito_	Obrigado! Não te esqueças que hoje há stream de trolladas!	26/05/2019, 16:40:18
1132733346050502656	klynne612	Razer!	26/05/2019, 16:40:49
1132733845265113088	__MrSandman__	Geladeira Frost Free da razer 100% confirmando	26/05/2019, 16:42:48
1132733908922064902	Ianteix1	teclados e mouses da razer 	26/05/2019, 16:43:03
1132735249824329731	Piltover_Fist	Caixa da razer confirmed!!!!	26/05/2019, 16:48:23
1132737837667901440	jpoozaro1	É um aquário da Razer edição especial somente pra vc Pk	26/05/2019, 16:58:40
1132739044335603713	l_casagrander	Razer phone 2 em terras Tupiniquins?	26/05/2019, 17:03:28
1132741953949491200	lapa_tito	Aquario da Razer ???	26/05/2019, 17:15:01
1132743406671802369	gomesflipping	Tinta da razer?	26/05/2019, 17:20:48
1132749384708427782	thesweetsammie	PUBG pro @RivasOnTwitch 	26/05/2019, 17:44:33
1132750875762601984	PanosDeSom	Fala pra razer sortear alguns equipamentos pra quem apoiou a tv maresol, forte abraço 	26/05/2019, 17:50:28
1132755607948148736	AlecMcNamara17	Heheh 	26/05/2019, 18:09:17
1132762260898766849	caminhaoveneno	Papel de parede Razer: R$699,90 	26/05/2019, 18:35:43
1132771340501573632	f4bihype	saudades de quando o maior hype existente era ter um set full Razer	26/05/2019, 19:11:48
1132780621720444933	tz9yu	faltou o fone da razer rosinha com orelhinha	26/05/2019, 19:48:40
1132782201618214913	ALLTECH5	Razer anuncia fim do suporte ao OUYA e Forge TV 	26/05/2019, 19:54:57
1132786059916578816	RodrigoVogt_	to precisando saber de uns tbm que n sejam razer, pq comprei um deathadder elite ano passado e já tá dando uns double click	26/05/2019, 20:10:17
1132786373256253440	HeyAnjin	barato red dragon kkkk bom eu gosto mouse da razer e teclado hyper x se quiser mais especificos e só falar	26/05/2019, 20:11:32
1132787168240390144	shinehinoah2	É a geladeira razer	26/05/2019, 20:14:41
1132788947380310021	arkashito	Mouse razer é bom, Corsair e hyperx Teclado fique longe de Razer, Logitech tem altas chances de zoar também, eu recomendaria steal series, gigabyte ou hyperx	26/05/2019, 20:21:45
1132789971805515776	passjuuh	roubei o mouse razer do mozao	26/05/2019, 20:25:50
1132792525461307394	iaruxa579	Comprar o setup inteiro da razer pra depois descobrir que razer é uma bosta 	26/05/2019, 20:35:58
1132794772719120385	ckmiIa	quando é o seu ?? vou razer 25 e vc ?	26/05/2019, 20:44:54
1132796087113256961	rafaeldantasn	chuveiro da razer	26/05/2019, 20:50:08
1132796334203912192	gm_ngfhkwd	razer kkkkkkkkkk stealseries e os do fallen dizem q são bons dms	26/05/2019, 20:51:07
1132797584106577921	HofmannSkrr	Larga da razer eh isto	26/05/2019, 20:56:05
