id	username	text	datetime
1133523913638592512	CaioCorraini	tô tão titi, será que alguém poderia me dar um RAZER BLADE 15 2019 COM RTX 2080 512GB DE SSD E 16GB DE RAM???? 	28/05/2019, 21:02:15
1133525504982700032	GuiMagnus_	Qualquer coisa tava bom, manda uma caixa misteriosa da razer imagina	28/05/2019, 21:08:34
1133526688145584130	CaioCorraini	inclusive eu super ia pegar um novo Surface no ano que vem, mas esses Razer Blade tão parecendo tão crocantes que tô juntando um pouco por mês pra ver se compro no final de 2020	28/05/2019, 21:13:17
1133533455881572352	mauroczf	Shark bolado no setup hein Foninho Razer e cadeirinha master fucking race	28/05/2019, 21:40:10
1133534570245234688	xsamuel___	fodasse sem nd pra razer fav q te digo: primeira impressão: onde te conheci: confesso que:	28/05/2019, 21:44:36
1133546304456593409	Barrrosguii	Celulares que eu já tive Galaxy s2 Motorola razer HD ZenFone 1 Moto g 4 J2 prime ZenFone 4 	28/05/2019, 22:31:13
1133552745850572800	Diegosanart	A claro, fone da Razer e mais	28/05/2019, 22:56:49
1133562500186857478	zlotyslol	meu deus necessito de um chaveiro da razer , da tecla ,só pra ficar teclando o dia inteiro , tenho mto tesão por o barulho do switch blue puta merda q barulho gostoso de se ouvir	28/05/2019, 23:35:35
1133568151516585985	chrischeibe	Deixa pra razer isso daqui 2 semanas. Que Gabi me ajude rss.	28/05/2019, 23:58:02
1133577707114119168	Dogetheus	Entao isso que é um Razer Naga? 	29/05/2019, 00:36:00
1133602245793202176	telles_ebooks	Ok a razer lançou um macbook.	29/05/2019, 02:13:31
1133603986232283136	valkyrieenyx	sefode viu, nem app da razer usa tanto memoria e disco	29/05/2019, 02:20:26
1133624105708740608	biel_da_vc	Eu só queria o kit da razer rosa	29/05/2019, 03:40:23
1133630287513100288	esportsMv	"RT Razer ""HayliNic """	29/05/2019, 04:04:57
1133630296300163072	esportsMv	"RT Razer ""Sp00nerism """	29/05/2019, 04:04:59
1133630298003005442	esportsMv	"RT Razer ""MiniLaddd """	29/05/2019, 04:04:59
1133654005954088961	EuSouOGoku	Setup branco! Razer lança vários dos seus produtos gamers na cor Mercury White 	29/05/2019, 05:39:11
1133658084302348289	crfkaike	Um chá da razer deve ser uns 500 dolares, nao cai nessa nao hein	29/05/2019, 05:55:24
1133667109840535552	dread3300	F razer de 300 euros	29/05/2019, 06:31:16
1133668214934769665	pontindeluz	L evanta G ostosa B ora T razer mais motivos pra valorização da educação brasileira Bom dia	29/05/2019, 06:35:39
1133670419725193222	riqueewtf	Pq saiu da razer?	29/05/2019, 06:44:25
1133674054282616832	cailloou5	Eae gostou do teclado? Tenho um blackwidow chroma da razer mas quero esse dark avenger ai	29/05/2019, 06:58:51
1133685089097752576	_500s_	Razer	29/05/2019, 07:42:42
1133700666269024256	larc560	Ainda bem q eu tenho o meu Xbox one S com um fone da Razer e meu iPhone 6 S	29/05/2019, 08:44:36
1133704879757811715	BorjaBlueEyes	"""de se"""	29/05/2019, 09:01:21
1133706424083714048	Felipster23	É a gamificação do sono, não vai demorar p sair travesseiro RGB da Razer.	29/05/2019, 09:07:29
1133717436136660993	conrado_tv	Os novos kits mercury razer que ta sem preço ainda	29/05/2019, 09:51:14
1133718669308104704	Felipster23	Não vejo a hora de ter meu travesseiro RGB da Razer !!!	29/05/2019, 09:56:08
1133720374426910721	moafoda	Foi a reunião de hoje nos sonhos com os investidores mais hardcores da @Razer	29/05/2019, 10:02:55
1133726296985481217	rrcs_1	gordox um pc eu não queria, mas um cupom de desconto para poder comprar uma mochila da razer seria show heim	29/05/2019, 10:26:27
1133726896997507072	1v1NI	Estou usando o Razer Goliathus extra grande, más to querendo pegar um hyperX fury s	29/05/2019, 10:28:50
1133727147435204608	Brunasiqueira	faz um desconto massa na linha quartz da razer, pra eu poder me presentear.	29/05/2019, 10:29:50
1133731128127447047	Maycao_Mkd	meu mouse e headset estragaram, razer é uma beleza mesmo	29/05/2019, 10:45:39
1133732615545131008	Fellipe_Navarro	Se até o pessoal da Razer falou... 	29/05/2019, 10:51:33
1133741417363169280	werypro2	Pa suu mechaaa!!! Checate eso marima... Digo, #diosakawaii @monanamix de la @Razer #TwitchRivals #Twitch #TwitchAffilate #twitchgirls #twitchstreamer #streamer #TwitchHispano #gamer #gamerguy #gamersunite #Razer #PCGamer #gamingcommunity #Gameplay	29/05/2019, 11:26:32
1133741781177307138	taisgotada	bug de teclado da razer por menos de 100 reais	29/05/2019, 11:27:59
1133743072171384832	AmerikaKane	Razer!!!	29/05/2019, 11:33:06
1133744635094945792	lojakingbits	Foi projetado para permitir deslizamentos suaves e paradas certeiras, dando a você o melhor de ambos os mundos no campo de batalha. https://bit.ly/2I9p6IM #mousepad #game #gamer #pcgamer #razer #mousepadrazer	29/05/2019, 11:39:19
1133748091776057345	TTV_Otsu	Razer ManO!War	29/05/2019, 11:53:03
1133755118720036864	echoboomerpt	Razer pinta-se de branco com a nova coleção Razer Mercury https://echoboomer.pt/razer-pinta-se-de-branco-com-razer-mercury/	29/05/2019, 12:20:59
1133758929211658240	dafrangz	Temos uma viewer nova cá em casa e é do tamanho do comando! Ainda não tem nome *que informação dramática* #rgb #corsair #razer #cat http://bit.ly/2JMWwjQ	29/05/2019, 12:36:07
1133764705854676992	napzeu	RAZER &lt;3 	29/05/2019, 12:59:04
1133772055063744513	Vic_domingos	warrior da multilaser, bom d+ e n é tão caro, estilo Razer	29/05/2019, 13:28:17
1133776431249596416	rrcs_1	Gordox aproveitando, aqui em Santos eu acho mochila da, razer?	29/05/2019, 13:45:40
1133779230402252801	rrcs_1	Obrigado razer sua linda 	29/05/2019, 13:56:47
1133781796255150080	kelvinzeragames	Eu amo essa marca @RazerBrazil #KelvinzeraGames #Kelvinzera #KG #Razer #BGS	29/05/2019, 14:06:59
1133789100841086976	SkulluShop	Razer qui me demande de les contacté mais au final ne réponde pas 	29/05/2019, 14:36:01
1133795988987105280	angelomel0	Só pra mostrar o teclado da razer q é mais caro do q a casa dele	29/05/2019, 15:03:23
1133797423216758785	rrcs_1	Razer meu anivesário foi segunda dia 27/05 se quiser me mandar um presente eu fico feliz também! hahahhaahahha	29/05/2019, 15:09:05
1133801803693338625	CLICKBYTEtv	Empresta as tuas da Razer.	29/05/2019, 15:26:29
1133805163590946817	matheusdevdd	JONJON TEAM RAZER CONFIRMADO	29/05/2019, 15:39:50
1133807360114352128	aa_rean	RaZeR nIbBa	29/05/2019, 15:48:34
1133810174882439168	SouoTheu	é um Razer Nostromo, um gamepad que eu usava pra jogar antes de comprar o BW	29/05/2019, 15:59:45
1133811187173462017	GabrielLuvinha	Vou trocar meu setup inteiro esse ano ainda Teclado: Razer Mouse: Razer Headset: Razer Mesa Digitalizadora: Wacom Monitor: 22'' Vou trampar essas férias inteira para poder fazer meu dinheiro render	29/05/2019, 16:03:46
1133828001500680193	wkeyoch	razer	29/05/2019, 17:10:35
1133831148193423360	souzarks	QUEM ESTAVA É TREINADOR DE TIRO CURTO SERA Q TU Ñ PERCEBEU? JA QUEM CHEGOU NEM DEVERIA TER VINDO E O PORTUGUÊS Q ESTAO FALANDO NÃO CONFIO, QUANDO RAZER 1 DE VERDADE Ñ PODE DEIXA ALIENIGINAS IMTERFERIR NO TRABALHO DELE COMO ACONTECEUCOMRUEDA @marcosbrazrio @WallimFla @Flamengo	29/05/2019, 17:23:05
1133832544489750528	Miku_Izayoi2006	Razer naga	29/05/2019, 17:28:38
1133839732939603969	RazerBrazil	RAZER TALK ao vivo com @luisggmello, repórter do @lolesportsbr! Assista: http://rzr.to/AoVivo	29/05/2019, 17:57:12
1133846894936055813	hapeyluiz	Tipo faz sim um barulhinho sabe, soq não e igual aa outras switch iguais da razer	29/05/2019, 18:25:40
1133852074435928066	ENERGIX12	Razer Mamba &gt; all	29/05/2019, 18:46:15
1133852195538001921	carriet_	eu sou mto fan girl da razer man, credo mas os cara são brabo nos equip	29/05/2019, 18:46:44
1133852952840548354	learsirelliim	a namorada do meu irmão deu um headset da razer pra ele eu tô bem triste	29/05/2019, 18:49:44
1133853137771610114	_knck_	Domo X Razer @HitsLikeLeon @Papaplatte	29/05/2019, 18:50:28
1133861484767907840	quebecfromage	Pas le casque par contre	29/05/2019, 19:23:38
1133863547564437505	LeBroMeazh	razer c'est quitte ou double	29/05/2019, 19:31:50
1133864134251032576	jontechs	Pc or console?	29/05/2019, 19:34:10
1133868578397130752	brunoantonieto	o meu mouse antigo é da razer tb, durou 6 anos comigo e ta inteiro ainda #TOP; no momento to jogando apenas o lolzinho @LoLegendsBR pq é o que o meu pc roda sem complicacões	29/05/2019, 19:51:50
1133874301524946951	GuysShouldCry	RAZER NUBE RAZER NUBE	29/05/2019, 20:14:34
1133875759112773632	Its_Floop	Adiciona Razer Logitec Coisas de perifericos gamers	29/05/2019, 20:20:22
1133876316971970560	GeoRuiva	Se eu tivesse dinheiros infinitos seria Full razer (menos o fone) pq os da hyperx são de outro mundo.	29/05/2019, 20:22:35
