id	username	text	datetime
1128455292960722944	ToxicitygaminTV	Razer naga!	14/05/2019, 21:21:22
1128461958716506112	TrajanosacuL	Headset Razer meka http://D.va Mas meio que desisti, não parece confortável e não tem 7.1	14/05/2019, 21:47:51
1128466617367769090	grcarneir	Se for pra jogar fps compra o razer abyssus, eh bom e barato. Única coisa q não tem botão, dependendo do jogo eh zoado daí	14/05/2019, 22:06:22
1128468254194851850	Toguro_Sanches	"@Neshastore vcs tem previsão de quando as ""AWPs da Razer"" vão voltar pra loja?"	14/05/2019, 22:12:52
1128470432238190608	TrajanosacuL	Update: o fone é bonito, de marca, mas não é bom Vida que segue E se alguém quiser um Razer Electra V2 USB faço por 250	14/05/2019, 22:21:31
1128474896072421376	Joaomees8	Não acredito que tu deixou o razer kraken jogado no chão	14/05/2019, 22:39:15
1128480376740044801	LucasPoffoX	Fone é indiscutívelmente melhor, mas em teclado não sei, nunca tive da razer	14/05/2019, 23:01:02
1128491067731529733	AChiderolli	Fui seco por meu fone da razer no meu celular e não tem entrada :(	14/05/2019, 23:43:31
1128492169612939266	Rafascgomes	O que valeu muito a pena pq os produtos eram da Razer 	14/05/2019, 23:47:54
1128492244649086976	Julessuxx	razer, ele eh lindo msm mas eu pesquisei aqui ta cheio de gente com o mesmo problema da tecla parando de funcionar do nada	14/05/2019, 23:48:12
1128495059266088961	xrmfps	Hahaha eu nao tinha fone nenhum, o meu era um da sony antigasso e por isso o celao me deu, pq comentei com ele q o meu tava caindo aos pedaços... e Mouse só tenho um da Razer que comprei faz mtos anos tb	14/05/2019, 23:59:23
1128495156511092737	pegluu	to vendendo um teclado razer cyclosa se alguem se interessar kkkkkkkkk	14/05/2019, 23:59:46
1128515877073190917	Kriiztol	Esta nena me pone ¡DURÍSIMO! RAZER! 	15/05/2019, 01:22:06
1128536829463019520	mojojojiss	seu teclado é da Razer? você é GAMER?	15/05/2019, 02:45:22
1128544440279191552	Bideal_gt	Razer？	15/05/2019, 03:15:36
1128563410554294273	cleomarjunior7	Eu tenho um teclado da Razer, o Cyclosa que não uso e está parado faz tempo! Problemas nele? 1 e nem é tão problema assim (o ctrl esquerdo tá duro de tanto CS). Não é uma máquina nem a solução caso precise de um TOP, mas não custa tentar ajudar o próximo como posso. DM se quiser	15/05/2019, 04:30:59
1128589226881294336	bztaneh	Razer	15/05/2019, 06:13:34
1128613123911499776	JnatasCavalcant	L evanta G ay B ora T razer a faculdade pra rua!	15/05/2019, 07:48:32
1128643034873200641	ImGang2K	Razer electra v2	15/05/2019, 09:47:23
1128649813384470528	gaeltxt	Eu comprei um fuckin razer	15/05/2019, 10:14:19
1128650016745299968	MillsRP_	fiel a razer nena	15/05/2019, 10:15:07
1128655482980319232	MaskV6	Fico triste por n ter a aya e o razer nas hqs tbm Eles são os melhores personagens desse desenho	15/05/2019, 10:36:51
1128658605161553920	setsunaryu	Eu tenho o que é antepassado desse há uns 10 anos. Só ano passado começou a demonstrar cansaço. Meus Razer por outro lado...	15/05/2019, 10:49:15
1128667324981088256	salesluisa_png	hahahahaha Esse é da razer se não me engano,já ta bem velhinho, to esperando o mousepad da dva chegar essa semana	15/05/2019, 11:23:54
1128667733858619398	ErasedLuigi	Pessoal to vendendo essa Razer Panthera pouquissimo usada em excelente estado, venda só pra retirada em mãos em sp primeiramente, quem der rt pra ajudar humilde 	15/05/2019, 11:25:32
1128675655489662976	MarianaLiptak	As vezes eu queria morar aí pra poder ajudar cês tudo, eu tenho uma minisolda e troquei o fio+conector do meu fone da razer em 20 minutos, e o fio que coloquei foi papo de 20 reais	15/05/2019, 11:57:00
1128689004000444416	PromocoesGatry	Mouse Razer Naga - Edição Limitada - Verde / R$:263,12 / https://gatry.com/promocao/detalhes/90674/mouse-razer-naga-edicao-limitada-verde	15/05/2019, 12:50:03
1128689298155429889	PromocoesGatry	Mouse Sem Fio Razer Ouroboros 4g 8200 Dpi, Ajustável, Preto / R$:351,12 / https://gatry.com/promocao/detalhes/90673/mouse-sem-fio-razer-ouroboros-4g-8200-dpi-ajustavel-preto	15/05/2019, 12:51:13
1128689313774960646	PromocoesGatry	Caixa De Som Razer Leviathan Mini / R$:351,12 / 	15/05/2019, 12:51:17
1128694068626640896	momo_yyun	Razer mamba!	15/05/2019, 13:10:10
1128699906141638658	xlucaszx	@kabumcombr pessoal, não me descolam um cupom de desconto? Tô em dúvida entre três mouses. Logitech g600, Razer Naga Trinity Chroma ou Corsair Scimitar..	15/05/2019, 13:33:22
1128706517740523520	tutupieri	Tô querendo pegar um Razer Seiren X	15/05/2019, 13:59:38
1128706615144845313	RazerBrazil	Saldão Razer prorrogado na @kabumcombr! Mas seja rápido, as unidades são limitadas. Até 45% OFF: http://rzr.to/saldaokbm19 	15/05/2019, 14:00:02
1128706620651909121	PromobitOficial	#promoção #oferta Caixa De Som Bluetooth Razer Leviathan Mini - R$351,12 	15/05/2019, 14:00:03
1128707207887896576	kira8bit	Razer！	15/05/2019, 14:02:23
1128710667656208384	RMulekinn	e mais bom q razer	15/05/2019, 14:16:08
1128710770458492928	Avinkkk	nunca comi um da razer, queria se rico	15/05/2019, 14:16:32
1128711111803592705	soberbo	Caixa De Som Razer Leviathan Mini por R$351 https://click.linksynergy.com/deeplink?id=uPNOrv830ys&amp;mid=42034&amp;murl=https%3A%2F%2Fwww.saraiva.com.br%2Fcaixa-de-som-razer-leviathan-mini-9907601.html (Na amazon dos USA custa uns 170 dolar)	15/05/2019, 14:17:54
1128713941247565825	OrcsBrancos	Agora vai em!!! Acabei de comprar: 'Razer Microfone Seiren X (Usb)' por Razer via @amazonBR https://www.amazon.com.br/dp/B07B3SDPPJ/ref=cm_sw_r_tw_asp_Xk2rQ.78MKHJZ	15/05/2019, 14:29:08
1128716796226416642	Rdanelon	Riyu, desculpa mudar de assunto, mas qual a linha de periféricos que tu usa? São da Razer, né?	15/05/2019, 14:40:29
1128727274520498177	E_ai_comprou	Mouse Razer Naga - Edição Limitada - Verde por R$263,12 em 1x no crédito Compre aqui: https://desconto.page.link/X3AgD Partic... Compre aqui: https://desconto.page.link/i41tF	15/05/2019, 15:22:07
1128729544670744576	Orbitalmx	https://www.facebook.com/orbital.mx/photos/a.281377565254888/2381886135204010/?type=3 Galeria de Hardware por #Razer Presentada por http://orbital.mx ¡Visitanos!	15/05/2019, 15:31:08
1128730325113294848	canaldoraia	especial de 100k vou sortear um headset da razer 	15/05/2019, 15:34:14
1128741735964790784	FelipenhoRJ	Razer Patrocina Rafaela Goulart https://clips.twitch.tv/BoldBlazingWolverineStrawBeary?tt_medium=twtr @RazerBrazil @Razer @rafaelagoulartn	15/05/2019, 16:19:35
1128742102731579392	gabrielgeex	Infelizmente nossa live foi estragada pela tão poderosa @Razer, que faz um produto de merda, investe toda grana em marketing e compra seu streamerzinho favorito pra dizer que os produtos dela são bons. Mas ninguém derruba nois não, já pluguei o mousezin da multilaser boladão	15/05/2019, 16:21:02
1128743610256711680	gabrielgeex	Multilaser basicão R$6,90> Razer DeathAdder Elite R$350	15/05/2019, 16:27:02
1128745675343237121	leoleogab	Será q falta MT pra razer fazer uma cadeira Chroma ? Kaksjfj	15/05/2019, 16:35:14
1128747385465786369	PromobitOficial	#promoção #oferta Headset Gamer Meka http://D.Va Razer Microfones e Fones De Ouvido Preto - R$404,74 	15/05/2019, 16:42:02
1128755144408076289	andrezinhoxdd	é da razer?	15/05/2019, 17:12:52
1128755786358849536	Jonatha83502304	Fazer oque ne, esses mendingos como o csa tem que razer isso se não os jogadores ficam sem salario	15/05/2019, 17:15:25
1128770417408249858	giovanni_marcos	Na época que comprei o meu fiquei na dúvida entre um @RazerBrazil entre @HyperXBrasil mais acabei optando pelo mais em conta na época que comprei que foi o Razer essential foi a pior escolha que fiz o Headset e muito frágil..	15/05/2019, 18:13:33
1128785921799872512	LuizFGarden	"Entrevista com @GruntarTV ""AO VIVO"" agora na Razer, hein &lt;3 "	15/05/2019, 19:15:10
1128800187474952197	shesolivia	MEU PAI NÃO ACREDITO QUE DEDOBRI ISSO SÓ AGORA DA PRA RAZER IGUAL NO WPP PUTA QUE PARIUKKKKK ISSO SALVOU EU DEMAIS NAMORAL ADOREI	15/05/2019, 20:11:51
1128800491826307073	1MasterBall	Oficialmente estou vendendo meu laptop gammer, se alguém ai souber de alguem interessado numa nave espacial no formato compacto venha falar comigo. Só 7k , 7.5k e leva tudo da razer!	15/05/2019, 20:13:04
1128808288232067077	TrajanosacuL	L evanta G ay B ora T razer a paz em Azeroth	15/05/2019, 20:44:02
