id	username	text	datetime
1159618474819407882	MathSh4d0w	Parabéns Gordo, felicidades ae	08/08/2019, 21:12:43
1159622641797521409	ThaliaMayumii	Eu choro querendo um headset da @RazerBrazil , dava pra eu ter juntado e comprado 2 headset quartz 	08/08/2019, 21:29:17
1159626934910902272	Eddysouzablabla	Tira esses 90 centavos razer Odeio receber troco em moedas	08/08/2019, 21:46:20
1159632133008384000	dante_ynt	Longe dessas porras	08/08/2019, 22:07:00
1159634278071902208	CristianDrieme1	Estou entre as mesas do GTAV minecraft e WOW.	08/08/2019, 22:15:31
1159634441767149568	LuzLeonardo1	Qual o problema do Free Fire? Afs.	08/08/2019, 22:16:10
1159637278077181953	Pixelszone	Logitec é hardware de mendigo!	08/08/2019, 22:27:26
1159639051462463488	k1ng_artur	Dias de glória	08/08/2019, 22:34:29
1159640231580188672	LuccaRibeiro25	Eu fazia uma mesa do Pokémon	08/08/2019, 22:39:10
1159641079265878017	jorcarlosamaral	@RazerBrazil Razer lança #mouse com #switchesópticos e leva a #experiência em #esportes #eletrônicos a um #novo #patamar https://atitudesnoesporte.blogspot.com/2019/08/razer-lanca-mouse-com-switches-opticos.html	08/08/2019, 22:42:33
1159641741995204608	Mavdogoverno	cadê o fogaréu gratuito?!	08/08/2019, 22:45:11
1159642207390969858	ManfrediniPS	MINECRAFT COM CERTEZA 	08/08/2019, 22:47:02
1159642254157504512	MatheusSicilia1	Fortnigt é óbvio	08/08/2019, 22:47:13
1159645983086714880	RadGTX	Mudava de escola	08/08/2019, 23:02:02
1159648235830546432	striker2x2	entre o dota e o cs	08/08/2019, 23:10:59
1159648610012815363	Tschembek	patrocina noissss	08/08/2019, 23:12:28
1159650364733427712	Gilmari25520491	Disse certo, comunidade PVP	08/08/2019, 23:19:26
1159650375387033603	Tiagorb100	Faz promoção com headset Logitech, hiperx... Razer a gente não tem condição não...	08/08/2019, 23:19:29
1159650784147099648	Hisdeki5	Um gluteo no de cs e outro no gta e o cú no do fortnite	08/08/2019, 23:21:06
1159652717024993280	cabecao_rs	Só divido mesa com @PlayWarframe	08/08/2019, 23:28:47
1159653295293685760	tiago_szast	pubg	08/08/2019, 23:31:05
1159653379444006912	LuizRogerioS	PUBG ou CS	08/08/2019, 23:31:25
1159653574705655809	empiresu	Pubg e CS	08/08/2019, 23:32:12
1159654372550283264	hollixbgerton	Cadê R6??????????	08/08/2019, 23:35:22
1159657443913281537	Rafinhaa1fps	Joguei este campeonato da Razer de dupla com meu pai . Campeonato 2x2 da @RazerBrazil. @venga1fps e @talpaitalfilh0 com @famili... https://youtu.be/69AU_rB3AxQ via @YouTube	08/08/2019, 23:47:34
1159660483416330245	Ysgramirtv	Falou o Wowzeiro	08/08/2019, 23:59:39
1159660890792353792	meuapelidoetin	foi expulso de sala pq tava quebrando as janela tudo	09/08/2019, 00:01:16
1159663077694038017	_Shang_VIC	Nenhuma	09/08/2019, 00:09:57
1159664045928177673	rodrigo_emag	cada dia uma galera difente , menos com lol,dota e wold porque não jogo esses.	09/08/2019, 00:13:48
1159675331785252869	_oneor	@kaik156 evolução @MarioSergio421	09/08/2019, 00:58:39
1159680836465233920	residentevildb	Eu teria que sentar lá fora, no frio, na rodinha de Resident Evil, sentada no chão mesmo. 	09/08/2019, 01:20:31
1159684235340517376	Henry_Ayalag	Eu teria que sentar lá fora, no frio, na rodinha de Halo, sentada no chão mesmo. 	09/08/2019, 01:34:02
1159689065631031297	euprepon	Do lado de fora batalhando com os zumbis ué kkkkkkkkkkkk protegendo a galera de dentro!!!	09/08/2019, 01:53:13
1159691286653411333	wrenchjoquey	Claramente ficaria na cozinha, com os jogadores de Cooking Simulator 	09/08/2019, 02:02:03
1159691480207974400	JhonatanCaetan2	Sentaria na mesa onde não tem gente tóxica e não usam Razer, que no caso lá fora.	09/08/2019, 02:02:49
1159701541198188544	Gustavo_II_	na de mine, todo mundo gosta de mine	09/08/2019, 02:42:48
1159703091907895297	luann373	Não conheço a comunidade do Minecraft mas a do StarCraft é sensacional	09/08/2019, 02:48:58
1159711108426534912	Milk_jeff	Mesa do lol geral vai tá se xingando, vamo de cszada	09/08/2019, 03:20:49
1159721174756147202	YuriiDk	E agora ganha dinheiro jogando e dando dicas :)	09/08/2019, 04:00:49
1159721784276586496	leocosts	eu iria pra cozinha bater papo com as tias.	09/08/2019, 04:03:14
1159743788081963008	RebecaPinhoDS	Sentaria na mesinha do overwatch, mas para jogar usaria um @HyperXBrasil já que comunicação é importante no joguinho, e vocês costumam calar as mina né.	09/08/2019, 05:30:40
1159751141732880384	okihikkk	Eu me sentaria com meu pc, pra poder jogar qualquer um desses, mas meu tá malhando	09/08/2019, 05:59:53
1159755204025339904	DOMPEDROVIVE	Lol e cs KKK teria que dividir os dias da semana pra cada um	09/08/2019, 06:16:02
1159756257756143616	UTENTE1LK	-Tem GTA V Pow , Não Curte GTA?	09/08/2019, 06:20:13
1159757209066188800	martyrbee	Olha, se tiver muito frio, ai eu daria uma chance pro GTA V, porque o resto pode estar 0 C° que eu ficava de fora kkkkkk	09/08/2019, 06:24:00
1159758762959429632	unnamed_har	Queria sentar em cima do chat...	09/08/2019, 06:30:11
1159762845124431872	bruno_doria	Seria até uma opção, mas queria mesmo era um CoD MW ou R6 viu	09/08/2019, 06:46:24
1159767617432952832	cidovski	No dia que tiver KOF aí quem sabe eu me misture kkkk	09/08/2019, 07:05:22
1159773107005075456	Mumu2k3	Procurando por mim? Procure pela mesa Minecraft.	09/08/2019, 07:27:10
1159773829616586752	Of_Zenon	Alô @RazerBrazil vídeo especial para vocês!! 	09/08/2019, 07:30:03
1159775600015499266	Relapings	Ta difícil kkkk	09/08/2019, 07:37:05
1159776142511022080	AndCardoso79	Nesse bando de jogo merda q tem aí, obviamente o único q dá pra jogar eternamente é o único q presta: GTA V!	09/08/2019, 07:39:14
1159796841548046336	ironangelu	Pubg	09/08/2019, 09:01:29
1159799868199723008	luiz_akatsuki	Mano tá e doido kkkkkkkk	09/08/2019, 09:13:31
1159804167436812288	verborragic0	infelizmente meu pc não estuda nessa escola	09/08/2019, 09:30:36
1159805815857000448	Walhoce	Obrigado @RazerBrazil pelo patrocílio #NovaFotoDoPerfil	09/08/2019, 09:37:09
1159808099898789893	Gabrieltudotud2	Acho q tem o mamba elite	09/08/2019, 09:46:13
1159810969054396422	RafahShynoa	Cara, q vermelho foda *o*	09/08/2019, 09:57:37
1159812540500774918	LF_GoPlay	Melhor comentário kkkkkkkkk	09/08/2019, 10:03:52
1159816651212230656	RazerBrazil	Exatamente, o pessoal do RE tá muito ocupado dando bala do lado de fora. 𝘜𝘕 𝘍𝘖𝘙𝘈𝘚𝘛𝘌𝘙𝘖!	09/08/2019, 10:20:12
1159816900081258501	SkullGamersBR1	Cadê o R6?	09/08/2019, 10:21:11
1159817460704514048	FerresMurilo	Passaria meu recreio dentro de sala com o r6 e bf	09/08/2019, 10:23:25
1159817516295905281	andre_pigatto	Nem preciso falar né	09/08/2019, 10:23:38
1159819550193573889	notgivinphucks	ainda era magrox	09/08/2019, 10:31:43
1159820562669211648	guilhermesddd	eu sou a moça da cantina	09/08/2019, 10:35:45
1159821588205887489	celsocpj	Cadê a mesa do Tibão?kkkk	09/08/2019, 10:39:49
1159827292161531907	pedrocardosa1	ué mas e o mine?	09/08/2019, 11:02:29
1159828636121255936	FilipeFrana17	Pubg	09/08/2019, 11:07:50
1159828960701628416	guilhermesddd	tem lanche gratuito	09/08/2019, 11:09:07
1159830159974776841	fihamaSa	E a dúvida, Apex ou Overwatch?! 	09/08/2019, 11:13:53
1159830619762900997	magazorde	Com a razer não sentaria, certeza.	09/08/2019, 11:15:43
1159831654380081154	repare_bem	Com a Nintendo no jardim.	09/08/2019, 11:19:49
1159831738530422784	Shinobiyoru	Mas o que a publicação tem a ver com isso? Wtf. E pq apareceriam? Vi muitas dizendo que não usariam mais prazer, se não estão aqui provavelmente é por isso	09/08/2019, 11:20:09
1159831803831541760	Novakgz	Não sabia que gordox era daqui de osasco	09/08/2019, 11:20:25
1159834540090613761	danilodan5	WOW Ou então Overwatch	09/08/2019, 11:31:17
1159835652537503744	residentevildb	Sempre cabe! 	09/08/2019, 11:35:42
1159836405683478528	residentevildb	Enfrentando os zumbis e eventuais criaturas obcecadas por estreeeeelasssss... 	09/08/2019, 11:38:42
1159836469453656064	GabrielFloriano	Pelo visto com ninguem rsrs... difícil escolha!!!	09/08/2019, 11:38:57
1159841412986236928	sonecaa63	Evoluiu	09/08/2019, 11:58:36
1159842105172217859	memourao26	@knowdeivi vc sentaria onde ?	09/08/2019, 12:01:21
1159842823841038336	CrazyCodeXiter	Tinha comprado um Hammerhead V2, mas ele deu problema no conector. Entrei em contato com a @RazerBrazil e eles foram atenciosos cmg. Mandei o fone pra São Paulo quinta passada, e hoje recebi um e-mail dizendo que vou ganhar um novo. Obrigado @RazerBrazil vcs são demais 	09/08/2019, 12:04:12
1159847543225798657	_ClaraAmaro_	Seria a professora 	09/08/2019, 12:22:57
1159848872627359745	gamendonz	vdd, r6 é daora parceiro	09/08/2019, 12:28:14
1159849365919285248	_ClaraAmaro_	Lá vem o Palmeirense... x1 em qlq joguinho que quiser	09/08/2019, 12:30:12
1159850537329856512	BrunoHermogenes	"World of Warcraft, seria os riquinhos da escola, mas sou pobre, mas sentaria de abusado que sou... ""Chronakai Kristor!"""	09/08/2019, 12:34:51
1159855879820369921	darkspirti	Dota2 é claro!!	09/08/2019, 12:56:05
1159865327745978368	edsonEagles	Moni procurando a turminha do Resident evil =D saahSAHSahsHSahHASashH	09/08/2019, 13:33:38
1159869763109228545	xoxo_pao	Minezinho é a melhor coisa que tem, volta a jogar que tu vai se sentir bem pra caramba	09/08/2019, 13:51:15
1159871416541601792	_overcast	Faltou apagar a marca d'água do autor/proprietário da imagem ali na moldura da janela da porta. Só o toque aí, né?	09/08/2019, 13:57:49
1159872553386741761	Shiro_Sutaru	Minescraft tem blocos. A escolha é clara.	09/08/2019, 14:02:20
1159873824005009409	lucasbrum	com as meninas q vcs encerraram contrato por assédio.	09/08/2019, 14:07:23
1159876106926874624	RicardoSyozi	Com certeza me sentaria longe de vocês.	09/08/2019, 14:16:28
1159876490240176128	_porrael	Com a Gabi certeza!	09/08/2019, 14:17:59
1159876753239752704	patamon	não estudo nessa escola ai não, estudo numa escola que respeita as mulheres	09/08/2019, 14:19:02
1159877794169524225	T_BoneZero	Kkk boa Razer	09/08/2019, 14:23:10
1159878022100639746	gom1nho	Mesa do lol pra trocar ideia com a galera do cs, wow e overwatch	09/08/2019, 14:24:04
1159879143254872066	WasserMoreira	Com a galera do Dark Souls, que não estão aí, estão em busca de apoio psicológico	09/08/2019, 14:28:31
1159879332757671936	docinhodacoreia	Com a menina que vocês demitiram.	09/08/2019, 14:29:17
1159880301599965185	HMs3ieb4KRSNf8d	... isso nem é um mouse razer '-'	09/08/2019, 14:33:08
1159880458848604160	Walhoce	Mano.. é sim	09/08/2019, 14:33:45
1159880536359391233	HMs3ieb4KRSNf8d	é claro que não	09/08/2019, 14:34:04
1159881803274039297	villy_rondow	PC atualizado e pronto para retornar com as lives!!! Só vem... http://fb.com/vrondow http://twitch.tv/vrondow http://youtube.com/vrondow @LogitechG @RazerBrazil @AMDBrasil @Alienware @SharkoonNews @MSIBRASIL @ZOTAC_Brasil @HyperXBrasil	09/08/2019, 14:39:06
1159881914196594688	HEspilare	Eu sentaria com a mulher que vcs demitiram quando reclamou de assédio	09/08/2019, 14:39:32
1159882536841043968	Walhoce	Mano..... tipo.. é sim	09/08/2019, 14:42:01
1159883669391249408	giolazzareschi	Com aquela mina la q vcs patrocinavam e nao renovaram o contrato	09/08/2019, 14:46:31
1159884101530390528	daoraale	em qualquer mesa, desde que seja longe de qualquer coisa da razer.	09/08/2019, 14:48:14
1159884531148738560	H3ld1nh0_	Clutch ou kick. Se não matar todos os outros caras sentados na mesa tu é kickado	09/08/2019, 14:49:56
1159884592255516674	eujoaogarcia	com qualquer outra marca	09/08/2019, 14:50:11
1159885078538985474	ThreshS1ncero	:o quero uma mesa pra nós do RE agora.	09/08/2019, 14:52:07
1159885596577468416	Muy_chola	@wtfrrz todo mundo tem que ver esse tt obrigada ♡	09/08/2019, 14:54:10
1159885786327789568	Muy_chola	Ícone disse tudo	09/08/2019, 14:54:55
1159885788571754496	riseofkyoshi	com as mulheres que vocês demitiram por serem assediadas	09/08/2019, 14:54:56
1159886278562893825	educhamma	Com a mina que reclamou de macho escroto e que vcs n renovaram contrato	09/08/2019, 14:56:53
1159886642397818881	matheushrd2	Galera COD tem comprar de outra marca???	09/08/2019, 14:58:19
1159886662769532928	crfnatthan	coitado do mine kkkkkkkkkjjjjj	09/08/2019, 14:58:24
1159886937643192321	crfnatthan	pessoal acha que minecraft é só pvp, tnc kk	09/08/2019, 14:59:30
1159887924885970946	oviniciusrocha	com a mina q vcs demitiram por reclamar de assédio	09/08/2019, 15:03:25
1159888326855483393	piquete12	Passaria longe da mesa de lol e dota pq só tem tóxicos. CS tbm, por causa dos tryhard. Gtav muito zueiros pra mim, overwatch e Apex n teria ninguém na mesa e Minecraft só crianças. Fortnite estariam só falando de tirar o robô, eu ficaria com wow pelo menos a galera de lá é legal	09/08/2019, 15:05:01
1159889565345353729	luiz_akatsuki	Sem ser PvP tu já mandou TNC mano, ai já dá pra ver	09/08/2019, 15:09:56
1159889649407541253	stylesdeIuxed	Vem chorar @RazerBrazil	09/08/2019, 15:10:16
1159889678151163904	Elaieu_wood	"Na mesa q tá as mina silenciada pelos ""motivos certos"""	09/08/2019, 15:10:23
1159889931730399232	poeta_indie	LoL é perfeito mas eu ia pra mesa do Apex sem pensar duas vezes.	09/08/2019, 15:11:24
1159890741180739585	desnecessauro	com a mina q vcs demitiram por reclamar de assédio	09/08/2019, 15:14:37
1159890773757825027	Maia_197	cade o r6	09/08/2019, 15:14:44
1159890780149997569	brgomes90	Longe dos incel fanboy da razer.	09/08/2019, 15:14:46
1159891241481449473	rodrigo0465	Sentaria a mão na cara de vocês, seus machistas arrombados	09/08/2019, 15:16:36
1159891399246061568	arthurguixh	é mais fácil se sentar com quem apoia mulheres nos joguinhos	09/08/2019, 15:17:13
1159891950146916352	orgasmatron__	Não sei em qual mesa,mas se visse vcs no corredor daria um cuecão e tiraria o dinheiro do lanche	09/08/2019, 15:19:25
1159892519427158016	cvmsss	ia falar exatamente isso........ perfeito	09/08/2019, 15:21:41
1159892761790820352	Milly_S2_	com a mina q vcs demitiram por reclamar de assédio	09/08/2019, 15:22:38
1159893030905794561	Ceerdudu	Aí seria errado	09/08/2019, 15:23:42
1159893353506512896	gosthingrande	@RazerBrazil comenta	09/08/2019, 15:24:59
1159893523220566017	desnecessauro	Copiei e colei, vamos fazer o mesmo hehe	09/08/2019, 15:25:40
1159893931431268353	trevosadoce	BEMM LONGE DO LOL E DO WOW	09/08/2019, 15:27:17
1159894017745833986	nananyan	em qualquer lugar que não tivesse homem do tipo toxico. infelizmente, tem em tds os jogos online e aí dentro.	09/08/2019, 15:27:38
1159894236113899525	nananyan	tamo junto	09/08/2019, 15:28:30
1159894284071591943	breathingbella1	Sentava no chão msm....	09/08/2019, 15:28:41
1159894651681280000	SOLEILBYUN	tomara q exploda ba cara de vcs 	09/08/2019, 15:30:09
1159894698485538816	oigoofy	entrosa não	09/08/2019, 15:30:20
1159895422246240261	_overcast	Só quis apontar porque dá um trabalho grande maquiar a imagem inteira pra remover a autoria e não precisar pagar direitos de uso e é uma pena que tenha ficado faltando um pedacinho. De repente tentar novamente? Desistir? Não cabe a mim julgar se é errado. Só o toque aí, né?	09/08/2019, 15:33:13
1159895809292427264	devil_crue	Pra começar que se a Razer tivesse uma escola eu nem ia estudar lá.	09/08/2019, 15:34:45
1159895890833883137	Ceerdudu	É mais que maquiar. Remover a autoria é errado, se você quer remover a autoria então pague pelo domínio dela caso não mantenha a marca d'água. Não cabe a você, é legislativo	09/08/2019, 15:35:04
1159896107901706240	Frantic_ST	com a mina q vcs demitiram por reclamar de assédio	09/08/2019, 15:35:56
1159896697281163266	alibebasso	vida longa ao rei delas	09/08/2019, 15:38:17
1159896714125295616	_overcast	Ah mas quem sou eu pra determinar o que é certo ou errado nesse mundo? Não tenho diploma legal, autoridade moral ou representatividade para determinar os valores de uma sociedade. Deixo para os especialistas. Só o toque aí, né?	09/08/2019, 15:38:21
1159896858162073600	Ceerdudu	Novamente, é legislativo	09/08/2019, 15:38:55
1159897395766992896	_ThomasTim	Lacroouu, arrasou miga	09/08/2019, 15:41:03
1159897738898759682	bigluck_rrn	R6 porra nenhuma né minha amigon	09/08/2019, 15:42:25
1159897776010006528	ERGR_Oficial	Esses seres vivos são espécimes fascinantes	09/08/2019, 15:42:34
1159898127094165504	_overcast	Se esse caso, e não estou afirmando pois sou ignorante sobre essas leis, imagino que deva ser de bom tom que a empresa responsável pelo erro contacte o legislativo para que tudo possa ser resolvido. Será que é o procedimento padrão?	09/08/2019, 15:43:58
1159898523753701376	Ceerdudu	"Tudo está resolvido. A imagem tem os créditos do artista. Não houve ""apropriação de arte"""	09/08/2019, 15:45:32
1159898687465762816	lipedominici	Acho que eu queimaria esse recreio todo, só lixo (wow se salva ali)	09/08/2019, 15:46:11
1159898838695591937	nautravellius	Queimaria a escola com essa marca de merda junto	09/08/2019, 15:46:47
1159899131994943489	_overcast	Ótimo. Respiro mais aliviado.	09/08/2019, 15:47:57
1159899514511220736	yayjota	bem longe de qualquer pessoa que usa seus produtos	09/08/2019, 15:49:28
1159900312699887616	FernandoSanches	Tibia	09/08/2019, 15:52:39
1159901063467720705	captureoftweets	Com alguém que apoie as mulheres, ou seja, não a Razer.	09/08/2019, 15:55:38
1159901650175348737	RentaroSensei	Na do LOL, só sei jogar isso mesmo.@kabumcombr	09/08/2019, 15:57:57
1159901849669033984	Gilmari25520491	Quem mandou quem tnc?	09/08/2019, 15:58:45
1159902110751842304	luiz_akatsuki	Natan mandou um TNC	09/08/2019, 15:59:47
1159903252923727872	Billieeuteamo	MDS todo dia notificação disso bro	09/08/2019, 16:04:20
1159903986041966592	lucasbrum	teu auto-retrato?	09/08/2019, 16:07:14
1159904483557740545	__bhenrique	MeO DEUs Sou zoeiRo, voU usar FotO deLE p ZuAR	09/08/2019, 16:09:13
1159904544018575360	jafoibr	Eguas sio. Eu jogava warcraft, CS e gta	09/08/2019, 16:09:27
1159904696498368512	milewn	oloco	09/08/2019, 16:10:04
1159905145272119296	mr_junnior	Com a mina que vcs demitiram por reclamar de assedio	09/08/2019, 16:11:51
1159905148912771072	yeosarts	pubg	09/08/2019, 16:11:52
1159905644499144704	RazerBrazil	Desafiamos @Keoma89, pro player de Street Fighter V, a jogar vendado contra o @LuizFGarden! Quem você acha que ganhou? Vídeo completo: https://youtu.be/4gkAtHCL3PQ 	09/08/2019, 16:13:50
1159905703374573569	KUWABARAFAV	nenhum pq se sofrer assédio eu q vou ser expulsa	09/08/2019, 16:14:04
1159905863840256001	lucasbrum	quebrou seu teclado aí? Já pede um novo.	09/08/2019, 16:14:42
1159905876142186496	RazerBrazil	De hoje tá pago 	09/08/2019, 16:14:45
1159906256603222016	__bhenrique	ta bom, agora vai a merdakkkkkkkkkkkkkkkkkkkkkkkkkkkkkk	09/08/2019, 16:16:16
1159906484169465856	crfnatthan	é proibido xingar agr? KKKKKKKKKKKKK	09/08/2019, 16:17:10
1159906545808891904	crfnatthan	crl KKKKKKKKKK	09/08/2019, 16:17:25
1159906596551626752	Bol_Sonarg	Muito bom, Razer! Patrocina o pessoal da comunidade de jogos de luta BR que os caras são bons Imagine se um deles ganha a EVO usando o logo de vocês, a publicidade que isso seria para vocês Lembrem-se sempre de uma das fotos mais icônicas do nosso maior campeão	09/08/2019, 16:17:37
1159906735404064768	lucasbrum	vc nem vota ainda, lindinha, tenta na próxima.	09/08/2019, 16:18:10
1159906756715253763	RoBomnnoh	Qualquer uma que a galera não use Razer	09/08/2019, 16:18:15
1159907242717659137	__bhenrique	ke ki tem aver porra ? kkkkkkkkkkkkkkk	09/08/2019, 16:20:11
1159907358493032449	__bhenrique	tudo bixa nessa porra, gostaram da minha foto foi ?	09/08/2019, 16:20:38
1159907428663791622	DeveloperCoppio	Eu sentaria ca mina que vcs demitiram por ter sido vitima de assédio	09/08/2019, 16:20:55
1159907472456474624	QueenKimmyS2	Overwatch soh tem tóxico mas o jogo eh bom	09/08/2019, 16:21:06
1159907758998806528	Gilmari25520491	Karalheo, maluko é brabo, vê oq n existeKKKKK	09/08/2019, 16:22:14
1159907935809691649	estetalderafael	sentaria a mão na cara desse bando de junior criado a leite com pera e ovomaltine	09/08/2019, 16:22:56
1159907941270589441	exanimum	chamou os homens de lixo pq eles estavam assediando ela	09/08/2019, 16:22:57
1159908140575539200	__bhenrique	q bom q gostou da minha foto, kd a sua ?	09/08/2019, 16:23:45
1159908156438405121	pconradjunior	Façam uma versão pra desenvolvedores... Seria legal! #razer #recreio #dev #unity #androidstudio #netbeans #phpstorm #vscode #sublimetext #atom #unrealEngine	09/08/2019, 16:23:49
1159908311615123457	rkfn01kf	com quem não cancela patrocinio com mulher por reclamar de assedio, entrosa não filho da puta	09/08/2019, 16:24:26
1159908341918916608	ogamenoob	Caralho Alê. Te amo!	09/08/2019, 16:24:33
1159908390153412608	__bhenrique	ke ? kkkkkkkkkkkkkkkkk o cara tem problemakkkkkkkkkkk	09/08/2019, 16:24:44
1159908584269975552	Gui_Clecinho	Sem rainbow six? Vcs tão vacilando porra!	09/08/2019, 16:25:31
1159908725177688068	lucasbrum	vc não tem conta em banco, tá roubando o celular da vovó.	09/08/2019, 16:26:04
1159908924310654976	Jhon_Granzotto	Com certeza que no Minezão né	09/08/2019, 16:26:52
1159908993684377600	__bhenrique	tabo, mas ja recebeu o salario mínimo ?	09/08/2019, 16:27:08
1159909064085782529	ChrisHoffMorgan	Me chama que o Cloud Stinger eu já tenho	09/08/2019, 16:27:25
1159909250048634885	lucasbrum	free Fire mto lokkko kra na moral os lek mata tudo ali e mata real, minha avó vai esperar a aposentadoria cair e prometeu me deixar comprar o pass esse mês vai ser irado espera q eu to chegando	09/08/2019, 16:28:09
1159909294420217861	__bhenrique	vai assistir anime, seu velhokkkkkkkkkkkk	09/08/2019, 16:28:20
1159909428029788163	luiz_akatsuki	Não man, só falei, rlx o cu ai kkkkkk, mas a toxidade começa com palavrão 	09/08/2019, 16:28:52
1159909794507108352	_frenchfriiess	Em qualquer outro lugar que não tenha mina demitida por uma empresa machista	09/08/2019, 16:30:19
1159909818431410178	lucasbrum	Rique, devolve o óculos da mamãe e vem almoçar sua bisnaguinha. Chega de navegar por hj.	09/08/2019, 16:30:25
1159910361182756865	__bhenrique	o cara me amou msm kkkkkkk, sai fora pedofilo	09/08/2019, 16:32:34
1159910676556591104	__bhenrique	sai seu pedofilo, mete o pe, tu tem 30 anos e ta no tt kkkkkkkkkkkkkkkkkkk	09/08/2019, 16:33:50
1159911127826018307	lucasbrum	rique, vc não sabe nem o q é clitóris. Antes de saber tem q nascer pelinho no pipi. Devagar, um dia de cada vez.	09/08/2019, 16:35:37
1159911388971700224	joaoibarra	Não converso com Bandeirantes	09/08/2019, 16:36:39
1159911402099957762	__bhenrique	cansei, n vou mais discutir com pedeofilos q recebem um salario mínimo e ta mexendo no celular escondido do patrãokkkkkkkkkkkkkkk tchau, minha mãe falou p n conversar com estranhos kkkkk	09/08/2019, 16:36:43
1159911619742355461	jul1a_mello	sem dúvidas na mesa de overwatch 	09/08/2019, 16:37:34
1159911941600620547	lucasbrum	Rique, aquilo q vc postou não é um salário mínimo. Vc ganha 10 conto de lanche pra 7 bello na semana e não sabe nem fazer conta. Vai pro quarto, sem computador hj.	09/08/2019, 16:38:51
1159912090016067586	__bhenrique	tabom mano, agora vai trabalhar vagabundokkkkkkkkkkkkkkkk	09/08/2019, 16:39:27
1159912266176847877	__bhenrique	tabo, mas ja gastou seu salário mínimo em skin de lol e joguinho de pokemon ?	09/08/2019, 16:40:09
1159912291594194944	lucasbrum	vc parece um pouco perturbado, já te levaram num pediatra ou pulou o teste do pezinho? Sua vó te vacinou?	09/08/2019, 16:40:15
1159912341078716416	capetinhapontog	Nem parece que vc ta do meu lado	09/08/2019, 16:40:26
1159912434460712960	__bhenrique	tu tem tara na minha vo krl ? kkkkkkkkkkk ta q fala nela	09/08/2019, 16:40:49
1159912619039494145	lucasbrum	kralho né kkkkkkkkk tara nela kkkkkkkkkkk	09/08/2019, 16:41:33
1159912770609012736	__bhenrique	quer q eu te apresente ela ? tu curte uma idosa ? vc é estranho	09/08/2019, 16:42:09
1159912837936009216	cec_duarte	e tu nem precisa saber né nunca vai comer ngm mesmo	09/08/2019, 16:42:25
1159913034032263169	__bhenrique	olha barba desse gordo kkkkkkkkkkkkkkk tem so na parte de baixo o salario minimo n deu p comprar gilete antes de ir pro casamento kkkkkkkkkkkkkkk	09/08/2019, 16:43:12
1159913227968548870	cec_duarte	KAKAKAKAKAKA gordo fudido calvo com 20 anos	09/08/2019, 16:43:58
1159913449109037058	lucasbrum	KARALHO chamou o tetheus da 2ª B agora vai pegar fogo 	09/08/2019, 16:44:51
1159913482512424960	PecoPgua_	Sento com mulher, gênero que gamer virjão odeia. E vão tomar no cu tranquilo, seus merdas.	09/08/2019, 16:44:59
1159913508433223680	__bhenrique	ficou abalado ele kkkkkkkkkkkkkkkkkkk tadinho do cabeludo	09/08/2019, 16:45:05
1159913610287767552	cec_duarte	vai fazer um implante de cabelo gordo bixa xexelento	09/08/2019, 16:45:29
1159913649756131328	__bhenrique	vai pegar fogo 	09/08/2019, 16:45:38
1159913722405691393	__bhenrique	bixa xexelento kkkkkkkkk	09/08/2019, 16:45:56
1159913795281739783	lucasbrum	abalado, nem vou na escola segunda.	09/08/2019, 16:46:13
1159913842169864198	cec_duarte	vc deve tá falando isso pro godo careca né ?	09/08/2019, 16:46:24
1159913844757716994	__bhenrique	mermao tem ninguém falando cntg mais n, vai bater punheta e dps volta	09/08/2019, 16:46:25
1159913893193498624	__bhenrique	vai fazer a barba	09/08/2019, 16:46:36
1159914020964589568	__bhenrique	disse o virgem	09/08/2019, 16:47:07
1159914027964760064	cec_duarte	escola ? tu já é careca filho da puta vc é no máximo o zelador	09/08/2019, 16:47:09
1159914109376323586	lucasbrum	pô, se tutubarao falou aí é pra gente levar a sério né. Irado. kkkkkkkkkkk ow, já comeram desodorante roll on? Lek é viagem demais kkkkkk	09/08/2019, 16:47:28
1159914327782174725	__bhenrique	o cabelo q era p estar na cabeça dele ta no queixo kkkkkkkkkkkkkkk	09/08/2019, 16:48:20
1159914386011643905	cec_duarte	gordo careca de merda	09/08/2019, 16:48:34
1159914392240021504	lucasbrum	de novo	09/08/2019, 16:48:35
1159914565527855105	clavuzzz	N entrosa n mlk do carai	09/08/2019, 16:49:17
1159914598339940352	__bhenrique	to impressionado com sua barba, tem gilete em casa n fdp ?	09/08/2019, 16:49:25
1159914618782924800	AssimdisseLuis	E ainda tem a parte nostálgica, é muito bom!	09/08/2019, 16:49:29
1159914708809523200	cec_duarte	olha o tamanho da testa desse gordo xexelento	09/08/2019, 16:49:51
1159914741487362048	donutcomeforme	Na mesa que não tem produtos de marca que defende machismo e prefere punir mulheres por reclamarem de assédio	09/08/2019, 16:49:59
1159914765289951232	__bhenrique	é oq n tem cabelo	09/08/2019, 16:50:04
1159914880796958720	lucasbrum	VADIAS GOSTOSAS DISSE O TETHEUS	09/08/2019, 16:50:32
1159914891794423809	spideyamerica	ate no chao contanto q nao seja com vc more	09/08/2019, 16:50:35
1159914919321620480	__bhenrique	cade o salario minimo fdp ?	09/08/2019, 16:50:41
1159915155758731264	__bhenrique	eu chupo piroca disse o gordo careca	09/08/2019, 16:51:37
1159915189875220481	lucasbrum	TERRÍVEIS HAHAHAHAHHAHAHAHA	09/08/2019, 16:51:46
1159915266589024256	__bhenrique	lingua p poder chupar xotas ‍ ‍ 	09/08/2019, 16:52:04
1159915276382724100	cec_duarte	??????? seu gordo de merda aposto que sua casa tem um puta cheiro de saco vai raspar essa merda no seu pescoço e procurar um implante de cabelo	09/08/2019, 16:52:06
1159915287774453760	lucasbrum	EU SEI Q VC CHUPA	09/08/2019, 16:52:09
1159915357295009797	__bhenrique	so n chupo pinto, se é isso q vc quer saber	09/08/2019, 16:52:26
1159915495614746624	lucasbrum	LÍNGUA PARA XULAR XOTAS ELE DIZ MAS ENGAGAS COM 3 7BELLO NA CANTINA	09/08/2019, 16:52:58
1159915605941768193	lucasbrum	De novo	09/08/2019, 16:53:25
1159915689848770560	cec_duarte	olha o tamanho da testa desse merda	09/08/2019, 16:53:45
1159915759918813186	justnkd	desativa c4p3t4	09/08/2019, 16:54:02
1159915761449734145	lucasbrum	QUANDO ESTIVER NO FUNDO DO POÇO, BORA PRO MINECRAFT AEEE	09/08/2019, 16:54:02
1159915806408478720	cec_duarte	olha as ideia desse gordo xexelento	09/08/2019, 16:54:13
1159915825932984321	__bhenrique	a casa desse gordo desse ter 1 metro quadrado, toda suja de porra, deve ter cheiro de saco e bunda, e ele fica sentado no sofa chamando os outros de criança e batendo punheta o desenho kkkkkkkkkkkkkkkkkkkkk	09/08/2019, 16:54:17
1159915878688931840	cec_duarte	de novo	09/08/2019, 16:54:30
1159915899807309825	__bhenrique	bora uai, so chama barril	09/08/2019, 16:54:35
1159916032875794433	Leezi_J	Engraçado como a reação dela é mais preocupante do que o fato de ela ter sido assediada... Engraçado mesmo	09/08/2019, 16:55:07
1159916034347982849	cec_duarte	essa vai pra sam	09/08/2019, 16:55:07
1159916082574049282	__bhenrique	sou memeiro	09/08/2019, 16:55:18
1159916089188503553	lucasbrum	mais uma vez	09/08/2019, 16:55:20
1159916108616556544	tylwrculture	com a mina que foi demitida por reclamar de assédio rs	09/08/2019, 16:55:25
1159916240405770245	cec_duarte	nossa seu careca de merda ainda bem que me avisou pq eu nem tinha lido essa merda né	09/08/2019, 16:55:56
1159916254410485760	lucasbrum	vcs se comem? Deveriam.	09/08/2019, 16:55:59
1159916284072615936	__bhenrique	krl tadinho, ele bateu tanta punheta q n entende sarcasmo	09/08/2019, 16:56:06
1159916414465138698	__bhenrique	virgem aos 30	09/08/2019, 16:56:38
1159916434719293440	cec_duarte	em pleno 2019 e um gordo de merda não entende S A R C A S M O	09/08/2019, 16:56:42
1159916496136675333	lucasbrum	CHAMA O SAAAAAM PRA MINEIRAR	09/08/2019, 16:56:57
1159916622380855296	cec_duarte	como mesmo esse delícia	09/08/2019, 16:57:27
1159916634439659520	Kiirai666	Esperou a poeira abaixar né kkk	09/08/2019, 16:57:30
1159916692564250624	__bhenrique	se vc sair de casa e a polícia ou sua mae ver essas fotos no celular dela oq ela vai pensar menino ? q vc bate punheta para homens gostosos ?	09/08/2019, 16:57:44
1159916902648619015	cec_duarte	melhor mineirar doq argumentar com um gordo de 30 anos careca e que tem uns pentelho na cara	09/08/2019, 16:58:34
1159916917802639361	prayforvasco	Puxaria minha legion e metralharia tudinho.	09/08/2019, 16:58:38
1159916931471876096	__bhenrique	olha se tu ta passando necessidade, é so falar q eu compro pelo menos um sabonete seu gordo fedorento	09/08/2019, 16:58:41
1159917116759465984	__bhenrique	diz o virgem q nunca nem viu mulher a não ser na tela do pc	09/08/2019, 16:59:25
1159917176893202432	Kauanmda17	Vamo	09/08/2019, 16:59:39
1159917377561251841	MadameRubyy	Com a mina q vcs demitiram por reclamar de assédio	09/08/2019, 17:00:27
1159917423367208961	__bhenrique	o gordo ta me stalkeando fudeoooiii	09/08/2019, 17:00:38
1159917464500785152	lucasbrum	OLHA DE NOVO OS 2 DE PERTINHO AGORA	09/08/2019, 17:00:48
1159917500768931842	MultilaserAjuda	kkkkkk enois	09/08/2019, 17:00:57
1159917678695473152	__bhenrique	meo deus, um gordo punheteiro de 30 q nunca beijou na vida ta postando foto minha, estou abalado	09/08/2019, 17:01:39
1159917686966632449	cec_duarte	o seu gordo xexelento tu não consegue ver que é a mesma pessoa ?	09/08/2019, 17:01:41
1159917775491620864	Bruno_Entediado	com a mina q vcs demitiram por reclamar de assédio	09/08/2019, 17:02:02
1159917776523419649	lucasbrum	A CARA QUE COME GIZ DE CERA	09/08/2019, 17:02:02
1159917806814683137	7horass	só homem lixo ficou brabinho quando ela falou q homem é lixo. E isso é fato, dúvido achar alguém gente boa q tenha se ofendido	09/08/2019, 17:02:10
1159918431543730178	cec_duarte	1- da pra ver que essa foto tem mais de 10 anos 2- esse nem sou eu 3-para de bater punheta seus xexelento careca	09/08/2019, 17:04:38
1159918875431059457	lucasbrum	mais de 10 anos	09/08/2019, 17:06:24
1159919025717239809	luisaangel0	Longe de vcs	09/08/2019, 17:07:00
1159919058982232065	gui_jacobino	Iria esperar chegar a Zelda, não me misturo com essa gentalha aí	09/08/2019, 17:07:08
1159919125227089921	lindo_princeso	AINNNNNN NÃO VOU SENTAR NA MESA DA RAZER PQ MACHISMO MACHISMO SEI QUE LA PQ AINDA SIGO ELA	09/08/2019, 17:07:24
1159919155937783809	__bhenrique	tem uns gordo q tem cara q fede, esse é um deles	09/08/2019, 17:07:31
1159919198107312131	cruelsmilx	Com vocês não	09/08/2019, 17:07:41
1159919494996930561	scarlycia	Prefiro ficar de pé	09/08/2019, 17:08:52
1159919532032647169	AwithSR	Sentaria com os lolzeiro	09/08/2019, 17:09:01
1159919558918049792	natrmnoff	com a gabi :)	09/08/2019, 17:09:07
1159920127170764801	CaraPokemon	"Já dizia Woody em Toy Story 2 ""Se a carapuça serve"" :v"	09/08/2019, 17:11:23
1159920560438226944	maimax	Com a mina que vcs demitiram por denunciar assédio	09/08/2019, 17:13:06
1159921000538091520	vengerbergz	Na mesa do Overwatch numa escola diferente que não tente destruir a carreira das mulheres 	09/08/2019, 17:14:51
1159921007676788736	CaraPokemon	Por isso q eu gosto de Digimon :)	09/08/2019, 17:14:53
1159921060411822084	_grazitop	bem longe de vcs	09/08/2019, 17:15:05
1159921128372154369	CaraPokemon	Vamo	09/08/2019, 17:15:21
1159921449244790785	QuaseTavares	Qualquer outra marca.	09/08/2019, 17:16:38
1159921646100197377	lordewitch	Bem longe de vcs kkkkkkkkk	09/08/2019, 17:17:25
1159922169742266368	_giulio17	Favor se retirar do twitter Obrigado.	09/08/2019, 17:19:30
1159922531316502533	Vitecoshow	mudei full da razer tambem, to com teclado e fone da hyperx e ouse da corsair.. puta empresa paia	09/08/2019, 17:20:56
1159922876767756288	willian_lycosa	mlq razer nunca mais papo reto cria	09/08/2019, 17:22:18
1159923679700148224	quintbia_	Prefiro sentar sozinha doq em uma mesa cheia de macho escroto	09/08/2019, 17:25:30
1159924507370557442	murilopsiq	Multilaser >>>>>> Razer	09/08/2019, 17:28:47
1159924573317599241	luiz_akatsuki	Nunca joguei assim, mas eu topo	09/08/2019, 17:29:03
1159925370629632000	municipalzapzap	Ficou ruim pfvr para de tentar entrosar vcs fizeram merda e parecem minha tia avó tentando ser legal sério tá muito ruim	09/08/2019, 17:32:13
1159925469732646912	soteropreta	Com uma marca que não apoie misoginia	09/08/2019, 17:32:37
1159925489940738050	mimipoems	mudo de escola	09/08/2019, 17:32:41
1159925576498655236	WagnerRM	@RazerBrazil o Keoma merece um patrocínio de vcs! Garanto que sera mt bem representado na CPT!	09/08/2019, 17:33:02
1159925621268635649	riseofkyoshi	por serem assediadas por nerds virgens e imbecis	09/08/2019, 17:33:13
1159927749760491520	beatchskg	bem longe de qualquer lugar que tu estejas	09/08/2019, 17:41:40
1159928194549592067	vinnybrandt	Com essa marca de incels é que não ia ser	09/08/2019, 17:43:26
1159928468492210180	fabisouze	Longe de quem usasse seus produtos, de preferência	09/08/2019, 17:44:31
1159928477690318848	1busologo	lembra quando vcs demitiram uma mina que reclamou de assédio? aiai	09/08/2019, 17:44:34
1159928778665189376	lumifago	os caras já apagaram, só não fizeram um bom trabalho	09/08/2019, 17:45:45
1159928806859259905	LilR4j	Com o cara homofóbico e machista que vocês escutaram ao invés da mina que trampava com vocês vendo ele engasgar!	09/08/2019, 17:45:52
1159929428442525697	gabbscornio	Com qualquer outra marca que é melhor	09/08/2019, 17:48:20
1159930376816668672	naoobrigada_	Bem longe de vcs.	09/08/2019, 17:52:06
1159930886953025537	EduOPacheco	Se ela ta sendo assediada,n ta espalhando o ódio...	09/08/2019, 17:54:08
1159930938287108097	andre_brun1	Dota sempre kkkk	09/08/2019, 17:54:20
1159931184660570112	meroocv	Mais uma prova de que ela não mentiu	09/08/2019, 17:55:19
1159931593663885314	Leezi_J	Vamos esperar uma reação bem pensada de alguém que estava sendo desrespeitada e não questionar quem de fato estava errado e ainda cometendo um crime: o assediador. Parabéns, fez sentido	09/08/2019, 17:56:57
1159932448517644290	Samuel_Gamigo	Com o pessoal do apex	09/08/2019, 18:00:20
1159932864663871494	voidesatan	caraio se realmente ta brigando com um mlk 15 anos vc e muito vagabundo mesmo caraio o mlk e mais adulto que vc	09/08/2019, 18:02:00
1159933027461607424	yPlayerWz	lol mas cade a porra do r6	09/08/2019, 18:02:38
1159933048722530304	Lulilay2	Na mesa do wow todo dia ♡	09/08/2019, 18:02:43
1159933352130072577	aldeoesdomine	ss vamo?	09/08/2019, 18:03:56
1159933531977654272	BatThiago2	Se alguém tá chorando aqui esse alguém é vc kk	09/08/2019, 18:04:39
1159933697040289793	obsessedIady	Com a galera que não quer mais ver vcs nem pintadinhos de ouro o/	09/08/2019, 18:05:18
1159934072686292993	miayyyya	com vcs eu digo com toda certeza q não	09/08/2019, 18:06:48
1159934864260513795	Akugam4	Se um mala chegasse a publico declarando a mesma coisa sobre mulheres, seria chamado de machista misógeno pela maioria das mulheres, isso significa que elas são lixo mesmo por se ofender? Ou é só pra homem que isso funciona?	09/08/2019, 18:09:56
1159934876562464768	TelerKancon	Porra alguém ainda joga CoD?	09/08/2019, 18:09:59
1159935447134593029	youmemes95	eu me sentaria no meu tio.. quer dizer com meu tio	09/08/2019, 18:12:15
1159935642492723205	Akugam4	"E eu ficaria de boa com essa declaração simples, se não fosse a onda de apoio não à garota que sofreu assedio, mas sim à afirmação, apoio esse intensificado por declarações até mesmo brutais no contexto de ""morte ao pinto"" ridiculo que ta encrostado na cabeça dessas minas."	09/08/2019, 18:13:02
1159935939680096257	akr_sci	Nenhuma, tudo tóxico	09/08/2019, 18:14:13
1159936005627174912	wwleprechaun	ih ala tao sendo boicotado kkkkkkkkkkkk	09/08/2019, 18:14:28
1159936135025573888	adoresuji	Cade a mesa do pessoal que joga habbo?	09/08/2019, 18:14:59
1159936229229637632	legndnoir	com outra marca kkjj	09/08/2019, 18:15:22
1159936461657038848	Akugam4	Por conseguir ser mais toxica que esses nerds virgens imbecis	09/08/2019, 18:16:17
1159936824695054337	ledsardonyx	longe da merda da razer	09/08/2019, 18:17:44
1159936928575303680	d3longas	@pagu_irritada olha os comentarios HAHAHAHHAHA	09/08/2019, 18:18:09
1159936955930619904	Akugam4	Até pq nós não-incels estamos num patamar de superioridade como humanos, né.	09/08/2019, 18:18:15
1159937095198265345	rnt_jipa	GTA pq aqui é raiz	09/08/2019, 18:18:48
1159937425235427328	DJ_Schubert	Cuzãokkkkkkkkkk	09/08/2019, 18:20:07
1159937638385758208	Kureiton_	Nenhum... Pois sou dos que vai pros cantos da escola. R6.	09/08/2019, 18:20:58
1159938115362021379	tiarafinea	Com a menina que perdeu contrato por denunciar assédio.	09/08/2019, 18:22:51
1159938329070190593	riseofkyoshi	caramba que tanto de nerd incel chorando aqui	09/08/2019, 18:23:42
1159938957125332993	Akugam4	Desculpa ser superior que tem o direito de ofender pessoalmene os meros mortais ao seu redor, mas tenho que te corrigir e dizer que incel n é ofensa, e eu não sou um.	09/08/2019, 18:26:12
1159939049823637505	fernandogloony	Sento com a garota que foi demitida depois que ela reclamou de assédio.	09/08/2019, 18:26:34
1159939057897627648	dreamerbboy	com ratos como vc vcs q não seria, quero pegar leptospirose não	09/08/2019, 18:26:36
1159939481002303489	Akugam4	Baixa a bola antes de achar que o erro de um grupo(os fãs doentes que assediaram ela), da propriedade pra ela ou vc, pra rebaixar e ofender outro grupo que n tem nada a ver, no caso os homens em geral com a ofensa dela, e os incels com a sua.	09/08/2019, 18:28:17
1159939654965223424	Jackbolche	Acho que vc se enquadra no grupo dos incels. 	09/08/2019, 18:28:59
1159939663228035073	peterol55811838	Entrosa não mlk vsfd	09/08/2019, 18:29:01
1159939967700918272	Akugam4	O que me enquadra nesse grupo? O que vc vê em mim pra achar isso? Julga sem saber n, é feio.	09/08/2019, 18:30:13
1159940075943337984	riseofkyoshi	ofender nerd incel assediador é obrigação de qualquer pessoa com um cérebro. se você está na categoria nerd incel que fica assediando mina na internet e a carapuça serviu o problema é teu, irmão.	09/08/2019, 18:30:39
1159940299566833664	matt0001_	longe de vcs seus lixos	09/08/2019, 18:31:32
1159940537132208128	Akugam4	"Vejamos, os ""nerds incels assediadores"" o que n faz nem sentido, mas blz, tratam ela como objeto ao assedia-la. Ela se ofende. Isso n significa então que a carapuça serviu? Ou é dois pesos duas medidas?"	09/08/2019, 18:32:29
1159940739687702528	notasurbanas	Vocês ainda existem?	09/08/2019, 18:33:17
1159940930910195713	Akugam4	E tu n sente vergonha de usar as palavras nerd e incel com tom de ofensa?	09/08/2019, 18:34:03
1159940959871938565	evilreon	na de overwatch, junto com a marca concorrente de vocês e bem longe da mesa da razer	09/08/2019, 18:34:10
1159941054667415552	riseofkyoshi	não é o mesmo. aqui eu falei sem mencionar diretamente nome nem @de ninguém, mas você sentiu ofendido e veio chorar. lá, eles estavam perseguindo-a, mandando pro nome dela, pro @dela, pra outras redes sociais. a carapuça foi colocada nela. aqui, você está colocando em si mesmo.	09/08/2019, 18:34:32
1159941125941202946	Qiyari	Acho que responde.	09/08/2019, 18:34:49
1159941173450088449	riseofkyoshi	não, nenhuma. até porque eu sou nerd também.	09/08/2019, 18:35:01
1159941581492948992	KaliCSC	É por isso que te sigo <3	09/08/2019, 18:36:38
1159941642218029056	complexitate	Comeria em pé	09/08/2019, 18:36:52
1159941706051215363	Akugam4	Pera, se eu defender um grupo que eu acho que esteja sofrendo com algum tipo de problema, isso significa que eu pertenço agora aquele grupo? Então se eu defender a causa lgbt, sendo hetero, automaticamente eu me torno gay? Se eu defender a causa negra, eu me torno negro?	09/08/2019, 18:37:08
1159941781963890691	lerienluimeme	SENTARIA NA SALA AO LADO QUE É DA MULTILASER	09/08/2019, 18:37:26
1159941875782115328	riseofkyoshi	eu não entendi nada que você falou porque isso tem 0% a ver com a nossa discussão. tenta de novo.	09/08/2019, 18:37:48
1159942151016517638	Akugam4	Pertencer a um grupo n da o direito de deprecia-lo, na verdade é uma ideia até estupida, tu ta desmerecendo a si mesmo, como pretende ter alguma moral numa discussão fazendo isso?	09/08/2019, 18:38:54
1159942527941861382	giulianicolott_	to mt entre Minecraft e GTA sabe	09/08/2019, 18:40:24
1159942612503191553	Akugam4	"Claramente n se dispõe mais ao dialogo, ai recorre ao ""desentendimento"" pra invalidar tudo que eu disse. Assim fica facil. Mas se pedir com jeitinho, eu acredito que realmente n entendeu, e escrevo de novo, dessa vez de forma que um zumbi entenda."	09/08/2019, 18:40:44
1159942748604182528	fuckIisas	Comenta @RazerBrazil	09/08/2019, 18:41:16
1159942764479635456	MineirinhoMarin	junto com o pessoal do left2	09/08/2019, 18:41:20
1159942907157262336	KauanNaVoz	Com a mina que vcs demitiram por reclamar de assedio	09/08/2019, 18:41:54
1159943196388024320	lukexavier_	Eu tenho um ranço tão grande de vocês	09/08/2019, 18:43:03
1159943617311645696	BrunoHermogenes	Vc fez muito estrago na guerra civil na Angola,por isso ninguém gosta minas.	09/08/2019, 18:44:43
1159943772291162117	giulianicolott_	só pq é com vc	09/08/2019, 18:45:20
1159944135803117569	limmaocapeta	Perto das mina que usa Logitech	09/08/2019, 18:46:47
1159944214484062208	DaviNCR_	Ela não denunciou assédio nenhum krl	09/08/2019, 18:47:06
1159944693846892545	ValkyrieNay	eai @RazerBrazil a equipe mixuruca de mkt já defendeu assediador essa semana?	09/08/2019, 18:49:00
1159945208190119941	rodriigolops	Deus me livre estudar nessa escola	09/08/2019, 18:51:03
1159945391858757635	gabriel_sequine	A gordão	09/08/2019, 18:51:46
1159945667655192576	DaviNCR_	Ela não reclamou de assédio nenhum pqp	09/08/2019, 18:52:52
1159945929677529090	juino__	não deletou a conta ainda?	09/08/2019, 18:53:55
1159946021524426752	PedroTo81875123	Com vocês por serem sensatos pra ter demitido a mina e o dota porque dota	09/08/2019, 18:54:16
1159946783579168769	riseofkyoshi	na vdd me dá sim porque eu convivo com esse grupo diariamente. eu sou mulher, gamer, nerd. eu convivo com esse tipo de pessoa, eu escuto esses assédios, eu posso ofende-los sim. se eles não querem ser ofendidos, parem de assediar.	09/08/2019, 18:57:18
1159947327098032128	japadod	Com qualquer um. Mas não usaria nem um mousepad dessa marca merda	09/08/2019, 18:59:28
1159947617952051200	xbealinda	meu mouse da logitech eh lindo demais, mto bom, n sei mais jogar sem	09/08/2019, 19:00:37
1159948023281135617	_naoepossivel	bem longe de quem demite mina por reclamar de assédio	09/08/2019, 19:02:14
1159948459211972608	Akugam4	Eu faço parte do grupo nerd e n lembro de assediar ngm, se vc ofender o grupo, estara ofendendo a mim, vc tem o direito de me ofender em função de um pretexto no qual nem me encaixo?	09/08/2019, 19:03:58
1159948708135559168	Cristia85255978	Tá certo	09/08/2019, 19:04:57
1159948753471705095	yellowrangerrrr	Com outra marca que não compactua com assédio Otarios	09/08/2019, 19:05:08
1159948902025613314	riseofkyoshi	eu falei sobre nerds incel assediadores. você pode ser nerd e incel, se não foi assediador, não foi pra você. quem se incomoda demais é porque tem rabo preso.	09/08/2019, 19:05:43
1159949495297331202	laauraum	Com a mina que vcs demitiram por serem um bando de machistas	09/08/2019, 19:08:05
1159949626151231491	dcuwaynez	sentaria um pedaço de pau na tua cara	09/08/2019, 19:08:36
1159949666202607621	Cristia85255978	O direito de xingar todo homen 	09/08/2019, 19:08:45
1159949764898754565	Akugam4	"É engraçado que conforme as discussões se extendem, a generalização vai diminuindo, de ""homem é tudo lixo"" pra em seguida ""com apenas raras excessões"" ate se tornar um ""nerds incels assediadores"", mas o pedido de desculpas pra quem foi atacado sem ter nada a ver e impensavel."	09/08/2019, 19:09:09
1159949893663887364	cabedecmi	meu deus eu amo uma militância	09/08/2019, 19:09:40
1159949926643748866	GabrieeLJust	Com a galerinha do Minecraft pq eles tem a mente pura	09/08/2019, 19:09:47
1159950136610566145	desastrevirtual	Na mesa da Alienware de preferência	09/08/2019, 19:10:38
1159950753513070593	Soonyoungnamae	Sentaria em todas	09/08/2019, 19:13:05
1159952401341800449	viadoazul	nossa um homem defendeu uma mulher que gadoooooooo	09/08/2019, 19:19:38
1159952456115208192	riseofkyoshi	ninguém tem que pedir desculpas por ser assediada não. e você se sentindo ofendido quando eu sinto assediadores diz muito sobre homens que constantemente defendem outros homens e são tão lixos quanto.	09/08/2019, 19:19:51
1159953317696589824	Akugam4	E quem ta dizendo pra ela pedir desculpas por ser assediada? Wtf. O erro dela é outro. E quando vc tiver base pra dizer que eu defendi esses assediadores, eu retiro tudo que eu disse. Lixo pra mim, alem desses assediadores, é quem ofende que n tem nada a ver	09/08/2019, 19:23:16
1159953427419545600	1991flp	Com a knupp lixo...mas vcs n	09/08/2019, 19:23:42
1159954774491615233	nodemon80	É por isso que te sigo ²	09/08/2019, 19:29:03
1159954889927213056	thiagoskapata	Com a mina que foi assediada e vocês em apoio aos assediadores não renovaram o contrato com ela. Vocês se tornaram cúmplices no assédio contra ela.	09/08/2019, 19:29:31
1159955089240547330	chlorineinmorph	longe de vcs	09/08/2019, 19:30:18
1159955454233141248	littlesunchild	Com certeza nao seria com vocês, next	09/08/2019, 19:31:45
1159955636542742528	pandaescarlate	Com o pessoal fora do refeitório jogando Cyber Hunter e bem longe de vocês razer	09/08/2019, 19:32:29
1159955643329110018	xtopazaynx	eu ia reclamar que tava sofrendo assédio e seria expulsa	09/08/2019, 19:32:30
1159956093713506304	quintbia_	Não entendeu? lê dnv	09/08/2019, 19:34:18
1159956116979290112	xtopazaynx	@RazerBrazil comenta safada	09/08/2019, 19:34:23
1159956547000254472	quintbia_	Em cada plataforma de jogo as mulheres são desrespeitadas.. foi isso q eu quis “dizer”	09/08/2019, 19:36:06
1159957083661512705	quintbia_	De nada :)	09/08/2019, 19:38:14
1159957662009909248	gabitchxs	Com todos, mas usando @RedragonBR 	09/08/2019, 19:40:32
1159957706066857989	werissonva	até c a diretora... mas com imbecil machista q não ia ser!	09/08/2019, 19:40:42
1159957715004874756	beaoliveiram	longe de vcs ctz	09/08/2019, 19:40:44
1159958591060750337	vinnybrandt	"Cê acha? hahahahahaha Sim, eu sou superior a você. Se doeu justamente por ser incel. E pra você não dizer que ""julguei sem saber"", li teu perfil todinho. Nem escrever ""misógino"" você sabe, que dirá tratar mulher"	09/08/2019, 19:44:13
1159958599457812480	BrunoRess	@RazerBrazil me dá um teclado, mas tem que dar Se for pra comprar, eu prefiro comprar da HiperX	09/08/2019, 19:44:15
1159959023279628288	bbmerkabah	Mas que estouro de comentário mto bom amei	09/08/2019, 19:45:56
1159959046084014081	chetara_world	não estou vendo xenoblade	09/08/2019, 19:46:02
1159959495751192576	espectralll	longe de marca machista com toda certeza	09/08/2019, 19:47:49
1159959920277692422	kwangoettems	Pf façam os antigos do 2.0 funcionar no 3.0	09/08/2019, 19:49:30
1159960177803694080	jbbrazil84	O Garden que não foi! Rsrsrsrsrs	09/08/2019, 19:50:32
1159960426551087106	sir_danilo	O mais longe possível de macho assediador	09/08/2019, 19:51:31
1159960512765014016	yankjkj	longe de vocês com certeza	09/08/2019, 19:51:51
1159960788922245120	marcelinnn99	Storei nos retardados dos comentários JJJJJJJJ huur feminismo 	09/08/2019, 19:52:57
1159960875131912200	IMEMeMiLIFeAWAy	Que nome de time mais maxixxta , pra um feministo	09/08/2019, 19:53:18
1159961216917364736	Akugam4	"Cara, tu nem me conhece, e sinceramente eu estou incrivelmente satisfeito com essa condição, prefiro que um perturbado como vc n saiba nada sobre mim. ""Li teu perfil todinho"" tu é algum tipo de stalker? Isso é assustador"	09/08/2019, 19:54:39
1159961353173557249	Akugam4	Felizmente meu perfil n diz muito sobre mim, e ja vi que é uma boa ideia que isso permaneça assim	09/08/2019, 19:55:12
1159961382810542080	LuizFGarden	EU GANHEI UMA Perdi as outras, mas uma eu ganhei 	09/08/2019, 19:55:19
1159961447239225345	OLucasida	Com qualquer marca que não seja a de vocês	09/08/2019, 19:55:34
1159961506055938050	jbbrazil84	Hahaha agora eu quero ver!!!	09/08/2019, 19:55:48
1159962432569298944	mrfarmito	JJJJJJJJJJ AO MENOS A MINA É TÓXICA E GERAL GLORIFICA?????? Não faz sentido, empresa faz uma coisa coerente e nego cai no hate	09/08/2019, 19:59:29
1159962705421307904	Leonne26620386	"?????? Kkkkkkkkkkkkkkkkkkkkkkk ""chora"""	09/08/2019, 20:00:34
1159962739575574531	milez_who	qualquer um que não fosse vocês, até o demônio	09/08/2019, 20:00:42
1159962759871811585	Tit4nStudios	Eu ia sentar no Minecraft	09/08/2019, 20:00:47
1159963283216113664	marcelinnn99	Só ignorar, não dou 1 mês pra nego esquecer isso, empresa errada não tá, e tá ignorando esses sequelados, então tá tudo certo 	09/08/2019, 20:02:52
1159963972822585346	kwangoettems	Boa sorte kaakaka, tentou atualizar ? É assim com meu goliath extended chroma	09/08/2019, 20:05:36
1159965510701920256	androsrenatus	Eu sentaria junto da mulher que vocês demitiram por denunciar assédio sexual...	09/08/2019, 20:11:43
1159966282575425536	SandimKelly	Qualquer um que não use Razer	09/08/2019, 20:14:47
1159966349139095558	derickcomc	lol corre aqui	09/08/2019, 20:15:03
1159966412271685632	lainros	povo do lol e babaca povo do ow não	09/08/2019, 20:15:18
1159966465631641601	lainros	mas em comparação ao jogo em si lol	09/08/2019, 20:15:31
1159966769752281088	willian_lycosa	soh pq eles tem coisa de egirl	09/08/2019, 20:16:43
1159966793286529027	YaasuraH	A mesa que me der um Kraken v2 de aniversário	09/08/2019, 20:16:49
1159966798516822016	kwangoettems	Fecha o executável e abre dnv	09/08/2019, 20:16:50
1159967791316897792	white_control	As mesinhas do Fortnite, GTA V, CS e um Minecraft.	09/08/2019, 20:20:47
1159968634464296961	netofilhomesmo	com as pessoas de outra sala	09/08/2019, 20:24:08
1159968721022136320	BrunoRess	Me sigam, tô carente	09/08/2019, 20:24:28
1159968920138407937	bois_cellar	com a mina q vcs demitiram por reclamar de assédio	09/08/2019, 20:25:16
1159969329703731201	Pink_Sixx	Sentaria com a Gabi :)	09/08/2019, 20:26:54
1159969714266939393	trivella	99% dos comentários ahahahahahahahshshshshahaha	09/08/2019, 20:28:25
1159970655732940800	kwangoettems	Mano to sem ideia	09/08/2019, 20:32:10
1159970686384951296	FabioMacSc	Não sabe nem fazer meme direito.	09/08/2019, 20:32:17
1159971120600297473	pedroxnovaes	onde a guria demitida estiver sentada	09/08/2019, 20:34:01
1159971186647949314	D4niz__	Respeitar as MINAS ok?	09/08/2019, 20:34:16
1159971322639900677	Lidy_Monteiro	Com a mina que vcs demitiram por denunciar assédio	09/08/2019, 20:34:49
1159971576382722049	ChungBoladu	Com o Apex	09/08/2019, 20:35:49
1159972367008960513	Ghost81511	Com a mina que vcs demitiram por reclamar de Assédio	09/08/2019, 20:38:58
1159972728860020738	Guilherme_kk	Na mesa de pinball space cadet e campo minado	09/08/2019, 20:40:24
1159973141332054016	SailorAmetista	com a @HyperXBrasil q nao quebra 1 dias depois de comprar	09/08/2019, 20:42:02
1159973440889249792	n3icolas	Essa pegou	09/08/2019, 20:43:14
1159973920738611200	Cristhyan_Alves	Com quem apoia as mulheres gamers!	09/08/2019, 20:45:08
1159974784278642689	riseofkyoshi	sim. se você não é, não se ofende. assim que rola a vida.	09/08/2019, 20:48:34
1159975747072790528	hillwryy	Com vocês não kk	09/08/2019, 20:52:24
1159976649124929537	deargates	Bem longe de vocês, mores	09/08/2019, 20:55:59
1159977116311674880	VituLim4	Cala a boca, vcs tem moral nenhuma pra falar de jogo mais	09/08/2019, 20:57:50
1159977138960904192	coalarockeiro	entrosa não random	09/08/2019, 20:57:55
