id	username	text	datetime
1175928294358867968	zeternalrookie	fiz as contas e fali por 200 conto um fone razer a menos e eu não falia	22/09/2019, 21:22:07
1175933285203152896	singlepdn	Peraí? A Razer pagou sua cirurgia de mudança de sexo? E agora vc é uma mina bochechuda e loira com um piercing chamada Bitina?	22/09/2019, 21:41:57
1175936840962101248	eamcaF_	Meu ombro ta querendo voltar ao normal podia voltar de uma vez p a u pode razer o hspu	22/09/2019, 21:56:05
1175943065376215040	SUNTORY_120th	RAZER VIPER 	22/09/2019, 22:20:49
1175947788217196544	47_The_Agent	RAZER?	22/09/2019, 22:39:35
1175953535546142722	LuizC13_	redragon eh muito CxB mesmo. Uso motospeed e Hyperx, unica coisa da razer aqui eh um kraken pro v2 impecável q peguei na promo por 200 pila. eu n dava 400 nisso nem a pau. Redragon e Sharkoon domina nos CxB de periferico, Menos nos headsets haha, ai eh da hyperx	22/09/2019, 23:02:25
1175964351775354880	yutoadacchi	kkkk to esperando meu headset da razer ainda	22/09/2019, 23:45:24
1175991557591187459	maimaimetal	#これを見た人はロック画面を強制アップ Razer＼(^o^)／Quartz Pink 	23/09/2019, 01:33:30
1175993441739657216	okonomiyaki4545	RAZER #peing #質問箱 https://peing.net/ja/qs/440784178	23/09/2019, 01:41:00
1176036789099929600	fineboyrazer	Razer 	23/09/2019, 04:33:14
1176082188095381504	AquariusD3mon	Não... Ela defendeu os machos naquele bgl da Razer meses atrás	23/09/2019, 07:33:38
1176108816905031680	K1nk1_FN	razer！！！	23/09/2019, 09:19:27
1176121713563750400	whatlyn	eu gosto mto dele mas me deixou mto triste quando ele deu like nas coisas da ay* quando deu aquela treta da razer 	23/09/2019, 10:10:42
1176139090288369665	LemonadeQQ	ninguno de razer	23/09/2019, 11:19:45
1176140054869282819	felipe_emiliooo	quero ver quando eu lançar o kit razer, como vai caber tudo na bolsa	23/09/2019, 11:23:35
1176141810554458113	SaiyanMush	Us a a Razer?	23/09/2019, 11:30:33
1176146328759521288	ovicio	Razer Gold, o crédito virtual unificado da Razer, já está disponível no Brasil 	23/09/2019, 11:48:31
1176161166986555392	bzkAgaming	Teclado da @Razer com uma semana de uso começa a dar problema, aciono a garantia mandam eu falar com a @RazerBrazil que me respondem dizendo que por Eu ter comprado no US o meu produto não tem garantia no Brasil... Já sabem quando que eu vou comprar alguma coisa de vocês de novo	23/09/2019, 12:47:28
1176162348513615872	SpeedyRhay_	E um amigo que foi me apelidar de Razer na zueira na live de um amigo em comum, agora meus amigos me chamam só de Razer, grande dia ( e não, nao é em consideração aquela empresa machista lá)	23/09/2019, 12:52:10
1176162807521402883	Geekness_	Razer Gold chega ao Brasil e oferece pagamentos para jogos e periféricos http://geekness.com.br/razer-gold-chega-ao-brasil-e-oferece-pagamentos-para-jogos-e-perifericos/	23/09/2019, 12:54:00
1176163684323909632	ydouglasq	2019 e compra razer hahahahaha, razer acabou quando mudou os da luz azul pra tudo verde hahahaha	23/09/2019, 12:57:29
1176164849799311360	bzkAgaming	Foda caí no bait, teclado blackwidow tournament chroma v2, tava lindo...	23/09/2019, 13:02:06
1176166522152214533	ydouglasq	foda	23/09/2019, 13:08:45
1176172386389020673	ND_mais_	Razer Gold, crédito virtual da marca gamer, já está disponível no Brasil. #NDmais https://ndmais.com.br/blogs-e-colunas/33giga/razer-gold-credito-virtual-da-marca-gamer-ja-esta-disponivel-no-brasil/	23/09/2019, 13:32:03
1176172387458539521	ndtvrecordtv	Razer Gold, crédito virtual da marca gamer, já está disponível no Brasil. #NDmais	23/09/2019, 13:32:04
1176174077222019078	Gabriel_Mannica	O mouse não comprei com eles, deu problema num teclado da razer tbm	23/09/2019, 13:38:46
1176176435494608896	GamingPortugal	Razer Blade Pro 17 ainda mais nítido com ecrã 4K a 120Hz https://ift.tt/2memrGk	23/09/2019, 13:48:09
1176176721256747009	lucascervinkas	kitzinho novo da razer 	23/09/2019, 13:49:17
1176181257677475848	pohanorton	E tem negocio da razer, se tu n tivesse comprado esses ngc tu tava com um pc bom	23/09/2019, 14:07:18
1176183259262259202	gamersegames	Razer Gold, o crédito virtual unificado da Razer, já está disponível no Brasil: http://bit.ly/2kRUtjI @RazerBrazil #Razer #GamerseGames	23/09/2019, 14:15:16
1176184748940713984	PromocoesGatry	99688 Mouse E Teclado Razer Combo Cyclosa Com Abyssus \ R$166,36 \ https://gatry.com/promocao/detalhes/99688/mouse-e-teclado-razer-combo-cyclosa-com-abyssus	23/09/2019, 14:21:11
1176186330558210049	mots1x	Razer viper	23/09/2019, 14:27:28
1176188459112914944	ocinemagamer	Razer Gold, o crédito virtual unificado da Razer, já está disponível no Brasil http://bit.ly/2mdeB00	23/09/2019, 14:35:55
1176189374402314240	PattrickSteski	Apple e bom sim pow, sistema super leve, otimas cameras, a proca disso e a razer	23/09/2019, 14:39:34
1176193662671314948	Fa1kerCSGO	Oloko vlw,299 o mouse a vista no boleto,da pra comprar suave,vlw Tito eu tava pensando em comprar o mouse da razer,que ia sair mais caro,vlw pela ajuda,	23/09/2019, 14:56:36
1176195107030069251	revanlul	razer viper &gt;	23/09/2019, 15:02:20
1176197173563858944	Generall_1Gamer	Campeões Razer Mobile League! . Na última quarta feira nossa line de PUBG Mobile foi campeã da Razer Mobile League #15. . Após uma Vitória na queda final com direito a um Cluth do heisen_br , garantimos o título… https://www.instagram.com/p/B2w2aGAnaah/?igshid=14k9iey5bsvef	23/09/2019, 15:10:33
1176208214825811968	Gameteambrasil	Além da facilidade e segurança de usar uma única conta para comprar jogos e conteúdos de mais de 2.500 títulos, consumidor tem programa de fidelidade Razer Silver, que dá descontos em produtos @RazerBrazil e outros benefícios. Confira! - http://bit.ly/2mwmygH	23/09/2019, 15:54:25
1176209736246730754	kabumcombr	Este Headset da razer na linha Quartz está demais né? Aproveite que ele está com o melhor preço agora mesmo! Unidades limitadas! • Headset Gamer Razer Kraken Pro V2 Oval Quartz - P2 » http://kabum.com.br/link/40/95270	23/09/2019, 16:00:28
1176218355478515712	torrespedro2000	#VaiDeBuser #GOFLA #razer qual o melhor jogo pra vcs?	23/09/2019, 16:34:43
1176232641475035137	criticalhitsbr	Razer lança a Razer Gold, o crédito virtual oficial da marca - https://ift.tt/2maHOIO	23/09/2019, 17:31:29
1176232905389068288	ericarrache	Razer lança a Razer Gold, o crédito virtual oficial da marca - https://ift.tt/2maHOIO	23/09/2019, 17:32:32
1176238168523321351	meialuafsoco	Razer Gold, o crédito virtual unificado da Razer, já está disponível no Brasil https://meialua.net/razer-gold-o-credito-virtual-unificado-da-razer-ja-esta-disponivel-no-brasil/	23/09/2019, 17:53:27
1176238583709130752	matheusdevdd	razer brasil vem pra santos	23/09/2019, 17:55:06
1176239006947905542	CebolaVerdeBR	#Razer Gold, o crédito virtual unificado da #Razer, já está disponível no Brasil | https://wp.me/p7ypAl-5ei #Games #PC #RazerSilver #Tech	23/09/2019, 17:56:47
1176239652614934531	Layfonn_	depois que vi as reviews do fone, vi que ele era mt xingado tbm e eu tinha em mãos a pior versão do kraken, depois disso a Razer lançou o V2 e ao que parece corrigiram a maioria dos erros do fone	23/09/2019, 17:59:21
1176240940639563778	RazerBrazil	Por mais pessoas que presenteiem com Razer 	23/09/2019, 18:04:28
1176241653759315970	NosNerds	Razer Gold – Razer Disponibiliza Crédito Virtual https://nosnerds.com.br/razer-gold-razer-disponibiliza-credito-virtual/	23/09/2019, 18:07:18
1176241659186728960	Allendruida	Razer Gold – Razer Disponibiliza Crédito Virtual https://nosnerds.com.br/razer-gold-razer-disponibiliza-credito-virtual/	23/09/2019, 18:07:19
1176241767626215427	TiaCatiaGames	Razer Gold – Razer Disponibiliza Crédito Virtual https://nosnerds.com.br/razer-gold-razer-disponibiliza-credito-virtual/	23/09/2019, 18:07:45
1176242029363441665	aquelaisaali	Vo comer e ligo stream ok foi mal a demora juro ficar até mais tarde lembrando que hoje tem SORTEIO de razer gold	23/09/2019, 18:08:47
1176242734723739648	TheGeekNewsBr	Razer Gold, o crédito virtual unificado da Razer, já está disponível no Brasil 	23/09/2019, 18:11:36
1176245528729923585	RazerBrazil	Conheça os novos Razer Arctech Pro e Razer Arctech Slim. Projetados para manter seu smartphone frio, eles dissipam o calor por meio de um revestimento termicamente condutor e de canais perfurados para ventilação, resultando num melhor desempenho e maior vida útil da bateria. 	23/09/2019, 18:22:42
1176246730846801921	Theusmalol	Eu nunca mais pego nenhum voo com meu Razer hammerhead. Eu usei ele em 2 voos, nas duas eu entrei com ele funcionando perfeitamente e logo quando sai do voo ele parou de funcionar de 1 lado	23/09/2019, 18:27:28
1176253035393245189	zoelibertaria	razer?	23/09/2019, 18:52:32
1176265766930460674	bielpereiras_	hum quero razer outra festa	23/09/2019, 19:43:07
1176268922456330241	snoweking	maluco eu vou enfiar esse mouse da razer no cu do dono dessa empresa se competição fosse sinônimo de qualidade essa empresa não EXISTIA	23/09/2019, 19:55:39
1176270634239823872	Suprimatec	Razer Gold, o crédito virtual unificado da Razer, já está disponível no Brasil https://suprimatec.com/razer-gold-o-credito-virtual-unificado-da-razer-ja-esta-disponivel-no-brasil/	23/09/2019, 20:02:27
1176272544283930629	doug_eu	Tem que ser no mínimo um contrato com a Razer, fone com orelhinhas e tudo mais	23/09/2019, 20:10:03
1176278754060120065	mezzzomo	Razer	23/09/2019, 20:34:43
