id	username	text	datetime
1105269810278133760	TJosin0	RAZER + CS NA FACUL = JOSINO FELIZ	11/03/2019, 21:50:32
1105270906102910977	zenozol	razer 100%	11/03/2019, 21:54:53
1105275085542297600	Linekermc	wtf kk qm diz que razer é marca ruim? nunca vi	11/03/2019, 22:11:30
1105279498809937920	GapSweater	razer*	11/03/2019, 22:29:02
1105281720415387648	gabdoceu	Eu tenho um da razer	11/03/2019, 22:37:51
1105283252569268224	mudza12	Razer 2?	11/03/2019, 22:43:57
1105286021464408064	brwnxxx	antes de eu morrer eu quero agradecer razer surrond por tudo, escutar nunca foi o mesmo depois de você	11/03/2019, 22:54:57
1105302858537168897	oshiri_serebu	Razer	12/03/2019, 00:01:51
1105305788925513728	_Helltu_	Se colocar Luzinha vende mais que razer 	12/03/2019, 00:13:30
1105308417533640704	snzllys	Razer Mamba or air 58	12/03/2019, 00:23:57
1105314892070957056	Caldatinho	achei uma loca com o mesmo fone da razer meu, conhece fnx, so falta jogar cs e ser patente mais alta q eu	12/03/2019, 00:49:40
1105324957591052289	lokithemadtitan	razer	12/03/2019, 01:29:40
1105327450949484544	Dice_m8	Razer combo is 	12/03/2019, 01:39:34
1105339259932692480	Ronaldoneri18	Só queria que @RazerBrazil @Razer colocassem o DeathAdder Chroma compatível com o Synapse 3	12/03/2019, 02:26:30
1105360485283586049	remuchaan_Black	Razer Mamba Elite	12/03/2019, 03:50:50
1105396864403337222	gasbiel04	Krlh esse ai tem setup Full razer, cadeira da nasa, monitor de 1000hz 0.0000001ms, Pc da NASA v10000 Transformes e mesa de 10000 com teclas programáveis	12/03/2019, 06:15:24
1105400452244336640	MitchiiJohn	Razer hahaha 	12/03/2019, 06:29:39
1105404449986617345	lktseries	Utilidade pública: baixem o app Razer TV	12/03/2019, 06:45:32
1105419268320047105	marquelamar	Razer. Period.	12/03/2019, 07:44:25
1105426685728444416	BleachedUno	Razer	12/03/2019, 08:13:54
1105433095723859970	hayayayato_	 Razer 	12/03/2019, 08:39:22
1105436662857981952	g_biasi	Eu sou bem suspeito.. e olha que eu ainda tenho aqui o JBL, o Gamecon, Phillips e uns outros.. mas ainda prefiro os da Razer. Ao menos dá pra trocar as espumas! xD	12/03/2019, 08:53:33
1105439443459231744	g_biasi	Eu tenho praticamente tudo Razer, tanto pro trampo quanto pra jogo. Normalmente compro lá fora, por isso eu acho que dá menos diferença em $$que pros outros pela qualidade. Quando tive de fazer um RMA (Orochi), foi bem rápido.. o pós-venda da Razer é muito bom.	12/03/2019, 09:04:36
1105440922412691458	thais_tunon	Realmente, aqui no BR é caro demais :'( . Todo ano uma Thais babando no estande da OEX e da Razer na BGS hahaha.	12/03/2019, 09:10:28
1105448968643858438	RazerBrazil	Seja bem-vindo ao Culto da Razer! 	12/03/2019, 09:42:27
1105453535951495169	kabumcombr	Headset Gamer Razer Kraken 7.1 V2 Chroma Oval. Toda a qualidade Razer pra você elevar o nível das suas gameplays ao máximo. Unidades limitadas » http://kabum.com.br/link/40/84458	12/03/2019, 10:00:35
1105457967565078528	ChromosCB	Pelo preço que cobra a Razer devia usar uns earpads decentes né... negócio esfarela tudo depois de certo tempo de uso.	12/03/2019, 10:18:12
1105462127991709696	RazerBrazil	Razer Lancehead Tournament Edition um dos sensores ópticos mais avançados do mercado, pegada confortável e ambidestra, switches Omron para até 50 milhões de cliques e, claro, Chroma. Tem na http://www.houseofgamers.com.br.	12/03/2019, 10:34:44
1105468114865672192	fezani	vc merece porra de razer steelseries &gt;&gt;&gt;&gt;	12/03/2019, 10:58:31
1105480422950125568	diogoelyvelton1	Deus, tira essa minha vontade de comprar um Headset de 500 conto da Razer!	12/03/2019, 11:47:26
1105493882358378496	merciaa3	to tisti, só queria um fone da razer mas eh CAROOOOOO E EU SOU POBREEEEEEEE	12/03/2019, 12:40:55
1105510534957408257	ROGERTHATfps	mano, o q me faz ficar desleixado com isso, eh algumas teclas (razer blackwidow) q tem uns ferrinho q eh treta de posicionar dps. mas sepah do uma limpada nele qualquer dia ai kkk	12/03/2019, 13:47:05
1105513530269331458	sir_cavaleiro	Razer mandou as teclas quebradas do meu teclado, pikaaa vlw 	12/03/2019, 13:58:59
1105516582078480384	MisterGliscor	Neon Genesis Razer	12/03/2019, 14:11:07
1105518577640226816	notpaulgush	O noe	12/03/2019, 14:19:03
1105527679938379777	geektopic	Análisis: Raiju Mobile de Razer https://buff.ly/2u5EQWC	12/03/2019, 14:55:13
1105529608596668416	RawDogg209	razer	12/03/2019, 15:02:53
1105531952193462272	Isaa__01	Menina Razer	12/03/2019, 15:12:11
1105532089619877889	breninyy	razer é bom #ad	12/03/2019, 15:12:44
1105540686223458304	Raphafuckinleao	me vejo obrigado a compra aquele fone do overwatch da razer	12/03/2019, 15:46:54
1105542802262446081	KevinHackali	as teclas da razer faziam mais por serem switch verde, este é vermelho por isso em teoria é silencioso mas qualquer teclado comigo faz basqueiro por isso continua op o som e menos annoying 8)	12/03/2019, 15:55:18
1105545308749131779	guardian_celta	Análisis: Raiju Mobile de Razer https://www.geektopia.es/es/technology/2019/03/12/analisis/analisis-raiju-mobile-de-razer.html	12/03/2019, 16:05:16
1105546407350550530	gilsonguinnees	consegui consertar meu MOUSE DA RAZER sou pika mermo !! vamos ver ate quando vai durar kkkkkkk	12/03/2019, 16:09:38
1105547093073117185	jarraoplay	E só eu pagar 379 que ela abaixa pra 229 e o controle da razer paguei 1030 e estava 729 Vocês se superam valeu	12/03/2019, 16:12:21
1105548739278766080	Pixelania	Razer Ornata – Multicolor RGB Teclado Gaming - De 2,399 a 1,925 pesos https://amzn.to/2u1vbjU	12/03/2019, 16:18:54
1105558389982220289	mattscallan	Razer	12/03/2019, 16:57:15
1105563197472456704	Noitesuda	alguém querendo vender um Razer Kraken barateza pro sudinha só pra ele mandar um som tendo um fone elegante	12/03/2019, 17:16:21
1105571305108242432	Tio_Rodrigo	Razer, é tão colorido que até daltônico enxerga!	12/03/2019, 17:48:34
1105572330409988097	MarceloGNeves	@XboxMilGrau_ Chief vc sempre falou disso. Comprei um controle para xbox one da Razer, aquele tal do Wolwerine. E quando olhei a NF notei que paguei ~63% de IMPOSTO!!! Espero muito que o governo atual mude essa política tributária. Dava p comprar 2 iguais só com esse valor! 	12/03/2019, 17:52:38
1105577175821045763	jxvctr	Jet Ski da Razer tá bonito 	12/03/2019, 18:11:54
1105579566985342977	guizaghisey	Mano única coisa que me impede de ter um setup full Razer são os preços aqui no Brasil, Pq de qualidade não tenho nada a reclamar!	12/03/2019, 18:21:24
1105581652640714753	AndreLMartins14	O dono da razer	12/03/2019, 18:29:41
1105582399583211521	RazerBrazil	FELIZ ANIVERSÁRIO para a nossa streamer e estudante de Astrofísica preferida! Tudo de bom hoje e sempre e seja bem-vinda à São Paulo, @gabicattuzzo aquele abraço da sua amiga de longa data — Razer 	12/03/2019, 18:32:39
1105582778857545730	Masuvec	Tu vai vender teclado mano? Logitech ou razer	12/03/2019, 18:34:09
1105583454702501888	Kierxnn	Cute	12/03/2019, 18:36:51
1105583723121176578	ferpweber_	Com um shampoo, n sei pq Ou com um banco de plástico da razer	12/03/2019, 18:37:55
1105584278195322881	paib0la	Oloko, aí humildade quebrou o teto! Lavar o mousepad é quase igual relacionamento com a morena, tem que ser com carinho e suave, se for assim não desgasta. Tenho um da Razer aqui que tem + de 5 anos de uso, sempre lavei e ainda da pra usar tranquilo.	12/03/2019, 18:40:07
1105585572414926854	estevaoarauj	Melhor coisa que aconteceu a Razer foi a Gabi. 	12/03/2019, 18:45:15
1105588908002344960	crisleytabosa	q símbolo da razer eh esse?	12/03/2019, 18:58:31
1105590635090898949	ValdeniaGomes	Quer razer palanque. Se fosse contigo seria um desastre. Covarde!	12/03/2019, 19:05:22
1105596916274995200	Selzinha7	[12/03/2019 18:57:20] PanUrso : Filha aaa PJL Rodrigo Neves. A prisão foi revogada hj [12/03/2019 19:23:46] Selena: Vc n deveria nem razer o lanche [12/03/2019 19:23:53] Selena: A janta* [12/03/2019 19:24:07] Selena: Merece o club house do mc 	12/03/2019, 19:30:20
1105606670229663746	Adriana_Techne	Não curto muito Razer, é caro e, depender do modelo o sensor não muito. Gosto muito Logitech.	12/03/2019, 20:09:06
1105607051810619393	Adriana_Techne	A depender do modelo o sensor do Razer não é muito bom. @Twitter um ferramenta de edição ajudaria muito.	12/03/2019, 20:10:36
1105608826382966784	voguetii	Trabalhar pra dar o kit rosa da razer pra ela	12/03/2019, 20:17:40
1105611705265123330	Joaocar23941472	patinete da Razer is real	12/03/2019, 20:29:06
1105617688074686464	Xbox_One_Reddit	Razer Nari Ultimate experiences? #XboxOne https://www.reddit.com/r/xboxone/comments/b0f0vx/razer_nari_ultimate_experiences/	12/03/2019, 20:52:52
