id	username	text	datetime
1145120428328927232	oxy17375636	Ainda fala no amor de Deus, você sabe que discurso de ódio contra gênero é pecado, não é, mocinha?	29/06/2019, 21:02:40
1145120750413787136	redhawk_luffy	Com orgulho!	29/06/2019, 21:03:56
1145122480937492480	lisbibi1	N teve nada provado por a+b. E ela não sofreu ameaça, e sim foi processada por calúnia e difamação por divulgar relatos fakes e deletou o perfil e agora responde em juízo. Estou por dentro pq fizeram montagem de conversa minha com ele q nunca existiu. Está aqui no meu perfil.	29/06/2019, 21:10:49
1145123033864187904	ironangelu	Tenho o primeiro razer phone e esquenta pra crlh, mas é muito bom	29/06/2019, 21:13:01
1145123835416600576	Anonimu11047351	"interpretar oq maluka, tu não concorda com os argumentos dele e quer desmerece-lo com um ""meus deus"" apenas provando que o que você acredita é em falácias"	29/06/2019, 21:16:12
1145124457050267648	Anonimu11047351	isso é preconceito	29/06/2019, 21:18:40
1145124927823056896	Anonimu11047351	e o que que tem a ver? muda o fato que ele falou a verdade e voce nao acredita porque te repetiram bobagens o tempo todo ate você pensar que é uma verdade? Vou te contar mais 1, o homem é o que mais morre de violência domestica, não sabia ne? É uma verdade bem desconhecida	29/06/2019, 21:20:32
1145125620743069696	AlexandreDippo2	A vai toma no su cu vey, fica xingando todo mundo na sua live não pode pergunta porra nenhuma que ja ofende não vem jogar a culpas nos homens não isso foi bem feito pra você largar mão de ser escrota namoro uma garota feminista e nem por isso ela fica xingando minha mãe.	29/06/2019, 21:23:18
1145125886716497920	AlexandreDippo2	Sério pode vim ai me xingar ou xingar minha mãe infatilidade sua ja pede isso !	29/06/2019, 21:24:21
1145125992308064257	neptunegirlxx	@RazerBrazil corre aqui	29/06/2019, 21:24:46
1145126388917293058	apradoanselmo	agora e sério, será que a galera sabe que a gente ta zoando? kkkkkkkkk	29/06/2019, 21:26:21
1145126523709644801	neptunegirlxx	espero que sim kskskks	29/06/2019, 21:26:53
1145127001138835458	feltrinigor1	Eu espero que sim, porque se confundirem com o bolsominion, a coisa vai ficar preta	29/06/2019, 21:28:47
1145127008093032448	ProvedanGiovani	Opinião?! Parecia mais com discurso de ódio pra mim...	29/06/2019, 21:28:48
1145127261089206273	apradoanselmo	KKKKKKKK UI BOLSOLIXO	29/06/2019, 21:29:49
1145127340730703881	isacomentei	pior que razer é ruim mesmo, meu teclado blackwindow foi pro saco junto com meu mouse 	29/06/2019, 21:30:08
1145128700087848961	f_fazzo	li seu tweet ao som do Rei do Gado, combinou bastante	29/06/2019, 21:35:32
1145129060403752960	GamesJooj	Onde vc comprou o seu teclado?	29/06/2019, 21:36:58
1145129683987718145	L3onL3on	Que belezura!	29/06/2019, 21:39:26
1145130701794054144	grovatsz	Tudo isso é raivinha , cara ? Vcs falam tanto que os “machos “ ficaram reclamando do xingamento da mina e que ela tinha direito de falar aquilo por que é verdade etc . Se ela tem direito , o Lucas também tem ué, seja coerente	29/06/2019, 21:43:29
1145131531389800448	imhelyan	aprende @RazerBrazil 	29/06/2019, 21:46:47
1145132352739389441	wallmartkid	nao mano	29/06/2019, 21:50:03
1145132525385334785	Zion24374688	A @RazerBrazil sou grato pelo oque a razer fez pela gabi catuzzo mas também deveria punir esse cara	29/06/2019, 21:50:44
1145132857863655424	kirito_ggbs	Mano kkkkkkk, alguém falou pra vcs falarem isso né? N é possível	29/06/2019, 21:52:03
1145133644505395201	ppk19955	Caralho cala a boca, vai viver fora da internet meu filho socorro jesus pai eterno	29/06/2019, 21:55:11
1145133839473434625	kirito_ggbs	Ela viu que ngm gostou de tirar a Gabi e começaram a contratar essas pessoas. Deixando a brincadeira de lado, você ao menos viu essa história antes de falar bosta? (Spoiler) n foi a razer que contratou	29/06/2019, 21:55:57
1145133951293566977	SforzaBob	cala boc pf 	29/06/2019, 21:56:24
1145134122567897088	VAnthonelly	Perdão dra.	29/06/2019, 21:57:05
1145134294932819969	kirito_ggbs	Quem falou pra vcs falarem isso? Tô rachando de rir aqui, aprece até um apocalipse dessa frase sksksksksksksskks, mas, excelente, vou comprar. Amo essa empresa.	29/06/2019, 21:57:46
1145134568233721856	wallmartkid	com prazer meu chegado	29/06/2019, 21:58:51
1145134647321518080	wallmartkid	aí tu marca outro cara po se quiser eu te explico	29/06/2019, 21:59:10
1145137880521687040	islashpilgrim	Aqueles produtos que deixam os gados puto <3 CHORA MAIS QUE TA POUCO kkkk	29/06/2019, 22:12:01
1145139394258644993	HudsonSRodrigue	PARABÉNS PELA ATITUDE RAZERRRRR	29/06/2019, 22:18:01
1145139584973627392	BuscandoDebate	Meu não é a sociedade que tolera e incentiva essas porra, são pessoas idiotas. Tu vive de generalizações preconceituosas e acha que pode combater o racismo	29/06/2019, 22:18:47
1145139666993258496	HudsonSRodrigue	Parabéns @RazerBrazil	29/06/2019, 22:19:06
1145140242783096832	Tweets_Do_Alan	mas vc que tá indo nas postagens da razer encher o saco parecendo uma criança que não aceita as decisões	29/06/2019, 22:21:24
1145140414711832576	Tweets_Do_Alan	vira gente e vai trabalhar...mano é pior que criança kkkkkkkkkkkkkkkkkkkkkmkkkkkkkmmmm	29/06/2019, 22:22:05
1145141312762630144	KellyCassiane2	@RazerBrazil ficou sem teclado que brilha? É só com mulher mesmo?	29/06/2019, 22:25:39
1145141584641609728	LumaKelly2	Eu concordo com você e acho que ela se expressou mal. Obrigada por ter uma discussão civilizada! Deus te abençoe!	29/06/2019, 22:26:44
1145141735280062464	KellyCassiane2	@RazerBrazil E aí razer?	29/06/2019, 22:27:20
1145141772437336064	SeiNaoNamoral	eita poha, n sabia q ia chegar a essa proporção tamanha treta nessa rede social	29/06/2019, 22:27:28
1145142110070411264	delsinrwother	“Feminazi misândrica” pqp	29/06/2019, 22:28:49
1145142976974393344	delsinrwother	Acho q nem ele entendeu. Os termos “feminazi” e “misândrica” estão tão cristalizados no Twitter q o povo usa mesmo sem q haja sentido...	29/06/2019, 22:32:16
1145143283393454080	IsaYamsh	Um lilás com uns detalhes escuros ia fica o maravilhoso	29/06/2019, 22:33:29
1145143377022898176	MarcioFarias90	Apoio a @RazerBrazil e como homem vou continuar comprando, pessoas públicas tem que ver como se comportam e aguentar a consequência dos seus atos, menos @felipeneto que usa criancinhas para que elas doem dinheiro pra ele. #misandrianao @ayubrazil @LiloVLOG 	29/06/2019, 22:33:51
1145143657143705600	delsinrwother	Forçou dms acho q vc já pode voltar à resistência contra MuLhERes FeMiNaz1z mis4Ndr1c4s que te oprimem diariamente Forças, guerreiro 	29/06/2019, 22:34:58
1145144463532154880	bellshinigami	foi uma piada de mal gosto? sim foi . mas isso nao tem nada a ver com o caso da gabi, primeiro que oque ela fez , foi um discurso de odio segundo que ele nao era patrocinado pela razer nessa época.	29/06/2019, 22:38:10
1145144877275078657	IsaYamsh	Da oreo pra ela pelo menos poxa, ela tentou	29/06/2019, 22:39:49
1145145145253388289	arcanjosna	Eu gosto bastante dessas opções contrastantes. Laranja com preto, lilás com um verde escuro.	29/06/2019, 22:40:53
1145148691633922048	Gabriel11514035	Cara pra que preconceito véi isso so por que as mulheres jogam melhor que eles dai ficam dando a louca	29/06/2019, 22:54:58
1145151685544882176	quisifoda26	Pior que Chernobyl	29/06/2019, 23:06:52
1145152682124087296	underskyzx	Excelente, vou comprar. Amo essa empresa.	29/06/2019, 23:10:49
1145155594535538688	delsinrwother	Tomara q n ensine do mesmo jeito q ensinou a vc. Perdendo tempo em discussão q foi encerrada 5d atrás. Vai tomar assistir futebol, tomar uma gelada, conversar cm alguém. Perde tempo falando merda não	29/06/2019, 23:22:24
1145155714396184576	delsinrwother	Vai tomar uma gelada, assistir futebol...*	29/06/2019, 23:22:52
1145155784231272448	GamesJooj	Então eu não sei pq. Te recomendo comprar na kabum ou no mercado livre pq eu comprei os meus lá	29/06/2019, 23:23:09
1145157447700615168	vinsmokekw	você está cobrando posicionamento de uma marca que bem patrocina o cara diretamente? kkkkkk, vai se tratar meu anjo.	29/06/2019, 23:29:46
1145157701829312517	Lucas33052375	to afim de um chinelo gamer para quando ir para praia eu abalar com seus modelos chroma tem como lançar ?	29/06/2019, 23:30:46
1145158651772116993	NProficional	mas é memu ué	29/06/2019, 23:34:33
1145160311957270528	NukeninJuan	Mas o que eu tô falando é que: O prazo de ele levar a punição já passou, faz 2 anos o acontecimento. Ao meu ver o que deveria ser feito na época era o Time que estava patrocinando ele na época puni-lo agora que o tempo já passou, ele já pediu desculpas e tallz. Não adianta mais.	29/06/2019, 23:41:09
1145161868388048897	isacomentei	quanto tempo de uso?	29/06/2019, 23:47:20
1145166343517483008	omateusribeiro	Aliás a @RazerBrazil ficaria pistola em ouvir essa música 	30/06/2019, 00:05:07
1145171489618104320	MiaPricm	Menino é MT drama po	30/06/2019, 00:25:34
1145171778324615168	MiaPricm	"Plmdd o cara fez publicações, ela tbm. Ela foi penalizada na hora, ele ganhou patrocínio sem a razer nem dar uma olhada no histórico dele? Ah vá, a empresa simplesmente passou pano pras merda que ele falou e disse ""toma aqui esse dinheiro"""	30/06/2019, 00:26:42
1145172092847108097	MiaPricm	"Isso é foda pq simplesmente ninguem liga de mulher ser generalizada, ser xingada, ser diminuída. Os caras sempre são uns ""meninos que não sabiam o que estavam fazendo e pediram desculpas"". Pra a gente tudo é culpa, pra vocês tudo é desculpa. É simples."	30/06/2019, 00:27:57
1145172503129706496	oPolar_	Mano aquilo foi a dois anos atrás e o dela foi recente, por isso a empresa ''passou o pano'' porque aquilo foi passado	30/06/2019, 00:29:35
1145172591407247365	MiaPricm	A merda é ver uma empresa que fala de igualdade fazer uma merda dessa e pagar se justa. Justa uma merda po	30/06/2019, 00:29:56
1145172882009526273	IsaYamsh	A gente ta dando ideia pra Razer arrancar mais rim nosso	30/06/2019, 00:31:06
1145173253415165952	oPolar_	Bixo, se ele fizesse isso tipo ontem, hoje seria outra coisa, mas agora há dois anos atrás pfvr né	30/06/2019, 00:32:34
1145173292158001152	biaxftt	eu super concordo com ela tem que xingar macho mesmo mas se a razer é contra isto então que seja com todos e não apenas com uma	30/06/2019, 00:32:43
1145173706576187393	biaxftt	eu li razer brasil ali 	30/06/2019, 00:34:22
1145173833298714624	oPolar_	mas o fato deles ameaçarem ela de morte e coisas do tipo eu acho RIDÍCULO.	30/06/2019, 00:34:52
1145174313034747904	grovatsz	Mas pq vc é a favor disso ? Vc tá usando a rede social criada por um”macho “ sua casa foi construída por um “macho” , seu celular foi desenvolvido por um “macho “	30/06/2019, 00:36:47
1145174576932052995	grovatsz	E no caso dele , ele n tava xingando ninguém , aquilo era uma brincadeira. Procura conhecer o cara antes de querer lacrar no tt	30/06/2019, 00:37:50
1145175424949006336	calumgata	Em nenhum momento falei q vc fazia/fez isso, calma ai apressadinhx kk ta lendo coisa onde n tem nada	30/06/2019, 00:41:12
1145175490199773184	filipi_72	Dar boas vinda pro cara ao chegar no time da mibr = patrocinar ele (???) ta sabendo legal	30/06/2019, 00:41:27
1145175661440638978	Jhob33976891	"Mas me diz onde q tem um vídeo dele desde q entrou na razer falando mal da mãe de alguém e chamando ela de ""puta de quinta categoria"" kkkkkkk"	30/06/2019, 00:42:08
1145176363009224709	Jhob33976891	Ah não claro, mas imagina se trocassem os papéis... aí seria discurso de ódio né kkkkkk	30/06/2019, 00:44:55
1145177286485975041	gabrielle21p	Mostra o rosto lindo	30/06/2019, 00:48:36
1145178273397321728	MrJRR7	Cadê o seu feiona	30/06/2019, 00:52:31
1145179520745574400	Jhob33976891	Tecnicamente é piada sim, já ouviu falar de humor negro? Pode ser errado mas continua sendo piada, das boas até kkkk.	30/06/2019, 00:57:28
1145180312525312000	san_megumin	Anão man kkkkkkk porra sério que ela tá chamando a @RazerBrazil de Hipócrita por causa que o Cara fez uma piada em 2017 e ainda pediu desculpa no mesmo ano sendo que ele não tinha envolvimento com o time nem com a Razer,WTF	30/06/2019, 01:00:37
1145180357664366593	amandagoduarte	Pecado são as mortes q o preconceito propagado e defendido por vcs por medo de mudanças. Aceita as mulheres não vão ser mais damas submissas e comportadas. Vcs vão ter q aprender a respeitar mulher!	30/06/2019, 01:00:48
1145181059333730304	san_megumin	"Porra essas Feministas de Hoje são tudo Burra, antes as verdadeiras feministas lutavam por Igualdade, hoje em dia as ""Feministas"" ficam lacrando kkkkkkk foda"	30/06/2019, 01:03:35
1145181248031248384	amandagoduarte	Os escravistas tb falavam isso! O movimento começou em 1861, ta demorando né pra acabar?	30/06/2019, 01:04:20
1145184812392767489	umpirulito	obg pela compreensão	30/06/2019, 01:18:30
1145187116521054213	porraemilio	Os incel vindo brigar cmg	30/06/2019, 01:27:39
1145187682387206149	UchihaJunior	@RazerBrazil é uma empresa focada e manter entre seus influenciadores digitais seres como @LUCAS1 um babaca escroto machista misógino empresa de homens desta estirpe que usa seus produtos lixo #banrazerbrasil	30/06/2019, 01:29:54
1145188879894552577	UchihaJunior	Mas minha reclamação nao vai servir de nada afinal @RazerBrazil vai continuar sendo comprada por sebosos desta tóxica comunidade gamer machista e misógina brasileira.	30/06/2019, 01:34:40
1145190875657658368	volin_rabah	Falou a gorda mal comida, vai buscar um macho, vai...	30/06/2019, 01:42:36
1145192097714266112	TemunTemunTemun	Brega mas adorei	30/06/2019, 01:47:27
1145193123271913472	Dinhocaruso	Uma coisa é uma piada!!! De 2 anos atrás!!!! Outra coisa é um discurso de ódio explícito!!!! Se ele tivesse por exemplo, comentado que toda mulher é vagabunda é não presta, aí sim seria um discurso pra cair matando.	30/06/2019, 01:51:31
1145198529528422401	zaialuiz	??? vc ta falando da razer mesmo, amigo ? vc já teve alguma produto da razer ? kkkk dura dois anos dentro da caixa, meu mouse nem um ano e meu note a cada 2 meses assistência técnica, quando não tem que mandar pra fora do país...	30/06/2019, 02:13:00
1145200166397456384	darksaomarcos	Virou crime dar o cu pro bronoro 	30/06/2019, 02:19:31
1145205764333740032	firewall05	quem disse q ele generalizou???	30/06/2019, 02:41:45
1145206877871136769	MagnaKaiser	Kkkkkkkkkkkkk as piada do cara cm chuva kkkkkkkkkkkkkkkkkk	30/06/2019, 02:46:11
1145208122430185472	higorbaia98	Só vi piada, mas nego mimizento ve ofensa	30/06/2019, 02:51:07
1145209007029792768	FelipeMarinhoFM	O tal do esquerdista caviar é foda	30/06/2019, 02:54:38
1145211895709933569	adiostiarli	Ué Razer... Se decide ai minha querida	30/06/2019, 03:06:07
1145214891395035138	SaaaaaaaaaaMur	A @RazerBrazil nada mais nada menos fez do que se protejer... Brother, se tu fosse o dono da razer e qualquer integrante do seu time de streamers estivesse declarando ódio a um movimento, vc iria manter esse integrante no seu time ? vai sujar a imagem da empresa velho, é simples.	30/06/2019, 03:18:01
1145215963215880192	juliokle1n	A Qualidade que os fones da @RazerBrazil tem pra ouvir música é uma coisa espetacular	30/06/2019, 03:22:17
1145216844552450048	Matheus17062900	Tá certíssima, a razer digo mesmo é a melhor empresa do ramo, além de realmente pregar o respeito ela tem produtos incríveis, mas também é a melhor empresa pq mostrou que n é pq é mulher que pode sair falando bosta, eu ainda vou ter um setup completo dessa marca maravilhosa.	30/06/2019, 03:25:47
1145218442880061440	Matheus17062900	São esses gamers quem mais compra deles então eles foram bem coerentes afinal é uma empresa, ela n tá ae para ser porta voz da esquerda tá ae para fazer money	30/06/2019, 03:32:08
1145218955751100416	Matheus17062900	Muitos acham que as empresas estão ae para fazer as vontades deles sendo que a vontade deles nem da dinheiro para a empresa	30/06/2019, 03:34:10
1145219874874187776	bckhm_david	Excelente. Não compro pq não tenho dinheiro. Amo essa empresa.	30/06/2019, 03:37:49
1145220387451691008	Matheus17062900	Sim amigo isso é verdade, mas dois errados n fazem um certo n	30/06/2019, 03:39:52
1145221057676292096	Matheus17062900	A empresa tem que se manter longe de treta, ainda mais uma desse nível então eles fizeram a coisa lógica, lembre que nem toda empresa é uma Marvel da vida que prefere agradar os mimizentos do que agradar quem realmente compra deles a grande maioria das empresas são sensatas	30/06/2019, 03:42:31
1145221621545877505	Matheus17062900	Até vc o cara que me fez querer comprar os livros do Harry Potter até vc fez isso comigo	30/06/2019, 03:44:46
1145222165115154432	_iEvee	Vocês são tão engraçados. Poxa... OPKSAOPAKASOK	30/06/2019, 03:46:56
1145222755677278208	Matheus17062900	Melhor ser virgem do que cometer zoofilia comendo uma feminista	30/06/2019, 03:49:16
1145223341520883712	Matheus17062900	Ele tá certo	30/06/2019, 03:51:36
1145223951746043905	WhenMusic_	Até compraria esse celular se eu n tivesse que pagar 3 rins por ele.	30/06/2019, 03:54:01
1145224120495411201	Matheus17062900	Ser virgem n é problema nenhum na vdd eu poderia morrer virgem, eu tenho coisa melhor para gastar meu tempo do que com acasalamento desnecessário sexo n é nada muito fodastico, vcs agem como se isso fosse necessário para viver tipo se eu n transar daqui um mês vou morrer.	30/06/2019, 03:54:42
1145224583030673408	darlingtriste	Vou colocar seu nome num pódio.	30/06/2019, 03:56:32
1145224621974798337	Matheus17062900	Como eu compro uma casa quando existe uma razer para eu gastar minhas economias	30/06/2019, 03:56:41
1145226397822140421	finmorow	Caralho, que tweet ridículo, mas eu não culpo você, é somente um gado sem cérebro e senso de ética, provavelmente apoia o Estado grande, ou mesmo mínimo, porém apoia o Estado, logo não passa de um lunático que odeia a direita do Brasil e do mundo, porém defende o mesmo que eles.	30/06/2019, 04:03:45
1145226810470408192	finmorow	Comentários vazios, que não passam nenhuma sensação para o Leitor além de NOJO, talvez até mesmo a sua turminha sinta nojo dos teus comentários, espero que você tenha sucesso na vida, meus parabéns, porque eu não consigo viver uma vida vazia que se resume a 'lutas' e política.	30/06/2019, 04:05:23
1145227594348015616	FramonDead	Aí tu tá Full Disney neh kkkkkkkkk kkkkkkkkk kkkkkkkkk tá comprando no camelo e não tá sabendo	30/06/2019, 04:08:30
1145229932072722432	PlayZuca	Parabéns Razer	30/06/2019, 04:17:47
1145230427864653825	san_megumin	As minas acham mesmo que a Razer liga pro comentários dela são as coisas mais engraçadas kkkkkkk	30/06/2019, 04:19:46
1145231267484622848	PlayZuca	É mesma coisa de falar que é culpa de quem denunciou o assaltante ser presso, não dele por ter roubado.	30/06/2019, 04:23:06
1145231513312776192	llhaterll	Em 1° lugar A @RazerBrazil não tem nada a ver com essa merda toda Em 2° lugar A Razer não e empresa de advocacia pra defender ninguém Eu tenho certeza de que se você tivesse no uma empresa direcionada para vários públicos como a Razer e você não ficaria do lado de ninguém	30/06/2019, 04:24:04
1145231786672365569	PlayZuca	Quero vê se fosse toda mulher é lixo	30/06/2019, 04:25:09
1145232208774479873	llhaterll	Por que se ficasse iria ver os lucros serem afetados Me fala uma vez na história em que uma empresa ficou do lado de alguma pessoa por motivos ideológicos Todos sabem que as empresas fazem isso pra não serem prejudicadas Vocês não querem mais igualdade Querem prioridade	30/06/2019, 04:26:50
1145233354578681856	PlayZuca	Não tem nada	30/06/2019, 04:31:23
1145233387160068096	llhaterll	Eu tenho certeza que a Gabi não iria pagar os dólares que a Razer iria perder por defender ela e nem você iria Se põe no lugar da administração da empresa em uma hora dessas E ensina as mulheres revolucionárias do seu grupo a serem mais educadas e menos hipócritas.	30/06/2019, 04:31:31
1145233838907568128	PlayZuca	O problema é que não primeira vez que ela é tóxica	30/06/2019, 04:33:19
1145234061679632384	PlayZuca	O pior que tem tanta gente defendendo ela, mesmo não sendo a primeira vez que ela é tóxica	30/06/2019, 04:34:12
1145235151728906240	PlayZuca	Exemplo de pessoa tóxica e mal educada? Esse é exemplo que Razer deveria está apoiando? Afinal, parece até que vocês estão esquecendo que não é primeira vez que ela se comportar de uma forma babaca	30/06/2019, 04:38:32
1145235554226921472	PlayZuca	Ayu disse até que não iria fazer vídeo caso ela pedisse desculpas, nada mais justo.	30/06/2019, 04:40:08
1145236444400758784	SexyWinterXZzx	PINTA OS CABELO DO CU DE ROSA E VIRA ATOR PORNO CARALHO, FICA DEFENDENDO ESSA PUTA, BABA OVO DO CARALHO	30/06/2019, 04:43:40
1145253647477092352	ed_brr	Opa, puxar coisa antiga de pessoas pode? porque posso puxar uns clipes da Gabi aqui também sendo babaca pra krl, rs. Mas ela é mulher, então pode ne? HUAHUHAUHAUA	30/06/2019, 05:52:01
1145253782219100160	ed_brr	Opa, puxar coisa antiga de pessoas pode? porque posso puxar uns clipes da Gabi aqui também sendo babaca pra krl, rs. Mas ela é mulher, então pode ne? HUAHUHAUHAUA	30/06/2019, 05:52:34
1145254205722103808	ed_brr	Mano IUHGIJDSUGAISDGASDIUGA, vamo la, primeiro esse tweet é antigo, mas blz vocês podem achar que pegar tweet antigo é certo, se for por isso, eu posso pegar aqui uns clip da Gabi sendo babaca pra krl tbm, como até ela afirmou que ela ja foi mt babaca	30/06/2019, 05:54:15
1145254964148748289	ed_brr	Segundo, se o contrato da Razer é com o TIME eles não se responsabilizam com os atos de alguém dentro do time, diferente de quando eles patrocinam um INDIVIDUO	30/06/2019, 05:57:15
1145255231346941957	ed_brr	"Se alguém tem que se cobrado por algo que ele falou(em 2017) esse alguém é o TIME então se querem ""justiça"" falem com o TIME DELE, não com a Razer que não tem nada haver com ele"	30/06/2019, 05:58:19
1145286875445379072	luisarare	"Tudo bem, beleza é relativa mesma Mas o problema n é que ele disse que mulher é feia O problema foi falar que ""se ninguém ver, da pra comer"" Isso é um pouco degradante"	30/06/2019, 08:04:04
1145287819272830976	worstrodrigues	Já foi numa militância de esquerda? Acontecem coisas bem loucas lá.	30/06/2019, 08:07:49
1145288622008127488	AguiarGuida	Achei lindo. Vou comprar tb.	30/06/2019, 08:11:00
1145293335260729344	owillcarai	Não faz isso com meu coração @RazerBrazil é sério? Quando plmds vocês lançam? 	30/06/2019, 08:29:44
1145300791009382400	JVSousa25	"Aposta quanto q se der treta ele diz ""Isso foi velho, eu mudei"" e vai ficar por isso mesmo? "	30/06/2019, 08:59:21
1145303327539957760	sopeykoo	a piada ja vem pronta	30/06/2019, 09:09:26
1145304349981249536	calumgata	KKKKKKKK ok amor. Não foi pra vc viu homem-não-lixo-que-não-faz-merda-com-os-outros. Melhor interpretado assim? Paz	30/06/2019, 09:13:30
1145306672770015232	LaisNobre2	Não... Jogo do HP é chato!	30/06/2019, 09:22:44
1145306909437767682	UmJorgeQualquer	pensei que era um teclado gamer da @RazerBrazil 	30/06/2019, 09:23:40
1145307651145908225	zaialuiz	isso, mandei pra assistência técnica do camelô, eles dão garantia agora. tá evoluído...	30/06/2019, 09:26:37
1145309396345470976	_deusgrego	Entenda, se uma pessoa trabalha em uma empresa que trabalha de forma digital ela tem que ter no mínimo uma postura. Gabi de fato é (ou era) uma pessoa tóxica, cada um planta oque colhe.	30/06/2019, 09:33:33
1145318174138753024	itzychimmy_	Ksks tadim @RazerBrazil	30/06/2019, 10:08:26
1145319556518424576	Major_Kalu	Pior são as defensoras dela por aí. Essa semana vi uma doida defendendo as atitudes dela no YT dizendo as mesmas coisas e até outras piores. Não sei o que essas pessoas tem na cabeça, não entendo a dificuldade em tratar outros com respeito e igualdade. Devem odiar o próprio pai.	30/06/2019, 10:13:55
1145320018718146563	Major_Kalu	Só não comprei porque não tinha por aqui na época. Gosto do estilo da tela que ele tem. Diferente do Samsung que acho muito wide.	30/06/2019, 10:15:46
1145320486294949890	sherlockdrogado	Quê isso, por nada acho que as discussões devem ser sempre respeitando ao próximo! Tenha um bom dia	30/06/2019, 10:17:37
1145320560970424322	Major_Kalu	Acredito que não, ainda mais no inverno onde quase ninguém procura games do estilo. Outro ponto é a segurança, com tanto roubo é desanimador sair na rua pra jogar um game que está sempre com algum bug estranho. Ainda existe a complexidade, então só vai jogar quem curte HP mesmo.	30/06/2019, 10:17:55
1145321241085169664	janssenflipart	Eai seus bando de machista, já compraram quantos periféricos da @RazerBrazil hoje?	30/06/2019, 10:20:37
1145321983686656001	amandagoduarte	Mas esse papel invertido já tem, inclusive vc acha super normal e está defendendo.	30/06/2019, 10:23:34
1145322406795501568	catimbinho	@RazerBrazil nao me deu um ainda	30/06/2019, 10:25:15
1145322554405658624	homemfrei	hmm kk bjs	30/06/2019, 10:25:50
1145325437054267394	DIAS_RDS	Parabéns @RazerBrazil pelo posicionamento. Empresas n devem ter gênero, partido político ou ficar se envolvendo em militância. Muito menos d malucos d Internet q n sabem o q é ser um profissional d vdd.@Logitech ou Razer, só importa o gosto pessoal d cada um, n a opinião d outros	30/06/2019, 10:37:17
1145329552501161986	JRA16270887	Feminismo tóxico.. olha a vítima agonizando kkkk	30/06/2019, 10:53:39
1145331057551691778	IMesmoElon	Diferenças Um tem PIADAS antigas (mesmo q as piadas sejam escrotas) Outro tem discurso de ódio recente	30/06/2019, 10:59:37
1145335525030674432	IMesmoElon	mulher é lixo foi uma piada 	30/06/2019, 11:17:23
1145335619364839424	Agoniiizing	Piada!= Ofensa, uma te faz rir o outro te faz se sentir mal	30/06/2019, 11:17:45
1145335807827464192	errado_isso	Terceiro como empresa ela era um risco pq ela já mostrou ser temperamental e vai voltar a atacar os homens. O q aconteceu n mudou oq eu penso da marca mas sim da @gabicattuzzo -0 consumidor @RazerBrazil	30/06/2019, 11:18:30
1145336900959514630	FabioLugar	fui atrás e vi. Achei uma postura vergonhosa da @RazerBrazil. Nem conhecia a companhia e agora a conheço por basicamente jogar contra a vitima 	30/06/2019, 11:22:51
1145337593611116546	errado_isso	Para o caso do @LUCAS1 a @RazerBrazil patrociná a @mibr q patrocina o Lucas pq ele é um bom jogador e só isso se quiser tirar satisfação vai atraz do Lucas n das empresas	30/06/2019, 11:25:36
1145339098711961601	julietcutiepie	@RazerBrazil Se pronunciem sobre o lucas teles seus pedaços de lixo	30/06/2019, 11:31:35
1145341556444094464	sheislunatic_	Pink money é bom né? Mas respeitar as mulheres não está na conduta gamer...	30/06/2019, 11:41:21
1145345184814776320	FramonDead	Por acaso aqui onde eu moro tem camelo que sim kkkkkkkkk kkkkkkkkk	30/06/2019, 11:55:46
1145346193523904514	virgui_1_	@gabicattuzzo ela falou com a opinião dela @RazerBrazil @Razer cada tem sua opinião	30/06/2019, 11:59:46
1145349099681660930	baudocectt	Parabéns @RazerBrazil 	30/06/2019, 12:11:19
1145349828672741383	vmin1995B	Ah é... E por que é difícil entender o kpop? Acho que é vc quem tem neurônios faltando	30/06/2019, 12:14:13
1145351369534136322	kizuragamer	faz sentido o que vc disse	30/06/2019, 12:20:20
1145351626644951041	PotatoMight	E precisar ter transado para dar opinião? Ou para valer mais?	30/06/2019, 12:21:22
1145352192850845698	brunovcf	Pode crer otaria... min ofendeu, o que cê tem a dizer @RazerBrazil	30/06/2019, 12:23:37
1145352284043452416	JinzooMito2	Ela é mulher, já tá envolvida no assusto.	30/06/2019, 12:23:58
1145352350640607234	ivandcc	Merecido ok	30/06/2019, 12:24:14
1145354011429789701	PotatoMight	Até até porque agente chora com essas coisas infantis, homem que é homem tem respeito por tudo e todos não ódio e rancor, esses homens de hoje em dia com fotinha para Instagram são tudo baitola. Isso vale para mulheres também.	30/06/2019, 12:30:50
1145354172725944320	MiaPricm	A interpretação da língua portuguesa, amore	30/06/2019, 12:31:29
1145354641728790531	MiaPricm	Mago, se a empresa realmente filtra seus patrocínios baseados nisso tem que ser geral. Ou faz igual ou não faz po. Cagou MT de ter desfeito na hora o contrato com a menina e cagaram mais ainda esses caras violentos ameaçando ela por causa de um negocio desses	30/06/2019, 12:33:20
1145354911753867264	oPolar_	toda mulher é feia?	30/06/2019, 12:34:25
1145354936181542912	MiaPricm	Boa tarde, @RazerBrazil, machista. Mais um dia que tu passa pano pra homem e aceita drama como argumento pra acabar um patrocínio. Coisinha ridícula	30/06/2019, 12:34:31
1145355028753985538	PotatoMight	Fala pro Júlio cocielo.	30/06/2019, 12:34:53
1145355202192691200	MiaPricm	Todo homem é lixo? Amado, vcs ficaram de drama por algo MT besta	30/06/2019, 12:35:34
1145355555441131520	PotatoMight	A menina chama ele de LIXO e ele zoa ela por isso mas ele tá provando o ponto	30/06/2019, 12:36:58
1145355592132943877	cha_teado	"""Não fiquem quietas"" exceto quando os macho de merda nos pressionarem. Ai a gente faz questao de fazer notinha de beijo na testa pra masculinidade frágil. Tem que ser muito lixo mesmo viu dona Razer"	30/06/2019, 12:37:07
1145355606309724160	Pimenta51601338	Se feia em jão	30/06/2019, 12:37:10
1145355657236877318	cauapedro13	Show de bola amei vou comprar	30/06/2019, 12:37:23
1145356087778074624	PotatoMight	Não tá não, julio cocielo tiraram até os últimos pegaram coisas de 2011 para dizer ele é conseguiram, então ao meu ver tá justo essa coisa de perder patrocínio	30/06/2019, 12:39:05
1145356318116593665	PotatoMight	Ah sim, com certeza a razer nem é internacional mas não é uma empresa grande e milionária de verdade	30/06/2019, 12:40:00
1145357219929690117	vitornaotemc	Mto incel	30/06/2019, 12:43:35
1145357448078868482	lenanoce	Vergonhosa demais, mostrou que a única coisa que eles pensam é em dinheiro.	30/06/2019, 12:44:29
1145357485643116544	PotatoMight	Eu não sou babaca, não sou lixo, falo por min mas se insistir que sou posso usar o mesmo argumento com vocês.	30/06/2019, 12:44:38
1145358861324423168	Filipepferreir1	@ayubrazil força estamos com você! @RazerBrazil parabéns pela atitude louvável! @moura_101	30/06/2019, 12:50:06
1145359223443939328	FabioLugar	é que etica não compra carro ou mochachinos	30/06/2019, 12:51:33
1145359451106492416	Ka_Belladonna	Tenta pagar funcionários com arroz, empresa grande precisa de dinheiro pra pagar funcionário, não é gostar de dinheiro, é precisar pqp	30/06/2019, 12:52:27
1145359505833832448	lenanoce	Mas a falta dela afasta clientes também. Eu não sou inteirada do mundo de jogos, mas imagino que seja bem masculino, logo, bem machista	30/06/2019, 12:52:40
1145360020571328514	Vyrgul4	"@RazerBrazil vocês estão de parabéns, não é só porquê é mulher que deve ser passado pano. Todos devem ter direitos iguais nessa PORRA, se fosse um homem postando uma ""piada"" na qual falasse que lugar de mulher não é no computador e esse cara fosse patrocinado...[+]"	30/06/2019, 12:54:43
1145360537917820929	Potato95x	Toxicidade é algo horrível mesmo, não importa de quem venha, tem mais é que ser levado à Justiça. Não se pode passar cartinha branca só porque é homem, mulher, ou o que seja. Preconceito e discurso de ódio não tem gênero nem opção sexual.	30/06/2019, 12:56:46
1145361228447059968	C4B3L0AVUA	@gabicattuzzo @RazerBrazil @ayubrazil RATO MACHISTA KKK	30/06/2019, 12:59:31
1145361353084944384	oPolar_	"Seguinte, vou dar umas aulas de gramática pois bem, "" Homens são lixo"" em algum momento vocês especificam a frase para somente homens que agridem, estupram ou são machistas com as mulheres? Não né, ninguém é vidente pra adivinhar o que vocês estão pensando"	30/06/2019, 13:00:01
1145361515966554112	oPolar_	o engraçado é vocês falarem que quem está fazendo drama é a gente mas é foda ser chamado de estuprador, de agressor, de machista, caso não saiba eu apoio o movimento feminista SIM porém fico muito chateado quando vejo comentários desse tipo. Agora vamos a parte do Lucas Teles	30/06/2019, 13:00:39
1145361698997579778	oPolar_	"""Mulher feia é igual chuva: pra dormir é bom mas pra sair na rua é complicado!Boa tarde."" nesta frase está claro que isso é uma piada e claro que algumas pessoas saem ofendidas, porém em nenhum momento ele abrangeu para TODAS as mulheres, a piada fala somente das mulheres feias"	30/06/2019, 13:01:23
1145362455801016320	FabioLugar	num mundo merda, não ser um merda afasta clientes. Mas isso não é motivos para ser um merda. E se é, estamos fodidos	30/06/2019, 13:04:23
1145362740720144384	dufernandaa	KKKKKKKKKKKKKKKKKKKKKKKKKKKKKKKKKKKKKKK GUENTO NAO	30/06/2019, 13:05:31
1145363171659718661	MattRoszakVT	"""Homem é lixo"" Ai você vê o chat e as mulher tudo gritando profanidades para a Ayu, hipocrisia é Incredibou!!! estamos evoluindo a cada dia aparentemente :) (sqn)"	30/06/2019, 13:07:14
1145365800611721218	jo_higashikata	Eu disse os KPOPERS não o KPOP	30/06/2019, 13:17:41
1145366230964035587	oxy17375636	Fora o fato de que eu não crio conta no Twitter pra ficar exaltando artista e twittando pra quase ninguém, kkk. Abs	30/06/2019, 13:19:23
1145366706552037376	lovesickdrugs	"Cara se mudar sería ótimo Melhor do que a galera que fala ""isso é velho, eu mudei"" Tudo volta a ficar silencioso e, na verdade, a pessoa não mudou"	30/06/2019, 13:21:17
1145368326685843456	reasonpjm	é com dois P mo, assim: kpoppers	30/06/2019, 13:27:43
1145369962070118401	LittleVulpis	@RazerBrazil @gabicattuzzo @ayubrazil se vcs pararem pra pensar o verdadeiro vilão são os seus seguidores... claro que não todos	30/06/2019, 13:34:13
1145370570084835328	1Mathels	E então @RazerBrazil, ja podemos dizer que a empresa é apenas machista mesmo? https://twitter.com/LUCAS1/status/826262926306586626	30/06/2019, 13:36:38
1145370847441539073	717vcm	Excelente vou comprar, amo essa empresa	30/06/2019, 13:37:44
1145371869429805056	PimbaPimbaSouls	Tô é pouco me fudendo pra treta. OLHA ESSE TECLADO, CARA! É LINDO, MARAVILHOSO	30/06/2019, 13:41:48
1145372143145934856	Viniccinhu	Se a pessoa não tem caráter, ela falhou como pessoa!	30/06/2019, 13:42:53
1145372485703090176	NunesMelly	Eu não vou falar mais da blogueira que fala de racismo reverso e é antifeminista porque eu não vou dar palanque para otária. E sobre o drama da perda de patrocínio ela defendeu quando a @RazerBrazil tirou o patrocínio da Gabi então. O que a gente transmite volta.	30/06/2019, 13:44:15
1145375707922669570	vmin1995B	Ai moço, e o que é que há de tão complexo nos kpoppers que vc, ó grande sábio, tem dificuldades de entender?	30/06/2019, 13:57:03
1145376195036491776	ZupT_	Gostei da piada, obrigado pelo compartilhamento. Kkkkkkk	30/06/2019, 13:58:59
1145378284106113024	vickz_sagara	Só queria saber porque ela dar a desculpa de algumas opiniões babacas dela serem de 2 anos atrás vale, mas ele que tava fazendo piada em tweet de 2 anos atrás não	30/06/2019, 14:07:17
1145378293522358274	dark6_soul6	Gado e feminista elogiando a atitude do gado 	30/06/2019, 14:07:19
1145379126842482688	vickz_sagara	Manda mais la cara, até acabar o dinheiro	30/06/2019, 14:10:38
1145379872753278978	Cauazera3	já vai boltz	30/06/2019, 14:13:36
1145380281802772480	machad0_jc	Não foi ela que marcou a @RazerBrazil no caso da gamer Gabi?	30/06/2019, 14:15:13
1145382153582198784	yfm_bJay	"Hur dur man ayu Brasil expõem sua opinião e é massacrada por feministas kkkk dps as mulheres querem respeito se nem elas se respeitam ""toda mulher é lixo"""	30/06/2019, 14:22:40
1145382355445723146	Soufria_	é isso q gente escrota faz quando n tem argumentos bons kkkkk	30/06/2019, 14:23:28
1145383113054466048	evelenbondioli	Depois de ver o posicionamento da @RazerBrazil com o caso da influencer a única coisa que se conclui é: um cara fala a merda que quiser, mas a culpa é da mina que se defendeu. Patético.	30/06/2019, 14:26:28
1145383637040467968	LuPeriquito	Tá serto	30/06/2019, 14:28:33
1145384079329812480	Dhominy59736758	Sabe qual a diferença de fazer uma piada e de fazer discursso de ódio? Você deveria tomar vergonha de proteger essa mulher. Chamando todos os homens da sua família de lixos inclusive você	30/06/2019, 14:30:19
1145385822725771264	NOTTx_FPS	Olá @RazerBrazil, estou com problemas com meu teclado balckwindow, onde posso conseguir suporte?Pois por esse link não estou conseguindo	30/06/2019, 14:37:15
1145385919060598784	NOTTx_FPS	Olá @RazerBrazil, estou com problemas com meu teclado balckwindow, onde posso conseguir suporte?Pois por esse link não estou conseguindo	30/06/2019, 14:37:38
1145387048360173568	WhenMusic_	Teclado é lindo mesmo	30/06/2019, 14:42:07
1145388708784480257	renatoonnetwork	@RazerBrazil vou te marcar em todos os exemplos que eu achar	30/06/2019, 14:48:43
1145389136318291968	Reinald61420653	Vc viu primeiro oq ela fez?se não viu,não pode falar nada. Mas se vc viu,sabe que ela foi babaca ofendendo um gênero inteiro e pior,as pessoas defenderem ela. Como einstein disse”[...]não por aqueles que fazem o mal,mas sim por aqueles que vêm e deixam acontecer”	30/06/2019, 14:50:25
1145390127633588224	jo_higashikata	O motivo deles mandarem 500 vídeos a cada letra que falam,pq a maioria e entre outros,oque comem Hoje no globo repórter	30/06/2019, 14:54:21
1145393794508034048	Ryangolll	"""estou montada no chat"" piada chamando os corno de gado ""vem montar em mim"" outra piada ""MaCxxXcHxxCHiSTa"" huehue vcs da esquerda são uma vergonha huehue"	30/06/2019, 15:08:55
1145396223504990209	Samadesu_haru02	Isso é um ABSURDO	30/06/2019, 15:18:34
1145397515795271680	yExtremexX_	pqp mano, tu falando de boas com a mina e ela te chamando de corno e te xingando. na real, elas brigam por igualdade mesmo? tem como nem conversar com uma pessoa assim.	30/06/2019, 15:23:42
1145398251836837890	erosgusmao	O assédio a mulheres gamers é algo que acontece e essa situação é horrível, acho que o posicionamento da marca foi bem coerente. Acho que o único erro da menina foi generalizar, mas a questão do assédio acontece mesmo.	30/06/2019, 15:26:38
1145399658837106688	SuvacoCheroso	@LUCAS1 arrebenta mano 	30/06/2019, 15:32:13
1145400688702365698	troveplays	gadooooo!!!!!!!	30/06/2019, 15:36:19
1145401684937625602	vmin1995B	Seu português é ruim, mas tá. Mandam vídeo pq gostam do video, não é tão difícil assim de entender	30/06/2019, 15:40:16
1145402870952538112	geisonorion	video novo no canal... A @Oficial_Central SEM RABO PRESO COM NINGUEM... @ayubrazil @CTragicomico @WagnerThomazoni @gabicattuzzo @RazerBrazil 	30/06/2019, 15:44:59
1145403984418627584	IsadoraBasile	Aí vai dormir	30/06/2019, 15:49:25
1145405301115490304	rick_nunes	Bota mais 10 aí na conta meu padrinho	30/06/2019, 15:54:39
1145406153788186624	JooGabr22106696	Ela só falou q homem e lixo achei q ela tinha chamado a mae do outro de puta e falou pra enfiar o próprio pau do cara no cu em forma de 8 e e piada né e piada sim kkkkkk	30/06/2019, 15:58:02
1145406916207751170	Shark292	bom dia, postando coisa pra mulher dps de serem uns retardados com uma? q bom em, bando de ameba do caralho	30/06/2019, 16:01:04
1145406925951119365	galosemkalsa	legal mais cade o contrato ?	30/06/2019, 16:01:06
1145406935950352386	Almeida_Y	Que teclado bonito Adoro essa empresa!!!	30/06/2019, 16:01:08
1145407154783969281	PINSER_AMOGO	 LINDO MARAVILHOSO ESPLENDIDO CHARMOSO TUDODEBOM 	30/06/2019, 16:02:00
1145407733514022912	PiadasIrving	A Gabi vai ganhar ?	30/06/2019, 16:04:18
1145407913390985216	_Diego_T	Aceita trocar tudo isso por uma coxinha e uma coca-cola média?	30/06/2019, 16:05:01
1145407943065649158	Ryanpinheiro_04	Se pessoa te ofendeu, vc tem uma briga com ela não com o gênero inteiro, resumindo ela tá errada, vcs estão apenas tentando justificar o erro dela com base nas outras pessoas, e existe muitos outros influenciador do sexo masculino que foram bombardeado TB	30/06/2019, 16:05:08
1145408394305658880	rohrerp	No teu c u	30/06/2019, 16:06:56
1145408829917712384	SandroBValle	e quem te disse que isso é só para mulher? e quem disse que rosa é coisa de mulher? ameba do caralho	30/06/2019, 16:08:40
1145408836574109697	Marcos6883	Clbk feministo do Krl Vai pedir desculpa por ser homem seu lixo Desonra msm pro gênero	30/06/2019, 16:08:41
1145409097833078786	sibianypride	@RazerBrazil comenta lixo tóxico	30/06/2019, 16:09:44
1145409461525327872	Neck577	No teu buraco	30/06/2019, 16:11:10
1145410189979525120	FabricioDiask	Então quer dizer que só porque é rosa é pra mulher?. Quase lacrou miga, vou dar nota 6 pro seu lacre, já que faltou pedir desculpa por ser homi e não ser homofóbico por tabela (considerando a cartilha lacradora vc foi homofóbico e machista ao assumir que rosa é pra mulher).	30/06/2019, 16:14:04
1145410816117809152	Shark292	quando tiver um argumento q nao seja ecravoceta e gado, a gnete conversa, bom dia	30/06/2019, 16:16:33
1145411075887828998	NanoAugmented	Boa tarde. A @RazerBrazil é uma merda.	30/06/2019, 16:17:35
1145411215725932551	Kbralima	Seres humanos têm muita dificuldade em entender e praticar empatia.... pobre dela que terá que aprender pela dor....	30/06/2019, 16:18:09
1145411982226534400	marcus_x	Kkkkkkkkkkkkk Serio que rolou isso? Bem feito entao.	30/06/2019, 16:21:11
1145413390904545281	Chico7lagoas	L I N D O D E M A I S	30/06/2019, 16:26:47
1145413903557509127	rick_nunes	"""Mulher é merda"" OLHA SÓ Q FUDIDO CoRtA o PaTrOcÍnIo DeLe!!!!1 ""Homem é lixo"" Lindona falou tudo ñ liga p essa empresa machista A menina mente sobre ser embaixadora, chama metade da população do mundo de lixo e ainda tem quem defenda. É foda."	30/06/2019, 16:28:50
1145413916194955266	marcelotuiter	Valeu pela explicação	30/06/2019, 16:28:53
1145414156461465601	rick_nunes	Vai passar raiva kkkk Multilaser é muito sucata. Nunca mais aqui	30/06/2019, 16:29:50
1145414232105787394	machadomf	Isso é apelo pra ver se consegue transar	30/06/2019, 16:30:08
1145414862786482176	_bibisweet	Seu comentário só prova que eu estou certo	30/06/2019, 16:32:38
1145415216664141830	JardimAntony	Que argumento hein... aprendeu com a Gabi a usar argumentos??	30/06/2019, 16:34:03
1145415696798666753	JardimAntony	Então fala algo ATUAL, DESSE MÊS em que um HOMEM falou que TODAS AS MULHERES SÃO MERDAS.	30/06/2019, 16:35:57
1145416006875209730	Matheus__Kevin	Lacranet,tó rindo muito!!	30/06/2019, 16:37:11
1145416107739758593	watafaaak_	Mano ela já pediu desculpas por esse episódios e tá tentando virar uma pessoa melhor segue a vida querida	30/06/2019, 16:37:35
1145416243937251330	dark6_soul6	E vc tem né ? kjdjjjjjjj eu fico zoando e rindo com essas coisas enquanto vcs perdem a cabeça me chingando e tentando me diminuir de alguma forma kkkkkkkkkk muito bom	30/06/2019, 16:38:08
1145416922273583105	JardimAntony	MDS!!! Como as pessoas se sentem ofendidinhas facilmente hoje em dia . É UMA PIADA.... como vocês se ofendem com uma PIADA!!??	30/06/2019, 16:40:49
1145418574472892420	Soufria_	mano? você chamou o cara de gado por ele simplesmente defender as mulheres, e quando eu expressei os meus argumentos você só chamou ele de gado de novo eu n to tentando te diminuir, quem tá tentando diminuir ele como homem é você, eu só to defendendo	30/06/2019, 16:47:23
1145418847274590208	_bibisweet	Viu que não fiz muito esforço pra te responder? Faço das suas palavras as minhas.	30/06/2019, 16:48:28
1145419197998088194	san_megumin	"Deixa eu entender, você está puto ainda com a Razer por causa da Gabi perder o contrato por uma coisa errada que ela fez?!pqp, aí vem ""aí ela já foi assediada e sexualizadas por homens"" Não sabia que Todos os Homens do Mundo Inteiro chamaram ela de gostosa e Etc.. kkkkkkkkkkk :D"	30/06/2019, 16:49:52
1145420147928309767	Palmitinh	Stalkei a @ayubrazil pra saber pq perdeu o contrato... Ela acredita em racismo em branco. Tá explicado pq perdeu... e ai na apoiou a @RazerBrazil quando cancelou o contrato da mina se disse qe homem e lixo.	30/06/2019, 16:53:38
1145420827506159616	YugueRensei	Ai meu mano, tem o link do vídeo onde eu posso ver o mesmo? Pq eu só sei da história por repercussão, n vi o vídeo.	30/06/2019, 16:56:20
1145422108358520834	Matheus__Kevin	Uma água com 2 cubin de gelo...	30/06/2019, 17:01:26
1145422611528192002	YugueRensei	Glr, alguém ai tem o link do vídeo onde eu posso ver o mesmo? Pq eu só sei da história por repercussão, n vi o vídeo.	30/06/2019, 17:03:26
1145423508132040704	euviumgatinho	Nesse caso é karma... ela tem q aceitar o equilibrio do universo	30/06/2019, 17:06:59
1145423902740492289	Matheus__Kevin	Bem vindo @LUCAS1 . Só vai dá o pai gritando: QUE OTA.	30/06/2019, 17:08:34
1145425543082500103	_bibisweet	Achei que tinha acabado, um pouco contraditório	30/06/2019, 17:15:05
1145426792829857793	Matheus__Kevin	Fala que ce que ota	30/06/2019, 17:20:03
1145427606948462592	_bibisweet	Não tem guerra migo, poxa...	30/06/2019, 17:23:17
1145427673361145857	_bibisweet	Mas tá 	30/06/2019, 17:23:33
1145429408959868930	fleurjimoo	esse tipo de comentário me enoja tinha que ser homem	30/06/2019, 17:30:26
1145431619286786050	fleurjimoo	a mente é tão curta que não pode nem responder com palavras	30/06/2019, 17:39:13
1145431939953909760	crybaby_anonima	Depois querem reclamar por ela ter generalizado 	30/06/2019, 17:40:30
1145432333803237377	fleurjimoo	pior	30/06/2019, 17:42:04
1145434135898578944	ThallesTbar	No momento em que um homem ou mulher faz um comentário idiota(para não dizer outra coisa), generalizando todo um gênero, essa pessoa tem sim de sofrer as consequências na minha opinião. Não concordo com as proporções, mas sim com o resultado final boa! @RazerBrazil	30/06/2019, 17:49:13
1145436229435056133	PifferGui	Coisa para mulher ?	30/06/2019, 17:57:32
1145437627023265793	45_kaique	Tá certo	30/06/2019, 18:03:06
1145437944016232449	dark6_soul6	"Vc simplesmente elogiou o cara por ""defender"" mulher(passar pano pra mina que teve atitude escrota chamando todos os homens de lixos e merdas e dizendo que só a exceção presta), não teve argumentos, vc concordou com a mina e elogiou o cara..."	30/06/2019, 18:04:21
1145438905174548486	Soufria_	mas a mina não tava errada a maioria dos homens é lixo sim você se ofender com o que ela diz só enfatiza o fato de vc estar entre esse grupo de homens lixo. É muito difícil encontrar um cara q lute pelos direito das mulheres, e você chamou ele de gado só por ele ter feito isso	30/06/2019, 18:08:10
1145438963072733185	marcus_x	Sobre a Gabi, meu filho havia me contado a treta. So nao sabia dessa zinha ai. Mas se ta contra ao escracho da Gabi, tem q se ferrar mesmo.	30/06/2019, 18:08:24
1145439886264209411	Soufria_	foi unicamente VOCÊ que ofendeu o cara chamando ele de sla oq, e eu que não tenho argumentos? eu acho que você tem q reler a conversa viu	30/06/2019, 18:12:04
1145441667094384641	Garrel_Darkburn	"E ele ainda tem coragem de mandar ""Vergonha RazerBrazil"" kkkkkkkk Vergonha é o que ele passa todo dia."	30/06/2019, 18:19:09
1145441816822583297	MiaPricm	"Amado, dizer que ""homem é lixo"" se baseia claramente, nas experiências dela com os homens ao seu redor. Muitas mulheres têm a mesma experiência e isso não tem nada de culpa sua nem de quem sabe que não é um lixo po. Sério, vcs tem que parar de se achar um lixo"	30/06/2019, 18:19:45
1145442125514989569	Krasilra1	Verdade. Olha o público machista dela maltratando ela numa live.	30/06/2019, 18:20:58
1145442832959909889	SastyPie	ô @RazerBrazil vai se fudeee 	30/06/2019, 18:23:47
1145442871245496320	MiaPricm	Sim, deve ser foda, mais foda ainda é ter medo d todo homem na rua pq sabe lá se ele vai correr atrás da gnt e violar nosso corpo. É complicado, é um dano de violência histórica q é ruim p todo mundo. Mas chamar de lixo não é negativo assim pra seu ngm po	30/06/2019, 18:23:56
1145443019254128641	MiaPricm	"""seu lixo"" é um xingamento quase infantil. Algo bobo mesmo, me assusta tamanha ofensa tomada por vocês."	30/06/2019, 18:24:31
1145443256483876864	oPolar_	Mas aí é que tá, eu não sou lixo e é foda ser comparado ou até mesmo igualado a esse tipo de homem	30/06/2019, 18:25:28
1145443352898396161	MiaPricm	"Mas uma dúvida, o cara não tinha falado que se a ""mulher feia cair no chão da pra comer?"" Os tt dele que vi foram esses"	30/06/2019, 18:25:51
1145443390756139008	SastyPie	gordinho e pequeno.... parece um bebe	30/06/2019, 18:26:00
1145443799189135369	oPolar_	Não vi só vi aquele print só, depois procuro e te mando a imagem	30/06/2019, 18:27:37
1145444084695388161	MiaPricm	Tudo bem, po. Que bom que você sabe que não é lixo. É isso. Ngm tem dano moral por ser chamado de lixo, a ONU não vai imprimir um crachá de lixo pra todos os homens, ngm vai achar que essa menina é a dona da palavra absoluta e parar de falar com todos os homens por isso.	30/06/2019, 18:28:45
1145444163300859909	cazuquiNP	Ixi.. sem dindin :(	30/06/2019, 18:29:04
1145444334453571584	MiaPricm	"Procura, seria massa ver. Pq tipo, nesse que vi ""se cair no chão da pra comer"" da pra fazer uma comparação com estupro sim, pq uma pessoa caída no chão n vai cair no chão pra transar não, saca? Uma pessoa caída no chão ela quer levantar e só"	30/06/2019, 18:29:45
1145444356603691013	oPolar_	Algumas param de falar, algumas acham que todos somos iguais, esse é ponto que me incomoda tanto	30/06/2019, 18:29:50
1145444432067670016	MiaPricm	"Consentimento não tá envolvido no ""se cair no chão da pra comer"""	30/06/2019, 18:30:08
1145444900298809345	oPolar_	Me impressiona onde tudo isso vai parar	30/06/2019, 18:32:00
1145447295665745920	MrSonysta	Olha pai um gado aqui kkk	30/06/2019, 18:41:31
1145448357604790274	galosemkalsa	caralho cara se engraçadao mano	30/06/2019, 18:45:44
1145450360515043328	Chefedoslink	Muito bom daqui um tempo meu setup gamer vai chegar quase todo da razer 	30/06/2019, 18:53:42
1145450648789495808	AugustinhoCaike	Se fosse um homem falando que mulher é lixo todo mundo estaria o atacando só pq é mulher e feminista principalmente a esquerda inteira vem defendendo ela	30/06/2019, 18:54:50
1145450702325583872	cecegasparini	Se não vai cume muie desse jeito não mano!!!	30/06/2019, 18:55:03
1145450880851939329	ze_penna	Lembrete: Nunca mais comprar nada vinculado a @RazerBrazil 	30/06/2019, 18:55:46
1145451604503670784	Major_Kalu	Vou comprar.	30/06/2019, 18:58:38
1145452477770293256	LucaSantos52	Um dos setups mais tops q já vi... Parabéns	30/06/2019, 19:02:06
1145452656149913602	pietraando	Vamos olhar proporcionalmente o quanto as mulheres são detonadas com comentários sexistas? Ou vamos só pegar uma frase fora de contexto da mina numa live sei lá de quando e dizer que não existe machismo, porque ela falou palavrão?	30/06/2019, 19:02:49
1145456147337568257	nandops3	Vdd, acabei de virar fã	30/06/2019, 19:16:41
1145456537240051713	nandops3	Poha kkkk a interpretação de texto tá em dia em kkkkk aí tomou 1000 na redação do Enem.	30/06/2019, 19:18:14
1145456597919051777	joaothecreator	teclado lindo pra escrever uma quebra de contrato pra uma influenciadora feminista marca de babaca do caralho	30/06/2019, 19:18:29
1145459854888316945	catcatcatcatnip	"esses aí na primeira oportunidade é ""homem é lixo é isto mesmo @/razerbrazil"""	30/06/2019, 19:31:25
1145460806227812354	MorteFuriosa	Mais um gado	30/06/2019, 19:35:12
1145463289981415424	FerresMurilo	E o gado tá como ?	30/06/2019, 19:45:04
1145464817773436928	Obscurum12	Sentiu?	30/06/2019, 19:51:08
1145464826128474112	cebolaodadepre	@RazerBrazil ta torcendo pra @DETONAgOficial ou pra @paiNGamingBR agora na @GamersClubBR masters? rsrs	30/06/2019, 19:51:10
1145465881121710080	ed_brr	É po, viu algo que não consegue argumentar contra é melhor fingir que ta ignorando	30/06/2019, 19:55:22
1145466369892372482	matheusdevdd	a pergunta que vale 1 milhão de dólares	30/06/2019, 19:57:18
1145466469691592704	Guuhstavin	Pena q eu n tenho dinheiro nem pra comprar um salgadinho ;-;	30/06/2019, 19:57:42
1145467336197050368	cypherdevil	KKKKKK QUE PORRA E ESSA BRO	30/06/2019, 20:01:09
1145467900419084290	cypherdevil	Ai more os fatos	30/06/2019, 20:03:23
1145467954982772736	cebolaodadepre	ohh, queria esses 1 milhão hahah	30/06/2019, 20:03:36
1145468334651170820	galosemkalsa	senti ta doendo meu coraçao	30/06/2019, 20:05:07
1145468411914440704	umpirulito	generalizar é errado sim em muitos casos, até burrice, mas neste especificamente não. é IMPOSSÍVEL uma mulher advinhar qual homem é ou não é um estuprador, machista, misógino, etc.. então até o momento em q vc não tem certeza, julga-se que todos são até q prove-se o contrário.	30/06/2019, 20:05:25
1145469183351775232	umpirulito	miga nem estressa c esse cara. eu namoro faz quase um ano com uma mulher incrível, sou gado mesmo, faço de tudo e sou louco por essa mulher, @gimaffei_. nem me importo com o q esse infeliz sabe, é só mais um ignorante no mundo entre tantos outros milhões.	30/06/2019, 20:08:29
1145470534534225920	JCghost00	Você representa uma marca e falam merda pra ti, e como reposta tu fala outra merda direcionado para um público geral que não teve nada haver com à atitude individual de um mané. E esse público é exatamente maioria de seus consumidores. Você vai longe como empreededora assim em!	30/06/2019, 20:13:51
1145471915777298432	LuizFel31230686	Puta q pariu é dificil de entender q é A POHA DE UMA EMPRESA Q N QUER SE METER PRA N GERAR MÁ REPUTAÇÃO (krl quem n entende são bando de burro)	30/06/2019, 20:19:21
1145474052733263872	EpicViniciusHue	E a gabi não foi retardada com os homens? Me diz com sinceridade, tu tem uma empresa e ve seu patrocinador chamando seu público de lixo, TU IRIA MANTER O PATRÍCIO?!	30/06/2019, 20:27:50
1145474548986470401	EpicViniciusHue	Tecnicamente vc que é lixo, pois se a Gabi disse que homem é lixo, tu é homem e concorda, logo tu ta assumindo que é lixo	30/06/2019, 20:29:49
1145475097014259712	EpicViniciusHue	Falou o cara que defende uma mulher que te chama de lixo	30/06/2019, 20:31:59
1145475307291521024	EpicViniciusHue	Eu olho isso e sinto um vazio no bolso	30/06/2019, 20:32:49
1145476430630981634	EpicViniciusHue	Ué, a razer não foi contra e fechou o patrocínio? Aliás, a gabi nunca foi embaixadora da Razer, a própria razer desmentiu isso	30/06/2019, 20:37:17
1145477069486350336	EpicViniciusHue	Eu não compro pq o bolso ta vazio	30/06/2019, 20:39:49
1145477683456958464	EpicViniciusHue	Pqp, mulher é tudo lixo msm, só fala bosta. Eae, o que achou desse comentário? Não gostou? Então pq apoia a Gabi que falou isso só que pros homens?	30/06/2019, 20:42:16
1145478277336915969	HIKIKOMORl_	NUNCA.	30/06/2019, 20:44:37
1145478332164784129	EpicViniciusHue	Tu tem uma empresa de cosméticos e um dos seus patrocinadores chama todas as mulheres de lixo, tu continuaria o contrato com esse cara depois dele chamar seus maiores consumidores de lixo?	30/06/2019, 20:44:51
1145478604127703040	Milkcaketop	"Sim, pois é como se a razer desconsiderasse que ela sofreu um tipo de assédio e reagiu daquela forma para se defender. As pessoas apenas estão cobrando um comportamento condizente com o que é pregado pela empresa, que diz ser ""inclusiva""."	30/06/2019, 20:45:55
1145479199425273857	Soufria_	ainda bem q ainda tem gente q presta ;u;	30/06/2019, 20:48:17
1145479337786953730	EpicViniciusHue	"E o que eu tenho haver com isso? Eu nunca descriminei ninguém e chega uma mulher me chamando de lixo a troco de nada, onde que isso ta certo? Se ela quisesse falar desse tipo de gente ela poderia ter falado ""todo homem que fala esse tipo de coisa é lixo"" mas preferiu generalizar"	30/06/2019, 20:48:50
1145479908677869573	EpicViniciusHue	Cara, esse barulho machuca sim, já pensou se a razer apoiasse a gabi? Todo o hate que ela ta recebendo a razer tb estaria recebendo, provavelmente iriam promover um boicote contra a empresa e ela ia ficar pra sempre com fama de lacradora ou algo assim	30/06/2019, 20:51:06
1145480085157425152	EpicViniciusHue	Massa 	30/06/2019, 20:51:48
1145481197788835842	ZarunoOwenhouse	"""Aiin, eu fico tentando lacrar um garoto que apenas expôs fatos na minha cara, agora eu vou ficar brabinha com meu RABO entre as calças e não argumentar, apenas expor o bafo fedido e tóxico de uma lacradora normal hihi"" toma no cu garota."	30/06/2019, 20:56:14
1145481248615403520	EpicViniciusHue	E se tu acha que não, olhe esses prints dos comentários do post anterior a esse antes da carta da razer:	30/06/2019, 20:56:26
1145481816071135232	EpicViniciusHue	Um erro não justifica o outro	30/06/2019, 20:58:41
