id	username	text	datetime
1141865634504089602	bruno68mais1	8 por 3 meses até trocar pelo Razer Phone 2 	20/06/2019, 21:29:16
1141870915740999681	Ravadeli	Após longínquos 5 anos o headphone da razer queimou obrigado @simomago por me proporcionar a compra 5 anos atrás	20/06/2019, 21:50:15
1141887965792219141	wil_costa10	Pobre é foda nem pra comprar um mouse da razer	20/06/2019, 22:58:00
1141910771036819457	ThibautEvrard3	Razer	21/06/2019, 00:28:38
1141918010900398080	Nielz3Raa	TV da Razer	21/06/2019, 00:57:24
1141921411814109184	VitcorFrana	fico lembrando agora de 2013 eu só queria ser pro player de crossfire ser o parceiro do Brunão ter kit razer porra que saudades mano	21/06/2019, 01:10:55
1141989295642697730	aiycejenn	Gnar! http://Instagram.com/tabbygnar	21/06/2019, 05:40:39
1142015879443439616	phoonteckman	Razer?	21/06/2019, 07:26:17
1142027461217214464	Galakk70	Tem um adesivo da razer no carro, marca de periféricos de computador conhecida por vender produtos por 3 vezes o preço que valem	21/06/2019, 08:12:19
1142029659338444806	kristian_tayag	@razer_mcqueen ata e hahaha	21/06/2019, 08:21:03
1142038014320762880	kristian_tayag	Rarara hahaha	21/06/2019, 08:54:15
1142039550413496320	pirilampospocrl	Yah ahaha da razer smpr a bombar	21/06/2019, 09:00:21
1142045185607684096	fomynha	LIVE ON Jogando o Fino >> Sorteio Mousepad Razer &lt;&lt; 500 follows 	21/06/2019, 09:22:45
1142048557932802051	SiLuBieyz	Razer！	21/06/2019, 09:36:09
1142050581890109440	Kyuallt	Razer	21/06/2019, 09:44:11
1142057656062029824	DelcourtPokemon	Razer 	21/06/2019, 10:12:18
1142064654174134272	KurioneSasimi	Razer!Razer!Razer!Razer!Razer!Razer!Razer!Razer!Razer!Razer!Razer!Razer!Razer!Razer!Razer!Razer!Razer!Razer!Razer!Razer!Razer!Razer!Razer!Razer!Razer!Razer!Razer!Razer!Razer!Razer!Razer!Razer!Razer!Razer!Razer!Razer!Razer!Razer!Razer!Razer!Razer!Razer!Razer!Razer!Razer!Razer!	21/06/2019, 10:40:06
1142065936733655040	nineportal	Razer lança bebida que ajuda no desempenho dos gamers durante as partidas http://agitaih.com.br/estilo-de-vida/razer-lanca-bebida-que-ajuda-no-desempenho-dos-gamers-durante-as-partidas/	21/06/2019, 10:45:12
1142068804412956677	Comunicacaoecia	Compre um notebook Samsung Odyssey e ganhe kit exclusivo da Razer https://edutakashi.wordpress.com/2019/06/21/compre-um-notebook-samsung-odyssey-e-ganhe-kit-exclusivo-da-razer/	21/06/2019, 10:56:36
1142069912791330818	gametimesbr	Lançamento: Bebida para gamers da Razer 	21/06/2019, 11:01:00
1142074233092263936	ocinemagamer	Razer lança produto em pó para melhorar habilidades dos jogadores 	21/06/2019, 11:18:10
1142075371854204928	WeavenBans	Jogador banido: odis_pvp Banido por: HaweL Motivo: Macro (Razer Synapse) Servidor: http://screenshare.weavenmc.com.br	21/06/2019, 11:22:42
1142076635904172032	mdemourice	puta q pariu. vai ir call? ai eu pego meu FONE DA RAZER	21/06/2019, 11:27:43
1142077859625873409	rayanmelo	A Razer vai dominar o mundo. 	21/06/2019, 11:32:35
1142086360293134337	Hibi_YT	Razer no, caca	21/06/2019, 12:06:21
1142092856120815617	Torcedorescom	Razer lança bebida que vai melhorar a performance dos gamers - https://www.torcedores.com/noticias/2019/06/razer-lanca-bebida-que-vai-melhorar-a-performance-dos-gamers	21/06/2019, 12:32:10
1142095752849711104	_saffass	Só trabalha gente bonita assim na razer msm ou vc e o Padovani são as exceções?	21/06/2019, 12:43:41
1142118826982723592	gamersegames	Razer lança bebida que ajuda no desempenho dos gamers durante as partidas: http://encurtador.com.br/qDITZ @RazerBrazil #respawngameon #GamerseGames	21/06/2019, 14:15:22
1142120907479105536	Nathan_7u7	@Razer vai deixa o cara com mouse da zowie..eu tirava o patrocinio em AKKAKAKAKKAKWKSKSKKSKSKSKSKEKKS	21/06/2019, 14:23:38
1142120968984387585	statelessforus	alguem que tem mouse da razer manda foto de baixo dele ai rapidão	21/06/2019, 14:23:53
1142126343443877888	EryonLoL	Razer*	21/06/2019, 14:45:14
1142128226703204353	TheSchulzz	É ruim msm, se acostuma com razer. Uso um Redragon e nunca me deu problema	21/06/2019, 14:52:43
1142131067400413184	Nah_Holanda	Prometi que ia razer uma macarronada para minha mãe hoje, agora tenho que ir no mercado comprar as coisas, mas e a preguiça kkkk	21/06/2019, 15:04:00
1142134440812064768	AlemdoClickTech	[PROMOÇÃO] Compre um notebook Samsung Odyssey e ganhe kit exclusivo da Razer http://alemdoclicktech.com.br/promocao-compre-um-notebook-samsung-odyssey-e-ganhe-kit-exclusivo-da-razer/	21/06/2019, 15:17:25
1142141754742910976	AmandasoFaria	Razer me manda um mimo	21/06/2019, 15:46:28
1142145444329508875	Brunoleleton	Nesse caso, algum da Razer mesmo	21/06/2019, 16:01:08
1142145606003154946	nandoida	Procura da Logitech que é GG ( o meu é Razer)	21/06/2019, 16:01:47
1142145712437809153	venancioacastro	Acabei de descobrir que você não recomenda Razer HAHSUHAUSHS	21/06/2019, 16:02:12
1142146015002341381	nandoida	Cara, depende muito. Eu amo o meu, só vou trocar quando parar de funcionar... mas eu sei que Logitech não deixa opiniões tão divididas quanto Razer	21/06/2019, 16:03:24
1142147937834819590	lcsolv	Todo mundo diz que Razer não presta, agora eu acredito.	21/06/2019, 16:11:03
1142156568143761409	ciroargus	é, pô. telão, coisas da razer. só falta a cadeira preta e vermelha.	21/06/2019, 16:45:20
1142157516035567623	two_fy	hahahah é mesmo né, meu mouse pad, mouse, teclado e fone são razer mas telão é mais pra trabalho msm (NÃO Q NAO SEJA GOSTOSO PRA GAMES TBM UÉ) mas nossa, cadeira gamer eu acho muito feio socorro, não consigo hahahah prefiro ergonômica normal de escritório, mais clean	21/06/2019, 16:49:06
1142159206642061313	illachris	Um da Razer rosa 	21/06/2019, 16:55:49
1142159253014233090	ciroargus	eu acho quase tudo dessa estética gamerz muito estrambólico. acho doido como tu achou umas peças razer aí que não fazem show de luzinha.	21/06/2019, 16:56:00
1142159671412887553	nsounemo	meu pai ta comparando um mouse de barraquinha de 20 conto com um razer taipan	21/06/2019, 16:57:40
1142171264641064960	naoChoraQPiora	@RazerBrazil Pessoal... uma dúvida: a garantia oficial do Razer Thresher Ultimate é de 12 ou 24 meses??	21/06/2019, 17:43:44
1142171992734482432	HFSBlogOfficial	Promo Razer, nostro partner 	21/06/2019, 17:46:38
1142172587805552642	CaCaBieu	Em 2012 ele ainda era de boa qualidade. Os produtos de 2014/2015 pra cá ficaram horríveis. Os teclados e mouses da Razer são dinheiro puro no lixo Os produtos antigos são muito bons, mas os novos só desgraça	21/06/2019, 17:49:00
1142175943710183427	joaoAKAjoao	Tô fugindo da razer desde que meu teclado começou a dar problema, o pós venda deles é horroroso	21/06/2019, 18:02:20
1142179624090312704	brandowlhoran1	Aconteceu a mesma coisa com meu Kraken, razer é só nome, uma porcaria	21/06/2019, 18:16:57
1142180459012599808	jheysonbe	Vdd, tenho uma razer blackwidown 2014, tá firme até hoje, já o fone q eu comprei ano passado tá todo fudido	21/06/2019, 18:20:16
1142182678524907520	Suprimatec	Bebida da Razer que ajuda no desempenho dos gamers https://suprimatec.com/bebida-da-razer-que-ajuda-no-desempenho-dos-gamers/	21/06/2019, 18:29:05
1142189220099973121	Suprimatec	Bebida da Razer que ajuda no desempenho dos gamers https://www.bloglovin.com/blogs/suprimatec-14139329/bebida-da-razer-que-ajuda-no-desempenho-dos-6985560497 on @bloglovin	21/06/2019, 18:55:05
1142190458124349446	RazerBrazil	Essas são as equipes que disputarão a nova etapa da Razer Mobile League. Ao vivo agora: http://rzr.to/AoVivo	21/06/2019, 19:00:00
1142193359789989888	MatheusMoBn	e o camp de pubg lite razer, quando vai rola?	21/06/2019, 19:11:32
1142196322738606085	NancyWesker	Esse headset mercury white da razer é mt lindo, to apaixonada	21/06/2019, 19:23:18
1142201620664586242	juninho_1_1	Yung Ademir - Razer É Uma Bosta	21/06/2019, 19:44:22
1142208258209439749	Gordox	To gostando de fazer sorteio pra vocês (: Mais um sorteio no ar: teclado Razer Chroma com underglow http://bit.ly/sorteiorazerchroma http://bit.ly/sorteiorazerchroma http://bit.ly/sorteiorazerchroma	21/06/2019, 20:10:44
1142208434621865985	leh_tv	Sorteio de um headset Razer Kraken pelo @williangordox, participa aí! https://wn.nr/AR64CA	21/06/2019, 20:11:26
1142208490850660354	leh_tv	Sorteio de um headset Razer Kraken pelo @williangordox, participa aí! https://wn.nr/AR64CA 1	21/06/2019, 20:11:40
1142208609268445186	leh_tv	sORTEIOx de um teclado Razer Chroma Underglow https://wn.nr/AR64CA	21/06/2019, 20:12:08
1142208676410875906	Bielzeera1_	Sorteio de um headset Razer Kraken pelo @williangordox, participa aí! https://wn.nr/AR64QZ	21/06/2019, 20:12:24
1142208783835377666	vjeey10	Sorteio de um headset Razer Kraken pelo @williangordox, participa aí! https://wn.nr/7tJ4jj	21/06/2019, 20:12:49
1142208881940213767	RealNorK	Sorteio de um headset Razer Kraken pelo @williangordox, participa aí! https://wn.nr/4R4XCx	21/06/2019, 20:13:13
1142209145548005376	GreatGbr_	Sorteio de um headset Razer Kraken pelo @williangordox, participa aí! https://wn.nr/F8PWtM	21/06/2019, 20:14:16
1142209801604206593	PedroNunes0210	Sorteio de um headset Razer Kraken pelo @williangordox, participa aí! https://wn.nr/pHwPjf	21/06/2019, 20:16:52
1142210124473425920	Gabrielmatoss13	Sorteio de um headset Razer Kraken pelo @williangordox, participa aí! https://wn.nr/xHLsXF	21/06/2019, 20:18:09
1142210142940934144	_ricardo_mendes	Sorteio de um headset Razer Kraken pelo @williangordox, participa aí! https://wn.nr/U8gAPX	21/06/2019, 20:18:13
1142210370955808769	Furaobebado	Sorteio de um headset Razer Kraken pelo @williangordox, participa aí! https://wn.nr/bdP38b	21/06/2019, 20:19:08
1142211116187160576	alexjhonatan299	Sorteio de um headset Razer Kraken pelo @williangordox, participa aí! https://wn.nr/z4LJVv	21/06/2019, 20:22:06
1142212271969636352	leh_tv	Sorteio de um headset Razer Kraken pelo @williangordox, participa aí! https://wn.nr/AR64CA 2	21/06/2019, 20:26:41
1142212513465085954	lksstar	Sorteio de um headset Razer Kraken pelo @williangordox, participa aí! https://wn.nr/Q8BAss	21/06/2019, 20:27:39
1142212529931849730	WesleyA18967542	Sorteio de um headset Razer Kraken pelo @williangordox, participa aí! https://wn.nr/4R4tEc	21/06/2019, 20:27:43
1142213618269851649	anaakulman	razer pai	21/06/2019, 20:32:02
1142215130803052550	caio_a95	Sorteio de um headset Razer Kraken pelo @williangordox, participa aí! https://wn.nr/W8mWM2	21/06/2019, 20:38:03
1142215820799594497	ninofado	Sorteio de um headset Razer Kraken pelo @williangordox, participa aí! https://wn.nr/H8MykQ	21/06/2019, 20:40:47
1142217612564271105	djuderlan17	Sorteio de um headset Razer Kraken pelo @williangordox, participa aí!	21/06/2019, 20:47:54
1142220045193502720	Felipe_Denys	sORTEIOx de um teclado Razer Chroma Underglow https://wn.nr/G8r6DT	21/06/2019, 20:57:34
