id	username	text	datetime
1136793444448292871	RazerBrazil	Gostei	06/06/2019, 21:34:12
1136813465388113921	Dyu221	A razer ja ta fazendo torradeira, daki a pouco ela fecha com as casas bahia	06/06/2019, 22:53:45
1136815270654304256	Dyu221	Geladeira gamer q roda doom... Achoq eu ja vi isso	06/06/2019, 23:00:56
1136840094227107845	ChromaCaipira	Eu quero é fone kkkj	07/06/2019, 00:39:34
1136943411305570304	bolonhez_	Estou nem acreditando que a @f3rfs_ me deu um fone da @RazerBrazil 	07/06/2019, 07:30:07
1136945391621087232	MessiEnojado	É o meu segundo DeathAdder que estraga, me cobraram R$100,00 pra arrumar o scroll porém o mouse também está com duplo click. Por pouco mais compro um mouse novo. Gosto da marca mas pela segunda vez ficarei no prejuízo. Esperava mais da Razer @Razer @RazerBrazil @mibr @FalleNCS	07/06/2019, 07:37:59
1136945876126064640	MessiEnojado	Parece que foi feito com prazo de validade, após a garantia acabar o mouse começa a apresentar problemas. Paga caro e mesmo com extremo cuidado ele da defeito. Razer deveria focar + no produto e pós venda e menos em luzinhas. Obrigado Razer, novamente $$jogado fora @RazerBrazil	07/06/2019, 07:39:54
1136960376220856322	kabumcombr	EITAAAAAAAAAAAAAAAAAAAAAAAA!	07/06/2019, 08:37:32
1136972489228263425	BrasilGameShow	Aí, sim! Apoio total no @FARIAPERICLES, @RazerBrazil!	07/06/2019, 09:25:40
1136973138045149185	BlacKaio_	Eae Péricles cola aqui em casa pra um churrasco e jogar um FIFA?	07/06/2019, 09:28:14
1136977157891264512	Vitu_qwre3	me da um fone	07/06/2019, 09:44:13
1136985403301486592	IgorDamascen18	Alô @RazerBrazil descola pra nois ae	07/06/2019, 10:16:58
1136991567170940928	kabumcombr	Hey Ninjas! Tem mouse da @RazerBrazil no precinho aqui pra vocês! • Confia na call e vem! http://kabum.com.br/link/40/49841	07/06/2019, 10:41:28
1136997347383218176	RazerBrazil	A CARA DO TIME QUE JÁ ABRIU 3-1 #SomosMiBR	07/06/2019, 11:04:26
1137000549491122176	MariliaMReal	convida logo a gente uai kkkkkk #EstagiarioDaMarilia	07/06/2019, 11:17:10
1137009827161563136	insaneeemind	Eu quero um Headphone mesmo. Obrigada hahahah	07/06/2019, 11:54:02
1137011253740736512	victormorais123	Sabemos de quem foi a zica, @RazerBrazil 	07/06/2019, 11:59:42
1137025417414664197	Rdrg_pt	@RazerBrazil ajuda ai	07/06/2019, 12:55:59
1137026047449452544	yamzinhu	VOU SER CORNO ATE NA BGS NAO BASTA SO EM GOIAS	07/06/2019, 12:58:29
1137046677255335942	biggieferreira	Aquela saudade de 7.1 @RazerBrazil, estao todos ruins ajuda noisXXXX &lt;3 #razer #help	07/06/2019, 14:20:27
1137046830448095233	Gh0stech	ajuda noix @RazerBrazil 	07/06/2019, 14:21:04
1137046864665165824	MudinhoxD	@RazerBrazil Uma forcinha ae !	07/06/2019, 14:21:12
1137047001995104256	hyandrophillipe	Não teve qualidade	07/06/2019, 14:21:45
1137052523968286720	_Jirayaa	Até q enfim a razer fez uma pra Deus ver	07/06/2019, 14:43:41
1137054525968343040	RogerPk69	Quem faz o palhaço rir no final do circo?.... A RAZER, CARAI	07/06/2019, 14:51:39
1137071236843016193	RazerBrazil	Olha como ele vai @vsmzin #GoPITBULLS ao vivo diretamente da Suécia: http://twitch.tv/FURIAtv	07/06/2019, 15:58:03
1137103579154714625	RazerBrazil	Agora—R Λ Z Ξ R TALK com @xrmfps! Acompanhe ao vivo a entrevista: http://rzr.to/AoVivo	07/06/2019, 18:06:34
1137112715514863618	LuizFGarden	Só queria falar pra vcs que o @xrmfps é foda demais A entrevista vai estar no Youtube da @RazerBrazil semana que vem 	07/06/2019, 18:42:52
1137117484123922432	bubudecesare	Queria saber pq a @RazerBrazil não tem orelhinhas brancas pro meu fonezinho branco 	07/06/2019, 19:01:49
1137120518073720837	RazerBrazil	O que falta para o seu setup dos sonhos ficar completo? : @rechyyy	07/06/2019, 19:13:52
1137120759313240064	iTomaz13	Razer Seiren e uma Webcam...	07/06/2019, 19:14:50
1137120853236297728	fedrig0	dinheiro	07/06/2019, 19:15:12
1137120869174693890	lucashmeelo1	dinheiro ou papai noel	07/06/2019, 19:15:16
1137120931174895621	Wendelzeraa	Tudo :(	07/06/2019, 19:15:31
1137121025601220608	_gabsgold	vc me dar um teclado. me da um?	07/06/2019, 19:15:53
1137121060900487169	Iuxstarguardian	o famoso patrocinio de vcs pra minha live :P	07/06/2019, 19:16:02
1137121096287891457	Allisonfelis	esse tecladinho lindo <3	07/06/2019, 19:16:10
1137121169537212416	Marcos_vinee18	Tudo, menos Razer.	07/06/2019, 19:16:28
1137121235266146305	dudzfera	tudo	07/06/2019, 19:16:43
1137121274675773442	Nathams42	dinheiro, bro A gente mora no Brasil...um pc decente aqui custa quase o preço dum carro...	07/06/2019, 19:16:53
1137121842970419200	andrewsnycollas	O Setup inteiro.	07/06/2019, 19:19:08
1137122172185600000	dielson_86	Falta só o setup!	07/06/2019, 19:20:27
1137122256834969601	ianabreeu	O meu já está completo 	07/06/2019, 19:20:47
1137122372358672390	riqueomachado	Acho q tudo kkkk	07/06/2019, 19:21:14
1137123099370037249	ryanvierraaa	TUDO ate o pc 	07/06/2019, 19:24:08
1137123400797872128	yohendrickXD	Qual nome do mouse e teclado?	07/06/2019, 19:25:20
1137124311209304066	drugsgoodxxx	literalmente tudo	07/06/2019, 19:28:57
1137124802802716674	DzSama3	falta tipo.. o setup	07/06/2019, 19:30:54
1137125048958017536	Melonarl	O meu setup dos sonhos ;)	07/06/2019, 19:31:53
1137126202664263680	IGuedesfilho	DINHEIRO	07/06/2019, 19:36:28
1137126439369805824	malzonewild	Ae @RazerBrazil vamo dar um jeito nisso ae, taolkey? 	07/06/2019, 19:37:24
1137126904799080454	_Ju_Ke	Começar a montar.	07/06/2019, 19:39:15
1137127783396794368	FagnerSousa99	ta faltando so um setup só	07/06/2019, 19:42:45
1137128943629275136	rmotadutra_	Aquele Blackwidow que só a razer tem !	07/06/2019, 19:47:21
1137130218051837952	bellanisk	Eu to necessitando de um fone chroma white( se quiserem me dar, agradeço aí viu )	07/06/2019, 19:52:25
1137138705133645829	theussz12	dinheirooo Irmão	07/06/2019, 20:26:08
1137138993861222401	StormComput	Os fones gamer Razer e um mouse desse aí....	07/06/2019, 20:27:17
1137141680447074305	CationFTN	Um fone da @HyperXBrasil 	07/06/2019, 20:37:58
1137142459010600960	Andarilhou	Se fosse preto ou mais pra cinza seria perfeito @RazerBrazil Branco é lindo, mas suja mto fácil 	07/06/2019, 20:41:03
1137145040248147968	Chernooboy	A garota que nao sai da minha cabeça	07/06/2019, 20:51:19
