id	username	text	datetime
1172299798587875328	RazerBrazil	Reconheço esse teclado de longe #NationalVideoGamesDay	12/09/2019, 21:03:46
1172302488265011201	t0k1n_	razer me ajuda por favor, o processamento de som surround do meu kraken te tá todo bugado	12/09/2019, 21:14:28
1172313674989658112	h_poura	caralho esse dai não é o teclado da hyperraxi 	12/09/2019, 21:58:55
1172320273850257410	Digo6996	@Joao__GP eu gostooooooo	12/09/2019, 22:25:08
1172340094285447176	PedaroH	Coisa linda mds	12/09/2019, 23:43:54
1172358584971223040	CarlosAnacleto4	Gasto uma nota no Razer kraken pro v2 7.1 Chroma pra acontece isso é muita sacanagem.@RazerBrazil @Razer	13/09/2019, 00:57:22
1172361573387722752	MikePrandine	Tu consegue irmão!	13/09/2019, 01:09:15
1172466680506834944	RavazeJhonatan	Vai dar certo man!! Desistir nunca foi uma opção	13/09/2019, 08:06:54
1172488785654947841	crylow_br	Foco sempre mano! 	13/09/2019, 09:34:44
1172517475805741056	fgnleandro	@RazerBrazil como faço pra solicitar reparo no meu mouse? Tá com double click	13/09/2019, 11:28:45
1172583917465034752	werley_wts	Aquele monstrinho hahaha <3	13/09/2019, 15:52:46
1172613546267566082	RazerBrazil	O ápice do desempenho competitivo na velocidade da luz—este é o novo Razer Huntsman TE. Descubra a Velocidade Absoluta na ponta dos seus dedos: http://rzr.to/HuntsmanTE-BR	13/09/2019, 17:50:30
1172614179204816896	vjeey10	queria s2	13/09/2019, 17:53:01
1172614347362902018	Of_Zenon	Manda um pra mim . Já tenho o Melhor mouse falta só o melhor teclado.	13/09/2019, 17:53:41
1172617238072872960	Digo6996	Na bgs vai tar quanto quero compra um desse lá	13/09/2019, 18:05:10
1172618478311923712	FehEdu	eu sabia q ia ter =D só esperando sair em alguma loja BR e vender meu teclado antigo ja to comprando.	13/09/2019, 18:10:06
1172631103984885760	blyeish	Quando sai o Razer Viper no brasil ?	13/09/2019, 19:00:16
1172631233911808005	blyeish	Quando sai o Razer Viper no Brasil	13/09/2019, 19:00:47
1172631337691492364	LawPr0	A @gabscornio_ olhou pra ele e ele olhou pra ela	13/09/2019, 19:01:11
1172631702029701120	RazerBrazil	Comecinho de Outubro ;)	13/09/2019, 19:02:38
1172633482071166976	blyeish	Okay okay to louco pra comprar	13/09/2019, 19:09:43
1172634572779085825	NomecomJdificil	Me manda um mimo @RazerBrazil	13/09/2019, 19:14:03
1172645348533100544	riqueomachado	@RazerBrazil faz umas promoção ai irmã	13/09/2019, 19:56:52
1172646832960233472	Reennaner	a @RazerBrazil me dá um PF, nunca te pedi nada vai, soy pobrito KHGKHKH a	13/09/2019, 20:02:46
