id	username	text	datetime
1124474225690075136	RazerBrazil	nada como uma amizade sincera com a gente #ad	03/05/2019, 21:42:01
1124475001338564608	cebolaodadepre	ai sim hein papai, tudo bem! Acho q não vou ficar na friendzone, só de responder fico feliz demais uai só Seguir humilde #ad	03/05/2019, 21:45:06
1124480701989031936	evidenceesports	Que moral, hein, gerentão!! Mas mais moral ainda é usar um Cyclosa no PENTAKILL de Alistar!! #ad #menotou	03/05/2019, 22:07:45
1124481037948588032	cebolaodadepre	num é! moralzinha demais, quando eu for pros estates eu compro um combo fulzaaoooo razer, dai ngm me segura #ad	03/05/2019, 22:09:05
1124481562266034177	RaposoRDP	OI GALERA TUDO BEM, SEM QUERER APARECER AQUI MAS TODOS AQUI JÁ OUVIRAM FALAR DO RAPOSO DA REDEMPTIOM? #ad	03/05/2019, 22:11:10
1124481937899442177	gab_dietrich	Pelo menos a @RazerBrazil fez a boa 	03/05/2019, 22:12:40
1124486453503852544	cebolaodadepre	eu tava na friendzone por causa da GCzinha, dai a @RazerBrazil me salvou &lt;3	03/05/2019, 22:30:37
1124492927093411843	isprvl	Nem fudendo que meu primo é vidente	03/05/2019, 22:56:20
1124494022507225088	KaelYedaya	foda q to sem mic ai é moios na kael @RazerBrazil ou @HyperXBrasil mandar um headset na humildade aceito	03/05/2019, 23:00:41
1124494267723001856	KaelYedaya	ou um cupom de 99% humilde	03/05/2019, 23:01:40
1124515985245995008	_Alvarengaa_	eles não dão suporte nenhuma cara, to de saco cheio uso tudo deles e fico nessa merda aí	04/05/2019, 00:27:58
1124678717987598336	RazerBrazil	No #StarWarsDay, celebre o que há de melhor no Império com os periféricos licenciados Razer Stormtrooper Edition. Confortável. Confiável. Imperial. http://rzr.to/Stormtrooper	04/05/2019, 11:14:36
1124681192438104065	froio	não tem na loja br, galera???	04/05/2019, 11:24:26
1124686657456885761	pavacsgo	Neste dia eu não pediria nada além disso @RazerBrazil #MayThe4thBeWithYou	04/05/2019, 11:46:09
1124687974015356928	dysgraca	Vai errar todos os tiros	04/05/2019, 11:51:23
1124713593663102981	Henrique_OMago	Se eu tivesse um PC bom, eu ia querer muito.	04/05/2019, 13:33:11
1124714348352557057	RazerBrazil	Execute ordens em qualquer lugar com o Razer Atheris Stormtrooper Edition—com até 350 horas de uso ininterrupto e sensor óptico de 7.200 DPI para uma precisão imperial inigualável. Confortável. Confiável. Imperial. #MayThe4thBeWithYou: http://rzr.to/StormtrooperAtheris	04/05/2019, 13:36:11
1124715974001856512	klaustrofobiatv	"A Razer vai lançar a ""torradeira gamer"". Espero que entregue um bom FPS (fatias de pão por segundo) @RazerBrazil "	04/05/2019, 13:42:39
1124721207922835458	_Noelzin	@pelizaah cancela que é feio para porra	04/05/2019, 14:03:26
1124723355247161345	pelizaah	eu vi kkkk, nao gostei muito não tambem, mas mesmo assim queria ter kk	04/05/2019, 14:11:58
1124734190099025921	cesguxta	Se fosse uma cafeteira eu até comprava em @RazerBrazil rsrs ta ai a dica 	04/05/2019, 14:55:02
1124737243715911680	Gustavo_TGM	@pichauinfo @rocketzbr @Terabyteshop @ChipArt_info @TheDarknessPGDM @CorsairGamingBR @RazerBrazil BORA AJUDAAAA !!!!	04/05/2019, 15:07:10
1124739295187808257	amarelito	Esse é o meu segundo deathadder chroma com a mesma merda de problema com o PÉ DO MOUSE descolando Acho que agora a @RazerBrazil me dá block 	04/05/2019, 15:15:19
1124739410896084992	Bl3nd3r_TTL	coloca um tenis ué	04/05/2019, 15:15:46
1124739498213040134	EduxPC	quer um medico?	04/05/2019, 15:16:07
1124739720406286339	_furiousfla	Tem que dar outro mouse e fazer algo decente pro futuro. Por isso migrei pra @LogitechG	04/05/2019, 15:17:00
1124739736181125120	_adaytoreset	C3 Tech nunca deu problema™	04/05/2019, 15:17:04
1124740039857135617	amarelito	boto meia antes?	04/05/2019, 15:18:16
1124740222078595073	_leoonardoo_	Ta na garantia ou ja faz tempo? Tenho um deathadder 2012 a 2 anos e meio e nunca deu problema, e gosto muito dele	04/05/2019, 15:19:00
1124740392673583104	Yenyum7k	ate os mouse de 10 pila segura mais q esses ae	04/05/2019, 15:19:40
1124740866621497344	JulkoMelo	nunca mais eu compro razer depois de ter tido 0 respostas pra um problema	04/05/2019, 15:21:33
1124743143478444032	reeh_ss	Normal dessa marca, já tive problemas tbm com DA que veio descolado novo.	04/05/2019, 15:30:36
1124745636618952704	Vcds10	juro pra você que tu deveria dar uma olhada nos mouses da logitech, os bicho são bons demais	04/05/2019, 15:40:31
1124750541253255168	RazerBrazil	Nosso squad já está preparado para o #MayTheFourth—como você vai comemorar o Star Wars Day?	04/05/2019, 16:00:00
1124753643436158976	Kbeludox	carai mano q azar, tenho um deathadder chroma há uns 5 anos e até hoje n deu nenhum problema	04/05/2019, 16:12:20
1124757401499049985	Krubniki_	Compra razer não, empresa burra que fez nome grande e não soube lidar, ao invés de melhorar qualidade, piorou, vai pra logitech ou corsair que fica sussu	04/05/2019, 16:27:16
1124759357084917761	Alepds_	Se tivesse jogado fora esse mouse nunca teria esse problema 	04/05/2019, 16:35:02
1124763476453462018	Ruanzadas	Kkkkkkkkkkkkkkkkkkk não sou só eu	04/05/2019, 16:51:24
1124767538183901185	poxecones	@LoctiteBrasil ajudem o menino	04/05/2019, 17:07:32
1124771666435899392	eujeffz	Se usasse uma marca boa não acontecia isso,	04/05/2019, 17:23:57
1124775051608363008	tunicolindu	Logitech>>>razer em qualidade e preco	04/05/2019, 17:37:24
1124781226198544385	LeonardoHitsu	q tal um mouse da Corsair?	04/05/2019, 18:01:56
1124783650833338369	J0KERzZ_	falo bem da @RazerBrazil ha anos de graça. bem q podia rolar um patrocinio. n reclamaria nem um pouco.	04/05/2019, 18:11:34
1124783898762862592	FlyingCoffe	Um pczin novo...	04/05/2019, 18:12:33
1124786129906040832	RazerBrazil	Construído para a batalha, o Razer BlackWidow Lite Stormtrooper Edition está equipado com nossos Switches Mecânicos Razer. Durabilidade e leveza ideais para qualquer ambiente. Confortável. Confiável. Imperial. Celebre o que há de melhor no Império: http://rzr.to/StormtrooperBWL	04/05/2019, 18:21:25
1124786818388512768	RazerBrazil	É uma hora muito dura para escrevermos qualquer coisa que possa te confortar. Leve o tempo que for, também te amamos e te queremos bem acima de tudo. Você é fera. Força, Giga. 	04/05/2019, 18:24:09
1124790037948792833	leetzfps	tô precisando de unzinho só, manda pra cá? Sou sub fiel do Balero, to merecendo aueheahuhuea	04/05/2019, 18:36:57
1124810939599966208	RazerBrazil	Seja forte e corajoso com o Razer Goliathus Extended Stormtrooper Edition. Sua superfície é projetada para ações rápidas e decisivas, assim como o poder imperial. Confortável. Confiável. Imperial. Celebre o melhor do Império: http://rzr.to/StormtrooperGoliathus	04/05/2019, 20:00:00
