id	username	text	datetime
1106707242517172225	Fiaspo	Sou irmão gêmeo do tixinha, manda pra mim tbm 	15/03/2019, 21:02:22
1106707692943486977	tixinhadois	E A FELICIDADE AQUI TA COMO? AGORA EU PEGO CHALLENGER!	15/03/2019, 21:04:10
1106708032422141959	NycolasFerraz	o que que n é exclusivo de vcs? hahah tudo top s2	15/03/2019, 21:05:31
1106708394000482304	JosAlex50104913	Nao exagera neh tixinha	15/03/2019, 21:06:57
1106710372353040384	fiim_lol	milagres a razer nao faz ainda	15/03/2019, 21:14:49
1106711714748420097	Viniciuszonatto	Tudo que eu queria era um mambazinho pra poder usar meus macros no tibia :( Enquanto isso, fico com meu D.A elite :s PATROCINA NOIS @RazerBrazil	15/03/2019, 21:20:09
1106714942403764224	Ruancpf	me presenteia @RazerBrazil ~se quiser mandar o antigo tbm to aceitando @tixinhadois ~ rdrdrd	15/03/2019, 21:32:58
1106719335459049475	guizaghisey	É exclusivo não mágico 	15/03/2019, 21:50:26
1106721320136568832	RazerBrazil	AGORA VAI	15/03/2019, 21:58:19
1106722273032134656	Rejjuni	RAZER ME PATROCINA!!! Jogo lol com 25 de FPS no mínimo da resolução Hahahah	15/03/2019, 22:02:06
1106723119576875009	hmtrouxariano	aí sim em, deixar de ser noob pq não ouve e ainda com estilo haha	15/03/2019, 22:05:28
1106727734162661376	tixinhadois	Já tamo brilhando @RazerBrazil 	15/03/2019, 22:23:48
1106727829004275712	Stealzera	na cor	15/03/2019, 22:24:11
1106728055878361088	EricSchernn	@ViniEduardo1903 ja que vc ta reclamando do seu mause to esse	15/03/2019, 22:25:05
1106728201127165953	Krupeizakk	O MANO, MANDA PRA MIM, FICA MANDANDO PRA ESSES CARAS QUE TEM DINHEIRO PRA COMPRAR E FÁCIL.......	15/03/2019, 22:25:39
1106728387194863617	tixinhadois	TA MUDANDO AQUI AGORA, TA TODO PUTS PUTS PUTS	15/03/2019, 22:26:24
1106729575348879360	anddrk	eu to trabalhando pra comprar o mouse que eu gosto.. um dia eu pego uma belezinha dessa olha q coisa linda	15/03/2019, 22:31:07
1106729859420745728	RazerBrazil	Tixinha prometeu que só para de jogar quando virar Mestre! 	15/03/2019, 22:32:15
1106731288206163968	Stealzera	Brabo, então blz	15/03/2019, 22:37:55
1106731454103465986	DLLzin	Manda um desse aqui pra casa	15/03/2019, 22:38:35
1106734699848888320	m_shyngo	E o Razer Phone 2? Cadê?	15/03/2019, 22:51:29
1106740587955400705	fuckthemyeggs	Me manda um tbm que prometo que viro mestre tbm hsusshhsshsus	15/03/2019, 23:14:53
1106743783083966464	true_ett	"Periféricos não dá fps não, aquela frase ""RGB dá mais fps"" é só brincadeira."	15/03/2019, 23:27:34
1106747619139829760	Luanfelp1	Se me mandar um eu viro até proplayer	15/03/2019, 23:42:49
1106752914054414336	serenissimayt	Lindo, heim? Deve ter uma mega qualidade de som...	16/03/2019, 00:03:51
1106761471768387585	antsum_	Vasco	16/03/2019, 00:37:52
1106761489740906496	antsum_	Vasco	16/03/2019, 00:37:56
1106763013112168448	yosoywilsom	Oxente @iamSaulo o teu veio com a logo errada KKKKKKK	16/03/2019, 00:43:59
1106772843889655808	DIVIDRIN	vasco	16/03/2019, 01:23:03
1106781137395953664	pk21santos	Vasco	16/03/2019, 01:56:00
1106790601972961280	MatheusMoBn	@RazerBrazil quale razer, me ve umas orelhas de gatin pro kraken :(	16/03/2019, 02:33:37
1106791621247623168	BielFck	Meu sonho é um setup da @RazerBrazil &lt;3	16/03/2019, 02:37:40
1106802859293794304	LucAASS_____	@tixinhadois esse é o krait?	16/03/2019, 03:22:19
1106894280998748166	ViniEduardo1903	Nossa obg quando chega? Kkkkkkkkkk	16/03/2019, 09:25:36
1106906657844613127	Luiz___Couto	Vasco	16/03/2019, 10:14:47
1106908293560238080	xuxu_alm	Vasco	16/03/2019, 10:21:17
1106908345850580992	xuxu_alm	Vasco	16/03/2019, 10:21:29
1106926384792903681	_Doufa	com um*	16/03/2019, 11:33:10
1106928224435617795	Rejjuni	Não meu querido, eu quero um PC gamer mesmo! HAHAHAHAH	16/03/2019, 11:40:29
1106931836452769795	bellanisk	Veigar fugindo com sucesso part1 #lol @riotgames #LeagueOfLegends @RazerBrazil #girlgamer	16/03/2019, 11:54:50
1106941459276750848	ReehStark	Doa um pra mim <3	16/03/2019, 12:33:04
1106947338751365121	RazerBrazil	A peça que faltava no seu setup — entre no jogo com o novo Razer Kraken. http://rzr.to/KrakenBR	16/03/2019, 12:56:26
1106948899162472448	TiuuzinhoNoob	Lindo nao!? Pena q o botao direito n ta funcionando ;-; alo @RazerBrazil kkkkkkk 	16/03/2019, 13:02:38
1106952550257967105	BreitnerRo	meu fone morreu, poxa @RazerBrazil ;/	16/03/2019, 13:17:08
1106956713637433351	kauenatan	"Ai sempre tive medo de comprar coisas da razer pq sempre ouvia ""soh tem nome e eh caro pq quebra rapido"" medo miga"	16/03/2019, 13:33:41
1106956823398137856	Joaovictorzousa	Na real falta muita coisa :'c	16/03/2019, 13:34:07
1107012945328947200	maikyguanaes	@RazerBrazil qual o prazo de garantia de produtos comprados aqui no Brasil?	16/03/2019, 17:17:08
1107028416598102016	fredkruggerbr	"@RazerBrazil @Razer olá meninos, tenho um razer nostromo e o apoio de mão meio q ""saiu"" aquela textura antiderrapante/fosca e ficou só uma cola pegajosa... oq fazer para tirar isso?"	16/03/2019, 18:18:36
1107030684986691590	ivdmaluco	Olha o Presente lindo que eu ... não ganhei da @RazerBrazil 	16/03/2019, 18:27:37
1107042243091804161	ArthurSpalding	@RazerBrazil meu hammerhead V2 parou de funcionar sem motivo aparente, poderia ser contatado por vocês?	16/03/2019, 19:13:33
1107045847622127616	ArthurSpalding	Se eu n conseguir refound pela @RazerBrazil vai ser bem triste	16/03/2019, 19:27:52
1107055251671171072	AMD22k	JA FIZ ISSO NA BGS, stand da @RazerBrazil ! ehhehehe	16/03/2019, 20:05:14
1107055442746896384	wrczin	Mas ai tu n avisou, dessa vez bora tentar com todo mundo	16/03/2019, 20:06:00
1107057501843963904	NiacTTs	Diferença que o produto é de qualidade e não estraga fácil também	16/03/2019, 20:14:11
