id	username	text	datetime
1167990925798195205	BoturexBr	#cadeiragamer @XboxBR @RazerBrazil @voxeloficial @oliveirandreiah procede galera???? 	31/08/2019, 23:41:51
1168013370236096512	GHowky	@RazerBrazil Olá, minha cachorra comeu um pouco o cabo do meu headset, vocês possuem assistência técnica para concerto?	01/09/2019, 01:11:02
1168158024260829185	johnmateus0_0	Edifício da @RazerBrazil	01/09/2019, 10:45:50
1168201707978928129	joaorez3nde	deixei de comprar uma da @RazerBrazil pra comprar de vocês @Multilaser_BR	01/09/2019, 13:39:25
1168252185932488704	RazerBrazil	CS, Mu, Ragnarok, Tibia, Habbo... qual foi seu primeiro jogo online? E seu primeiro nick?	01/09/2019, 17:00:00
1168252397250064384	BRJCRF	Ragnarok, saudades do caralho pqp	01/09/2019, 17:00:51
1168252919893954563	JMkkshi	Ragnarok melhor de todos	01/09/2019, 17:02:55
1168254204613451776	MemesDoSenario	Club penguin ñ lembro nick	01/09/2019, 17:08:02
1168254721058099200	RamonMagione	Tibiao da massa e meu nick era SkaiWolker SHUAHSUAHAUAHAHAHAHA	01/09/2019, 17:10:05
1168254821306109952	HawkieHimself	splash da turma da mônica	01/09/2019, 17:10:29
1168254821587140608	Major_Kalu	Acho que algum do Mega Drive, a muito tempo.	01/09/2019, 17:10:29
1168255049073594368	Rohgod7	Conquer 	01/09/2019, 17:11:23
1168255137732792321	fepessorrusso	Runescape; Destroier908- que Deus o tenha	01/09/2019, 17:11:44
1168255282507636736	dylanzeraa	club penguim	01/09/2019, 17:12:19
1168255535147298816	croconaw__	Pokemon Crater, quem jogou sabe <3	01/09/2019, 17:13:19
1168256206831570952	Santoroffc	CS 2D o nick era: Cronos e isso foi lá pra 2010/11	01/09/2019, 17:15:59
1168256761633157120	bielsantiago	Meu PC da Xuxa não aguentava nada disso joga sinuca online com chat no site gamezer a mais de 10 anos	01/09/2019, 17:18:11
1168257914987040768	PsicologoGerson	Tibia.	01/09/2019, 17:22:46
1168260280838709248	Dgl32Dgl	tibia	01/09/2019, 17:32:10
1168260816459706374	CapsSNeutro	Cara eu não lembro o nome mas tinha um jogo de facebook que era igualzinho ao gears of war, eu era mt bom nele muito mesmo mas eu não lembro o nome, mas era muito foda, primeiro jogasso que joguei.	01/09/2019, 17:34:18
1168261415892860928	ermysson	Jogo: LINEAGE II Nick: Meu nome 	01/09/2019, 17:36:41
1168262464770846720	ErikErikErik_	Club penguin	01/09/2019, 17:40:51
1168263920806707201	Joaoleao03	Caralho mano que saudade de priston, epoca de 2009 que era muito gostosinha de jogar	01/09/2019, 17:46:38
1168264386961690625	DeleteInsertEnd	Ragnarok era épico! Nick não vou postar para não ser roubado! KKKKKK	01/09/2019, 17:48:29
1168266415864000512	thaynassss	Mu, uma elfa e o nick era Charmosa KKKKKK	01/09/2019, 17:56:33
1168267239625318401	kupperzz	habbo, nick Milatumas111 transformice tbm, so q n lembro meu primeiro nick	01/09/2019, 17:59:49
1168271971370618883	MandarkBR666	Acho que Ragnarok.	01/09/2019, 18:18:38
1168272471126093826	MarcosCostaI	Duke Nuken 3D P2P por discagem direta para o telefone de um amigo.	01/09/2019, 18:20:37
1168272993744764928	CarlosEdurdo123	Meu nick: kduzombiebuster, e é até hoje	01/09/2019, 18:22:41
1168274355463294976	guiilhermetst	TIBIA >>.<<	01/09/2019, 18:28:06
1168274829704933377	sorgekin	Cabal	01/09/2019, 18:29:59
1168274983958777857	sorgekin	Cabal meu primeiro Nick foi Shinigami	01/09/2019, 18:30:36
1168276016596492289	cazuquiNP	Paladins,Bom.. Deixa eu contar minhas historia 1°,Eu fiquei com um Nintendo64 até no ano de 2015,Dps ganhei um Xbox,Em 2017 ganhei um Ps4,Ñ tinha nenhum jogo ainda,Aí baixei paladins......... :)	01/09/2019, 18:34:42
1168277753919148033	anderpxl	Tibia	01/09/2019, 18:41:36
1168279639455911937	JFajreldines	Tibia e Ragnarok, ao mesmo tempo	01/09/2019, 18:49:06
1168281224328175616	GlaucoOliveir19	Mu Global, e o nick até hoje é Olivi.	01/09/2019, 18:55:24
1168282026610442240	umlixobembosta	club penguin	01/09/2019, 18:58:35
1168286458853101570	AlbiereC	CS:GO meu nick Albi2K e continua ate hoje	01/09/2019, 19:16:12
1168288644924366848	ggrrstavo	JDHSKSJSHSJS AI EH PELO Primeiro foi gc c nick -tavinh0. Jshsksjwhw	01/09/2019, 19:24:53
1168289410099621894	lucas_panucci	Club Penguin (R.I.P), luca80225 ahshahsuah	01/09/2019, 19:27:55
1168291332613443589	AlexsandroFisc2	Red crucible 2 no navegador, mas o que eu considero o primeiro é o meu Warfacezin, inclusive com meu abyssus baloso	01/09/2019, 19:35:34
1168295831751012352	Riickzz_	Club Penguin	01/09/2019, 19:53:26
1168296847284346880	Edlincoln10	CS em lan o nick era [] | NikO | isso há 13 anos atrás no primeiro campeonato que participei!!!!	01/09/2019, 19:57:28
1168300562493956097	andraddyy	Primeiro jogo foi o Gatuno (acho q é assim) e primeiro nick MONSTROVERDE054	01/09/2019, 20:12:14
1168305115876511744	igoragoravai	o melhor da epoca.	01/09/2019, 20:30:20
1168305779847380993	proe_rygh	Mu, o Nick não lembro	01/09/2019, 20:32:58
1168306085029142529	VantaBlackMamba	Ragnarök Online. E meu primeiro nick era Forte666, porque meu eu de 12 anos de idade era um musicista edgy revoltado com a família ultrarreligiosa 	01/09/2019, 20:34:11
1168307290090409986	BdbChan	Meu primeiro jogo foi mu	01/09/2019, 20:38:58
