id	username	text	datetime
1157078715291131904	MuriloLeme7	Macheetos	01/08/2019, 21:00:37
1157079014676320256	nevermindbrennu	me da um pc taquinho	01/08/2019, 21:01:49
1157079575349923841	BrunoRess	sim, vou pegar um teclado da razer pra q? pra dar problema em 3 meses?	01/08/2019, 21:04:02
1157080066662309894	gusawa_	quer me enviar um?	01/08/2019, 21:06:00
1157080465599340544	FelipoX	era aquele q eu tava falando q tinha vazado, brabo dms	01/08/2019, 21:07:35
1157081145944793089	ThalesIago7	queria dizer isso não, mas sabemos que você não vai usar isso. kkkkkkk... Zowie 	01/08/2019, 21:10:17
1157082115340742656	hendrixgomes	Agr não, vou compra um fulerinha, quando eu pega um PC massa lanço kit razer	01/08/2019, 21:14:08
1157083362525372417	OrionGplays	Manda um pra mim só pra eu testar um negocio aqui	01/08/2019, 21:19:05
1157083665643560966	citaramagica	Tô feliz que tenho criado coragem pra razer receita vegetariana/vegana da minha cabeça e não só de internet. Porque acho que seguir só de internet é criar um pouco de limitação, né.	01/08/2019, 21:20:18
1157083972108783619	meteusPINT0	Taco estava usando em algum camp	01/08/2019, 21:21:31
1157084646087286784	Aninha_aml	a propaganda do novo mouse da razer ta linda mas 80 dol é sem condições :(	01/08/2019, 21:24:11
1157085400982261760	Luffykkj	é ambidestro? é difícil ter um mouse bom pra canhoto :(	01/08/2019, 21:27:11
1157088388492812288	GeorgeKristhian	o resultado é que tenho um fone com qualidade de fone de 1000 reais razer por apenas 5 reais	01/08/2019, 21:39:04
1157091002060066816	esquiila1904	Queria muito a camisola do Fox no meu aniversário mas já pedi o rato da razer aos meus amigos E a minha família vai me dar dianteiro para a ajuda da máquina, ok	01/08/2019, 21:49:27
1157091381439029248	sirax07	O novo Viper da Razer é um mouse para jogos com fio ambidestro leve e rápido https://www.reviltec.com.br/o-novo-viper-da-razer-e-um-mouse-para-jogos-com-fio-ambidestro-leve-e-rapido.html	01/08/2019, 21:50:57
1157092891661086720	kiwires	xô vê se eu entendi O Uber que se exaltou num momento n pode se fude, mas a guria da Razer pode... Hmmmmm Fora o nazista da Kabum, incrível	01/08/2019, 21:56:57
1157094126137073665	swiftfagds	Ela disse que nao era mais pra mim razer essas coisas e depois eu tropessei na porta e dai ela riu da minha cara	01/08/2019, 22:01:52
1157095948939485184	TAMALINHO_	Sem rgb caralho? Na moral?	01/08/2019, 22:09:06
1157100762574598144	hammeroso	me da um desses taquinho, nunca te pedi nada UIAHUIAHIA o meu razer deathladder 2013 começou a parar de funcionar.. infelizmente praticamente quebrei o fio =\ e um mouse novo ta caro pra porra =x kkk	01/08/2019, 22:28:14
1157100975179620354	Ana_Fadona	E eu que mostrei um Mause da Razer pra minha amiga,ela me julgando qq eu ia fazer com um mause de cobrinha	01/08/2019, 22:29:05
1157101311717982209	iloveqatar	Razer lite	01/08/2019, 22:30:25
1157104249626648576	FalleNCS	Voa taquinho! Segura o entry do menino agora. 	01/08/2019, 22:42:05
1157104474693033984	KoeBiell	"Não!, falaram sobre isso numa live e ele falou que se arrepende e q n é mais assim (nem deu bola) Só pq ela se desculpou n quer dizer q a razer vai perdoar, lembra do comentario ""racista"" do cocielo?? Ele tbm n foi perdoado"	01/08/2019, 22:42:59
1157104564581130240	felstorace	da um pra mim taco nunca te pedi nada pow ....	01/08/2019, 22:43:20
1157104801446060032	rornelas__	uma pena que num dura porra nenhuma, vide meu blackwidow chroma que ja morreu os leds e duas teclas.	01/08/2019, 22:44:17
1157105065276190720	ihatePaulo	Então quer dizer que a história do Fallen full razer é verdade? 	01/08/2019, 22:45:20
1157107054315737089	jopedrobf	famoso não entende como funciona um contrato de patrocínio	01/08/2019, 22:53:14
1157108230050471938	Morello_Ra	Alguem diz se existe alguma utilidade real pra 16000 dpi? Tem algum jogo que precise dessa sensi	01/08/2019, 22:57:54
1157108710365454337	itlooo	Esse Razer Viper 	01/08/2019, 22:59:49
1157110533985832960	brunoramosbrs	E pq a razer pega o dinheiro que deviam investir na qualidade do produto e joga tudo em marketing	01/08/2019, 23:07:04
1157111760907853824	thelumikki	NERD GIRL TALK #02 - XBOX, Razer e Política! 	01/08/2019, 23:11:56
1157116673691979786	dio__ta	ja falaram q vao fazer man calma ai, se pa daqui uns 2 anos sai, o proprio ceo disse	01/08/2019, 23:31:27
1157117029046018048	showyking	Sempre bom refazer a pressão pra não deixarem que esqueçam o projeto!	01/08/2019, 23:32:52
1157122713871355905	will_gattt1	por isso q ele não usa o Kraken tbm né...	01/08/2019, 23:55:27
1157124018589376512	luan_099	Curtiu tanto que tá usando zowie hsuahahahaha	02/08/2019, 00:00:39
1157124868330131458	AgnolMatheus	Melhor que esse só o LoboV2, baratinho e muito bom. Aaauuuuuuuu.	02/08/2019, 00:04:01
1157125908442038272	_cutxi	Estou disponível para aceitar um Razer Viper como prenda.	02/08/2019, 00:08:09
1157128310889046021	faria_Dudu3	Ele já usou 	02/08/2019, 00:17:42
1157130488802234369	DEEBx__	taco me dar um feliz aniversario no meu post lá, hj é meu niver e eu ficaria felizao se recebesse isso de vc	02/08/2019, 00:26:21
1157130596109508608	fodassguy69	Ou é team razer ou toma kick da line, até o coração tem que ser verdinho...	02/08/2019, 00:26:47
1157131081382055937	eglukasmf	Taco tb é team razer agora 	02/08/2019, 00:28:42
1157131194733080576	Asererejdjsmcnk	Sei não em. Tá traindo o melhor mouse do mundo o Lobo 	02/08/2019, 00:29:09
1157131294041608192	GVKNTC	KKKKKKK AH NAO	02/08/2019, 00:29:33
1157132878146412544	brn2j	mouse de quem vota 17	02/08/2019, 00:35:51
1157133905494851585	portorafael_	famoso não entendeu que é meme	02/08/2019, 00:39:56
1157136630680965120	_GabrielRico_	Por qual motivo? De uma Mulher generalizar no Twitter e o contrato dela acabando, A Razer não quis renovar por conta das Tretas,Qual o machismo disso?	02/08/2019, 00:50:45
1157137165098205184	gatinhafps	nunca mais na minha VIDA eu compro algo da razer	02/08/2019, 00:52:53
1157137436759040001	justinpoems	eu peguei tanto ranço da beth e do razer	02/08/2019, 00:53:58
1157142669174251521	KayDasQuebrada_	Sim, Razer deve ta farmando agora kakakakak	02/08/2019, 01:14:45
1157149419810086912	yuuki_rito0	Kkkkk Incrível que antes a Razer era só mais uma marca e agora do nada os produtos dela são de péssima qualidade kkkkk, meu deus do ceu, você nem disfarça.	02/08/2019, 01:41:35
1157150139959541760	m_carpenedo	"A única pessoa que ""defendi"" foi a minha amiga (motivos óbvios, é minha amiga). Sobre a mina da Razer, só comentei que transformaram o comentário dela em algo mto maior do que realmente é. E na boa: se eu for comentar td o que acho de errado, ñ faço mais nada da minha vida. (1/2)"	02/08/2019, 01:44:26
1157152636509937666	SweetyA37767684	Globo rural... Nubank... Razer... Senai... Letras e músicas... festa de estagiários, rs 	02/08/2019, 01:54:22
1157153269757566979	LucasDaMatta6	normalmente quanto maior o dpi melhor o sensor	02/08/2019, 01:56:53
1157157742437494785	otaviomarreko	Caraio o simbolo da razer ganhou vida 	02/08/2019, 02:14:39
1157163481117810689	justinpoems	aprenda razer era isso que vc deveria ter feito 	02/08/2019, 02:37:27
1157190576778952707	ClassicMain	Igitt razer	02/08/2019, 04:25:07
1157190680868982784	ClassicMain	IGITT razer	02/08/2019, 04:25:32
1157190879796330497	iamnaroz	Razer	02/08/2019, 04:26:19
1157191081332805632	Bl3nd3r_TTL	razer é ruim compra logitech	02/08/2019, 04:27:08
1157192380384198657	JulianaCmps	E não mentiu, certíssima. Heineken é a razer das cervejas, cara, ruim e com concorrentes mais baratos e melhores.	02/08/2019, 04:32:17
1157200160046215168	UnlockedCPU	Razer*	02/08/2019, 05:03:12
1157204149689303040	Danil11n	Taquin!	02/08/2019, 05:19:03
1157223991314010112	taka0kurarowa	razer	02/08/2019, 06:37:54
1157227566731812864	KinuksKirigaya	Será que o Razer Orbweaver é bom p FORTNITE?	02/08/2019, 06:52:06
1157236898781376517	Keyblader_	Razer mamba elite	02/08/2019, 07:29:11
1157237662333448192	Carol_siren	UE... a mina da razer era sua amiga também?? Exatamente, só que são 2 pesos 2 medidas pra vocês tratarem de toxidade do lado aposto. Engraçado isso né não???	02/08/2019, 07:32:13
1157241304117633024	echoboomerpt	Razer revela o Viper, o seu novo rato gaming ultra-rápido 	02/08/2019, 07:46:42
1157255253957517312	FabioBispo3	Quer concorrer a um Razer Kraken X clica no link e saiba como. Razer Kraken X https://wn.nr/2fGtGZ	02/08/2019, 08:42:07
1157255833153155072	PipaArbitra	Razer creo	02/08/2019, 08:44:26
1157257344528605184	comendogelo_	30 dolares a porra da shakeira da razer velhokkkkkkkkk alguem compra isso?	02/08/2019, 08:50:26
1157267179844378626	edleyluis	se fosse o lobo então?	02/08/2019, 09:29:31
1157271324550717440	gaabrielccosta	Razer Viper	02/08/2019, 09:45:59
1157271824713076736	DECOcsgo__	TAMO LIVE RAPAZES #RazerStreamer @Razer 	02/08/2019, 09:47:58
1157272892909981697	Alex_viana503	Parabéns!	02/08/2019, 09:52:13
1157272893119717378	gameszaum_	blue yeti e torradeira razer	02/08/2019, 09:52:13
1157273273417248768	duneves007	"Agora que a Razer lançou um headset que treme de acordo com o grave, superou 500% a ""Multilaser"" kkkk"	02/08/2019, 09:53:44
1157276964727734272	maarcondes_	do jeito que a razer tá indo, tá difícil de continuar fanboy dela	02/08/2019, 10:08:24
1157277137541488640	maarcondes_	eu n queria trair minha razer, mas porra mane tá foda baguio caro e n faz nd	02/08/2019, 10:09:05
1157278730542362624	maarcondes_	mano só pra vc entender meu nível de fanboy deathadder deathadder chroma deathstalker essential blackwidow v2 kabuto firefly a unica coisa q n tive da razer foi fone	02/08/2019, 10:15:25
1157285225967292418	_mrchausse	Manda um desse pra mim aí men, dá um help que o meu tá brabo kkkk	02/08/2019, 10:41:13
1157288304171053057	genosaid	So Mamba Elite or Viper?	02/08/2019, 10:53:27
1157288497612562433	guzrules	então você está me dizendo que meu pally ret vai melhorar o dps? vish! Mas só tem razer? Tô evitando a marca.	02/08/2019, 10:54:13
1157289628912836608	CtrlAltDella	Precisa de um pouco de paciência (para configurar teclas e macros) e um pouco de treino para o cérebro se acostumar com os botões. Infelizmente só a razer seguiu fazendo, eu tive um Logitech muito bom (G13) mas já saiu de linha.	02/08/2019, 10:58:43
1157290898889355265	pedrovanzella	São imensos infelizmente. Peguei um Razer Blade 15.	02/08/2019, 11:03:46
1157293495058493445	canaltech	Razer lança Viper, mouse ambidestro voltado para profissionais dos eSports http://canalte.ch/T72AZ	02/08/2019, 11:14:05
1157294264805556224	marciojmsilva	Razer lança Viper, mouse ambidestro voltado para profissionais dos eSports http://dlvr.it/R9Y9Hg	02/08/2019, 11:17:08
1157294945432211456	ralph_dsg	Razer fazendo escola, ensinando a fazer mouse leve sem aquele perfurado ridículo. Apenas 69g (aprox mesmo peso do Model 0) 	02/08/2019, 11:19:51
1157295294175948800	OctagonBrasil	Foi lançado ontem oficialmente o novo mouse da @Razer, o Razer Viper, que tem como principal embaixador nosso atleta @TACOCS, agora oficialmente parte do Team Razer. Com um design e features desenvolvidos em conjunto com o jogador, tem tudo para ser um sucesso!#teamrazer #esports	02/08/2019, 11:21:14
1157297335065612288	Spurgatory	Que isso em Primo. Mlk tá brabo	02/08/2019, 11:29:20
1157299819238608896	gfeedk	Razer lança Viper, mouse ambidestro voltado para profissionais dos eSports #tecnologia #tech	02/08/2019, 11:39:13
1157302330829635587	VJV_Bonplan	Enceintes Razer Nommo à 49,99 euros 	02/08/2019, 11:49:11
1157302692986810368	bonsplanstech	Enceintes Razer Nommo à 49,99 euros http://dlvr.it/R9YGt5	02/08/2019, 11:50:38
1157305623526158337	RazerBrazil	Projetado para ser o melhor—o Razer Viper garante cliques mais rápidos com os novos Switches Ópticos Razer para Mouse, tiros mais precisos com o exclusivo sensor Óptico 5G e um design leve e ergonômico, com apenas 69 gramas. Tenha Controle Absoluto: http://rzr.to/Viper-BR	02/08/2019, 12:02:17
1157307110553772033	best_luiz	Que delicia cara, startei trabalho Razer Viper e Razer Huntsman Elite na mão	02/08/2019, 12:08:11
1157307696351076352	epopeiaorg	Razer lança Viper, mouse ambidestro voltado para profissionais dos eSports 	02/08/2019, 12:10:31
1157309228220133376	babylonjutsus	o mouse é careca?	02/08/2019, 12:16:36
1157314095898660864	ThuunderR6	Razer mamba &gt; all	02/08/2019, 12:35:56
1157316362064355328	rodrigodvarte	o taco faz a sombrancelha cara :( @showliana que você acha?	02/08/2019, 12:44:57
1157318840092639232	AngelEDMC	Razer yo quiero el Razer phone 2 hahahahahahhahaa	02/08/2019, 12:54:48
1157319957459456001	_GabrielRico_	irmão,Se algum cara fosse no Twitter e generalizasse e alguns clips chama alguma mulher de fdp e tals,Você acha que esse cara iria receber esse mesmo apoio que ela?	02/08/2019, 12:59:14
1157321243919552514	Icekun1	Si elle est aussi endurante que vos nagas, vous pouvez vous la carrer dans le derche	02/08/2019, 13:04:21
1157325856089489408	namariano10	Minha amiga falou q queria me dar um presente, pedi um kit da razer ela falou q só pode comprar o teclado. Mo triste	02/08/2019, 13:22:40
1157327705735684096	KarlKwl	Maldade e a vontade e vc fas o pessoal passar kkkk Com essa raba linda maravilhosaaa Q seu fim de semana seja repleto de razer	02/08/2019, 13:30:01
1157335882548076545	SillvaEXE	Ai rapaziada sei que ta meio longe do meu aniversario mas deixarei uma lista de presente aqui - dvd pirata do porno da Gretchen - cell novo - teclado novo de preferencia razer - headset razer - cadeira gamer - um poster do pelanza na epoca do restart Obrigado 	02/08/2019, 14:02:31
1157339498180689920	OAriistoteles	Razer chegou pra deixar a galera p da vida, ADOROOO	02/08/2019, 14:16:53
1157343026089484288	kabumcombr	É fã do game Destiny 2? A Razer preparou esta ofertassa neste mouse monstro temático do Game! Se liga ai! ► http://kabum.com.br/link/40/92516	02/08/2019, 14:30:54
1157347381135826945	meatlovre	Razer	02/08/2019, 14:48:12
1157349380107722758	tchervinsqui	Razer Kraken X https://wn.nr/g9VJGE aceito de presente	02/08/2019, 14:56:09
1157351894534279169	thiagocominesi	Essa mouse é muito bom mesmo...manda um ae @TACOCS para testar aqui em casa, És.	02/08/2019, 15:06:08
1157357769609138176	sergiossauro	qq coisa com razer no nome eu dou Block	02/08/2019, 15:29:29
1157362075846336513	MickeyValntine	#descansogardens #ShishiOdoshi #鹿威し #sozu #添水 #japanesegarden #bamboo #water #fountain #RAZER #RazerPhone2 ƒ/1.8 4.29mm 60FPS @Descanso Gardens https://www.instagram.com/p/B0rBJNyFjGt/?igshid=148c3q3uilblz	02/08/2019, 15:46:36
1157376167927828480	kwangoettems	Cada dia mais feliz com minha coleção de mouses, agr quero um da razer que Vi lá em 2012 em uma loja, lembro ate hj do nome KKKKKKK, ALGUM DIA TEREI	02/08/2019, 16:42:36
1157378422873698310	OrdepHenr31	ta traindo o movimento, tem que usar fallen gear	02/08/2019, 16:51:33
1157380852797628416	GabrielGeisler	@kaueklitzke será que é um patrocínio da Razer?	02/08/2019, 17:01:13
1157382216101572608	MarcosAllmeidaa	Nem entro aqui, mas não compra essa merda da razer não kkkkk Você paga caro e não dura nada... Experiência própria!	02/08/2019, 17:06:38
1157385439868792834	wspartam	Razer Kraken X https://wn.nr/cACqRs Sorteio atacado games entre e participe .	02/08/2019, 17:19:26
1157387155456634882	approveall	eu não sei pq, mas a razer tirou o download do surround tive que baixar do youtube mesmo e o processo é o mesmo instala e fica no razer synapse	02/08/2019, 17:26:15
1157388334181675015	Anthony66330826	Razer	02/08/2019, 17:30:56
1157390127750176774	gumoocaoficial	Razer	02/08/2019, 17:38:04
1157392969445576710	gingeraline	Quero as bagulho tudo rosa da razer no siteeeeee	02/08/2019, 17:49:21
1157410598235361282	Gamegratistm	Headset Razer Electra V2 Preto Som Surround 7.1, Headset Completo para seu PS4! 20% OFF R$379,99 em até 7x sem juros!! Corra, apenas 4 no estoque! Garantia de 1 ANO. Compre aqui: https://buff.ly/2T4nHIH Veja outras promoções rolando em: http://www.gamegratistm.com/	02/08/2019, 18:59:24
1157411430221701122	PedroSantana143	Sério?,aquele bonitão da Razer?	02/08/2019, 19:02:43
1157418589793718272	maquebueno	Acostumado com aquele lixho do fone do shoptrain, agora usando o bom e velho Razer, pqp, até parece que aprendi ouvir de novo	02/08/2019, 19:31:10
1157419017725865985	ofertanota10	Sorteio! Concorra a um Headset Razer Kraken X Link: https://ofertanota10.blogspot.com/2019/08/concorra-um-headset-razer-kraken-x.html#.XUS5tVSvFyI.twitter #sorteio #promocao #headset #razer #informatica #nerd #geek #gamer #audio #sextadetremurasdv	02/08/2019, 19:32:52
1157423598396694535	FeehGameplay1	Sempre sonhando. #razerbrasil #razer #ps4 #ps4brasil #ps4 #pubgbrasil #pubgmemes #pubgbr #Pubg em São Paulo, Brazil https://www.instagram.com/p/B0rdLKhAWEf/?igshid=1apj7lfede9ma	02/08/2019, 19:51:04
1157425302320140288	silviusluca	Es Logitech o Razer ese?? 	02/08/2019, 19:57:50
1157428421309472769	obolodecarne	Nossa eu vou deitar aqui todo o meu ódio pela razer	02/08/2019, 20:10:14
1157434047146221568	opercius	Um aspirador Razer	02/08/2019, 20:32:35
1157436532527194114	fabs_arakaki	Acho que é do mesmo tamanho do seu, só que da Hyper X....é o meu primeiro desse tamanho mas acho que não muda muita coisa pro da Razer...é costurado, tem aquela textura emborrachada atrás anti aderente e etc...	02/08/2019, 20:42:28
1157438487865548808	miauhelo	é o da razer?	02/08/2019, 20:50:14
