id	username	text	datetime
1170125870465454080	OMOBrasil	Vou ver e te aviso! #TorcidaQueSua	06/09/2019, 21:05:22
1170137194759098369	cebolaodadepre	alô, é o Willian lemos?	06/09/2019, 21:50:21
1170149170847604736	tabomcarai	Razer sentida KAKSKAKAKAKAKAK	06/09/2019, 22:37:57
1170154123490189312	Wander_Santos_	Viu esperar a xboxlive voltar pra jogar....	06/09/2019, 22:57:38
1170156756917522434	enzououou	KKKKKKKK ALAVEM	06/09/2019, 23:08:05
1170164072270180353	peterol55811838	Entrosa não mlk vsfd	06/09/2019, 23:37:10
1170164268232318977	Vortex_Club_ON	Se fosse um cara falando merda seria demitido do msm jeito, entao esquece esse assuto pq ja ta encerrado deixa de ser criança.	06/09/2019, 23:37:56
1170170922327842816	LuanHey1	e frutinhas pode?	07/09/2019, 00:04:23
1170171051306885121	LuanHey1	ela que é toxica shahahha claru	07/09/2019, 00:04:54
1170171132298895366	LuanHey1	vai sim, eles pagam, vc n	07/09/2019, 00:05:13
1170171347059793921	LuanHey1	"quanta ""gente frufru"" magoada com a razer, querem respeito e não respeitam ngm, vão a m&"	07/09/2019, 00:06:04
1170178802217041921	GODAOsz	meu mouse da @RazerBrazil ta saindo os adesivos pretos de baixo e ta me dando agonia usar ele assim	07/09/2019, 00:35:41
1170178874900123655	caiufreire	só comprar skatez novos	07/09/2019, 00:35:59
1170178986850304001	giuliagribler	meu fone com 1 ano parou de funcionar o lado direito kkk piada	07/09/2019, 00:36:25
1170179164604895233	GODAOsz	grana ta osso	07/09/2019, 00:37:08
1170343794597924864	yellow4ng	eles respeitaram o posicionamento de uma mulher que vem sofrendo com inúmeras frases sexistas desferidas contra ela? não né, então me poupe parceria razer tem mais é que se foder mesmo e acabou	07/09/2019, 11:31:19
1170344155480039425	yellow4ng	vão se foder entrosa não	07/09/2019, 11:32:45
1170344190905069568	ImP4triick	Pora nenhuma	07/09/2019, 11:32:53
1170368661829423105	henriqueBarking	tibia	07/09/2019, 13:10:08
1170388681863172096	BalinhaGG	Cs, só jogo isso p-p	07/09/2019, 14:29:41
1170426423875649538	elphael	@RazerBrazil me dá uma mochila por favor 	07/09/2019, 16:59:39
1170456710755930112	RazerBrazil	Qual o seu Top 5?	07/09/2019, 19:00:00
1170456889030787072	JuniorHanemann	Todos bomba patch	07/09/2019, 19:00:43
1170457186297876481	pedrosnoleto	Só sei o top 1, Shadow of The Colossus	07/09/2019, 19:01:53
1170457258704166912	zlSobrinho	Só faltou saber ler	07/09/2019, 19:02:11
1170457318959566854	gustavoregio13	Residente Evil 4, GH3, GoW 1 e 2 PES. Nao necessáriamente nesta ordem.	07/09/2019, 19:02:25
1170457940232474625	andraddyy	isqueci	07/09/2019, 19:04:53
1170457971630968852	damaresdrs	Silent Hill GTA San Andreas Resident Evil 4 Fatal Frame III Second Sight (Tem vários outros mas esses me marcaram muito na vida)	07/09/2019, 19:05:01
1170458157262483457	Vizinho181	Eu sei que era para ser 5 Mas esses são os meus favoritos	07/09/2019, 19:05:45
1170458498850799617	ThomasEduardo4	Bomba patch 100% atualizado	07/09/2019, 19:07:06
1170459607866781696	riquecostab	??????????????????????? tu leu a pergunta ?	07/09/2019, 19:11:31
1170460117952806913	zPedro_Lomano	1-Shadow Of the colossus 2-GTA 3-God OF War 4-Ultimate Spiderman 5-Tony Hawk (N lembro qual era, mas era um mt loko q dava pra construir a pista e talz, e pra fazer seu personagem)	07/09/2019, 19:13:32
1170460990368100354	vitorguiilherme	Dark watch era muito foda,jogava com o meu irmão mais velho	07/09/2019, 19:17:00
1170464723223142400	felliplopez	N/A leitura KKKKKKKK, tarik do céu.	07/09/2019, 19:31:50
1170465468647444480	igorwty	Top 1 é e sempre será god hand	07/09/2019, 19:34:48
1170466300939911168	luan_mill	Simm eu jogava com meu primo, era nosso jogo favorito	07/09/2019, 19:38:07
1170466691249311750	_enzopessoa	trocaria so o lego, botaria defjam	07/09/2019, 19:39:40
1170468628136910848	Vinni_Braz	Top 5 é muito pouco, da pra colocar varios seloco Devil May Cry 3 Def Jam Fight to NY RE4 Fifa Street Dragon Ball Z Budokai Tenkaichi 3	07/09/2019, 19:47:21
1170474207689551872	DiogoGu38776378	1°-Dragon Ball Budokai Tenkaichi 3 2°-Clash 3°-God of War 4°-Naruto Ultimate ninja 5 5°-Mario que vem com vários jogos em um só cd	07/09/2019, 20:09:32
1170474429425606657	DiogoGu38776378	e GTA	07/09/2019, 20:10:24
1170481300966428672	RiandSL	Mascada ser só 5, pq tbm tem Dragonball Tenkaichi Budokai 3 Dragonball Budokai 2 e 3 Need for Speed Underground Black Shadow of the collosus Bully Final fantasy Ben 10 protector of earth Tudo fez parte da minha infância Queria meu ps2 de volta	07/09/2019, 20:37:43
