id	username	text	datetime
1148752169547554816	victorh28965979	"Mano meu jogo é tipo Minecraft e Lego, meio zoado pelas pessoas por ser um jogo de formato infantil e o que fez sucesso nele e foi usado fora do jogo é o ""Oof""."	09/07/2019, 21:33:54
1148753498131050496	YsyearSB	@RazerBrazil estou tentando entrar em contato com o suporte sobre meu Headset Kraken 2.0 e nao acho suporte algum...	09/07/2019, 21:39:11
1148769516157116417	ooh_Santos	Não pode ver nd colorido q já vai querer comprar KKKKKKKKKKK	09/07/2019, 22:42:50
1148778613061423104	eusouYagooo	@PG_Brasil@ClaroBrasil@vivobr @TIMBrasil @RazerBrazil @RicardoEletro @PepsiBr @CocaCola_Br @PepsiCoBrasil @SamsungBrasil @sonybrasil @MicrosoftBr @McDonalds_BR @habibsoficial @submarino @SubwayBrasil @GiraffasOficial @americanascom alguma de vocês pode patrocinar o M. Do mundo ?	09/07/2019, 23:18:59
1148795467234455553	_leofelino	Qual será o público da @RazerBrazil q eles tem q categorizar a espécie do indivíduo 	10/07/2019, 00:25:57
1148800189467168768	Ahrioli	FODASE A @RazerBrazil TALIGADO, DESCOBRI UMA MARCA Q TEM CADERA RGB VIADO SE TA LOKO, @GamdiasBR TEM MEU CORAÇÃO NAMORAL TIO CADERA RGB SETALOKO TO DESACREDITADA MERMAO	10/07/2019, 00:44:43
1148922968321511424	wellingtonFJr	A crítica é válida. Fiquei decepcionado demais com o último Headset q comprei, o mic é simplesmente uma bosta	10/07/2019, 08:52:36
1148926889047875586	diegovdm10	Poise sio	10/07/2019, 09:08:11
1148957446553178112	Gragsom	Aí a Razer tá apelando.	10/07/2019, 11:09:36
1148959466806792194	VncsFPS	Um jogo de domesticar dinossauro q em um server e pra jogar em 6 e os gringos jogam em 15 , 20 .. e vc reporta mais eles so dao atenção pra streamer famoso ... TRÁGICO	10/07/2019, 11:17:38
1148961541359853569	WagnerBraga	Esses AMDs novos estão de arrepiar mesmo!!!	10/07/2019, 11:25:52
1148962650015092737	dandeziderio	Vocês são foda dms pqp, sempre surpreendendo	10/07/2019, 11:30:17
1148987001338814464	Silvedic	O Suporte da @RazerBrazil nn gosta de mim, é oficial. :/	10/07/2019, 13:07:02
1148988661708537856	akiracomsono	oq ouve	10/07/2019, 13:13:38
1148989673966133249	Silvedic	os caras nn aceitam o print da compra no mercado livre como comprovante de compra pra acionar a garantia Ou o José q ta de cu doce e nn gosta de mim msm	10/07/2019, 13:17:40
1148989810394222593	akiracomsono	QUEM É JOSÉ E EU TO RINDO AI	10/07/2019, 13:18:12
1148989970612445184	Silvedic	José é o cara da razer q me atendeu	10/07/2019, 13:18:50
1148990187508326402	akiracomsono	a razer n tem suporte no twitter nao?	10/07/2019, 13:19:42
1148998947840712704	guigenova	@RazerBrazil dá uma olhada nesse monstro, sempre representando muito bem o Brasil em torneios de MK, sei que vocês tem uma linha dedicada aos fighting games, bora construir a imagem dele? 	10/07/2019, 13:54:31
1149015954724130817	JardimAntony	Piada não ofende. Pessoas que ficam ofendidas com piadas	10/07/2019, 15:02:05
1149025244549713921	AlvaroFalamanso	Homem é tudo lixo sim! Bando de usuário de @RazerBrazil	10/07/2019, 15:39:00
1149032057097662465	Luanc__	Pensando seriamente em pegar esse fone da @RazerBrazil	10/07/2019, 16:06:05
1149035968265166849	s1nkscs	ryzen 5 não tem ?	10/07/2019, 16:21:37
1149043674405318656	souzafanfa	não surpreende a incompetência da @Razer @RazerBrazil em segurança, visto que tb são incompetentes no que diz respeito a relações públicas, postura de marca, etc. como vimos em casos recentes de machismo	10/07/2019, 16:52:14
1149051108490391552	SanctusGamer	Comprei meu Ryzen 7 e veios esse ai, até agora não deu problema e estou muito satisfeito com o produto :3	10/07/2019, 17:21:47
1149058611705987072	luisarare	Você não tem empatia mesmo hein	10/07/2019, 17:51:36
1149060728713859072	RazerBrazil	Vai começar a final que vale uma vaga no The International, campeonato de DotA 2. Em 2018, a @paiNGamingBR foi a única representante LATAM no TI. Em 2019, não será diferente! #GOpaiN Ao vivo agora: http://www.twitch.tv/missclick_tv	10/07/2019, 18:00:00
1149070563580829696	caio_ngt	@RazerBrazil HOMI E TUDO LIXO MERMO E FODA-SE	10/07/2019, 18:39:05
1149071838007484420	blu_internet	ou mata geral ou faz amizade com geral, e arruma uma namorada pro peixe.	10/07/2019, 18:44:09
1149075826509414400	RazerBrazil	Começando agora mais uma etapa da Razer Mobile League de PUBG Mobile! Assista pela @StreamCraftBR: http://rzr.to/AoVivo 	10/07/2019, 19:00:00
1149080412649639938	EuManuelaSilva	Bonequinhos coloridos no mesmo mapa	10/07/2019, 19:18:13
1149081248696078336	Bol_Sonarg	Idoso cria um filho artificial para pular e atirar em outras de suas criações na intenção de prender um idoso rival que sempre foge no final.	10/07/2019, 19:21:33
1149082453384077313	Bol_Sonarg	Bom gosto.	10/07/2019, 19:26:20
1149086599726227457	clone_luigi	Sorte	10/07/2019, 19:42:49
