id	username	text	datetime
1173396814957088768	linelefay	ONDE EU CONSIGO ISSO? (Menos o fone da Razer) 	15/09/2019, 21:42:56
1173398770777841665	LorenzoMoreira7	Quero tudo menos esse fone da Razer 	15/09/2019, 21:50:42
1173401021642657794	Thblack0ut	razer ne pai Ntc	15/09/2019, 21:59:38
1173401329013854213	JoaoVitorGuilh4	Razer ou acer neto,essa aí de amigo eu tlgd em	15/09/2019, 22:00:52
1173405814121541633	guipfv	Dobly Atmos requer algum equipamento especial ou um headset qualquer já da conta? eu tenho um kraken v2 da razer	15/09/2019, 22:18:41
1173416076484337664	Yuuki99_R6S	RAZER #peing #質問箱 https://peing.net/ja/qs/421246858	15/09/2019, 22:59:28
1173422524664864770	Iaured__	olhei pro fone da razer d orelha d cato e tô em shok hmm 	15/09/2019, 23:25:05
1173425145899364352	i9mha	Vc deve ter falado q quer razer perto do cel, msm preço	15/09/2019, 23:35:30
1173425504332013568	_Felixxia	PRECISO!!!! menos do fone da razer 	15/09/2019, 23:36:56
1173426505084309504	Nana__965	Razer Razer Razer Razer Razer Razer Razer Razer Razer Razer Razer	15/09/2019, 23:40:54
1173426669102731266	gryffndx	não tinham cancelado a razer? kkk 	15/09/2019, 23:41:33
1173436511586586624	1kit1nojo	razer lancou teclado 80%	16/09/2019, 00:20:40
1173451242888192001	tuckervasher	Razer*	16/09/2019, 01:19:12
1173451285678477312	raianesz42	é da razer, amo? 	16/09/2019, 01:19:22
1173452212384739330	dorushiaki	Eu tirei o headset e fui escovar os dentes e vi que no meu pescoço tinha umas CASCA PRETA BIZARRA pensei eh hoje começou a minha morte ai eu fui ver que na real era o meu fone descascando e grudando os pedaço na minha orelha alo razer que qualidade merda	16/09/2019, 01:23:03
1173459520451952641	Mariaduvieira	Eu só queria esse headset da razer... nada mas ;(	16/09/2019, 01:52:06
1173465967759908864	srnJC	Razer viper or model o	16/09/2019, 02:17:43
1173466401056743424	lovaticstrouxie	muito legal e bonitinho até aí tudo bem mas é da razer,,,,, poxa 	16/09/2019, 02:19:26
1173483818898067457	dutchpropagandy	RAZER ARE PREMUIM	16/09/2019, 03:28:39
1173491540200755200	FranciscoNoroe4	Vídeo games : Razer patenteia um gamepad móvel que definitivamente não é um clone do Nintendo Switch http://gatonoticia.blogspot.com/2019/09/video-games-razer-patenteia-um-gamepad.html?m=1 #portalgatonoticias #razer #gamepad	16/09/2019, 03:59:20
1173516625762344960	sqkuya99	Razer	16/09/2019, 05:39:01
1173520487655399424	mcr_victor	Meu ar condicionado da Razer favor respeitar 	16/09/2019, 05:54:21
1173540187613171713	shino___photo	Razer	16/09/2019, 07:12:38
1173544796977270785	Sayme_MiamBox	Razer	16/09/2019, 07:30:57
1173547238368264192	ris_kill	Razer 	16/09/2019, 07:40:39
1173556098160312321	iOwnRazer	Razer Orange	16/09/2019, 08:15:52
1173557056026161153	amanda_brotto	e um razer original (?) http://bit.ly/2kDlFTd	16/09/2019, 08:19:40
1173558707931643905	R6SKatakunaX123	Razer	16/09/2019, 08:26:14
1173562306661404672	LelezinhaPaiva	Mds eu quero tudo menos o fone da Razer 	16/09/2019, 08:40:32
1173563035283161088	niyan_LPB_takep	RAZER 	16/09/2019, 08:43:26
1173564275203481600	redrumjota	meninas é da razer NAO queremos	16/09/2019, 08:48:21
1173568992323280896	FGmarquinhos	Acho que o deathadder é a única coisa que vale o preço da razer kkkkk	16/09/2019, 09:07:06
1173574939724718080	mihLDS	@RazerBrazil Opa, eu quebrei meu Headset Razer Kraken Essential com Microfone - P2 ontem, a haste que regula o tamanho. Queria saber se existe serviço pra reparar esse tipo de defeito?	16/09/2019, 09:30:44
1173589545893470208	zvosk	pq ngm teve a ideia de fazer o razer boy ainda?	16/09/2019, 10:28:46
1173590019723972608	alouHarden	To vendendo um Razer Blackwidow Chroma X por R$600 Quem se interessar chama inbox. 	16/09/2019, 10:30:39
1173591964022976512	TheAdri70_YT	!razer	16/09/2019, 10:38:23
1173591989847302144	ku_a1n	!razer	16/09/2019, 10:38:29
1173592236333981696	AdonaiR6	!razer	16/09/2019, 10:39:28
1173592236862451714	donMiwell	!razer	16/09/2019, 10:39:28
1173592410103959553	Davidrra_	!razer	16/09/2019, 10:40:09
1173592418677133314	Lekiam24	!razer	16/09/2019, 10:40:11
1173592452646789122	JrgeR6	!razer	16/09/2019, 10:40:19
1173592604681867270	BalmoRodas	!Razer	16/09/2019, 10:40:55
1173592864611328000	R6Tabuu	!razer	16/09/2019, 10:41:57
1173593085890170880	Asiereguia1	!razer	16/09/2019, 10:42:50
1173593093414637568	xtark_tony	!razer	16/09/2019, 10:42:52
1173593178580144128	bytommy99	!razer	16/09/2019, 10:43:12
1173593546571550720	hormigua806	!razer	16/09/2019, 10:44:40
1173593613382692864	NComasolivas	!razer	16/09/2019, 10:44:56
1173593622308151296	nathaliacmeloo	Puts mana pior q descobri q é da razer	16/09/2019, 10:44:58
1173593805825744897	cout1nh	razer patrocina 	16/09/2019, 10:45:42
1173593860834058240	LucaOwO	!razer	16/09/2019, 10:45:55
1173594908181094400	ImHvSKY	!razer	16/09/2019, 10:50:05
1173595203803996160	francis_KOCR	!razer 	16/09/2019, 10:51:15
1173595437154127873	DennerBio	O que ser razer, precioso?	16/09/2019, 10:52:11
1173595642536480769	tyomon_	Razer VIPER	16/09/2019, 10:53:00
1173595788376793089	javialanis8	!razer	16/09/2019, 10:53:34
1173596528554008577	i81mi	!razer	16/09/2019, 10:56:31
1173596583591579648	newsetech	Huntsman Tournament Edition é o novo teclado da Razer 	16/09/2019, 10:56:44
1173596690210856961	Ironic_7	!razer	16/09/2019, 10:57:09
1173596754991820800	TH3ALEXD	!razer	16/09/2019, 10:57:25
1173596768480694273	monchy_ramon23	!razer !tongo	16/09/2019, 10:57:28
1173597057896071169	nathaliacmeloo	Razer e aquela empresa que expulsou a gamer pq reagiu a alguns comentários escrotos de homem	16/09/2019, 10:58:37
1173597495890534400	oibur5	!razer	16/09/2019, 11:00:22
1173598056945786880	RoBiNNGG	!razer	16/09/2019, 11:02:35
1173598281043185664	bdjebdkebejd	!razer	16/09/2019, 11:03:29
1173600440094777344	SamuCarpio	!razer	16/09/2019, 11:12:04
1173600981789171718	Bascoo_	!razer	16/09/2019, 11:14:13
1173601970243952640	DJFLOW27_	!razer	16/09/2019, 11:18:08
1173604298015551488	TrindaMaster	Tirando esse fone da razer, queria tbm	16/09/2019, 11:27:23
1173605254736371712	destreras	RAZER????????????? 	16/09/2019, 11:31:11
1173605619636539393	Enevic11	!Razer !Tongo	16/09/2019, 11:32:38
1173607275220623360	mari_li_ca	!razer	16/09/2019, 11:39:13
1173608199699795968	jimsuasso	Razer?	16/09/2019, 11:42:54
1173615189599633409	BazucaaXD	Seus burro, o prox time dele pode ser patrocinado pela razer krl	16/09/2019, 12:10:40
1173615471133888517	oldbloodcla	quero comprar um fone e infelizmente to pensando em razer... de novo shudkahdush	16/09/2019, 12:11:47
1173616751579475969	_iLeandro	Depois de quase 4 anos. Minhas almofadas razer soltou. Que qualidade do produto excepcional.	16/09/2019, 12:16:52
1173617266132471808	TigerElegant	Vai entra na c9 parceira da HyperX e vc pedindo razer ,to zuando gosto e gosto	16/09/2019, 12:18:55
1173618012290736129	carolespepsi	vai razer me patrocina logo 	16/09/2019, 12:21:53
1173618040044494848	juaodotuiter	Oq q ce quer da razer? A única coisa q chama minha atenção é o orbweaver 	16/09/2019, 12:22:00
1173618694657912839	SuperBoksR6	!razer	16/09/2019, 12:24:36
1173631359518220289	httpsconrado	a musica da sailor sendo q tudo é da Sakura KKKKK ai se n fosse da RAZER eu estaria agora mesmo indo vender minha irmã 	16/09/2019, 13:14:55
1173633052821483522	rbausch_1	O seu é esse @gcandeias1 ? Top hein	16/09/2019, 13:21:39
1173634139628736515	ZanonH	Eu tenho exatamente 01 problema com esse vídeo O fone é da Razer (ugh) 	16/09/2019, 13:25:58
1173634230020124672	gcandeias1	Nem man, o meu é esse	16/09/2019, 13:26:20
1173635633954336771	rbausch_1	Daora tb	16/09/2019, 13:31:54
1173637229828333570	LyciferC	razer n fazer eu querer comprar suas coisas pq eu n vou. USAR SAILOR MOON É GOLPE BAIXOOOOOOOOOOOOOO 	16/09/2019, 13:38:15
1173638214814523393	leoohollow	eu vi um desse no aliexpress, acho q n eh razer nao kkkkkkkj	16/09/2019, 13:42:10
1173638535821312006	jhony_bay	@AdalbertoKozow1 olha só	16/09/2019, 13:43:26
1173639882352332801	yMob_	Mousepad da Glorious, hyperglide, razer viper, mouse da Skoll e o resto eu não lembro	16/09/2019, 13:48:47
1173641012973101058	denissnider	Meu Razer Huntsman Elite, tá apagando e acendendo sozinho, pq deus?	16/09/2019, 13:53:17
1173643689974992896	MurilloHenn98	queria mesmo era uma torradeira da razer	16/09/2019, 14:03:55
1173643706412535810	Anaodejardimsni	Eu larguei mão da razer, teclado deles não durou 1 ano e meio, mouse foi quase 2 anos, teclado algumas teclas não funcionavam mais, mouse o sensor simplesmente estourou no meio de uma partida de Cs, razer nunca mais na moral mesmo	16/09/2019, 14:03:59
1173644208315555848	pbrayangn	tá escrito razer ali	16/09/2019, 14:05:59
1173645349925347328	AdalbertoKozow1	E o valor dessa porra? Kkkk	16/09/2019, 14:10:31
1173650255956578310	InsWes	O presente que eu sei que não vou ganhar nunca na minha vida é o patrocínio da Razer, da AMD ou da Corsair mas imagina um sonho desses	16/09/2019, 14:30:01
1173651611064971267	DeclanPunter	AGANE!	16/09/2019, 14:35:24
1173653611118845953	joaoPtrJ	Só um Razer Tartarus agr pra eu jogar meu lolzinho 100%	16/09/2019, 14:43:20
1173653839423135745	_MarcosMoraes	A questão é, pq razer?	16/09/2019, 14:44:15
1173657385359089666	iiikonik	vai pedir da HyperX... A razer não respeita mulher streamer	16/09/2019, 14:58:20
1173658655503323136	ocarlittle	Deus todo poderoso, tirai de mim essa vontade de comprar um Razer Panthera Evo	16/09/2019, 15:03:23
1173661648441282560	alinefarpas	gastar dinheiro cm razer é um desperdício	16/09/2019, 15:15:17
1173664203841753093	yuruyuriyuriyu	Razer	16/09/2019, 15:25:26
1173672825405792258	saiseulix	porra razer 	16/09/2019, 15:59:42
1173674618474905600	Pannoneeee	Vc consegue ver macros no razer synapse	16/09/2019, 16:06:49
1173678222434865158	Jigen_Oz	Cara.... Q vídeo foda, é um assunto mto importante que é pouco tratado hj em dia. Teve até um caso sobre isso recentemente que teve a razer envolvida, que se resume em td oq elas falaram. Parabéns Isac, continue assim	16/09/2019, 16:21:08
1173680832822857733	mcmypill	Pensa q tem o fone da Razer ali 	16/09/2019, 16:31:31
1173682798621802497	RazerBrazil	Está no ar o Aftermovie da final de Brawlhalla pela Razer Fighting League! Assista agora: http://youtu.be/oAcZ2lmgaPU 	16/09/2019, 16:39:19
1173685799486930944	felipebluna	Vai de Logitech, já tive razer / steelseries e atualmente estou com um Logitech e posso falar que deixa as outras marcas no chinelo.	16/09/2019, 16:51:15
1173692212921688069	SyndraXCX	Baixando o app da razer q vai melhorar o desempenho do pc, que as militantes não vejam. 	16/09/2019, 17:16:44
1173692890746408961	NiveK_MKV	no, es razer	16/09/2019, 17:19:25
1173693557657522176	Sir_Genexis	razer panthera	16/09/2019, 17:22:04
1173694312355454976	xuliawr	Kskdkskdkkfkf entendo, eu ja usei um fone da logitech, mas ele machucava minha orelha, ai troquei pro da razer dnv, mouse e teclado da logi nunca usei, qm sabe qndo esse quebrar eu n troco (tenho essa politica agra de so trocar qndo realmente n tiver funcionando)	16/09/2019, 17:25:04
1173694795799244800	balinhaazul_	pena q eh da razer 	16/09/2019, 17:27:00
1173698101506392064	joaozeus	Logitech e Corsair tem mouses bons. Razer não compro mais, é o pior em custo benefício, além de bugar muito o software deles.	16/09/2019, 17:40:08
1173705041645101056	moontyeon	MEU DEUS QUE GRACINHA????????? EU QUERO TUDO:( menos o headset da Razer lixão	16/09/2019, 18:07:42
1173705135412916227	safadsheaus	razer é osso mesmo, meu fone acabou de quebrar e olha que eu peguei ele com o maior cuidado.	16/09/2019, 18:08:05
1173705493581369344	lawrao_	galera vão no apple jack pra eu razer drinks fodas pra vcs e meu 10% contar no meu salário final de mês bjs	16/09/2019, 18:09:30
1173707475360591874	playragem	as orelinhas do fone que ta falando? se n me engano ja vi na kabum, é so pra razer eu acho	16/09/2019, 18:17:23
1173708065922781184	Zeero7	@kabumcombr comprei um teclado com vocês da Razer dia 26/04/2019 ele simplesmente parou de funcionar não liga nada. Alguém aí pode me ajudar ?	16/09/2019, 18:19:44
1173708592857456640	Emilyminhafilha	multilaser hehe, n vo apoiar o machismo comprando razer	16/09/2019, 18:21:49
1173716335966265344	jmleono24	!razer	16/09/2019, 18:52:35
1173726678721421313	fe16lipinho	Eu não vou NUNCA nada da Razer	16/09/2019, 19:33:41
1173728026103812097	muitoradioativo	fala razer to precisando de um headset gamer, jogar sem comunicação é complicado pode mandar um kraken chroma pra mim? responder = humilde	16/09/2019, 19:39:02
1173736170167160833	Brando11918	Razer ManO’War	16/09/2019, 20:11:24
1173737429007835142	lauradhor	quem diria consegui queimar um quite da RAZER, derramei água em cima do fone, mousepad e o mouse eu nem queria viver até os 17 mesmo	16/09/2019, 20:16:24
1173742434297294849	rafatlls	trabalhar p comprar meu headset da razer	16/09/2019, 20:36:18
1173743996629372928	_Igor_Moura_	Eu queria um mouse da razer mesmo	16/09/2019, 20:42:30
1173748061119635456	a_umebara	Soo quero esse fone da razer 	16/09/2019, 20:58:39
1173748198336278529	pwblobfr	tu tem razer e n ouve um passo fdp	16/09/2019, 20:59:12
