id	username	text	datetime
1167636166746812417	TavaresCrvg12	Era só a @RazerBrazil me mandando um mouse como pedidos de desculpa pelo meu que virou peso de papel	31/08/2019, 00:12:10
1167691706386587648	TeoAldino	 Ganhei 3 pin RazerGold @RazerBrazil na live da @wzuia é sorte ou não é ? Tudo isso por causa do RazerMeka	31/08/2019, 03:52:52
1167694522580709382	ghiu_bc	*-* Ganhei um Pin Razer Gold na live da zuzuia @wzuia @RazerBrazil 	31/08/2019, 04:04:03
1167701761127309313	sharkbrunao	Fala minha rapa Eu e Goken, junto da @RazerBrazil estaremos dia 04 no evento Gold XP e será sorteado algumas pessoas pra tá com a gente lá, vamos lá zoar, bater um game e tudo mais. Para participar do sorteio basta acessar o link: https://gleam.io/xagdc/razer-gold-xp	31/08/2019, 04:32:49
1167710677684957184	LP_Costa_	vlw ,vrauuuu	31/08/2019, 05:08:15
1167835937545621504	MatheusKMW	Dps disso tem como a @RazerBrazil ou a @ZOWIEeSportsBr mandarem um mouse novo pro @LUCAS1 ..... Pois esse mouse atual dele ta fazendo ele pular em hora q ñ pode, e já faz tempo. 	31/08/2019, 13:25:59
1167919997617922048	RazerBrazil	O Razer Cast já está disponível nas principais plataformas de streaming! Ouça agora : Spotify: http://rzr.to/BRCast-S YouTube: http://rzr.to/BRCast-YT Deezer: http://rzr.to/BRCast-D	31/08/2019, 19:00:00
