id	username	text	datetime
1120480993285214209	AriesaintGMS	"Sacanagem, nem para responder um ""não temos mais disponível""...isso que eu queria comprar, imagina se fosse reclamando de algo. EN: I asked if there are any store with that model in Brazil...no answer... @GFXCoach @ShoutRTs @blazedrts @krustplay @Razer @RazerBrazil"	22/04/2019, 21:14:20
1120483204501262336	breakingthatbad	Mano alguem tem aquele video antigo do fer PUTO falando q o fallen usa até o mousepad como tapete da razer?	22/04/2019, 21:23:08
1120485017854070784	breakingthatbad	''Vamos falar um pouco do henrique e do lucas né,pra começar os caras n são teem razer então ja começa por ai,a chance de eles terem sucesso ja ta ó no limite'' MIOASKKJSOIKJSOKSOSKOS	22/04/2019, 21:30:20
1120495467861872640	FOXDIE6117	Tomato head :) RAZER_PANDA”/	22/04/2019, 22:11:51
1120499007195885569	geneticmb	Razer	22/04/2019, 22:25:55
1120500276291616768	Amarelliinha	Amanhã vou na lojinha comprar um tecladinho de 5 conto, até juntar um troco e comprar um teclado mecânico novo (De preferência Razer pq 5 anos pra mim é tempo para dedéu) 	22/04/2019, 22:30:58
1120500922851962882	londarks	Vai comprar um da razer ?	22/04/2019, 22:33:32
1120503338158702594	anarcapeta	uma foto sua de sunga da razer	22/04/2019, 22:43:08
1120507500095246338	fineheroi	Não posso razer nada se eu sou tão popular 	22/04/2019, 22:59:40
1120508107896041473	llobateres	Análisis del arcade stick Razer Phantera EVO para PS4 - 	22/04/2019, 23:02:05
1120510257707528194	dovaninho	TA EU QUERO MUITO ESSA PULSEIRA DA TWITCH PQ É MUITO BONITA PRA COMBAR COM A DA RAZER	22/04/2019, 23:10:38
1120534855081766913	xdelosreyesx	Razer	23/04/2019, 00:48:22
1120545597918986240	laserlaukon1	Razer Logo	23/04/2019, 01:31:03
1120585905960640512	Its_Relent	Razer	23/04/2019, 04:11:14
1120588649727496193	LordDriss	Razer	23/04/2019, 04:22:08
1120598457851445248	teambabu22	Porra foda menor quebrei meu mouse da razer fui ve a porra da gaveta so tinha da apple tmnc	23/04/2019, 05:01:06
1120604688150216704	JoeStallz	Divoom Aurabox	23/04/2019, 05:25:52
1120609788973314048	RawaFardeen	Razer?	23/04/2019, 05:46:08
1120617675724656640	Idatito1	Amanhã é mais um dia em casa seem Razer quase nd** 	23/04/2019, 06:17:28
1120618786774822912	amelieguilllard	O MEU MOUSE CAIU NO CHÃO E QUEBROU NO MEIO DA MINHA SOFRIDA MD3 KKKKKKKKKKKKKKKKK RAZER EU TE ODEIO DEMAIS	23/04/2019, 06:21:53
1120639424478445568	Oswaldo_DeSouza	Aquele RAZER que tem sensor óptico (é o melhor tipo de sensor da atualidade) não lembro o modelo específico	23/04/2019, 07:43:53
1120647417576218625	Tobi_The_Gamer	Razer Ornata	23/04/2019, 08:15:39
1120650191189753856	FeelllBody	razer	23/04/2019, 08:26:40
1120663873080778752	MapaBirolin	Alguem que queria comprar um teclado hustman elite da razer só chamar	23/04/2019, 09:21:02
1120676692673138688	BARRETO_et_al	Razer 	23/04/2019, 10:11:59
1120683620874772481	erenjaegerrx	será q quantos pão com ovo tenho q comer pra poder comprar um pc gamer, headset razer, uma jbl bonitinha e uma cadeira da alpha rosa com branco?	23/04/2019, 10:39:31
1120685808405577728	maxifanelli	Review Razer Essential + #SORTEO | Basilisk - Abyssus - DeathAdder https://youtu.be/5AG9s5W5vLc vía @RazerLatino	23/04/2019, 10:48:12
1120696461174497280	Cr210	que os parece Razer para unos cascos?	23/04/2019, 11:30:32
1120698543487037440	ProfesionalRev	Razer presenta su portátil Razer Blade Pro 17 http://bit.ly/2IHvtWL	23/04/2019, 11:38:48
1120705777688141825	hl_erk	Razer	23/04/2019, 12:07:33
1120711139552182272	Lapin_fps	Razer 	23/04/2019, 12:28:52
1120713731481251840	PCMGames	Razer anuncia el Razer Blade Pro 17 https://www.pcmgames.com/razer-anuncia-el-razer-blade-pro-17/	23/04/2019, 12:39:10
1120717866305671170	ihernandezvega	Vamos razer. 	23/04/2019, 12:55:35
1120718079678406656	Hexxme	É o novo spinoff da NES, o RES: Razer Entertainment System.	23/04/2019, 12:56:26
1120729649712181248	EuSouOGoku	Razer anuncia novos Blade 15 e Pro 17 com 9ª geração da família Intel Core e série GeForce RTX 20 	23/04/2019, 13:42:25
1120734594909839360	pirmax	Le Razer #Blade Pro 17 est disponible ! #OrdinateurPortable #Design #ConnectivitéÉcologique #Port #MontageVidéo via @actu_jv	23/04/2019, 14:02:04
1120736043173543937	gm_ngfhkwd	MANO O MICROFONE DA RAZER É HORRIVEL MEU DEUS DO CEU MEU OUVIDO TA SANGRANDO JESUS AMADO O DO IPHONE É MELHOR MANO	23/04/2019, 14:07:49
1120736287017848833	Myzzilol	Esse mousepad e o teclado rosa da razer e mt bonito pqp	23/04/2019, 14:08:47
1120741275051991041	gm_ngfhkwd	e quero jogar meu pc** ela gravou com um mic da razer	23/04/2019, 14:28:36
1120745548770889728	DiegoCarminati4	Preciso de headset novo, e principalmente ele não pode ser da razer	23/04/2019, 14:45:35
1120746030079840256	PaulTesMoche	@TharrosM j’ai la foi bg	23/04/2019, 14:47:30
1120754755817693189	Meluzia_	ma soeur: *touche ma cpl* CPL: *meurt* Ma soeur: *touche ma souris razer* Souriz razer: *meurt* Pote à ma soeur: *touchent joy con gauche* joy con gauche: *meurt*	23/04/2019, 15:22:11
1120757671924248586	Orbitalmx	https://www.facebook.com/orbital.mx/photos/a.281377565254888/2347502965308994/?type=3 Galeria de Hardware por #Razer Presentada por http://orbital.mx ¡Visitanos!	23/04/2019, 15:33:46
1120760038916751361	rafaelgomesx	ashduahsudhausdhu vc viu ele jogando a esl? dando bala pra krl... tu acho que se ele estivesse com um razer chroma ele iria dar mais bala ainda?? hsudhuashduhasudhau ele jogou muito bem os 2 camp com esse teclado.	23/04/2019, 15:43:10
1120760868554330112	guedewilliam	Vou te alertar de algo muito importante NADA da RAZER presta nadaaaaa tudo tem um valor alto sem motivos, um teclado de 300 reais da razer e um teclado de 300 reais da logitch/hyperx... Sempre vai ser muito inferior a razer além da durabilidade péssima	23/04/2019, 15:46:28
1120782133679853570	_ALEMANHA	2014 essa foto.... foi entre começo de fevereiro e começo de março pq eu ja to com o mouse da razer mas sem o mousepad da razer	23/04/2019, 17:10:58
1120788270236020736	joaofernandesd9	tem para teste em curso que estamos fazendo programador web com @MartaRobertaWD como docente seria ótimo testar a responsividade de nossos site com essa tecnologia juntamente com @gabrielsepsa	23/04/2019, 17:35:21
1120796253128933376	lusckf	Esse headset é da razer ?	23/04/2019, 18:07:04
1120799281898717185	WeavenBans	Jogador banido: EuPeido6CheraGod Banido por: Encryptedx00x Motivo: Razer synapse com edição recente (Macro) e Null client Servidor: http://screenshare.weavenmc.com.br	23/04/2019, 18:19:06
1120809384647507979	icePenguim	Quem puder dar aquele //RT humilde Razer Ornata, porque estou precisando urgente de dinheiro!! Ele esta em um otimo estado, o unico porem é o apoio de pulso que esta desgastado pelo tempo de uso! Interresados chama na DM!! 	23/04/2019, 18:59:15
1120817223545827328	bandefelipe	@marchwill entre os novos MSI P65 Creator e o Razer Mercury White ambos com Intel de 9ª geração (MSI: i9-9880H, Razer: i7-9750H) e RTX 2070 Max-Q qual você escolheria ? Abraço	23/04/2019, 19:30:24
1120818785127157760	marchwill	Baseado no meu histórico de dores de cabeça com Razer, MSI logo de cara.	23/04/2019, 19:36:36
1120828366729486336	dr_mods	"Sempre que recebo um e-mail da Razer começa sempre com ""Hey Ramos"" xD"	23/04/2019, 20:14:41
